%!PS-Adobe-3.0 EPSF-3.0
%%Creator: cairo 1.16.0 (https://cairographics.org)
%%CreationDate: Thu Nov 14 08:46:24 2019
%%Pages: 1
%%DocumentData: Clean7Bit
%%LanguageLevel: 2
%%BoundingBox: 0 0 384 384
%%EndComments
%%BeginProlog
50 dict begin
/q { gsave } bind def
/Q { grestore } bind def
/cm { 6 array astore concat } bind def
/w { setlinewidth } bind def
/J { setlinecap } bind def
/j { setlinejoin } bind def
/M { setmiterlimit } bind def
/d { setdash } bind def
/m { moveto } bind def
/l { lineto } bind def
/c { curveto } bind def
/h { closepath } bind def
/re { exch dup neg 3 1 roll 5 3 roll moveto 0 rlineto
      0 exch rlineto 0 rlineto closepath } bind def
/S { stroke } bind def
/f { fill } bind def
/f* { eofill } bind def
/n { newpath } bind def
/W { clip } bind def
/W* { eoclip } bind def
/BT { } bind def
/ET { } bind def
/BDC { mark 3 1 roll /BDC pdfmark } bind def
/EMC { mark /EMC pdfmark } bind def
/cairo_store_point { /cairo_point_y exch def /cairo_point_x exch def } def
/Tj { show currentpoint cairo_store_point } bind def
/TJ {
  {
    dup
    type /stringtype eq
    { show } { -0.001 mul 0 cairo_font_matrix dtransform rmoveto } ifelse
  } forall
  currentpoint cairo_store_point
} bind def
/cairo_selectfont { cairo_font_matrix aload pop pop pop 0 0 6 array astore
    cairo_font exch selectfont cairo_point_x cairo_point_y moveto } bind def
/Tf { pop /cairo_font exch def /cairo_font_matrix where
      { pop cairo_selectfont } if } bind def
/Td { matrix translate cairo_font_matrix matrix concatmatrix dup
      /cairo_font_matrix exch def dup 4 get exch 5 get cairo_store_point
      /cairo_font where { pop cairo_selectfont } if } bind def
/Tm { 2 copy 8 2 roll 6 array astore /cairo_font_matrix exch def
      cairo_store_point /cairo_font where { pop cairo_selectfont } if } bind def
/g { setgray } bind def
/rg { setrgbcolor } bind def
/d1 { setcachedevice } bind def
/cairo_data_source {
  CairoDataIndex CairoData length lt
    { CairoData CairoDataIndex get /CairoDataIndex CairoDataIndex 1 add def }
    { () } ifelse
} def
/cairo_flush_ascii85_file { cairo_ascii85_file status { cairo_ascii85_file flushfile } if } def
/cairo_image { image cairo_flush_ascii85_file } def
/cairo_imagemask { imagemask cairo_flush_ascii85_file } def
%%EndProlog
%%BeginSetup
%%EndSetup
%%Page: 1 1
%%BeginPageSetup
%%PageBoundingBox: 0 0 384 384
%%EndPageSetup
q 0 0 384 384 rectclip
1 0 0 -1 0 384 cm q
0.92549 0.764706 0.180392 rg
384 192 m 384 253.441 355.141 308.137 310.238 343.281 c 281.715 365.602
 246.727 380.031 208.551 383.297 c 203.102 383.762 197.578 384 192 384 c
 191.992 384 l 186.422 384 180.898 383.762 175.441 383.297 c 137.258 380.039
 102.262 365.602 73.746 343.266 c 28.852 308.121 0 253.434 0 192 c 0 85.965
 85.965 0 192 0 c 298.035 0 384 85.965 384 192 c h
384 192 m f
0.964706 0.945098 0.945098 rg
281.598 294.922 m 273.832 300.133 265.59 304.688 256.945 308.492 c 250.246
 311.449 243.305 313.969 236.164 315.992 c 222.137 319.988 207.32 322.129
 192 322.129 c 176.688 322.129 161.871 319.988 147.832 316 c 143.277 314.703
 138.797 313.207 134.414 311.52 c 134.145 311.418 133.871 311.316 133.602
 311.211 c 131.395 310.355 129.211 309.441 127.051 308.492 c 118.406 304.68
 110.164 300.133 102.395 294.914 c 108.934 285.875 117.344 278.289 127.051
 272.695 c 133.469 269 140.453 266.188 147.832 264.422 c 148.973 264.145
 150.121 263.891 151.281 263.672 c 153.465 263.246 155.684 262.918 157.93
 262.684 c 158.578 262.617 159.223 262.551 159.875 262.504 c 162 262.324
 164.152 262.238 166.332 262.238 c 217.664 262.238 l 220.508 262.238 223.305
 262.391 226.062 262.68 c 228.309 262.91 230.523 263.246 232.711 263.66 
c 233.586 263.828 234.457 264.012 235.316 264.207 c 235.602 264.285 235.891
 264.34 236.168 264.414 c 243.555 266.191 250.531 269 256.949 272.695 c 
266.652 278.297 275.059 285.883 281.598 294.922 c h
281.598 294.922 m f
0.87451 0.917647 0.937255 rg
166.332 262.238 m 147.859 262.238 135.34 288.934 134.414 311.52 c 134.145
 311.418 133.871 311.32 133.602 311.211 c 131.395 310.355 129.211 309.445
 127.051 308.492 c 118.406 304.68 110.164 300.133 102.395 294.918 c 108.934
 285.875 117.344 278.289 127.051 272.695 c 133.469 269 140.453 266.188 147.832
 264.422 c 148.973 264.145 150.121 263.895 151.281 263.672 c 153.465 263.246
 155.684 262.918 157.93 262.684 c 158.578 262.617 159.223 262.555 159.875
 262.504 c 162 262.328 164.152 262.238 166.332 262.238 c h
166.332 262.238 m f
191.992 294.516 m 158.652 313.043 l 148.508 262.723 l 169.227 253.664 l
 f
191.992 294.516 m 225.332 313.043 l 235.473 262.723 l 214.758 253.664 l
 f
0.917647 0.67451 0.615686 rg
220.125 231.871 m 220.125 266.391 l 220.125 279.027 211.793 289.711 200.316
 293.258 c 197.688 294.074 194.887 294.516 191.992 294.516 c 176.457 294.516
 163.867 281.926 163.867 266.391 c 163.867 231.871 l h
220.125 231.871 m f
1 0.796078 0.745098 rg
220.125 264.203 m 220.125 266.391 l 220.125 279.027 211.793 289.711 200.316
 293.258 c 189.957 290.074 182.172 281.07 180.734 270.051 c 182.613 270.168
 184.504 270.227 186.402 270.227 c 191.723 270.227 196.938 269.805 202.023
 268.969 c 208.285 267.961 214.336 266.352 220.125 264.203 c h
220.125 264.203 m f
114.324 175.004 m 114.324 187.898 104.906 198.59 92.57 200.578 c 91.223
 200.793 89.836 200.91 88.418 200.91 c 74.109 200.91 62.516 189.312 62.516
 175.004 c 62.516 160.691 74.109 149.098 88.418 149.098 c 89.836 149.098
 91.223 149.211 92.57 149.43 c 104.906 151.414 114.324 162.109 114.324 175.004
 c h
114.324 175.004 m f
0.917647 0.67451 0.615686 rg
114.324 175.004 m 114.324 187.898 104.906 198.59 92.57 200.578 c 90.328
 192.43 89.133 183.855 89.133 175.004 c 89.133 166.152 90.328 157.578 92.57
 149.43 c 104.906 151.414 114.324 162.109 114.324 175.004 c h
114.324 175.004 m f
97.68 175.004 m 97.68 180.117 93.535 184.262 88.418 184.262 c 83.305 184.262
 79.16 180.117 79.16 175.004 c 79.16 169.891 83.305 165.746 88.418 165.746
 c 93.535 165.746 97.68 169.891 97.68 175.004 c h
97.68 175.004 m f
1 0.796078 0.745098 rg
269.668 175.004 m 269.668 187.898 279.086 198.59 291.422 200.578 c 292.77
 200.793 294.156 200.91 295.57 200.91 c 309.883 200.91 321.477 189.312 321.477
 175.004 c 321.477 160.691 309.883 149.098 295.57 149.098 c 294.156 149.098
 292.77 149.211 291.422 149.43 c 279.086 151.414 269.668 162.109 269.668
 175.004 c h
269.668 175.004 m f
0.917647 0.67451 0.615686 rg
269.668 175.004 m 269.668 187.898 279.086 198.59 291.422 200.578 c 293.664
 192.43 294.859 183.855 294.859 175.004 c 294.859 166.152 293.664 157.578
 291.422 149.43 c 279.086 151.414 269.668 162.109 269.668 175.004 c h
269.668 175.004 m f
304.832 175.004 m 304.832 180.117 300.684 184.262 295.57 184.262 c 290.457
 184.262 286.312 180.117 286.312 175.004 c 286.312 169.891 290.457 165.746
 295.57 165.746 c 300.684 165.746 304.832 169.891 304.832 175.004 c h
304.832 175.004 m f
1 0.796078 0.745098 rg
289.324 161.387 m 289.324 209.82 253.941 250 207.617 257.461 c 202.535 
258.297 197.316 258.719 191.996 258.719 c 138.238 258.719 94.664 215.145
 94.664 161.387 c 94.664 62.297 l 289.324 62.297 l h
289.324 161.387 m f
0.917647 0.67451 0.615686 rg
209.141 257.207 m 208.637 257.293 208.125 257.383 207.617 257.465 c 202.535
 258.293 197.316 258.715 191.996 258.715 c 138.242 258.715 94.668 215.148
 94.668 161.387 c 94.668 62.297 l 128.988 62.297 l 128.988 161.387 l 128.984
 209.289 163.578 249.098 209.141 257.207 c h
209.141 257.207 m f
0.184314 0.215686 0.231373 rg
289.324 149.859 m 285.215 88.301 l 223.73 109.125 182.777 118.957 156.801
 114.52 c 193.211 107.562 203.727 84.57 203.727 84.57 c 203.727 84.57 179.863
 99.984 154.039 105.117 c 141.926 107.52 129.629 101.262 124.777 89.898 
c 124.742 89.84 124.715 89.77 124.691 89.707 c 124.691 89.707 125.27 149.859
 94.664 149.859 c 94.664 149.859 53.461 14.547 118.574 33.773 c 118.574 
33.773 137.406 16.477 165.523 6.645 c 165.629 6.609 165.734 6.574 165.848
 6.531 c 166.152 6.418 166.465 6.312 166.781 6.215 c 167.113 6.113 167.43
 6.008 167.727 5.902 c 197.457 -3.906 236.953 -4.926 275.453 30.715 c 351.926
 101.504 289.324 149.859 289.324 149.859 c h
289.324 149.859 m f
0.0941176 0.117647 0.129412 rg
154.039 105.113 m 141.926 107.52 129.629 101.262 124.777 89.898 c 124.742
 89.836 124.719 89.766 124.691 89.707 c 124.691 89.707 125.273 149.859 94.664
 149.859 c 94.664 149.859 53.465 14.547 118.574 33.773 c 118.574 33.773 
137.406 16.477 165.523 6.645 c 126.938 20.699 137.109 105.113 154.039 105.113
 c h
154.039 105.113 m f
0.87451 0.576471 0.501961 rg
191.996 223.863 m 183.848 223.863 175.695 221.82 168.266 217.734 c 166.172
 216.586 165.406 213.953 166.559 211.855 c 167.711 209.762 170.344 208.996
 172.438 210.148 c 184.684 216.879 199.309 216.879 211.555 210.148 c 213.648
 208.996 216.281 209.762 217.434 211.855 c 218.586 213.953 217.82 216.586
 215.727 217.734 c 208.297 221.82 200.145 223.863 191.996 223.863 c h
191.996 223.863 m f
0.917647 0.67451 0.615686 rg
203.035 194.773 m 180.957 194.773 l 178.324 194.773 176.191 192.641 176.191
 190.012 c 176.191 187.379 178.324 185.246 180.957 185.246 c 203.035 185.246
 l 205.668 185.246 207.801 187.379 207.801 190.012 c 207.801 192.641 205.668
 194.773 203.035 194.773 c h
203.035 194.773 m f
207.941 168.012 m 207.941 178.812 216.695 187.566 227.496 187.566 c 238.297
 187.566 247.051 178.812 247.051 168.012 c f
0.184314 0.215686 0.231373 rg
241.52 168.012 m 241.52 175.758 235.238 182.035 227.496 182.035 c 219.75
 182.035 213.473 175.758 213.473 168.012 c 213.473 160.27 219.75 153.992
 227.496 153.992 c 235.238 153.992 241.52 160.27 241.52 168.012 c h
241.52 168.012 m f
1 g
239.348 165.539 m 239.348 168.855 236.656 171.547 233.34 171.547 c 230.02
 171.547 227.332 168.855 227.332 165.539 c 227.332 162.219 230.02 159.531
 233.34 159.531 c 236.656 159.531 239.348 162.219 239.348 165.539 c h
239.348 165.539 m f
0.917647 0.67451 0.615686 rg
136.941 168.012 m 136.941 178.812 145.695 187.566 156.496 187.566 c 167.297
 187.566 176.051 178.812 176.051 168.012 c f
0.184314 0.215686 0.231373 rg
170.52 168.012 m 170.52 175.758 164.242 182.035 156.496 182.035 c 148.754
 182.035 142.473 175.758 142.473 168.012 c 142.473 160.27 148.754 153.992
 156.496 153.992 c 164.242 153.992 170.52 160.27 170.52 168.012 c h
170.52 168.012 m f
0.0941176 0.117647 0.129412 rg
159.777 181.648 m 158.727 181.906 157.625 182.035 156.496 182.035 c 148.754
 182.035 142.473 175.758 142.473 168.012 c 142.473 160.27 148.754 153.988
 156.496 153.988 c 157.625 153.988 158.727 154.121 159.777 154.379 c 153.609
 155.852 149.035 161.402 149.035 168.012 c 149.035 174.625 153.609 180.176
 159.777 181.648 c h
159.777 181.648 m f
230.773 181.648 m 229.723 181.906 228.625 182.035 227.496 182.035 c 219.754
 182.035 213.473 175.758 213.473 168.012 c 213.473 160.27 219.754 153.988
 227.496 153.988 c 228.625 153.988 229.723 154.121 230.773 154.379 c 224.609
 155.852 220.035 161.402 220.035 168.012 c 220.035 174.625 224.609 180.176
 230.773 181.648 c h
230.773 181.648 m f
1 g
168.348 165.539 m 168.348 168.855 165.656 171.547 162.34 171.547 c 159.023
 171.547 156.332 168.855 156.332 165.539 c 156.332 162.219 159.023 159.531
 162.34 159.531 c 165.656 159.531 168.348 162.219 168.348 165.539 c h
168.348 165.539 m f
0.964706 0.945098 0.945098 rg
191.992 254.926 m 191.992 384 l 186.422 384 180.898 383.762 175.441 383.297
 c 137.258 380.039 102.262 365.602 73.746 343.266 c 73.746 262.215 l 73.746
 249.316 84.203 238.852 97.109 238.852 c 175.922 238.852 l 184.793 238.852
 191.992 246.051 191.992 254.926 c h
191.992 254.926 m f
0.87451 0.917647 0.937255 rg
101.73 238.852 m 101.73 336.684 l 73.746 336.684 l 73.746 262.215 l 73.746
 249.316 84.203 238.852 97.109 238.852 c h
101.73 238.852 m f
0.964706 0.945098 0.945098 rg
310.238 273.465 m 310.238 343.281 l 281.715 365.602 246.727 380.031 208.551
 383.297 c 203.102 383.762 197.578 384 192 384 c 191.992 384 l 191.992 253.977
 l 191.992 251.84 193.727 250.102 195.867 250.102 c 286.875 250.102 l 299.777
 250.102 310.238 260.562 310.238 273.465 c h
310.238 273.465 m f
0.4 0.705882 0.615686 rg
191.992 253.664 m 191.992 384 l 147.391 384 106.336 368.789 73.746 343.266
 c 73.746 277.027 l 73.746 264.129 84.203 253.664 97.109 253.664 c h
191.992 253.664 m f
0.501961 0.886275 0.615686 rg
310.238 277.027 m 310.238 343.281 l 277.641 368.789 236.594 384 192 384
 c 191.992 384 l 191.992 253.664 l 286.875 253.664 l 299.773 253.664 310.238
 264.129 310.238 277.027 c h
310.238 277.027 m f
0.117647 0.517647 0.439216 rg
208.551 253.664 m 208.551 383.297 l 203.102 383.762 197.578 384 192 384
 c 191.992 384 l 186.422 384 180.898 383.762 175.441 383.297 c 175.441 253.664
 l h
208.551 253.664 m f
0.92549 0.764706 0.180392 rg
175.441 268.512 33.105 14.844 re f
283.254 302.73 m 233.406 302.73 l 228.746 302.73 224.965 298.949 224.965
 294.285 c 224.965 281.25 l 224.965 276.586 228.746 272.805 233.406 272.805
 c 283.254 272.805 l 287.918 272.805 291.699 276.586 291.699 281.25 c 291.699
 294.285 l 291.699 298.949 287.918 302.73 283.254 302.73 c h
283.254 302.73 m f
0.184314 0.215686 0.231373 rg
234.715 287.766 m 234.715 284.891 237.047 282.555 239.926 282.555 c 276.738
 282.555 l 279.617 282.555 281.949 284.891 281.949 287.766 c 281.949 290.645
 279.617 292.98 276.738 292.98 c 239.926 292.98 l 237.047 292.98 234.715
 290.645 234.715 287.766 c h
234.715 287.766 m f
0.92549 0.764706 0.180392 rg
175.441 294.516 33.105 14.844 re f
Q Q
showpage
%%Trailer
end
%%EOF
