%!PS-Adobe-3.0 EPSF-3.0
%%Creator: cairo 1.16.0 (https://cairographics.org)
%%CreationDate: Thu Nov 14 08:46:24 2019
%%Pages: 1
%%DocumentData: Clean7Bit
%%LanguageLevel: 2
%%BoundingBox: 0 0 384 384
%%EndComments
%%BeginProlog
50 dict begin
/q { gsave } bind def
/Q { grestore } bind def
/cm { 6 array astore concat } bind def
/w { setlinewidth } bind def
/J { setlinecap } bind def
/j { setlinejoin } bind def
/M { setmiterlimit } bind def
/d { setdash } bind def
/m { moveto } bind def
/l { lineto } bind def
/c { curveto } bind def
/h { closepath } bind def
/re { exch dup neg 3 1 roll 5 3 roll moveto 0 rlineto
      0 exch rlineto 0 rlineto closepath } bind def
/S { stroke } bind def
/f { fill } bind def
/f* { eofill } bind def
/n { newpath } bind def
/W { clip } bind def
/W* { eoclip } bind def
/BT { } bind def
/ET { } bind def
/BDC { mark 3 1 roll /BDC pdfmark } bind def
/EMC { mark /EMC pdfmark } bind def
/cairo_store_point { /cairo_point_y exch def /cairo_point_x exch def } def
/Tj { show currentpoint cairo_store_point } bind def
/TJ {
  {
    dup
    type /stringtype eq
    { show } { -0.001 mul 0 cairo_font_matrix dtransform rmoveto } ifelse
  } forall
  currentpoint cairo_store_point
} bind def
/cairo_selectfont { cairo_font_matrix aload pop pop pop 0 0 6 array astore
    cairo_font exch selectfont cairo_point_x cairo_point_y moveto } bind def
/Tf { pop /cairo_font exch def /cairo_font_matrix where
      { pop cairo_selectfont } if } bind def
/Td { matrix translate cairo_font_matrix matrix concatmatrix dup
      /cairo_font_matrix exch def dup 4 get exch 5 get cairo_store_point
      /cairo_font where { pop cairo_selectfont } if } bind def
/Tm { 2 copy 8 2 roll 6 array astore /cairo_font_matrix exch def
      cairo_store_point /cairo_font where { pop cairo_selectfont } if } bind def
/g { setgray } bind def
/rg { setrgbcolor } bind def
/d1 { setcachedevice } bind def
/cairo_data_source {
  CairoDataIndex CairoData length lt
    { CairoData CairoDataIndex get /CairoDataIndex CairoDataIndex 1 add def }
    { () } ifelse
} def
/cairo_flush_ascii85_file { cairo_ascii85_file status { cairo_ascii85_file flushfile } if } def
/cairo_image { image cairo_flush_ascii85_file } def
/cairo_imagemask { imagemask cairo_flush_ascii85_file } def
%%EndProlog
%%BeginSetup
%%EndSetup
%%Page: 1 1
%%BeginPageSetup
%%PageBoundingBox: 0 0 384 384
%%EndPageSetup
q 0 0 384 384 rectclip
1 0 0 -1 0 384 cm q
0.737255 0.584314 0.886275 rg
384 192 m 384 219.391 378.262 245.438 367.926 269.012 c 361.746 283.109
 353.926 296.316 344.691 308.406 c 340.418 314.016 335.836 319.371 330.984
 324.465 c 325.012 330.727 318.629 336.578 311.871 341.984 c 279.023 368.273
 237.344 384 192 384 c 146.656 384 104.977 368.273 72.129 341.984 c 65.371
 336.578 58.988 330.727 53.016 324.465 c 50.586 321.914 48.219 319.289 45.93
 316.605 c 45.93 316.605 45.93 316.605 45.922 316.598 c 44.797 315.285 43.688
 313.949 42.602 312.609 c 41.484 311.227 40.387 309.824 39.309 308.406 c
 36.922 305.281 34.629 302.078 32.43 298.801 c 26.137 289.418 20.656 279.457
 16.074 269.012 c 5.738 245.438 0 219.391 0 192 c 0 164.609 5.738 138.562
 16.074 114.984 c 19.996 106.043 24.57 97.461 29.754 89.301 c 48.105 60.367
 73.973 36.684 104.625 20.992 c 130.828 7.574 160.531 0 192 0 c 223.469 
0 253.172 7.574 279.375 20.992 c 318.676 41.109 350.121 74.379 367.926 114.984
 c 378.262 138.562 384 164.609 384 192 c h
384 192 m f
0.92549 0.764706 0.180392 rg
367.926 61.266 m 367.926 269.012 l 361.746 283.109 353.926 296.316 344.691
 308.406 c 340.418 314.016 335.836 319.371 330.984 324.465 c 329.887 324.562
 328.777 324.609 327.652 324.609 c 56.348 324.609 l 55.223 324.609 54.113
 324.562 53.016 324.465 c 48.164 319.371 43.582 314.016 39.309 308.406 c
 30.074 296.316 22.254 283.109 16.074 269.012 c 16.074 61.266 l 16.074 39.023
 34.102 20.992 56.348 20.992 c 327.652 20.992 l 349.898 20.992 367.926 39.023
 367.926 61.266 c h
367.926 61.266 m f
0.905882 0.647059 0.180392 rg
45.93 316.605 m 52.648 321.629 60.988 324.609 70.027 324.609 c 56.34 324.609
 l 55.223 324.609 54.113 324.562 53.016 324.465 c 50.586 321.914 48.219 
319.289 45.93 316.605 c h
45.93 316.605 m f
29.754 284.332 m 29.754 289.434 30.699 294.316 32.43 298.801 c 26.137 289.418
 20.656 279.457 16.074 269.012 c 16.074 61.266 l 16.074 39.023 34.102 20.992
 56.34 20.992 c 70.027 20.992 l 47.781 20.992 29.754 39.023 29.754 61.266
 c h
29.754 284.332 m f
56.344 294.609 m 50.68 294.609 46.074 290 46.074 284.336 c 46.074 61.266
 l 46.074 55.602 50.68 50.992 56.344 50.992 c 327.656 50.992 l 333.32 50.992
 337.926 55.602 337.926 61.266 c 337.926 284.336 l 337.926 290 333.32 294.609
 327.656 294.609 c h
56.344 294.609 m f
0.4 0.705882 0.615686 rg
56.344 285.609 m 55.656 285.609 55.074 285.027 55.074 284.336 c 55.074 
61.266 l 55.074 60.574 55.656 59.992 56.344 59.992 c 327.656 59.992 l 328.344
 59.992 328.926 60.574 328.926 61.266 c 328.926 284.336 l 328.926 285.027
 328.344 285.609 327.656 285.609 c h
56.344 285.609 m f
0.501961 0.886275 0.615686 rg
70.027 132.914 m 101.109 89.582 128.398 65.449 151.434 74.258 c 174.465
 83.066 134.051 115.535 151.434 132.914 c 168.812 150.293 240.91 58.852 
268.285 72.426 c 295.66 86 247.602 137.008 259.078 148.488 c 270.559 159.969
 299.977 128.176 312.789 140.988 c 325.598 153.797 277.461 212.188 290.535
 225.262 c 303.609 238.336 313.215 224.145 321.07 236.684 c 328.926 249.223
 255.562 289.395 244.547 278.379 c 233.535 267.363 259.492 232.762 244.547
 217.82 c 229.605 202.875 169.805 287.109 157.59 274.895 c 145.371 262.676
 171.344 208.59 160.781 198.023 c 150.215 187.461 107.324 271.727 91.199
 256.266 c 75.074 240.801 124.465 159.488 95.004 169.719 c 56.055 183.246
 60.395 146.344 70.027 132.914 c h
70.027 132.914 m f
0.964706 0.945098 0.945098 rg
86.598 231.414 m 84.973 231.012 l 81.441 230.133 77.867 232.281 76.988 
235.809 c 68.523 269.793 l 67.645 273.324 69.793 276.895 73.32 277.777 c
 74.945 278.18 l 78.477 279.059 82.051 276.91 82.93 273.383 c 91.398 239.398
 l 92.277 235.867 90.129 232.293 86.598 231.414 c h
86.598 231.414 m f
0.87451 0.917647 0.937255 rg
76.805 278.375 m 76.195 278.398 75.566 278.336 74.949 278.184 c 73.32 277.777
 l 69.789 276.895 67.641 273.324 68.52 269.793 c 76.988 235.809 l 77.867
 232.277 81.441 230.129 84.969 231.012 c 86.602 231.418 l 87.219 231.57 
87.801 231.809 88.328 232.117 c 85.477 232.234 82.93 234.203 82.207 237.109
 c 73.738 271.094 l 73.016 274 74.34 276.934 76.805 278.375 c h
76.805 278.375 m f
0.964706 0.945098 0.945098 rg
73.348 240.098 m 71.723 239.691 l 68.191 238.812 64.617 240.961 63.738 
244.492 c 55.27 278.477 l 54.391 282.004 56.539 285.578 60.07 286.457 c 
61.695 286.863 l 65.227 287.742 68.801 285.594 69.68 282.066 c 78.145 248.082
 l 79.023 244.551 76.875 240.977 73.348 240.098 c h
73.348 240.098 m f
0.87451 0.917647 0.937255 rg
63.551 287.055 m 62.941 287.082 62.316 287.02 61.699 286.867 c 60.066 286.457
 l 56.539 285.578 54.391 282.008 55.27 278.477 c 63.738 244.492 l 64.617
 240.961 68.188 238.812 71.719 239.691 c 73.348 240.102 l 73.969 240.254
 74.551 240.492 75.074 240.801 c 72.227 240.918 69.68 242.887 68.953 245.789
 c 60.488 279.777 l 59.766 282.68 61.09 285.617 63.551 287.055 c h
63.551 287.055 m f
0.964706 0.945098 0.945098 rg
48.359 234.992 m 46.695 235.199 l 43.086 235.645 40.52 238.93 40.965 242.539
 c 45.246 277.301 l 45.691 280.91 48.98 283.477 52.59 283.031 c 54.254 282.828
 l 57.863 282.383 60.43 279.094 59.984 275.484 c 55.699 240.727 l 55.258
 237.117 51.969 234.551 48.359 234.992 c h
48.359 234.992 m f
0.87451 0.917647 0.937255 rg
56.055 282.344 m 55.496 282.586 54.887 282.75 54.254 282.828 c 52.586 283.035
 l 48.977 283.477 45.691 280.914 45.246 277.305 c 40.965 242.539 l 40.52
 238.93 43.086 235.645 46.695 235.199 c 48.363 234.992 l 48.996 234.914 
49.625 234.93 50.227 235.027 c 47.605 236.16 45.934 238.914 46.301 241.883
 c 50.582 276.645 l 50.949 279.617 53.238 281.879 56.055 282.344 c h
56.055 282.344 m f
0.184314 0.215686 0.231373 rg
87.383 255.086 m 87.383 312.609 l 42.602 312.609 l 41.484 311.227 40.387
 309.824 39.309 308.406 c 39.309 255.086 l h
87.383 255.086 m f
0.964706 0.945098 0.945098 rg
336.945 316.605 m 332.961 318.27 322.246 318.344 312.164 317.961 c 301.207
 317.551 291.008 316.605 291.008 316.605 c 266.086 310.801 265.059 302.641
 271.941 295.746 c 276.652 291.039 296.707 279.008 312.766 275.73 c 320.199
 274.215 326.773 274.566 330.586 278.379 c 342.645 290.438 345.246 313.125
 336.945 316.605 c h
336.945 316.605 m f
0.87451 0.917647 0.937255 rg
312.164 317.961 m 301.207 317.551 291.008 316.605 291.008 316.605 c 266.086
 310.801 265.059 302.641 271.941 295.746 c 276.652 291.039 296.707 279.008
 312.766 275.73 c 312.789 275.73 l 299.203 280.012 290.055 300.609 308.852
 312.609 c 311.684 314.414 312.613 316.215 312.164 317.961 c h
312.164 317.961 m f
0.905882 0.647059 0.180392 rg
344.691 308.406 m 335.16 320.895 324.137 332.176 311.871 341.984 c 72.129
 341.984 l 59.863 332.176 48.84 320.895 39.309 308.406 c h
344.691 308.406 m f
0.184314 0.215686 0.231373 rg
85.539 250.602 m 41.152 250.602 l 38.023 250.602 35.488 253.137 35.488 
256.266 c 35.488 259.391 38.023 261.926 41.152 261.926 c 85.539 261.926 
l 88.664 261.926 91.199 259.391 91.199 256.266 c 91.199 253.137 88.664 250.602
 85.539 250.602 c h
85.539 250.602 m f
Q Q
showpage
%%Trailer
end
%%EOF
