%!PS-Adobe-3.0 EPSF-3.0
%%Creator: cairo 1.16.0 (https://cairographics.org)
%%CreationDate: Thu Nov 14 08:46:24 2019
%%Pages: 1
%%DocumentData: Clean7Bit
%%LanguageLevel: 2
%%BoundingBox: 0 0 384 384
%%EndComments
%%BeginProlog
50 dict begin
/q { gsave } bind def
/Q { grestore } bind def
/cm { 6 array astore concat } bind def
/w { setlinewidth } bind def
/J { setlinecap } bind def
/j { setlinejoin } bind def
/M { setmiterlimit } bind def
/d { setdash } bind def
/m { moveto } bind def
/l { lineto } bind def
/c { curveto } bind def
/h { closepath } bind def
/re { exch dup neg 3 1 roll 5 3 roll moveto 0 rlineto
      0 exch rlineto 0 rlineto closepath } bind def
/S { stroke } bind def
/f { fill } bind def
/f* { eofill } bind def
/n { newpath } bind def
/W { clip } bind def
/W* { eoclip } bind def
/BT { } bind def
/ET { } bind def
/BDC { mark 3 1 roll /BDC pdfmark } bind def
/EMC { mark /EMC pdfmark } bind def
/cairo_store_point { /cairo_point_y exch def /cairo_point_x exch def } def
/Tj { show currentpoint cairo_store_point } bind def
/TJ {
  {
    dup
    type /stringtype eq
    { show } { -0.001 mul 0 cairo_font_matrix dtransform rmoveto } ifelse
  } forall
  currentpoint cairo_store_point
} bind def
/cairo_selectfont { cairo_font_matrix aload pop pop pop 0 0 6 array astore
    cairo_font exch selectfont cairo_point_x cairo_point_y moveto } bind def
/Tf { pop /cairo_font exch def /cairo_font_matrix where
      { pop cairo_selectfont } if } bind def
/Td { matrix translate cairo_font_matrix matrix concatmatrix dup
      /cairo_font_matrix exch def dup 4 get exch 5 get cairo_store_point
      /cairo_font where { pop cairo_selectfont } if } bind def
/Tm { 2 copy 8 2 roll 6 array astore /cairo_font_matrix exch def
      cairo_store_point /cairo_font where { pop cairo_selectfont } if } bind def
/g { setgray } bind def
/rg { setrgbcolor } bind def
/d1 { setcachedevice } bind def
/cairo_data_source {
  CairoDataIndex CairoData length lt
    { CairoData CairoDataIndex get /CairoDataIndex CairoDataIndex 1 add def }
    { () } ifelse
} def
/cairo_flush_ascii85_file { cairo_ascii85_file status { cairo_ascii85_file flushfile } if } def
/cairo_image { image cairo_flush_ascii85_file } def
/cairo_imagemask { imagemask cairo_flush_ascii85_file } def
%%EndProlog
%%BeginSetup
%%EndSetup
%%Page: 1 1
%%BeginPageSetup
%%PageBoundingBox: 0 0 384 384
%%EndPageSetup
q 0 0 384 384 rectclip
1 0 0 -1 0 384 cm q
0.564706 0.847059 0.976471 rg
384 192 m 384 193.102 383.992 194.203 383.969 195.309 c 383.969 195.488
 l 383.422 226.238 375.645 255.227 362.258 280.816 c 334.305 334.312 281.863
 372.988 219.824 381.996 c 210.742 383.316 201.449 384 192 384 c 85.965 
384 0 298.035 0 192 c 0 85.965 85.965 0 192 0 c 298.035 0 384 85.965 384
 192 c h
384 192 m f
0.87451 0.917647 0.937255 rg
257.137 18.957 m 320.184 263.145 l 323.672 276.656 315.551 290.434 302.035
 293.922 c 94.637 347.473 l 81.121 350.961 67.344 342.836 63.855 329.324
 c 0.809 85.137 l -2.68 71.625 5.445 57.848 18.957 54.359 c 226.359 0.809
 l 239.871 -2.68 253.648 5.445 257.137 18.957 c h
257.137 18.957 m f
0.25098 0.290196 0.290196 rg
241.371 125.602 m 66.234 170.82 l 63.051 171.641 59.805 169.727 58.984 
166.547 c 58.645 165.23 l 57.824 162.051 59.738 158.805 62.918 157.98 c 
238.055 112.766 l 241.238 111.941 244.484 113.855 245.305 117.039 c 245.645
 118.352 l 246.465 121.535 244.551 124.781 241.371 125.602 c h
241.371 125.602 m f
248.969 155.027 m 73.832 200.246 l 70.648 201.066 67.402 199.152 66.582
 195.969 c 66.242 194.656 l 65.422 191.473 67.336 188.227 70.516 187.406
 c 245.652 142.188 l 248.836 141.367 252.082 143.281 252.902 146.465 c 253.242
 147.777 l 254.062 150.961 252.148 154.203 248.969 155.027 c h
248.969 155.027 m f
256.562 184.453 m 81.43 229.668 l 78.246 230.492 75 228.578 74.18 225.395
 c 73.84 224.082 l 73.02 220.898 74.934 217.652 78.113 216.832 c 253.25 
171.613 l 256.434 170.793 259.68 172.707 260.5 175.887 c 260.84 177.203 
l 261.66 180.383 259.746 183.629 256.562 184.453 c h
256.562 184.453 m f
264.16 213.875 m 89.027 259.094 l 85.844 259.918 82.598 258.004 81.777 
254.82 c 81.438 253.508 l 80.617 250.324 82.527 247.078 85.711 246.258 c
 260.848 201.039 l 264.027 200.215 267.273 202.129 268.098 205.312 c 268.434
 206.625 l 269.258 209.809 267.344 213.055 264.16 213.875 c h
264.16 213.875 m f
205.453 260.422 m 97.281 288.348 l 93.734 289.266 90.117 287.133 89.203
 283.586 c 88.289 280.043 90.418 276.426 93.965 275.512 c 202.141 247.582
 l 205.684 246.668 209.301 248.797 210.215 252.344 c 211.133 255.891 209
 259.504 205.453 260.422 c h
205.453 260.422 m f
0.4 0.705882 0.615686 rg
84.426 100.461 m 85.492 97.199 85.68 93.609 84.758 90.047 c 82.191 80.109
 72.02 74.109 62.082 76.676 c 47.449 80.453 l 43.895 81.371 41.758 84.996
 42.676 88.551 c 48.664 111.742 l 48.676 111.781 l 55.68 138.918 l 56.121
 140.629 57.227 142.094 58.754 142.988 c 60.27 143.879 62.074 144.129 63.777
 143.691 c 63.785 143.688 63.797 143.688 63.805 143.684 c 63.805 143.684
 77.238 140.152 80.945 139.191 c 91.969 136.348 98.625 125.062 95.777 114.039
 c 94.168 107.805 89.859 102.973 84.426 100.461 c h
65.402 89.543 m 68.246 88.809 71.156 90.527 71.891 93.367 c 72.625 96.211
 70.906 99.121 68.066 99.855 c 66.996 100.133 64.988 100.656 62.797 101.23
 c 59.871 101.984 l 57.207 91.66 l h
77.625 126.324 m 75.641 126.836 70.891 128.082 66.883 129.133 c 63.195 
114.863 l 64.168 114.609 65.164 114.348 66.129 114.098 c 73.945 112.078 
l 77.875 111.062 81.895 113.434 82.906 117.363 c 83.922 121.289 81.551 125.312
 77.625 126.324 c h
77.625 126.324 m f
0.964706 0.945098 0.945098 rg
384 195.359 m 383.969 195.488 l 362.258 280.816 l 334.305 334.312 281.863
 372.988 219.824 381.996 c 97.352 350.836 l 83.82 347.391 75.652 333.645
 79.086 320.121 c 141.27 75.711 l 144.711 62.184 158.461 54.016 171.988 
57.457 c 329.055 97.418 l 383.969 195.309 l h
384 195.359 m f
0.87451 0.917647 0.937255 rg
384 195.359 m 333.477 182.504 l 319.949 179.062 311.777 165.312 315.219
 151.789 c 329.055 97.414 l h
384 195.359 m f
0.25098 0.290196 0.290196 rg
332.711 226.898 m 157.418 182.301 l 154.23 181.488 152.309 178.25 153.117
 175.066 c 153.453 173.75 l 154.262 170.562 157.5 168.641 160.688 169.449
 c 335.98 214.047 l 339.168 214.855 341.09 218.098 340.281 221.281 c 339.945
 222.598 l 339.137 225.781 335.898 227.707 332.711 226.898 c h
332.711 226.898 m f
325.219 256.348 m 149.926 211.75 l 146.738 210.941 144.816 207.703 145.625
 204.516 c 145.961 203.203 l 146.77 200.016 150.008 198.09 153.195 198.902
 c 328.488 243.5 l 331.676 244.309 333.598 247.547 332.789 250.734 c 332.453
 252.047 l 331.645 255.234 328.406 257.16 325.219 256.348 c h
325.219 256.348 m f
317.727 285.801 m 142.434 241.203 l 139.246 240.391 137.32 237.152 138.133
 233.969 c 138.469 232.652 l 139.277 229.469 142.516 227.543 145.703 228.352
 c 320.996 272.949 l 324.18 273.762 326.105 277 325.297 280.184 c 324.961
 281.5 l 324.152 284.684 320.914 286.609 317.727 285.801 c h
317.727 285.801 m f
310.234 315.254 m 134.938 270.656 l 131.754 269.844 129.828 266.605 130.641
 263.422 c 130.973 262.105 l 131.785 258.918 135.023 256.996 138.207 257.805
 c 313.504 302.402 l 316.688 303.211 318.613 306.453 317.805 309.637 c 317.469
 310.953 l 316.66 314.137 313.418 316.062 310.234 315.254 c h
310.234 315.254 m f
236.375 327.82 m 128.105 300.273 l 124.555 299.371 122.41 295.762 123.312
 292.215 c 124.215 288.664 127.824 286.52 131.371 287.422 c 239.645 314.969
 l 243.195 315.871 245.34 319.48 244.438 323.027 c 243.535 326.578 239.926
 328.723 236.375 327.82 c h
236.375 327.82 m f
0.976471 0.239216 0.431373 rg
211.691 106.168 m 211.684 106.102 211.676 106.039 211.668 105.973 c 211.219
 102.82 208.938 100.277 205.848 99.492 c 205.848 99.488 205.844 99.488 205.844
 99.488 c 202.75 98.707 199.527 99.855 197.633 102.418 c 197.598 102.461
 197.566 102.504 197.539 102.547 c 165.961 147.438 l 163.848 150.438 164.57
 154.586 167.574 156.695 c 168.254 157.176 168.996 157.508 169.758 157.703
 c 172.352 158.363 175.199 157.402 176.832 155.082 c 182.062 147.648 l 203.586
 153.125 l 204.598 162.129 l 205.004 165.777 208.293 168.402 211.941 167.992
 c 215.59 167.582 218.215 164.293 217.805 160.645 c h
190.242 136.016 m 200.094 122.012 l 202.004 139.008 l h
190.242 136.016 m f
Q Q
showpage
%%Trailer
end
%%EOF
