%!PS-Adobe-3.0 EPSF-3.0
%%Creator: cairo 1.16.0 (https://cairographics.org)
%%CreationDate: Thu Nov 14 08:46:25 2019
%%Pages: 1
%%DocumentData: Clean7Bit
%%LanguageLevel: 2
%%BoundingBox: 0 0 384 384
%%EndComments
%%BeginProlog
50 dict begin
/q { gsave } bind def
/Q { grestore } bind def
/cm { 6 array astore concat } bind def
/w { setlinewidth } bind def
/J { setlinecap } bind def
/j { setlinejoin } bind def
/M { setmiterlimit } bind def
/d { setdash } bind def
/m { moveto } bind def
/l { lineto } bind def
/c { curveto } bind def
/h { closepath } bind def
/re { exch dup neg 3 1 roll 5 3 roll moveto 0 rlineto
      0 exch rlineto 0 rlineto closepath } bind def
/S { stroke } bind def
/f { fill } bind def
/f* { eofill } bind def
/n { newpath } bind def
/W { clip } bind def
/W* { eoclip } bind def
/BT { } bind def
/ET { } bind def
/BDC { mark 3 1 roll /BDC pdfmark } bind def
/EMC { mark /EMC pdfmark } bind def
/cairo_store_point { /cairo_point_y exch def /cairo_point_x exch def } def
/Tj { show currentpoint cairo_store_point } bind def
/TJ {
  {
    dup
    type /stringtype eq
    { show } { -0.001 mul 0 cairo_font_matrix dtransform rmoveto } ifelse
  } forall
  currentpoint cairo_store_point
} bind def
/cairo_selectfont { cairo_font_matrix aload pop pop pop 0 0 6 array astore
    cairo_font exch selectfont cairo_point_x cairo_point_y moveto } bind def
/Tf { pop /cairo_font exch def /cairo_font_matrix where
      { pop cairo_selectfont } if } bind def
/Td { matrix translate cairo_font_matrix matrix concatmatrix dup
      /cairo_font_matrix exch def dup 4 get exch 5 get cairo_store_point
      /cairo_font where { pop cairo_selectfont } if } bind def
/Tm { 2 copy 8 2 roll 6 array astore /cairo_font_matrix exch def
      cairo_store_point /cairo_font where { pop cairo_selectfont } if } bind def
/g { setgray } bind def
/rg { setrgbcolor } bind def
/d1 { setcachedevice } bind def
/cairo_data_source {
  CairoDataIndex CairoData length lt
    { CairoData CairoDataIndex get /CairoDataIndex CairoDataIndex 1 add def }
    { () } ifelse
} def
/cairo_flush_ascii85_file { cairo_ascii85_file status { cairo_ascii85_file flushfile } if } def
/cairo_image { image cairo_flush_ascii85_file } def
/cairo_imagemask { imagemask cairo_flush_ascii85_file } def
%%EndProlog
%%BeginSetup
%%EndSetup
%%Page: 1 1
%%BeginPageSetup
%%PageBoundingBox: 0 0 384 384
%%EndPageSetup
q 0 0 384 384 rectclip
1 0 0 -1 0 384 cm q
0.737255 0.584314 0.886275 rg
384 192 m 384 250.965 357.422 303.719 315.586 338.941 c 293.625 357.426
 267.465 371.086 238.738 378.262 c 233.781 379.508 228.742 380.551 223.641
 381.398 c 213.344 383.113 202.777 384 192 384 c 186.586 384 181.23 383.773
 175.926 383.332 c 153.789 381.504 132.711 375.906 113.34 367.191 c 108.48
 365.004 103.719 362.617 99.082 360.051 c 93.898 357.18 88.859 354.074 83.984
 350.754 c 33.285 316.191 0 257.984 0 192 c 0 176.234 1.898 160.914 5.484
 146.258 c 6.547 141.891 7.77 137.586 9.129 133.344 c 11.488 125.977 14.281
 118.801 17.484 111.855 c 25.238 94.98 35.379 79.434 47.461 65.625 c 57.277
 54.398 68.387 44.324 80.551 35.641 c 86.203 31.605 92.086 27.863 98.176
 24.449 c 109.844 17.895 122.281 12.531 135.301 8.512 c 153.219 2.977 172.262
 0 192 0 c 267.938 0 333.578 44.086 364.719 108.059 c 370.184 119.273 374.586
 131.102 377.789 143.406 c 381.848 158.926 384 175.215 384 192 c h
384 192 m f
1 0.796078 0.745098 rg
238.297 92.16 m 225.57 104.887 l 215.559 114.898 206.805 126.023 199.449
 138.008 c 192.098 150 186.156 162.84 181.777 176.301 c 177.898 188.211 
175.926 200.672 175.926 213.195 c 175.926 383.332 l 153.789 381.504 132.711
 375.906 113.34 367.191 c 108.48 365.004 103.719 362.617 99.082 360.051 
c 93.898 357.18 88.859 354.074 83.984 350.754 c 83.984 210.238 l 83.984 
205.156 81.406 200.477 77.242 197.551 c 77.227 197.535 77.203 197.52 77.184
 197.504 c 77.176 197.504 l 8.723 149.102 l 7.523 148.254 6.441 147.293 
5.484 146.258 c -0.832 139.441 -1.891 129.023 3.344 120.996 c 3.48 120.781
 3.645 120.547 3.797 120.336 c 7.156 115.582 12.148 112.68 17.484 111.855
 c 22.59 111.059 27.996 112.176 32.559 115.395 c 67.664 140.227 l 67.613
 139.68 67.566 139.117 67.492 138.562 c 67.184 135.301 66.781 132.047 66.285
 128.805 c 64.434 116.551 61.395 104.477 57.188 92.746 c 47.461 65.625 l
 40.086 45.082 l 38.969 41.949 38.648 38.723 39.023 35.617 c 39.945 28.125
 44.953 21.414 52.547 18.691 c 58.824 16.441 65.469 17.406 70.672 20.754
 c 74.379 23.129 77.34 26.691 78.938 31.148 c 80.551 35.641 l 98.176 84.758
 l 98.176 20.633 l 98.176 18.262 98.574 15.984 99.316 13.867 c 101.926 6.316
 108.801 0.766 117.059 0.074 c 117.449 0.039 117.855 0.023 118.273 0.008
 c 118.312 0 118.363 0.008 118.418 0 c 118.844 0 119.266 0.008 119.684 0.016
 c 126.051 0.301 131.691 3.602 135.301 8.512 c 136.305 9.887 137.16 11.387
 137.82 12.984 c 138.879 15.496 139.453 18.246 139.453 21.105 c 139.453 
86.16 l 158.918 25.434 l 159.887 22.426 161.484 19.793 163.508 17.625 c 
168.398 12.426 175.801 9.961 183.082 11.609 c 183.609 11.723 184.133 11.863
 184.656 12.023 c 184.738 12.047 184.809 12.066 184.875 12.098 c 186.719
 12.691 188.422 13.508 189.961 14.527 c 195.809 18.391 199.305 25.012 199.223
 32.004 c 199.199 34.004 198.879 36.039 198.234 38.047 c 181.32 90.75 l 
209.109 62.969 l 217.176 54.906 230.227 54.906 238.289 62.977 c 246.359 
71.023 246.359 84.098 238.297 92.16 c h
238.297 92.16 m f
0.917647 0.67451 0.615686 rg
238.293 62.969 m 232.801 57.477 213.293 77.48 201.195 91.059 c 195.859 
97.047 186.461 96.906 181.32 90.75 c 209.105 62.969 l 217.172 54.91 230.238
 54.91 238.293 62.969 c h
238.293 62.969 m f
184.664 12.027 m 176.473 10.043 162.402 56.051 155.652 80.066 c 153.688
 87.047 145.527 90.117 139.449 86.168 c 158.922 25.441 l 162.383 14.66 173.879
 8.691 184.664 12.027 c h
184.664 12.027 m f
98.172 84.754 m 98.172 20.633 l 98.172 9.414 107.125 0.281 118.273 0.008
 c 112.156 0.719 111.613 50.059 111.738 75.359 c 111.773 82.383 104.742 
87.254 98.172 84.754 c h
98.172 84.754 m f
132.824 151.266 m 118.633 133.129 101.293 127.98 89.238 126.852 c 87.473
 126.684 85.77 126.602 84.141 126.578 c 74.129 100.25 45.297 22.508 52.547
 18.688 c 41.812 22.535 36.242 34.355 40.09 45.086 c 57.188 92.746 l 62.688
 108.094 66.203 124.047 67.664 140.227 c 67.664 140.227 68.082 140.016 68.852
 139.68 c 74.129 137.375 79.875 136.34 85.625 136.609 c 97.062 137.141 112.449
 141.383 124.984 157.398 c 125.969 158.656 127.43 159.312 128.91 159.312
 c 129.984 159.312 131.066 158.969 131.977 158.258 c 134.141 156.555 134.52
 153.43 132.824 151.266 c h
132.824 151.266 m f
99.082 226.875 m 99.082 360.051 l 93.898 357.18 88.859 354.074 83.984 350.754
 c 83.984 210.238 l 83.984 205.156 81.406 200.477 77.242 197.551 c 77.227
 197.535 77.203 197.52 77.184 197.504 c 77.176 197.504 l 8.723 149.102 l
 7.523 148.254 6.441 147.293 5.484 146.258 c -0.832 139.441 -1.891 129.023
 3.344 120.996 c 3.48 120.781 3.645 120.547 3.797 120.336 c 2.168 123.188
 4.453 127.836 9.129 133.344 c 22.453 149.039 55.164 171.699 71.664 179.309
 c 93.938 189.586 99.082 202.875 99.082 226.875 c h
99.082 226.875 m f
0.976471 0.239216 0.431373 rg
175.926 257.078 m 175.926 383.332 l 142.012 380.527 110.594 368.895 83.984
 350.754 c 83.984 257.078 l h
175.926 257.078 m f
0.894118 0.0901961 0.32549 rg
113.34 257.078 m 113.34 367.191 l 103.043 362.566 93.227 357.051 83.984
 350.754 c 83.984 257.078 l h
113.34 257.078 m f
0.756863 0.52549 0.470588 rg
377.953 143.242 m 377.789 143.406 l 365.219 155.969 l 355.207 165.984 346.461
 177.105 339.105 189.09 c 331.754 201.082 325.816 213.922 321.434 227.387
 c 317.559 239.297 315.586 251.754 315.586 264.277 c 315.586 338.941 l 289.836
 360.621 258.309 375.652 223.641 381.398 c 223.641 261.324 l 223.641 256.238
 221.062 251.559 216.898 248.633 c 216.887 248.617 216.863 248.602 216.84
 248.586 c 216.832 248.586 l 148.379 200.184 l 139.289 193.746 136.973 181.328
 142.996 172.078 c 143.137 171.863 143.297 171.629 143.445 171.422 c 150.031
 162.105 162.898 159.898 172.215 166.477 c 207.324 191.309 l 207.27 190.762
 207.227 190.199 207.148 189.645 c 206.844 186.383 206.43 183.129 205.941
 179.887 c 204.09 167.633 201.051 155.559 196.844 143.828 c 179.746 96.164
 l 178.629 93.031 178.305 89.805 178.68 86.699 c 179.602 79.207 184.613 
72.496 192.203 69.773 c 198.473 67.523 205.125 68.488 210.328 71.836 c 214.027
 74.211 216.996 77.773 218.586 82.23 c 237.832 135.84 l 237.832 71.715 l
 237.832 69.344 238.223 67.066 238.973 64.949 c 241.582 57.398 248.453 51.848
 256.711 51.156 c 257.109 51.121 257.512 51.105 257.934 51.09 c 257.969 
51.082 258.023 51.09 258.074 51.082 c 258.504 51.082 258.922 51.09 259.344
 51.098 c 267.496 51.457 274.449 56.773 277.477 64.066 c 278.527 66.578 
279.105 69.328 279.105 72.188 c 279.105 137.242 l 298.574 76.516 l 299.543
 73.508 301.141 70.875 303.164 68.707 c 308.055 63.512 315.457 61.043 322.734
 62.691 c 323.266 62.805 323.789 62.949 324.316 63.105 c 324.398 63.129 
324.457 63.148 324.531 63.18 c 326.379 63.773 328.078 64.59 329.617 65.609
 c 335.469 69.473 338.961 76.094 338.871 83.086 c 338.859 85.086 338.535
 87.121 337.891 89.129 c 320.977 141.832 l 348.766 114.051 l 353.145 109.672
 358.996 107.676 364.719 108.059 c 369.531 108.367 374.258 110.371 377.949
 114.059 c 386.016 122.109 385.5 135.699 377.953 143.242 c h
377.953 143.242 m f
0.705882 0.431373 0.34902 rg
377.949 114.051 m 372.457 108.559 352.949 128.562 340.852 142.145 c 335.516
 148.129 326.117 147.988 320.977 141.836 c 348.762 114.051 l 356.824 105.992
 369.891 105.992 377.949 114.051 c h
377.949 114.051 m f
324.32 63.109 m 316.129 61.125 302.059 107.129 295.309 131.148 c 293.344
 138.125 285.184 141.199 279.105 137.25 c 298.578 76.523 l 302.039 65.742
 313.531 59.773 324.32 63.109 c h
324.32 63.109 m f
237.828 135.836 m 237.828 71.715 l 237.828 60.496 246.781 51.363 257.93
 51.09 c 251.812 51.801 251.27 101.141 251.395 126.441 c 251.43 133.469 
244.398 138.332 237.828 135.836 c h
237.828 135.836 m f
272.48 202.348 m 258.289 184.211 240.949 179.062 228.895 177.934 c 227.129
 177.77 225.426 177.684 223.797 177.66 c 213.785 151.332 184.953 73.59 192.199
 69.77 c 181.469 73.617 175.898 85.438 179.746 96.172 c 196.844 143.832 
l 202.34 159.176 205.859 175.133 207.32 191.312 c 207.32 191.312 207.738
 191.098 208.508 190.762 c 213.785 188.461 219.531 187.422 225.281 187.691
 c 236.719 188.223 252.105 192.465 264.641 208.484 c 265.625 209.738 267.086
 210.395 268.566 210.395 c 269.641 210.395 270.723 210.051 271.633 209.34
 c 273.797 207.641 274.176 204.512 272.48 202.348 c h
272.48 202.348 m f
238.738 277.957 m 238.738 378.262 l 233.781 379.508 228.742 380.551 223.641
 381.398 c 223.641 261.324 l 223.641 256.238 221.062 251.559 216.898 248.633
 c 216.887 248.617 216.863 248.602 216.84 248.586 c 216.832 248.586 l 148.379
 200.184 l 139.289 193.746 136.973 181.328 142.996 172.078 c 143.137 171.863
 143.297 171.629 143.445 171.422 c 137.176 182.387 189.023 220.109 211.312
 230.391 c 233.594 240.668 238.738 253.957 238.738 277.957 c h
238.738 277.957 m f
0.964706 0.945098 0.945098 rg
174.59 307.621 m 86.031 307.621 l 80.465 307.621 75.957 303.109 75.957 
297.547 c 75.957 243.922 l 75.957 238.355 80.465 233.848 86.031 233.848 
c 174.59 233.848 l 180.156 233.848 184.664 238.355 184.664 243.922 c 184.664
 297.547 l 184.664 303.109 180.156 307.621 174.59 307.621 c h
174.59 307.621 m f
0.87451 0.917647 0.937255 rg
121.465 307.621 m 86.035 307.621 l 80.469 307.621 75.957 303.113 75.957
 297.547 c 75.957 243.922 l 75.957 238.359 80.469 233.844 86.035 233.844
 c 121.465 233.844 l 115.902 233.844 111.395 238.359 111.395 243.922 c 111.395
 297.547 l 111.395 303.113 115.902 307.621 121.465 307.621 c h
121.465 307.621 m f
Q Q
showpage
%%Trailer
end
%%EOF
