%!PS-Adobe-3.0 EPSF-3.0
%%Creator: cairo 1.16.0 (https://cairographics.org)
%%CreationDate: Thu Nov 14 08:46:25 2019
%%Pages: 1
%%DocumentData: Clean7Bit
%%LanguageLevel: 2
%%BoundingBox: 0 0 384 384
%%EndComments
%%BeginProlog
50 dict begin
/q { gsave } bind def
/Q { grestore } bind def
/cm { 6 array astore concat } bind def
/w { setlinewidth } bind def
/J { setlinecap } bind def
/j { setlinejoin } bind def
/M { setmiterlimit } bind def
/d { setdash } bind def
/m { moveto } bind def
/l { lineto } bind def
/c { curveto } bind def
/h { closepath } bind def
/re { exch dup neg 3 1 roll 5 3 roll moveto 0 rlineto
      0 exch rlineto 0 rlineto closepath } bind def
/S { stroke } bind def
/f { fill } bind def
/f* { eofill } bind def
/n { newpath } bind def
/W { clip } bind def
/W* { eoclip } bind def
/BT { } bind def
/ET { } bind def
/BDC { mark 3 1 roll /BDC pdfmark } bind def
/EMC { mark /EMC pdfmark } bind def
/cairo_store_point { /cairo_point_y exch def /cairo_point_x exch def } def
/Tj { show currentpoint cairo_store_point } bind def
/TJ {
  {
    dup
    type /stringtype eq
    { show } { -0.001 mul 0 cairo_font_matrix dtransform rmoveto } ifelse
  } forall
  currentpoint cairo_store_point
} bind def
/cairo_selectfont { cairo_font_matrix aload pop pop pop 0 0 6 array astore
    cairo_font exch selectfont cairo_point_x cairo_point_y moveto } bind def
/Tf { pop /cairo_font exch def /cairo_font_matrix where
      { pop cairo_selectfont } if } bind def
/Td { matrix translate cairo_font_matrix matrix concatmatrix dup
      /cairo_font_matrix exch def dup 4 get exch 5 get cairo_store_point
      /cairo_font where { pop cairo_selectfont } if } bind def
/Tm { 2 copy 8 2 roll 6 array astore /cairo_font_matrix exch def
      cairo_store_point /cairo_font where { pop cairo_selectfont } if } bind def
/g { setgray } bind def
/rg { setrgbcolor } bind def
/d1 { setcachedevice } bind def
/cairo_data_source {
  CairoDataIndex CairoData length lt
    { CairoData CairoDataIndex get /CairoDataIndex CairoDataIndex 1 add def }
    { () } ifelse
} def
/cairo_flush_ascii85_file { cairo_ascii85_file status { cairo_ascii85_file flushfile } if } def
/cairo_image { image cairo_flush_ascii85_file } def
/cairo_imagemask { imagemask cairo_flush_ascii85_file } def
%%EndProlog
%%BeginSetup
%%EndSetup
%%Page: 1 1
%%BeginPageSetup
%%PageBoundingBox: 0 0 384 384
%%EndPageSetup
q 0 0 384 384 rectclip
1 0 0 -1 0 384 cm q
0.470588 0.447059 0.486275 rg
384 192 m 384 298.039 298.039 384 192 384 c 85.961 384 0 298.039 0 192 
c 0 85.961 85.961 0 192 0 c 298.039 0 384 85.961 384 192 c h
384 192 m f
0.72549 0.894118 0.937255 rg
384 192 m 384 220.059 377.984 246.715 367.156 270.738 c 361.395 283.555
 354.258 295.625 345.938 306.773 c 327.297 331.734 302.723 352.012 274.316
 365.504 c 261.652 371.52 248.234 376.191 234.234 379.328 c 220.641 382.391
 206.508 384 192 384 c 177.492 384 163.367 382.398 149.797 379.34 c 146.227
 378.547 142.699 377.648 139.211 376.66 c 58.844 353.715 0 279.73 0 192 
c 0 132.676 26.91 79.625 69.195 44.414 c 76.75 38.125 84.793 32.395 93.27
 27.316 c 122.125 9.973 155.895 0 192 0 c 223.609 0 253.434 7.637 279.73
 21.168 c 292.691 27.836 304.793 35.941 315.824 45.262 c 357.52 80.48 384
 133.156 384 192 c h
384 192 m f
0.576471 0.796078 0.827451 rg
232.184 379.34 m 232.52 379.41 232.848 379.492 233.184 379.566 c 219.918
 382.473 206.133 384 192 384 c 177.492 384 163.367 382.398 149.797 379.34
 c 146.227 378.547 142.699 377.648 139.211 376.66 c 58.844 353.715 0 279.73
 0 192 c 0 132.676 26.91 79.625 69.195 44.414 c 76.75 38.125 84.793 32.395
 93.27 27.316 c 122.125 9.973 155.895 0 192 0 c 206.152 0 219.938 1.527 
233.215 4.434 c 212.598 8.941 193.215 16.762 175.656 27.316 c 167.18 32.395
 159.137 38.125 151.582 44.414 c 109.297 79.625 82.387 132.676 82.387 192
 c 82.387 279.73 141.23 353.715 221.602 376.66 c 225.086 377.648 228.617
 378.547 232.184 379.34 c h
232.184 379.34 m f
0.827451 0.811765 0.811765 rg
234.234 379.328 m 220.641 382.391 206.508 384 192 384 c 177.492 384 163.367
 382.398 149.797 379.34 c 163.379 376.281 177.5 374.672 192 374.672 c 206.508
 374.672 220.641 376.281 234.234 379.328 c h
234.234 379.328 m f
0.4 0.705882 0.615686 rg
0 192 m 0 279.73 58.844 353.715 139.211 376.66 c 157.555 352.688 90.289
 330.766 90.289 287.664 c 90.289 243.156 28.492 236.445 24.738 216.246 c
 21.016 196.219 33.324 195.812 57.734 171.402 c 65.059 164.074 74.719 161.148
 85.082 159.801 c 90.473 127.871 103.742 98.621 122.832 74.121 c 107.965
 60.234 88.859 48.953 69.195 44.414 c 26.91 79.625 0 132.676 0 192 c h
0 192 m f
0.501961 0.886275 0.615686 rg
383.996 192 m 383.996 220.059 377.98 246.715 367.156 270.734 c 352.258 
222.062 283.375 221.805 269.965 195.012 c 254.926 164.934 359.629 168.129
 341.23 141.387 c 322.852 114.641 285.012 179.973 261.613 156.57 c 251.762
 146.723 254.348 125.922 264.129 104.516 c 270.762 90.016 280.684 75.23 
292.293 63.379 c 299.602 55.902 307.59 49.598 315.828 45.266 c 334.961 61.422
 350.879 81.254 362.508 103.664 c 372.641 123.176 379.523 144.648 382.43
 167.359 c 383.465 175.426 383.996 183.648 383.996 192 c h
383.996 192 m f
345.938 306.773 m 327.297 331.734 302.723 352.012 274.316 365.504 c 281.801
 320.129 319.672 315.031 345.938 306.773 c h
345.938 306.773 m f
0.964706 0.945098 0.945098 rg
279.73 21.168 m 279.73 21.18 279.719 21.18 279.719 21.18 c 222.66 53 112.387
 46.426 93.266 27.316 c 122.125 9.973 155.895 0 192 0 c 223.609 0 253.434
 7.637 279.73 21.168 c h
279.73 21.168 m f
0.87451 0.917647 0.937255 rg
192 0 m 155.895 0 122.125 9.973 93.266 27.316 c 101.18 35.223 124.703 40.98
 153.605 42.762 c 160.57 37.121 167.934 31.945 175.656 27.316 c 193.207 
16.766 212.582 8.949 233.191 4.441 c 219.922 1.539 206.141 0 192 0 c h
192 0 m f
0.72549 0.894118 0.937255 rg
382.43 167.359 m 375.324 149.812 370.383 158.758 358.316 146.684 c 346.246
 134.613 362.508 113.699 362.508 103.664 c 372.641 123.176 379.523 144.648
 382.43 167.359 c h
382.43 167.359 m f
0.501961 0.886275 0.615686 rg
242.969 61.184 m 248.605 63.723 249.438 74.082 244.824 84.32 c 240.211 
94.555 231.902 100.793 226.262 98.254 c 220.625 95.715 219.793 85.355 224.406
 75.117 c 229.023 64.883 237.332 58.641 242.969 61.184 c h
242.969 61.184 m f
0.737255 0.584314 0.886275 rg
258.359 66.465 m 258.359 179.121 l 258.359 195.008 248.195 209.062 233.156
 214.18 c 183.93 230.914 130.5 230.914 81.273 214.18 c 66.234 209.062 56.07
 195.008 56.07 179.121 c 56.07 66.465 l h
258.359 66.465 m f
0.576471 0.45098 0.72549 rg
124.648 66.465 m 56.07 66.465 l 56.07 179.121 l 56.07 195.008 66.23 209.066
 81.27 214.18 c 95.449 218.996 109.977 222.422 124.648 224.465 c h
124.648 66.465 m f
258.359 77.172 m 258.359 142.266 l 162.715 180.871 l 159.184 182.297 155.242
 182.297 151.711 180.871 c 56.07 142.266 l 56.07 77.172 l 82.594 66.465 
l 231.836 66.465 l h
258.359 77.172 m f
314.426 92.445 m 314.426 83.469 l 311.422 83.469 l 309.918 81.512 307.859
 79.879 305.23 78.816 c 162.715 21.297 l 159.184 19.871 155.242 19.871 151.711
 21.297 c 9.199 78.816 l 6.57 79.879 4.508 81.512 3.008 83.469 c 0 83.469
 l 0 92.445 l 0 98.023 3.066 103.602 9.199 106.078 c 151.711 163.598 l 155.242
 165.023 159.188 165.023 162.715 163.598 c 305.23 106.078 l 311.363 103.602
 314.43 98.023 314.426 92.445 c h
314.426 92.445 m f
0.737255 0.584314 0.886275 rg
305.23 69.836 m 162.715 12.316 l 159.184 10.895 155.242 10.895 151.711 
12.316 c 9.199 69.836 l -3.066 74.785 -3.066 92.148 9.199 97.098 c 151.711
 154.617 l 155.242 156.043 159.188 156.043 162.715 154.617 c 305.23 97.098
 l 317.492 92.148 317.492 74.785 305.23 69.836 c h
305.23 69.836 m f
0.92549 0.764706 0.180392 rg
178.867 83.469 m 178.867 90.328 169.172 95.887 157.215 95.887 c 145.254
 95.887 135.559 90.328 135.559 83.469 c 135.559 76.609 145.254 71.051 157.215
 71.051 c 169.172 71.051 178.867 76.609 178.867 83.469 c h
178.867 83.469 m f
251.168 181.938 m 240.113 181.938 l 240.113 124.801 l 155.047 88.555 l 
159.379 78.383 l 251.168 117.496 l h
251.168 181.938 m f
268.543 229.652 m 268.543 217.004 258.289 195.695 245.641 195.695 c 232.992
 195.695 222.738 217.004 222.738 229.652 c 222.738 242.301 232.992 241.504
 245.641 241.504 c 258.289 241.504 268.543 242.301 268.543 229.652 c h
268.543 229.652 m f
0.905882 0.647059 0.180392 rg
237.586 229.648 m 237.586 240.34 240.168 241.43 243.645 241.508 c 231.93
 241.551 222.738 241.629 222.738 229.648 c 222.738 217.004 232.992 195.695
 245.637 195.695 c 241.191 195.695 237.586 217.004 237.586 229.648 c h
237.586 229.648 m f
0.92549 0.764706 0.180392 rg
262.914 181.938 m 262.914 191.48 255.184 199.211 245.641 199.211 c 236.102
 199.211 228.367 191.48 228.367 181.938 c 228.367 172.398 236.102 164.664
 245.641 164.664 c 255.184 164.664 262.914 172.398 262.914 181.938 c h
262.914 181.938 m f
0.905882 0.647059 0.180392 rg
251.477 198.199 m 249.652 198.855 247.688 199.215 245.641 199.215 c 236.098
 199.215 228.367 191.477 228.367 181.938 c 228.367 172.395 236.098 164.664
 245.641 164.664 c 247.688 164.664 249.652 165.02 251.477 165.676 c 244.809
 168.066 240.043 174.445 240.043 181.938 c 240.043 189.43 244.809 195.805
 251.477 198.199 c h
251.477 198.199 m f
Q Q
showpage
%%Trailer
end
%%EOF
