%!PS-Adobe-3.0 EPSF-3.0
%%Creator: cairo 1.16.0 (https://cairographics.org)
%%CreationDate: Thu Nov 14 08:46:26 2019
%%Pages: 1
%%DocumentData: Clean7Bit
%%LanguageLevel: 2
%%BoundingBox: 0 0 384 384
%%EndComments
%%BeginProlog
50 dict begin
/q { gsave } bind def
/Q { grestore } bind def
/cm { 6 array astore concat } bind def
/w { setlinewidth } bind def
/J { setlinecap } bind def
/j { setlinejoin } bind def
/M { setmiterlimit } bind def
/d { setdash } bind def
/m { moveto } bind def
/l { lineto } bind def
/c { curveto } bind def
/h { closepath } bind def
/re { exch dup neg 3 1 roll 5 3 roll moveto 0 rlineto
      0 exch rlineto 0 rlineto closepath } bind def
/S { stroke } bind def
/f { fill } bind def
/f* { eofill } bind def
/n { newpath } bind def
/W { clip } bind def
/W* { eoclip } bind def
/BT { } bind def
/ET { } bind def
/BDC { mark 3 1 roll /BDC pdfmark } bind def
/EMC { mark /EMC pdfmark } bind def
/cairo_store_point { /cairo_point_y exch def /cairo_point_x exch def } def
/Tj { show currentpoint cairo_store_point } bind def
/TJ {
  {
    dup
    type /stringtype eq
    { show } { -0.001 mul 0 cairo_font_matrix dtransform rmoveto } ifelse
  } forall
  currentpoint cairo_store_point
} bind def
/cairo_selectfont { cairo_font_matrix aload pop pop pop 0 0 6 array astore
    cairo_font exch selectfont cairo_point_x cairo_point_y moveto } bind def
/Tf { pop /cairo_font exch def /cairo_font_matrix where
      { pop cairo_selectfont } if } bind def
/Td { matrix translate cairo_font_matrix matrix concatmatrix dup
      /cairo_font_matrix exch def dup 4 get exch 5 get cairo_store_point
      /cairo_font where { pop cairo_selectfont } if } bind def
/Tm { 2 copy 8 2 roll 6 array astore /cairo_font_matrix exch def
      cairo_store_point /cairo_font where { pop cairo_selectfont } if } bind def
/g { setgray } bind def
/rg { setrgbcolor } bind def
/d1 { setcachedevice } bind def
/cairo_data_source {
  CairoDataIndex CairoData length lt
    { CairoData CairoDataIndex get /CairoDataIndex CairoDataIndex 1 add def }
    { () } ifelse
} def
/cairo_flush_ascii85_file { cairo_ascii85_file status { cairo_ascii85_file flushfile } if } def
/cairo_image { image cairo_flush_ascii85_file } def
/cairo_imagemask { imagemask cairo_flush_ascii85_file } def
%%EndProlog
%%BeginSetup
%%EndSetup
%%Page: 1 1
%%BeginPageSetup
%%PageBoundingBox: 0 0 384 384
%%EndPageSetup
q 0 0 384 384 rectclip
1 0 0 -1 0 384 cm q
0.737255 0.584314 0.886275 rg
384 192 m 384 193.574 383.977 195.141 383.941 196.703 c 383.941 196.711
 l 383.488 215.723 380.266 234.047 374.664 251.297 c 368.73 269.578 360.137
 286.656 349.336 302.07 c 326.406 334.785 293.535 360.016 255.105 373.379
 c 255.098 373.379 l 235.336 380.266 214.109 384 192 384 c 85.965 384 0 
298.035 0 192 c 0 85.965 85.965 0 192 0 c 298.035 0 384 85.965 384 192 c
 h
384 192 m f
0.905882 0.647059 0.180392 rg
291.707 145.855 m 291.707 149.688 291.559 153.488 291.27 157.25 c 289.191
 184.129 279.828 208.965 265.148 229.789 c 260.688 236.125 255.73 242.09
 250.332 247.625 c 226.32 272.273 193.656 288.453 157.25 291.27 c 153.488
 291.559 149.688 291.707 145.855 291.707 c 142.02 291.707 138.219 291.559
 134.461 291.27 c 98.055 288.453 65.391 272.273 41.375 247.625 c 35.98 242.09
 31.023 236.125 26.562 229.789 c 11.879 208.965 2.52 184.129 0.438 157.25
 c 0.148 153.488 0 149.688 0 145.855 c 0 142.02 0.148 138.219 0.438 134.461
 c 2.52 107.578 11.879 82.742 26.562 61.922 c 31.023 55.586 35.98 49.621
 41.375 44.082 c 65.391 19.434 98.055 3.254 134.461 0.438 c 138.219 0.148
 142.02 0 145.855 0 c 149.688 0 153.488 0.148 157.25 0.438 c 193.656 3.254
 226.32 19.434 250.332 44.082 c 255.73 49.621 260.688 55.586 265.148 61.922
 c 279.828 82.742 289.191 107.578 291.27 134.461 c 291.559 138.219 291.707
 142.02 291.707 145.855 c h
291.707 145.855 m f
0.886275 0.517647 0.141176 rg
182.609 287.035 m 174.41 289.168 165.938 290.598 157.25 291.27 c 153.488
 291.559 149.688 291.707 145.855 291.707 c 142.02 291.707 138.219 291.559
 134.461 291.27 c 98.055 288.453 65.391 272.273 41.375 247.625 c 35.98 242.09
 31.023 236.125 26.562 229.789 c 11.879 208.965 2.52 184.129 0.441 157.25
 c 0.148 153.488 0 149.688 0 145.855 c 0 142.02 0.148 138.219 0.438 134.461
 c 2.52 107.578 11.879 82.742 26.562 61.922 c 31.023 55.586 35.98 49.621
 41.375 44.082 c 65.391 19.434 98.055 3.254 134.457 0.438 c 138.219 0.148
 142.02 0 145.855 0 c 149.688 0 153.488 0.148 157.25 0.438 c 165.938 1.109
 174.41 2.539 182.609 4.672 c 156.461 11.457 133.164 25.312 114.883 44.082
 c 109.488 49.617 104.531 55.586 100.07 61.918 c 85.387 82.742 76.027 107.578
 73.945 134.457 c 73.656 138.219 73.508 142.02 73.508 145.852 c 73.508 149.688
 73.656 153.488 73.945 157.246 c 76.027 184.129 85.387 208.965 100.07 229.789
 c 104.531 236.121 109.488 242.09 114.883 247.625 c 133.164 266.395 156.461
 280.25 182.609 287.035 c h
182.609 287.035 m f
0.184314 0.215686 0.231373 rg
291.707 145.855 m 291.707 142.02 291.559 138.219 291.27 134.461 c 236.238
 134.461 l 238.461 107.801 248.461 82.734 265.148 61.922 c 260.688 55.586
 255.73 49.621 250.332 44.082 c 228.598 69.594 215.75 100.992 213.367 134.461
 c 157.25 134.461 l 157.25 0.438 l 153.488 0.148 149.688 0 145.855 0 c 142.02
 0 138.219 0.148 134.461 0.438 c 134.461 134.461 l 78.34 134.461 l 75.957
 100.992 63.109 69.594 41.375 44.082 c 35.98 49.621 31.023 55.586 26.562
 61.922 c 43.25 82.734 53.25 107.801 55.473 134.461 c 0.438 134.461 l 0.148
 138.219 0 142.02 0 145.855 c 0 149.688 0.148 153.488 0.438 157.25 c 55.469
 157.25 l 53.246 183.906 43.25 208.977 26.562 229.789 c 31.023 236.125 35.98
 242.09 41.375 247.625 c 63.109 222.113 75.957 190.715 78.34 157.25 c 134.457
 157.25 l 134.457 291.27 l 138.219 291.559 142.02 291.707 145.852 291.707
 c 149.688 291.707 153.488 291.559 157.246 291.27 c 157.246 157.25 l 213.367
 157.25 l 215.75 190.715 228.598 222.113 250.332 247.625 c 255.727 242.09
 260.684 236.125 265.145 229.789 c 248.457 208.977 238.457 183.906 236.238
 157.25 c 291.27 157.25 l 291.559 153.488 291.707 149.688 291.707 145.855
 c h
291.707 145.855 m f
0.85098 0.447059 0.243137 rg
383.941 196.703 m 383.004 235.852 370.336 272.102 349.336 302.07 c 326.406
 334.785 293.535 360.016 255.105 373.379 c 255.098 373.387 255.098 373.379
 255.098 373.379 c 212.879 372.352 174.352 356.852 144.57 331.785 c 137.102
 325.5 130.176 318.613 123.891 311.203 c 120.758 307.516 117.789 303.691
 114.984 299.754 c 106.297 287.574 99.195 274.238 93.969 260.047 c 99.406
 245.273 106.867 231.441 116.031 218.871 c 118.531 215.445 121.156 212.113
 123.898 208.891 c 130.184 201.473 137.102 194.586 144.57 188.301 c 175.402
 162.344 215.625 146.648 259.613 146.641 c 303.609 146.641 343.828 162.344
 374.664 188.301 c 377.859 190.988 380.953 193.785 383.941 196.703 c h
383.941 196.703 m f
0.741176 0.329412 0.137255 rg
349.336 302.07 m 326.406 334.785 293.535 360.016 255.105 373.379 c 197.023
 371.961 145.941 343.176 114.996 299.789 c 106.297 287.602 99.188 274.262
 93.961 260.047 c 98.309 265.605 103.957 270.871 110.746 275.773 c 141.887
 298.312 196.922 313.281 259.613 313.281 c 292.387 313.281 323.078 309.195
 349.336 302.07 c h
349.336 302.07 m f
0.964706 0.945098 0.945098 rg
144.57 188.301 m 144.57 331.785 l 137.102 325.5 130.176 318.613 123.898
 311.203 c 123.898 208.883 l 130.184 201.477 137.102 194.59 144.57 188.301
 c h
144.57 188.301 m f
383.941 196.703 m 383.941 196.711 l 383.488 215.723 380.266 234.047 374.664
 251.297 c 374.664 188.301 l 377.859 190.996 380.953 193.793 383.941 196.703
 c h
383.941 196.703 m f
0.87451 0.917647 0.937255 rg
123.898 284.066 m 130.184 287.547 137.102 290.773 144.57 293.727 c 144.57
 331.785 l 137.102 325.5 130.176 318.613 123.898 311.203 c h
123.898 284.066 m f
0.741176 0.329412 0.137255 rg
182.074 284.188 m 182.074 287.629 179.285 290.418 175.844 290.418 c 172.402
 290.418 169.613 287.629 169.613 284.188 c 169.613 280.746 172.402 277.961
 175.844 277.961 c 179.285 277.961 182.074 280.746 182.074 284.188 c h
182.074 284.188 m f
200.066 275.098 m 200.066 278.539 197.277 281.328 193.836 281.328 c 190.398
 281.328 187.609 278.539 187.609 275.098 c 187.609 271.66 190.398 268.871
 193.836 268.871 c 197.277 268.871 200.066 271.66 200.066 275.098 c h
200.066 275.098 m f
198.312 293.023 m 198.312 296.465 195.523 299.254 192.082 299.254 c 188.641
 299.254 185.852 296.465 185.852 293.023 c 185.852 289.582 188.641 286.793
 192.082 286.793 c 195.523 286.793 198.312 289.582 198.312 293.023 c h
198.312 293.023 m f
361.906 280.562 m 361.906 284.004 359.117 286.793 355.68 286.793 c 352.238
 286.793 349.449 284.004 349.449 280.562 c 349.449 277.125 352.238 274.336
 355.68 274.336 c 359.117 274.336 361.906 277.125 361.906 280.562 c h
361.906 280.562 m f
368.285 260.586 m 368.285 264.027 365.496 266.816 362.055 266.816 c 358.617
 266.816 355.828 264.027 355.828 260.586 c 355.828 257.145 358.617 254.355
 362.055 254.355 c 365.496 254.355 368.285 257.145 368.285 260.586 c h
368.285 260.586 m f
350.797 264.633 m 350.797 268.074 348.008 270.863 344.566 270.863 c 341.125
 270.863 338.336 268.074 338.336 264.633 c 338.336 261.191 341.125 258.402
 344.566 258.402 c 348.008 258.402 350.797 261.191 350.797 264.633 c h
350.797 264.633 m f
180.039 229.352 m 167.496 229.352 157.297 219.152 157.297 206.609 c 157.297
 194.07 167.496 183.867 180.039 183.867 c 339.195 183.867 l 351.734 183.867
 361.938 194.07 361.938 206.609 c 361.938 219.152 351.734 229.352 339.195
 229.352 c h
180.039 229.352 m f
0.0941176 0.117647 0.129412 rg
350.637 206.609 m 350.637 200.289 345.516 195.168 339.195 195.168 c 180.039
 195.168 l 173.719 195.168 168.594 200.289 168.594 206.609 c 168.594 212.93
 173.719 218.055 180.039 218.055 c 339.195 218.055 l 345.516 218.055 350.637
 212.93 350.637 206.609 c h
350.637 206.609 m f
0.937255 0.905882 0.894118 rg
192.773 243.395 m 189.059 243.395 186.047 240.383 186.047 236.672 c 186.047
 176.551 l 186.047 172.836 189.059 169.828 192.773 169.828 c 196.484 169.828
 199.496 172.836 199.496 176.551 c 199.496 236.672 l 199.496 240.383 196.484
 243.395 192.773 243.395 c h
192.773 243.395 m f
226.195 243.395 m 222.48 243.395 219.469 240.383 219.469 236.672 c 219.469
 176.551 l 219.469 172.836 222.48 169.828 226.195 169.828 c 229.906 169.828
 232.918 172.836 232.918 176.551 c 232.918 236.672 l 232.918 240.383 229.906
 243.395 226.195 243.395 c h
226.195 243.395 m f
259.617 243.395 m 255.902 243.395 252.891 240.383 252.891 236.672 c 252.891
 176.551 l 252.891 172.836 255.902 169.828 259.617 169.828 c 263.328 169.828
 266.34 172.836 266.34 176.551 c 266.34 236.672 l 266.34 240.383 263.328
 243.395 259.617 243.395 c h
259.617 243.395 m f
293.039 243.395 m 289.324 243.395 286.312 240.383 286.312 236.672 c 286.312
 176.551 l 286.312 172.836 289.324 169.828 293.039 169.828 c 296.75 169.828
 299.762 172.836 299.762 176.551 c 299.762 236.672 l 299.762 240.383 296.75
 243.395 293.039 243.395 c h
293.039 243.395 m f
326.461 243.395 m 322.746 243.395 319.734 240.383 319.734 236.672 c 319.734
 176.551 l 319.734 172.836 322.746 169.828 326.461 169.828 c 330.172 169.828
 333.184 172.836 333.184 176.551 c 333.184 236.672 l 333.184 240.383 330.172
 243.395 326.461 243.395 c h
326.461 243.395 m f
0.87451 0.917647 0.937255 rg
199.496 221.879 m 199.496 236.672 l 199.496 240.383 196.488 243.395 192.77
 243.395 c 189.059 243.395 186.051 240.383 186.051 236.672 c 186.051 221.879
 l 186.051 225.59 189.059 228.598 192.77 228.598 c 196.488 228.598 199.496
 225.59 199.496 221.879 c h
199.496 221.879 m f
232.918 221.879 m 232.918 236.672 l 232.918 240.383 229.91 243.395 226.191
 243.395 c 222.48 243.395 219.473 240.383 219.473 236.672 c 219.473 221.879
 l 219.473 225.59 222.48 228.598 226.191 228.598 c 229.91 228.598 232.918
 225.59 232.918 221.879 c h
232.918 221.879 m f
266.34 221.879 m 266.34 236.672 l 266.34 240.383 263.332 243.395 259.617
 243.395 c 255.906 243.395 252.895 240.383 252.895 236.672 c 252.895 221.879
 l 252.895 225.59 255.906 228.598 259.617 228.598 c 263.332 228.598 266.34
 225.59 266.34 221.879 c h
266.34 221.879 m f
299.766 221.879 m 299.766 236.672 l 299.766 240.383 296.754 243.395 293.039
 243.395 c 289.328 243.395 286.316 240.383 286.316 236.672 c 286.316 221.879
 l 286.316 225.59 289.328 228.598 293.039 228.598 c 296.754 228.598 299.766
 225.59 299.766 221.879 c h
299.766 221.879 m f
333.188 221.879 m 333.188 236.672 l 333.188 240.383 330.176 243.395 326.461
 243.395 c 322.75 243.395 319.738 240.383 319.738 236.672 c 319.738 221.879
 l 319.738 225.59 322.75 228.598 326.461 228.598 c 330.176 228.598 333.188
 225.59 333.188 221.879 c h
333.188 221.879 m f
Q Q
showpage
%%Trailer
end
%%EOF
