%!PS-Adobe-3.0 EPSF-3.0
%%Creator: cairo 1.16.0 (https://cairographics.org)
%%CreationDate: Thu Nov 14 08:46:26 2019
%%Pages: 1
%%DocumentData: Clean7Bit
%%LanguageLevel: 2
%%BoundingBox: 0 0 384 384
%%EndComments
%%BeginProlog
50 dict begin
/q { gsave } bind def
/Q { grestore } bind def
/cm { 6 array astore concat } bind def
/w { setlinewidth } bind def
/J { setlinecap } bind def
/j { setlinejoin } bind def
/M { setmiterlimit } bind def
/d { setdash } bind def
/m { moveto } bind def
/l { lineto } bind def
/c { curveto } bind def
/h { closepath } bind def
/re { exch dup neg 3 1 roll 5 3 roll moveto 0 rlineto
      0 exch rlineto 0 rlineto closepath } bind def
/S { stroke } bind def
/f { fill } bind def
/f* { eofill } bind def
/n { newpath } bind def
/W { clip } bind def
/W* { eoclip } bind def
/BT { } bind def
/ET { } bind def
/BDC { mark 3 1 roll /BDC pdfmark } bind def
/EMC { mark /EMC pdfmark } bind def
/cairo_store_point { /cairo_point_y exch def /cairo_point_x exch def } def
/Tj { show currentpoint cairo_store_point } bind def
/TJ {
  {
    dup
    type /stringtype eq
    { show } { -0.001 mul 0 cairo_font_matrix dtransform rmoveto } ifelse
  } forall
  currentpoint cairo_store_point
} bind def
/cairo_selectfont { cairo_font_matrix aload pop pop pop 0 0 6 array astore
    cairo_font exch selectfont cairo_point_x cairo_point_y moveto } bind def
/Tf { pop /cairo_font exch def /cairo_font_matrix where
      { pop cairo_selectfont } if } bind def
/Td { matrix translate cairo_font_matrix matrix concatmatrix dup
      /cairo_font_matrix exch def dup 4 get exch 5 get cairo_store_point
      /cairo_font where { pop cairo_selectfont } if } bind def
/Tm { 2 copy 8 2 roll 6 array astore /cairo_font_matrix exch def
      cairo_store_point /cairo_font where { pop cairo_selectfont } if } bind def
/g { setgray } bind def
/rg { setrgbcolor } bind def
/d1 { setcachedevice } bind def
/cairo_data_source {
  CairoDataIndex CairoData length lt
    { CairoData CairoDataIndex get /CairoDataIndex CairoDataIndex 1 add def }
    { () } ifelse
} def
/cairo_flush_ascii85_file { cairo_ascii85_file status { cairo_ascii85_file flushfile } if } def
/cairo_image { image cairo_flush_ascii85_file } def
/cairo_imagemask { imagemask cairo_flush_ascii85_file } def
%%EndProlog
%%BeginSetup
%%EndSetup
%%Page: 1 1
%%BeginPageSetup
%%PageBoundingBox: 0 0 384 384
%%EndPageSetup
q 0 0 384 384 rectclip
1 0 0 -1 0 384 cm q
0.564706 0.847059 0.976471 rg
384 192 m 384 298.039 298.039 384 192 384 c 85.961 384 0 298.039 0 192 
c 0 85.961 85.961 0 192 0 c 298.039 0 384 85.961 384 192 c h
384 192 m f
0.737255 0.584314 0.886275 rg
315.523 112.605 m 315.523 250.184 l 315.523 269.586 303.113 286.754 284.746
 293 c 224.625 313.438 159.375 313.438 99.254 293 c 80.887 286.754 68.477
 269.586 68.477 250.184 c 68.477 112.605 l h
315.523 112.605 m f
0.576471 0.45098 0.72549 rg
152.23 112.602 m 68.477 112.602 l 68.477 250.188 l 68.477 269.586 80.887
 286.758 99.254 293 c 116.566 298.887 134.309 303.066 152.23 305.562 c h
152.23 112.602 m f
315.523 125.676 m 315.523 205.176 l 198.719 252.32 l 194.406 254.062 189.594
 254.062 185.281 252.32 c 68.477 205.176 l 68.477 125.676 l 100.867 112.605
 l 283.133 112.605 l h
315.523 125.676 m f
384 144.332 m 384 133.367 l 380.328 133.367 l 378.496 130.977 375.977 128.98
 372.766 127.688 c 198.719 57.441 l 194.41 55.703 189.59 55.703 185.281 
57.441 c 11.234 127.688 l 8.023 128.984 5.504 130.977 3.672 133.367 c 0 
133.367 l 0 144.332 l 0 151.145 3.746 157.957 11.234 160.98 c 185.281 231.227
 l 189.59 232.965 194.41 232.965 198.719 231.227 c 372.766 160.98 l 380.258
 157.957 384 151.145 384 144.332 c h
384 144.332 m f
0.737255 0.584314 0.886275 rg
372.766 116.723 m 198.719 46.477 l 194.41 44.734 189.59 44.734 185.281 
46.477 c 11.234 116.723 l -3.746 122.766 -3.746 143.969 11.234 150.016 c
 185.281 220.262 l 189.59 222 194.41 222 198.719 220.262 c 372.766 150.016
 l 387.742 143.969 387.742 122.766 372.766 116.723 c h
372.766 116.723 m f
0.92549 0.764706 0.180392 rg
218.445 133.367 m 218.445 141.742 206.605 148.535 192 148.535 c 177.395
 148.535 165.555 141.742 165.555 133.367 c 165.555 124.992 177.395 118.203
 192 118.203 c 206.605 118.203 218.445 124.992 218.445 133.367 c h
218.445 133.367 m f
306.742 253.625 m 293.242 253.625 l 293.242 183.848 l 189.355 139.578 l
 194.645 127.16 l 306.742 174.926 l h
306.742 253.625 m f
327.965 311.898 m 327.965 296.449 315.441 270.43 299.992 270.43 c 284.547
 270.43 272.023 296.449 272.023 311.898 c 272.023 327.344 284.547 326.371
 299.992 326.371 c 315.441 326.371 327.965 327.344 327.965 311.898 c h
327.965 311.898 m f
0.905882 0.647059 0.180392 rg
290.156 311.895 m 290.156 324.953 293.309 326.281 297.555 326.379 c 283.25
 326.43 272.023 326.527 272.023 311.895 c 272.023 296.453 284.547 270.426
 299.992 270.426 c 294.559 270.426 290.156 296.453 290.156 311.895 c h
290.156 311.895 m f
0.92549 0.764706 0.180392 rg
321.09 253.625 m 321.09 265.277 311.645 274.723 299.992 274.723 c 288.344
 274.723 278.898 265.277 278.898 253.625 c 278.898 241.977 288.344 232.531
 299.992 232.531 c 311.645 232.531 321.09 241.977 321.09 253.625 c h
321.09 253.625 m f
0.905882 0.647059 0.180392 rg
307.121 273.488 m 304.895 274.289 302.492 274.723 299.996 274.723 c 288.34
 274.723 278.898 265.273 278.898 253.625 c 278.898 241.973 288.34 232.527
 299.996 232.527 c 302.492 232.527 304.895 232.965 307.121 233.766 c 298.977
 236.684 293.156 244.477 293.156 253.625 c 293.156 262.777 298.977 270.562
 307.121 273.488 c h
307.121 273.488 m f
Q Q
showpage
%%Trailer
end
%%EOF
