%!PS-Adobe-3.0 EPSF-3.0
%%Creator: cairo 1.16.0 (https://cairographics.org)
%%CreationDate: Thu Nov 14 08:46:26 2019
%%Pages: 1
%%DocumentData: Clean7Bit
%%LanguageLevel: 2
%%BoundingBox: 0 0 384 384
%%EndComments
%%BeginProlog
50 dict begin
/q { gsave } bind def
/Q { grestore } bind def
/cm { 6 array astore concat } bind def
/w { setlinewidth } bind def
/J { setlinecap } bind def
/j { setlinejoin } bind def
/M { setmiterlimit } bind def
/d { setdash } bind def
/m { moveto } bind def
/l { lineto } bind def
/c { curveto } bind def
/h { closepath } bind def
/re { exch dup neg 3 1 roll 5 3 roll moveto 0 rlineto
      0 exch rlineto 0 rlineto closepath } bind def
/S { stroke } bind def
/f { fill } bind def
/f* { eofill } bind def
/n { newpath } bind def
/W { clip } bind def
/W* { eoclip } bind def
/BT { } bind def
/ET { } bind def
/BDC { mark 3 1 roll /BDC pdfmark } bind def
/EMC { mark /EMC pdfmark } bind def
/cairo_store_point { /cairo_point_y exch def /cairo_point_x exch def } def
/Tj { show currentpoint cairo_store_point } bind def
/TJ {
  {
    dup
    type /stringtype eq
    { show } { -0.001 mul 0 cairo_font_matrix dtransform rmoveto } ifelse
  } forall
  currentpoint cairo_store_point
} bind def
/cairo_selectfont { cairo_font_matrix aload pop pop pop 0 0 6 array astore
    cairo_font exch selectfont cairo_point_x cairo_point_y moveto } bind def
/Tf { pop /cairo_font exch def /cairo_font_matrix where
      { pop cairo_selectfont } if } bind def
/Td { matrix translate cairo_font_matrix matrix concatmatrix dup
      /cairo_font_matrix exch def dup 4 get exch 5 get cairo_store_point
      /cairo_font where { pop cairo_selectfont } if } bind def
/Tm { 2 copy 8 2 roll 6 array astore /cairo_font_matrix exch def
      cairo_store_point /cairo_font where { pop cairo_selectfont } if } bind def
/g { setgray } bind def
/rg { setrgbcolor } bind def
/d1 { setcachedevice } bind def
/cairo_data_source {
  CairoDataIndex CairoData length lt
    { CairoData CairoDataIndex get /CairoDataIndex CairoDataIndex 1 add def }
    { () } ifelse
} def
/cairo_flush_ascii85_file { cairo_ascii85_file status { cairo_ascii85_file flushfile } if } def
/cairo_image { image cairo_flush_ascii85_file } def
/cairo_imagemask { imagemask cairo_flush_ascii85_file } def
%%EndProlog
%%BeginSetup
%%EndSetup
%%Page: 1 1
%%BeginPageSetup
%%PageBoundingBox: 0 0 384 384
%%EndPageSetup
q 0 0 384 384 rectclip
1 0 0 -1 0 384 cm q
0.976471 0.239216 0.431373 rg
384 192 m 384 225.465 375.434 256.926 360.383 284.316 c 354.75 294.578 
348.211 304.262 340.859 313.266 c 339.539 314.879 338.199 316.477 336.824
 318.047 c 332.43 323.102 327.766 327.914 322.867 332.484 c 322.859 332.488
 l 319.051 336.051 315.098 339.449 311.004 342.684 c 278.289 368.559 236.949
 384 192 384 c 147.051 384 105.711 368.559 72.996 342.684 c 62.012 333.988
 51.988 324.121 43.141 313.266 c 16.176 280.207 0 237.988 0 192 c 0 141.84
 19.238 96.172 50.73 61.973 c 85.824 23.871 136.125 0 192 0 c 247.875 0 
298.176 23.871 333.262 61.973 c 336.879 65.895 340.328 69.969 343.605 74.184
 c 368.918 106.711 384 147.594 384 192 c h
384 192 m f
0.74902 0.733333 0.713726 rg
340.859 313.266 m 305.656 356.438 252.047 384 192 384 c 131.953 384 78.344
 356.438 43.141 313.266 c h
340.859 313.266 m f
0.737255 0.584314 0.886275 rg
363.32 48.258 m 20.68 48.258 l 9.258 48.258 0 57.52 0 68.938 c 0 91.492
 l 0 102.91 9.258 112.172 20.68 112.172 c 363.32 112.172 l 374.742 112.172
 384 102.91 384 91.492 c 384 68.938 l 384 57.52 374.742 48.258 363.32 48.258
 c h
363.32 48.258 m f
0.576471 0.45098 0.72549 rg
162.211 48.258 59.578 87.438 re f
0.964706 0.945098 0.945098 rg
192 98.469 m 192 384 l 192 361.176 173.496 342.684 150.684 342.684 c 72.996
 342.684 l 62.012 333.988 51.988 324.121 43.141 313.266 c 16.176 280.207
 0 237.988 0 192 c 0 72.121 l 0 66.516 4.543 61.973 10.148 61.973 c 155.504
 61.973 l 175.66 61.973 192 78.312 192 98.469 c h
192 98.469 m f
0.87451 0.917647 0.937255 rg
373.852 61.973 m 379.457 61.973 384 66.516 384 72.121 c 384 192 l 384 237.988
 367.824 280.207 340.859 313.266 c 332.012 324.121 321.988 333.988 311.004
 342.684 c 233.316 342.684 l 210.504 342.684 192 361.176 192 384 c 192 98.461
 l 192 78.309 208.336 61.973 228.488 61.973 c h
373.852 61.973 m f
0.964706 0.945098 0.945098 rg
384 74.184 m 384 192 l 384 237.988 367.824 280.207 340.859 313.266 c 332.012
 324.121 321.988 333.988 311.004 342.684 c 231.148 342.684 l 231.148 95.73
 l 231.148 83.828 240.797 74.184 252.699 74.184 c h
384 74.184 m f
0.25098 0.290196 0.290196 rg
148.875 108.422 m 21.816 108.422 l 17.43 108.422 13.875 104.867 13.875 
100.48 c 13.875 96.094 17.43 92.539 21.816 92.539 c 148.871 92.539 l 153.258
 92.539 156.812 96.094 156.812 100.48 c 156.816 104.863 153.258 108.422 
148.875 108.422 c h
148.875 108.422 m f
148.875 140.672 m 21.816 140.672 l 17.43 140.672 13.875 137.117 13.875 
132.734 c 13.875 128.348 17.43 124.793 21.816 124.793 c 148.871 124.793 
l 153.258 124.793 156.812 128.348 156.812 132.734 c 156.816 137.117 153.258
 140.672 148.875 140.672 c h
148.875 140.672 m f
148.875 172.926 m 21.816 172.926 l 17.43 172.926 13.875 169.371 13.875 
164.988 c 13.875 160.602 17.43 157.047 21.816 157.047 c 148.871 157.047 
l 153.258 157.047 156.812 160.602 156.812 164.988 c 156.816 169.371 153.258
 172.926 148.875 172.926 c h
148.875 172.926 m f
103.309 205.18 m 21.816 205.18 l 17.43 205.18 13.875 201.625 13.875 197.238
 c 13.875 192.852 17.43 189.297 21.816 189.297 c 103.309 189.297 l 107.695
 189.297 111.25 192.855 111.25 197.238 c 111.25 201.625 107.695 205.18 103.309
 205.18 c h
103.309 205.18 m f
148.875 237.434 m 21.816 237.434 l 17.43 237.434 13.875 233.879 13.875 
229.492 c 13.875 225.105 17.43 221.551 21.816 221.551 c 148.871 221.551 
l 153.258 221.551 156.812 225.109 156.812 229.492 c 156.816 233.879 153.258
 237.434 148.875 237.434 c h
148.875 237.434 m f
74.332 269.688 m 21.816 269.688 l 17.43 269.688 13.875 266.133 13.875 261.746
 c 13.875 257.359 17.43 253.805 21.816 253.805 c 74.332 253.805 l 78.719
 253.805 82.273 257.359 82.273 261.746 c 82.273 266.133 78.719 269.688 74.332
 269.688 c h
74.332 269.688 m f
362.184 108.422 m 235.125 108.422 l 230.742 108.422 227.184 104.867 227.184
 100.48 c 227.184 96.094 230.742 92.539 235.125 92.539 c 362.184 92.539 
l 366.57 92.539 370.125 96.094 370.125 100.48 c 370.125 104.863 366.57 108.422
 362.184 108.422 c h
362.184 108.422 m f
362.184 140.672 m 235.125 140.672 l 230.742 140.672 227.184 137.117 227.184
 132.734 c 227.184 128.348 230.742 124.793 235.125 124.793 c 362.184 124.793
 l 366.57 124.793 370.125 128.348 370.125 132.734 c 370.125 137.117 366.57
 140.672 362.184 140.672 c h
362.184 140.672 m f
362.184 172.926 m 235.125 172.926 l 230.742 172.926 227.184 169.371 227.184
 164.988 c 227.184 160.602 230.742 157.047 235.125 157.047 c 362.184 157.047
 l 366.57 157.047 370.125 160.602 370.125 164.988 c 370.125 169.371 366.57
 172.926 362.184 172.926 c h
362.184 172.926 m f
362.184 205.18 m 235.125 205.18 l 230.742 205.18 227.184 201.625 227.184
 197.238 c 227.184 192.852 230.742 189.297 235.125 189.297 c 362.184 189.297
 l 366.57 189.297 370.125 192.855 370.125 197.238 c 370.125 201.625 366.57
 205.18 362.184 205.18 c h
362.184 205.18 m f
362.184 237.434 m 235.125 237.434 l 230.742 237.434 227.184 233.879 227.184
 229.492 c 227.184 225.105 230.742 221.551 235.125 221.551 c 362.184 221.551
 l 366.57 221.551 370.125 225.109 370.125 229.492 c 370.125 233.879 366.57
 237.434 362.184 237.434 c h
362.184 237.434 m f
280.059 269.688 m 235.125 269.688 l 230.742 269.688 227.184 266.133 227.184
 261.746 c 227.184 257.359 230.742 253.805 235.125 253.805 c 280.059 253.805
 l 284.445 253.805 288 257.359 288 261.746 c 288 266.133 284.445 269.688
 280.059 269.688 c h
280.059 269.688 m f
0.72549 0.894118 0.937255 rg
327.047 206.812 m 327.047 254.328 288.527 292.852 241.008 292.852 c 193.492
 292.852 154.969 254.328 154.969 206.812 c 154.969 159.293 193.492 120.773
 241.008 120.773 c 288.527 120.773 327.047 159.293 327.047 206.812 c h
327.047 206.812 m f
1 g
301.848 145.977 m 335.445 179.57 335.445 234.047 301.844 267.648 c 297.977
 271.516 293.84 274.938 289.477 277.91 c 312.375 244.418 308.953 198.332
 279.223 168.602 c 249.488 138.867 203.402 135.445 169.906 158.344 c 172.883
 153.98 176.305 149.844 180.172 145.977 c 213.773 112.375 268.246 112.375
 301.848 145.977 c h
301.848 145.977 m f
0.85098 0.447059 0.243137 rg
313.195 278.996 m 273.391 318.801 208.625 318.801 168.82 278.996 c 129.02
 239.195 129.02 174.43 168.82 134.625 c 208.625 94.82 273.391 94.82 313.195
 134.625 c 352.996 174.43 352.996 239.195 313.195 278.996 c h
191.516 157.32 m 164.227 184.609 164.227 229.012 191.516 256.301 c 218.805
 283.59 263.211 283.59 290.5 256.301 c 317.789 229.012 317.789 184.609 290.5
 157.32 c 263.211 130.031 218.805 130.031 191.516 157.32 c h
191.516 157.32 m f
0.741176 0.329412 0.137255 rg
295.141 251.184 m 296.902 249.734 298.613 248.188 300.258 246.543 c 327.551
 219.254 327.551 174.848 300.258 147.559 c 272.969 120.27 228.566 120.27
 201.277 147.559 c 199.629 149.207 198.086 150.918 196.637 152.68 c 224.105
 130.133 264.855 131.676 290.5 157.32 c 316.145 182.961 317.688 223.715 
295.141 251.184 c h
295.141 251.184 m f
178.582 269.238 m 140.418 231.074 138.852 169.969 173.871 129.914 c 172.148
 131.418 170.461 132.984 168.82 134.625 c 129.02 174.43 129.02 239.195 168.82
 278.996 c 208.625 318.801 273.391 318.801 313.195 278.996 c 314.836 277.355
 316.398 275.672 317.906 273.949 c 277.852 308.965 216.746 307.398 178.582
 269.238 c h
178.582 269.238 m f
0.92549 0.764706 0.180392 rg
360.383 284.316 m 354.75 294.578 348.211 304.262 340.859 313.266 c 335.301
 320.078 329.289 326.504 322.859 332.488 c 318.848 327.039 315.488 321.578
 312.824 316.281 c 305.812 302.316 303.699 289.508 307.688 281.121 c 308.484
 279.434 309.523 277.934 310.828 276.629 c 312.129 275.332 313.637 274.289
 315.324 273.488 c 323.699 269.504 336.512 271.621 350.477 278.633 c 353.73
 280.266 357.047 282.164 360.383 284.316 c h
360.383 284.316 m f
0.905882 0.647059 0.180392 rg
336.824 318.047 m 332.43 323.102 327.766 327.914 322.867 332.484 c 306.164
 309.773 300.602 286.859 310.828 276.629 c 307.238 280.223 318.316 297.391
 336.824 318.047 c h
336.824 318.047 m f
350.473 278.633 m 312.828 316.277 l 305.812 302.316 303.703 289.504 307.688
 281.125 c 315.32 273.492 l 323.699 269.504 336.512 271.617 350.473 278.633
 c h
350.473 278.633 m f
0.92549 0.764706 0.180392 rg
330.473 245.75 m 279.949 296.277 l 274.387 301.84 274.387 310.859 279.949
 316.422 c 285.512 321.988 294.535 321.988 300.098 316.422 c 350.621 265.898
 l 356.184 260.336 356.184 251.316 350.621 245.75 c 345.059 240.188 336.035
 240.188 330.473 245.75 c h
330.473 245.75 m f
0.905882 0.647059 0.180392 rg
312.637 297.977 m 316.285 297.984 319.926 296.59 322.711 293.805 c 300.098
 316.418 l 297.316 319.203 293.672 320.594 290.02 320.594 c 286.379 320.594
 282.73 319.207 279.949 316.422 c 274.383 310.859 274.383 301.836 279.949
 296.27 c 302.562 273.66 l 296.996 279.223 297 288.242 302.566 293.805 c
 305.348 296.59 308.992 297.984 312.637 297.977 c h
312.637 297.977 m f
Q Q
showpage
%%Trailer
end
%%EOF
