%!PS-Adobe-3.0 EPSF-3.0
%%Creator: cairo 1.16.0 (https://cairographics.org)
%%CreationDate: Thu Nov 14 08:46:27 2019
%%Pages: 1
%%DocumentData: Clean7Bit
%%LanguageLevel: 2
%%BoundingBox: 0 0 384 384
%%EndComments
%%BeginProlog
50 dict begin
/q { gsave } bind def
/Q { grestore } bind def
/cm { 6 array astore concat } bind def
/w { setlinewidth } bind def
/J { setlinecap } bind def
/j { setlinejoin } bind def
/M { setmiterlimit } bind def
/d { setdash } bind def
/m { moveto } bind def
/l { lineto } bind def
/c { curveto } bind def
/h { closepath } bind def
/re { exch dup neg 3 1 roll 5 3 roll moveto 0 rlineto
      0 exch rlineto 0 rlineto closepath } bind def
/S { stroke } bind def
/f { fill } bind def
/f* { eofill } bind def
/n { newpath } bind def
/W { clip } bind def
/W* { eoclip } bind def
/BT { } bind def
/ET { } bind def
/BDC { mark 3 1 roll /BDC pdfmark } bind def
/EMC { mark /EMC pdfmark } bind def
/cairo_store_point { /cairo_point_y exch def /cairo_point_x exch def } def
/Tj { show currentpoint cairo_store_point } bind def
/TJ {
  {
    dup
    type /stringtype eq
    { show } { -0.001 mul 0 cairo_font_matrix dtransform rmoveto } ifelse
  } forall
  currentpoint cairo_store_point
} bind def
/cairo_selectfont { cairo_font_matrix aload pop pop pop 0 0 6 array astore
    cairo_font exch selectfont cairo_point_x cairo_point_y moveto } bind def
/Tf { pop /cairo_font exch def /cairo_font_matrix where
      { pop cairo_selectfont } if } bind def
/Td { matrix translate cairo_font_matrix matrix concatmatrix dup
      /cairo_font_matrix exch def dup 4 get exch 5 get cairo_store_point
      /cairo_font where { pop cairo_selectfont } if } bind def
/Tm { 2 copy 8 2 roll 6 array astore /cairo_font_matrix exch def
      cairo_store_point /cairo_font where { pop cairo_selectfont } if } bind def
/g { setgray } bind def
/rg { setrgbcolor } bind def
/d1 { setcachedevice } bind def
/cairo_data_source {
  CairoDataIndex CairoData length lt
    { CairoData CairoDataIndex get /CairoDataIndex CairoDataIndex 1 add def }
    { () } ifelse
} def
/cairo_flush_ascii85_file { cairo_ascii85_file status { cairo_ascii85_file flushfile } if } def
/cairo_image { image cairo_flush_ascii85_file } def
/cairo_imagemask { imagemask cairo_flush_ascii85_file } def
%%EndProlog
%%BeginSetup
%%EndSetup
%%Page: 1 1
%%BeginPageSetup
%%PageBoundingBox: 0 0 384 384
%%EndPageSetup
q 0 0 384 384 rectclip
1 0 0 -1 0 384 cm q
0.501961 0.886275 0.615686 rg
384 192 m 384 205.266 382.656 218.219 380.094 230.73 c 376.836 246.629 
371.609 261.809 364.688 276.008 c 333.531 339.945 267.906 384 192 384 c 
85.965 384 0 298.035 0 192 c 0 85.965 85.965 0 192 0 c 258.496 0 317.102
 33.809 351.555 85.172 c 365.168 105.465 375.016 128.496 380.094 153.27 
c 382.656 165.781 384 178.734 384 192 c h
384 192 m f
0.92549 0.764706 0.180392 rg
194.219 11.258 m 39.355 11.258 l 21.781 11.258 7.539 25.5 7.539 43.07 c
 7.539 174.996 l 7.539 192.566 21.781 206.812 39.355 206.812 c 44.492 206.812
 l 65.367 237.688 l 69.734 244.148 79.246 244.148 83.613 237.688 c 104.488
 206.812 l 194.219 206.812 l 211.789 206.812 226.035 192.566 226.035 174.996
 c 226.035 43.07 l 226.035 25.5 211.789 11.258 194.219 11.258 c h
194.219 11.258 m f
0.905882 0.647059 0.180392 rg
82.129 239.449 m 77.355 244.078 69.289 243.484 65.363 237.688 c 44.484 
206.812 l 39.355 206.812 l 21.781 206.812 7.539 192.57 7.539 174.996 c 7.539
 43.07 l 7.539 25.5 21.781 11.258 39.355 11.258 c 54.625 11.258 l 37.051
 11.258 22.809 25.5 22.809 43.07 c 22.809 174.996 l 22.809 192.57 37.051
 206.812 54.625 206.812 c 59.762 206.812 l 80.633 237.688 l 81.086 238.348
 81.578 238.941 82.129 239.449 c h
82.129 239.449 m f
0.262745 0.298039 0.329412 rg
159.699 165.926 m 156.82 165.926 153.941 164.828 151.746 162.629 c 124.395
 135.277 l 120 130.883 120 123.762 124.395 119.367 c 128.785 114.977 135.91
 114.977 140.305 119.367 c 167.656 146.719 l 172.047 151.113 172.047 158.234
 167.656 162.629 c 165.457 164.828 162.578 165.926 159.699 165.926 c h
159.699 165.926 m f
116.621 166.27 m 86.848 166.27 62.625 142.047 62.625 112.273 c 62.625 82.5
 86.848 58.273 116.621 58.273 c 146.395 58.273 170.617 82.496 170.617 112.273
 c 170.617 142.047 146.395 166.27 116.621 166.27 c h
116.621 80.773 m 99.254 80.773 85.125 94.902 85.125 112.273 c 85.125 129.641
 99.254 143.77 116.621 143.77 c 133.988 143.77 148.117 129.641 148.117 112.273
 c 148.117 94.906 133.988 80.773 116.621 80.773 c h
116.621 80.773 m f
0.964706 0.945098 0.945098 rg
380.094 116.82 m 380.094 230.73 l 376.836 246.629 371.609 261.809 364.688
 276.008 c 359.895 278.895 354.277 280.559 348.277 280.559 c 343.141 280.559
 l 322.266 311.438 l 317.895 317.895 308.387 317.895 304.02 311.438 c 283.141
 280.559 l 195.465 280.559 l 177.891 280.559 163.648 266.316 163.648 248.746
 c 163.648 116.82 l 163.648 99.246 177.891 85.004 195.465 85.004 c 348.277
 85.004 l 349.379 85.004 350.477 85.066 351.555 85.172 c 367.59 86.812 380.094
 100.352 380.094 116.82 c h
380.094 116.82 m f
0.87451 0.917647 0.937255 rg
210.699 280.559 m 195.465 280.559 l 177.891 280.559 163.648 266.316 163.648
 248.746 c 163.648 116.82 l 163.648 99.246 177.891 85.004 195.465 85.004
 c 210.699 85.004 l 193.125 85.004 178.883 99.246 178.883 116.82 c 178.883
 248.746 l 178.883 266.316 193.125 280.559 210.699 280.559 c h
210.699 280.559 m f
0.976471 0.239216 0.431373 rg
316.148 218.375 m 284.336 134.082 l 284.297 133.977 284.258 133.875 284.215
 133.773 c 282.172 128.809 277.387 125.602 272.02 125.602 c 272.016 125.602
 272.008 125.602 272.004 125.602 c 266.633 125.605 261.844 128.824 259.812
 133.797 c 259.777 133.883 259.742 133.965 259.711 134.051 c 227.609 218.344
 l 225.395 224.148 228.309 230.648 234.117 232.859 c 235.434 233.359 236.789
 233.598 238.117 233.598 c 242.652 233.598 246.926 230.84 248.633 226.352
 c 253.871 212.602 l 289.922 212.602 l 295.098 226.316 l 297.289 232.133
 303.781 235.066 309.594 232.871 c 315.406 230.68 318.34 224.188 316.148
 218.375 c h
262.441 190.105 m 271.977 165.062 l 281.43 190.105 l h
262.441 190.105 m f
Q Q
showpage
%%Trailer
end
%%EOF
