%!PS-Adobe-3.0 EPSF-3.0
%%Creator: cairo 1.16.0 (https://cairographics.org)
%%CreationDate: Thu Nov 14 08:46:28 2019
%%Pages: 1
%%DocumentData: Clean7Bit
%%LanguageLevel: 2
%%BoundingBox: 0 0 384 384
%%EndComments
%%BeginProlog
50 dict begin
/q { gsave } bind def
/Q { grestore } bind def
/cm { 6 array astore concat } bind def
/w { setlinewidth } bind def
/J { setlinecap } bind def
/j { setlinejoin } bind def
/M { setmiterlimit } bind def
/d { setdash } bind def
/m { moveto } bind def
/l { lineto } bind def
/c { curveto } bind def
/h { closepath } bind def
/re { exch dup neg 3 1 roll 5 3 roll moveto 0 rlineto
      0 exch rlineto 0 rlineto closepath } bind def
/S { stroke } bind def
/f { fill } bind def
/f* { eofill } bind def
/n { newpath } bind def
/W { clip } bind def
/W* { eoclip } bind def
/BT { } bind def
/ET { } bind def
/BDC { mark 3 1 roll /BDC pdfmark } bind def
/EMC { mark /EMC pdfmark } bind def
/cairo_store_point { /cairo_point_y exch def /cairo_point_x exch def } def
/Tj { show currentpoint cairo_store_point } bind def
/TJ {
  {
    dup
    type /stringtype eq
    { show } { -0.001 mul 0 cairo_font_matrix dtransform rmoveto } ifelse
  } forall
  currentpoint cairo_store_point
} bind def
/cairo_selectfont { cairo_font_matrix aload pop pop pop 0 0 6 array astore
    cairo_font exch selectfont cairo_point_x cairo_point_y moveto } bind def
/Tf { pop /cairo_font exch def /cairo_font_matrix where
      { pop cairo_selectfont } if } bind def
/Td { matrix translate cairo_font_matrix matrix concatmatrix dup
      /cairo_font_matrix exch def dup 4 get exch 5 get cairo_store_point
      /cairo_font where { pop cairo_selectfont } if } bind def
/Tm { 2 copy 8 2 roll 6 array astore /cairo_font_matrix exch def
      cairo_store_point /cairo_font where { pop cairo_selectfont } if } bind def
/g { setgray } bind def
/rg { setrgbcolor } bind def
/d1 { setcachedevice } bind def
/cairo_data_source {
  CairoDataIndex CairoData length lt
    { CairoData CairoDataIndex get /CairoDataIndex CairoDataIndex 1 add def }
    { () } ifelse
} def
/cairo_flush_ascii85_file { cairo_ascii85_file status { cairo_ascii85_file flushfile } if } def
/cairo_image { image cairo_flush_ascii85_file } def
/cairo_imagemask { imagemask cairo_flush_ascii85_file } def
%%EndProlog
%%BeginSetup
%%EndSetup
%%Page: 1 1
%%BeginPageSetup
%%PageBoundingBox: 0 0 384 384
%%EndPageSetup
q 0 0 384 384 rectclip
1 0 0 -1 0 384 cm q
0.85098 0.447059 0.243137 rg
384 192 m 384 212.445 380.805 232.148 374.879 250.629 c 373.125 256.125
 371.121 261.512 368.887 266.773 c 358.281 291.84 342.504 314.191 322.883
 332.484 c 316.648 338.289 310.035 343.68 303.066 348.629 c 271.719 370.906
 233.387 384 192 384 c 150.613 384 112.281 370.906 80.934 348.629 c 73.965
 343.68 67.352 338.289 61.117 332.484 c 41.496 314.191 25.719 291.84 15.113
 266.773 c 12.879 261.512 10.875 256.125 9.121 250.629 c 3.195 232.148 0
 212.445 0 192 c 0 189.629 0.047 187.273 0.129 184.922 c 0.324 179.477 0.75
 174.09 1.395 168.766 c 4.223 145.297 11.289 123.137 21.801 103.066 c 24.703
 97.516 27.879 92.121 31.289 86.91 c 65.578 34.574 124.754 0 192 0 c 259.246
 0 318.422 34.574 352.711 86.91 c 356.121 92.121 359.297 97.516 362.199 
103.066 c 372.711 123.137 379.777 145.297 382.605 168.766 c 383.25 174.09
 383.676 179.477 383.871 184.922 c 383.953 187.273 384 189.629 384 192 c
 h
384 192 m f
0.741176 0.329412 0.137255 rg
322.883 332.484 m 316.648 338.289 310.035 343.68 303.066 348.629 c 80.934
 348.629 l 73.965 343.68 67.352 338.289 61.117 332.484 c h
322.883 332.484 m f
374.879 250.629 m 373.125 256.125 371.121 261.512 368.887 266.773 c 15.113
 266.773 l 12.879 261.512 10.875 256.125 9.121 250.629 c h
374.879 250.629 m f
383.871 184.922 m 0.129 184.922 l 0.324 179.477 0.75 174.09 1.395 168.766
 c 382.605 168.766 l 383.25 174.09 383.676 179.477 383.871 184.922 c h
383.871 184.922 m f
362.199 103.066 m 21.801 103.066 l 24.703 97.516 27.879 92.121 31.289 86.91
 c 352.711 86.91 l 356.121 92.121 359.297 97.516 362.199 103.066 c h
362.199 103.066 m f
0.564706 0.847059 0.976471 rg
363.34 171.34 m 363.34 265.969 286.629 342.684 192 342.684 c 97.371 342.684
 20.66 265.969 20.66 171.34 c 20.66 76.711 97.371 0 192 0 c 286.629 0 363.34
 76.711 363.34 171.34 c h
363.34 171.34 m f
0.380392 0.635294 0.976471 rg
199.105 342.535 m 196.75 342.641 194.383 342.688 191.996 342.688 c 97.367
 342.688 20.66 265.977 20.66 171.34 c 20.66 76.715 97.367 0.004 191.996 
0.004 c 194.383 0.004 196.75 0.047 199.105 0.152 c 107.77 3.875 34.871 79.098
 34.871 171.34 c 34.871 263.59 107.77 338.816 199.105 342.535 c h
199.105 342.535 m f
0.72549 0.894118 0.937255 rg
322.648 171.34 m 322.648 243.496 264.156 301.992 192 301.992 c 119.844 
301.992 61.352 243.496 61.352 171.34 c 61.352 99.184 119.844 40.691 192 
40.691 c 264.156 40.691 322.648 99.184 322.648 171.34 c h
322.648 171.34 m f
1 g
322.648 171.336 m 322.648 243.496 264.156 301.996 192 301.996 c 188.211
 301.996 184.469 301.836 180.766 301.516 c 247.656 295.816 300.172 239.707
 300.172 171.336 c 300.172 102.977 247.656 46.867 180.766 41.168 c 184.469
 40.844 188.211 40.688 192 40.688 c 264.156 40.688 322.648 99.188 322.648
 171.336 c h
322.648 171.336 m f
0.380392 0.635294 0.976471 rg
192 311.742 m 114.582 311.742 51.602 248.758 51.602 171.34 c 51.602 93.926
 114.582 30.941 192 30.941 c 269.418 30.941 332.398 93.926 332.398 171.34
 c 332.398 248.758 269.418 311.742 192 311.742 c h
192 50.441 m 125.336 50.441 71.102 104.676 71.102 171.34 c 71.102 238.004
 125.336 292.242 192 292.242 c 258.664 292.242 312.898 238.004 312.898 171.34
 c 312.898 104.676 258.664 50.441 192 50.441 c h
192 50.441 m f
0.262745 0.298039 0.329412 rg
207.531 266.953 m 207.531 275.531 200.578 282.484 192 282.484 c 183.422
 282.484 176.469 275.531 176.469 266.953 c 176.469 258.379 183.422 251.426
 192 251.426 c 200.578 251.426 207.531 258.379 207.531 266.953 c h
207.531 266.953 m f
207.531 75.727 m 207.531 84.305 200.578 91.258 192 91.258 c 183.422 91.258
 176.469 84.305 176.469 75.727 c 176.469 67.152 183.422 60.199 192 60.199
 c 200.578 60.199 207.531 67.152 207.531 75.727 c h
207.531 75.727 m f
111.918 171.34 m 111.918 179.918 104.965 186.871 96.387 186.871 c 87.809
 186.871 80.859 179.918 80.859 171.34 c 80.859 162.766 87.809 155.812 96.387
 155.812 c 104.965 155.812 111.918 162.766 111.918 171.34 c h
111.918 171.34 m f
303.141 171.34 m 303.141 179.918 296.191 186.871 287.613 186.871 c 279.035
 186.871 272.082 179.918 272.082 171.34 c 272.082 162.766 279.035 155.812
 287.613 155.812 c 296.191 155.812 303.141 162.766 303.141 171.34 c h
303.141 171.34 m f
0.92549 0.764706 0.180392 rg
192 80.773 m 186.203 80.773 181.5 85.477 181.5 91.273 c 181.5 190.145 l
 181.5 195.941 186.203 200.641 192 200.641 c 197.797 200.641 202.5 195.941
 202.5 190.145 c 202.5 91.273 l 202.5 85.477 197.797 80.773 192 80.773 c
 h
192 80.773 m f
0.905882 0.647059 0.180392 rg
194.805 200.254 m 193.914 200.504 192.977 200.637 192 200.637 c 186.203
 200.637 181.5 195.941 181.5 190.145 c 181.5 91.273 l 181.5 85.473 186.203
 80.773 192 80.773 c 192.977 80.773 193.914 80.906 194.805 81.156 c 190.375
 82.383 187.117 86.449 187.117 91.273 c 187.117 190.145 l 187.117 194.969
 190.375 199.031 194.805 200.254 c h
194.805 200.254 m f
0.976471 0.239216 0.431373 rg
245.023 171.34 m 245.023 165.543 240.324 160.844 234.527 160.844 c 173.301
 160.844 l 167.504 160.844 162.805 165.543 162.805 171.34 c 162.805 177.141
 167.504 181.84 173.301 181.84 c 234.527 181.84 l 240.324 181.84 245.023
 177.141 245.023 171.34 c h
245.023 171.34 m f
0.894118 0.0901961 0.32549 rg
245.027 171.34 m 245.027 177.145 240.324 181.84 234.527 181.84 c 173.305
 181.84 l 170.41 181.84 167.785 180.664 165.879 178.766 c 163.98 176.867
 162.805 174.242 162.805 171.34 c 162.805 170.379 162.93 169.449 163.172
 168.57 c 163.66 170.363 164.613 171.961 165.879 173.23 c 167.785 175.129
 170.41 176.305 173.305 176.305 c 234.527 176.305 l 239.363 176.305 243.445
 173.027 244.66 168.57 c 244.898 169.449 245.027 170.379 245.027 171.34 
c h
245.027 171.34 m f
0.262745 0.298039 0.329412 rg
150.641 88.539 m 150.641 92.098 147.754 94.984 144.195 94.984 c 140.633
 94.984 137.746 92.098 137.746 88.539 c 137.746 84.977 140.633 82.09 144.195
 82.09 c 147.754 82.09 150.641 84.977 150.641 88.539 c h
150.641 88.539 m f
246.254 254.145 m 246.254 257.707 243.367 260.594 239.805 260.594 c 236.246
 260.594 233.359 257.707 233.359 254.145 c 233.359 250.582 236.246 247.695
 239.805 247.695 c 243.367 247.695 246.254 250.582 246.254 254.145 c h
246.254 254.145 m f
115.645 123.535 m 115.645 127.098 112.758 129.984 109.195 129.984 c 105.637
 129.984 102.75 127.098 102.75 123.535 c 102.75 119.973 105.637 117.086 
109.195 117.086 c 112.758 117.086 115.645 119.973 115.645 123.535 c h
115.645 123.535 m f
281.25 219.148 m 281.25 222.707 278.363 225.594 274.805 225.594 c 271.242
 225.594 268.355 222.707 268.355 219.148 c 268.355 215.586 271.242 212.699
 274.805 212.699 c 278.363 212.699 281.25 215.586 281.25 219.148 c h
281.25 219.148 m f
115.645 219.148 m 115.645 222.707 112.758 225.594 109.195 225.594 c 105.637
 225.594 102.75 222.707 102.75 219.148 c 102.75 215.586 105.637 212.699 
109.195 212.699 c 112.758 212.699 115.645 215.586 115.645 219.148 c h
115.645 219.148 m f
281.25 123.535 m 281.25 127.098 278.363 129.984 274.805 129.984 c 271.242
 129.984 268.355 127.098 268.355 123.535 c 268.355 119.973 271.242 117.086
 274.805 117.086 c 278.363 117.086 281.25 119.973 281.25 123.535 c h
281.25 123.535 m f
150.641 254.145 m 150.641 257.707 147.754 260.594 144.195 260.594 c 140.633
 260.594 137.746 257.707 137.746 254.145 c 137.746 250.582 140.633 247.695
 144.195 247.695 c 147.754 247.695 150.641 250.582 150.641 254.145 c h
150.641 254.145 m f
246.254 88.539 m 246.254 92.098 243.367 94.984 239.805 94.984 c 236.246
 94.984 233.359 92.098 233.359 88.539 c 233.359 84.977 236.246 82.09 239.805
 82.09 c 243.367 82.09 246.254 84.977 246.254 88.539 c h
246.254 88.539 m f
209.098 171.34 m 209.098 180.785 201.441 188.438 192 188.438 c 182.559 
188.438 174.902 180.785 174.902 171.34 c 174.902 161.898 182.559 154.246
 192 154.246 c 201.441 154.246 209.098 161.898 209.098 171.34 c h
209.098 171.34 m f
0.0941176 0.117647 0.129412 rg
200.262 171.34 m 200.262 175.902 196.562 179.602 192 179.602 c 187.438 
179.602 183.738 175.902 183.738 171.34 c 183.738 166.777 187.438 163.082
 192 163.082 c 196.562 163.082 200.262 166.777 200.262 171.34 c h
200.262 171.34 m f
Q Q
showpage
%%Trailer
end
%%EOF
