%!PS-Adobe-3.0 EPSF-3.0
%%Creator: cairo 1.16.0 (https://cairographics.org)
%%CreationDate: Thu Nov 14 08:46:29 2019
%%Pages: 1
%%DocumentData: Clean7Bit
%%LanguageLevel: 2
%%BoundingBox: 0 0 384 384
%%EndComments
%%BeginProlog
50 dict begin
/q { gsave } bind def
/Q { grestore } bind def
/cm { 6 array astore concat } bind def
/w { setlinewidth } bind def
/J { setlinecap } bind def
/j { setlinejoin } bind def
/M { setmiterlimit } bind def
/d { setdash } bind def
/m { moveto } bind def
/l { lineto } bind def
/c { curveto } bind def
/h { closepath } bind def
/re { exch dup neg 3 1 roll 5 3 roll moveto 0 rlineto
      0 exch rlineto 0 rlineto closepath } bind def
/S { stroke } bind def
/f { fill } bind def
/f* { eofill } bind def
/n { newpath } bind def
/W { clip } bind def
/W* { eoclip } bind def
/BT { } bind def
/ET { } bind def
/BDC { mark 3 1 roll /BDC pdfmark } bind def
/EMC { mark /EMC pdfmark } bind def
/cairo_store_point { /cairo_point_y exch def /cairo_point_x exch def } def
/Tj { show currentpoint cairo_store_point } bind def
/TJ {
  {
    dup
    type /stringtype eq
    { show } { -0.001 mul 0 cairo_font_matrix dtransform rmoveto } ifelse
  } forall
  currentpoint cairo_store_point
} bind def
/cairo_selectfont { cairo_font_matrix aload pop pop pop 0 0 6 array astore
    cairo_font exch selectfont cairo_point_x cairo_point_y moveto } bind def
/Tf { pop /cairo_font exch def /cairo_font_matrix where
      { pop cairo_selectfont } if } bind def
/Td { matrix translate cairo_font_matrix matrix concatmatrix dup
      /cairo_font_matrix exch def dup 4 get exch 5 get cairo_store_point
      /cairo_font where { pop cairo_selectfont } if } bind def
/Tm { 2 copy 8 2 roll 6 array astore /cairo_font_matrix exch def
      cairo_store_point /cairo_font where { pop cairo_selectfont } if } bind def
/g { setgray } bind def
/rg { setrgbcolor } bind def
/d1 { setcachedevice } bind def
/cairo_data_source {
  CairoDataIndex CairoData length lt
    { CairoData CairoDataIndex get /CairoDataIndex CairoDataIndex 1 add def }
    { () } ifelse
} def
/cairo_flush_ascii85_file { cairo_ascii85_file status { cairo_ascii85_file flushfile } if } def
/cairo_image { image cairo_flush_ascii85_file } def
/cairo_imagemask { imagemask cairo_flush_ascii85_file } def
%%EndProlog
%%BeginSetup
%%EndSetup
%%Page: 1 1
%%BeginPageSetup
%%PageBoundingBox: 0 0 384 384
%%EndPageSetup
q 0 0 384 384 rectclip
1 0 0 -1 0 384 cm q
0.737255 0.584314 0.886275 rg
384 192 m 384 243.039 364.078 289.418 331.605 323.812 c 323.145 332.766
 313.836 340.906 303.809 348.098 c 299.309 351.328 294.676 354.359 289.898
 357.195 c 261.234 374.219 227.762 384 192 384 c 156.238 384 122.766 374.219
 94.102 357.195 c 84.234 351.336 74.934 344.617 66.309 337.141 c 61.449 
332.934 56.805 328.477 52.395 323.812 c 19.922 289.418 0 243.039 0 192 c
 0 85.965 85.965 0 192 0 c 268.738 0 334.973 45.031 365.699 110.109 c 376.695
 133.363 383.145 159.188 383.918 186.426 c 383.969 188.281 384 190.141 384
 192 c h
384 192 m f
0.866667 0.784314 0.945098 rg
345.855 160.844 m 303.809 175.207 l 320.961 241.582 l 154.172 250.629 l
 124.973 150.066 l 217.703 50.438 l 365.699 110.109 l 376.695 133.363 383.145
 159.188 383.918 186.426 c h
345.855 160.844 m f
0.964706 0.945098 0.945098 rg
109.633 82.652 m 109.625 82.652 109.617 82.66 109.602 82.668 c 109.02 82.949
 100.191 87.293 90.199 96.07 c 76.809 107.828 67.66 121.656 63.016 137.16
 c 54.441 165.789 61.652 199.332 84.457 236.871 c 82.664 237.961 l 79.582
 236.367 76.574 234.637 73.656 232.781 c 69.074 229.867 64.711 226.637 60.602
 223.121 c 58.469 221.312 56.41 219.418 54.422 217.461 c 51.133 214.219 
48.043 210.781 45.16 207.168 c 45.16 207.168 45.156 207.168 45.156 207.164
 c 35.559 179.664 34.301 153.945 41.453 130.352 c 55.711 83.309 98.238 63.016
 100.043 62.176 c 104.82 72.422 l 104.969 72.738 l h
109.633 82.652 m f
0.87451 0.917647 0.937255 rg
50.473 130.352 m 41.957 158.453 45.367 189.566 60.602 223.121 c 58.469 
221.312 56.41 219.418 54.422 217.461 c 51.133 214.219 48.043 210.781 45.16
 207.168 c 35.559 179.664 34.301 153.949 41.453 130.352 c 55.711 83.309 
98.238 63.016 100.043 62.176 c 101.883 66.121 l 88.754 74.094 61.367 94.414
 50.473 130.352 c h
50.473 130.352 m f
0.92549 0.764706 0.180392 rg
208.527 107.254 m 208.527 126.426 192.988 141.965 173.82 141.965 c 154.648
 141.965 139.109 126.426 139.109 107.254 c 139.109 88.086 154.648 72.547
 173.82 72.547 c 192.988 72.547 208.527 88.086 208.527 107.254 c h
208.527 107.254 m f
0.501961 0.886275 0.615686 rg
158.953 39.129 m 105.691 92.391 l 98.523 85.223 l 90.27 76.973 l 77.727
 64.434 l 77.598 64.301 l 70.242 56.945 66.566 47.309 66.566 37.676 c 66.566
 28.027 70.242 18.395 77.598 11.039 c 92.312 -3.68 116.156 -3.68 130.863
 11.039 c 151.789 31.961 l h
158.953 39.129 m f
0.4 0.705882 0.615686 rg
103.898 63.344 m 91.359 50.801 l 91.227 50.668 l 83.871 43.316 80.195 33.68
 80.195 24.043 c 80.195 17.488 81.898 10.938 85.293 5.105 c 82.543 6.707
 79.949 8.68 77.594 11.039 c 70.238 18.391 66.562 28.027 66.562 37.672 c
 66.562 47.309 70.238 56.945 77.594 64.301 c 90.27 76.977 l 105.691 92.391
 l 119.324 78.762 l h
103.898 63.344 m f
158.953 39.129 m 140.152 71.5 l 105.691 92.391 l 98.523 85.223 l 151.789
 31.961 l h
158.953 39.129 m f
0.501961 0.886275 0.615686 rg
229.848 50.434 m 179.578 109.848 l 116.988 163.281 l 102.125 142.402 98.363
 116.051 105.695 92.391 c 158.957 39.129 l 182.613 31.797 208.969 35.559
 229.848 50.434 c h
229.848 50.434 m f
0.4 0.705882 0.615686 rg
136.605 143.664 m 121.742 122.785 117.98 96.43 125.312 72.773 c 105.691
 92.391 l 98.363 116.051 102.125 142.402 116.988 163.281 c h
136.605 143.664 m f
241.613 47.324 m 245.008 50.156 245.258 55.281 242.137 58.402 c 206.77 
93.77 l 160.336 140.211 l 124.973 175.578 l 121.848 178.699 116.723 178.449
 113.891 175.055 c 113.855 175.012 113.82 174.973 113.785 174.93 c 111.312
 171.957 111.535 167.582 114.266 164.852 c 231.418 47.707 l 234.152 44.973
 238.527 44.754 241.496 47.227 c 241.535 47.258 241.574 47.293 241.613 47.324
 c h
241.613 47.324 m f
0.501961 0.886275 0.615686 rg
125.48 205.266 m 39.219 205.266 l 33.07 205.266 28.09 210.246 28.09 216.391
 c 28.09 231.652 l 136.609 231.652 l 136.609 216.391 l 136.605 210.246 131.625
 205.266 125.48 205.266 c h
125.48 205.266 m f
0.4 0.705882 0.615686 rg
65.859 205.27 m 59.719 205.27 54.73 210.25 54.73 216.391 c 54.73 231.656
 l 28.09 231.656 l 28.09 216.391 l 28.09 210.25 33.07 205.27 39.211 205.27
 c h
65.859 205.27 m f
0.85098 0.447059 0.243137 rg
94.102 256.844 m 94.102 357.195 l 84.234 351.336 74.934 344.617 66.309 
337.141 c 61.449 332.934 56.805 328.477 52.395 323.812 c 52.395 256.844 
l h
94.102 256.844 m f
331.605 256.844 m 331.605 323.812 l 323.145 332.766 313.836 340.906 303.809
 348.098 c 299.309 351.328 294.676 354.359 289.898 357.195 c 289.898 256.844
 l h
331.605 256.844 m f
0.741176 0.329412 0.137255 rg
289.895 256.844 41.711 41.711 re f
303.809 256.844 m 303.809 348.098 l 299.309 351.328 294.676 354.359 289.898
 357.195 c 289.898 256.844 l h
303.809 256.844 m f
52.395 256.844 41.711 41.711 re f
66.309 256.844 m 66.309 337.141 l 61.449 332.934 56.805 328.477 52.395 
323.812 c 52.395 256.844 l h
66.309 256.844 m f
0.85098 0.447059 0.243137 rg
352.098 221.848 m 31.902 221.848 l 23.453 221.848 16.602 228.695 16.602
 237.148 c 16.602 258.051 l 16.602 266.5 23.453 273.352 31.902 273.352 c
 352.098 273.352 l 360.547 273.352 367.398 266.5 367.398 258.051 c 367.398
 237.148 l 367.398 228.695 360.547 221.848 352.098 221.848 c h
352.098 221.848 m f
0.741176 0.329412 0.137255 rg
61.551 273.352 m 31.902 273.352 l 23.449 273.352 16.602 266.496 16.602 
258.051 c 16.602 237.141 l 16.602 228.695 23.449 221.84 31.902 221.84 c 
61.551 221.84 l 53.098 221.84 46.25 228.695 46.25 237.141 c 46.25 258.051
 l 46.25 266.496 53.098 273.352 61.551 273.352 c h
61.551 273.352 m f
0.937255 0.905882 0.894118 rg
198.676 163 m 330.188 163 l 344.727 163 356.512 174.785 356.512 189.328
 c 356.512 203.867 344.727 215.652 330.188 215.652 c 198.676 215.652 l f
0.976471 0.239216 0.431373 rg
198.676 221.848 m 330.188 221.848 l 348.117 221.848 362.707 207.258 362.707
 189.328 c 362.707 171.395 348.117 156.809 330.188 156.809 c 198.676 156.809
 l 195.254 156.809 192.484 159.578 192.484 163 c 192.484 166.418 195.254
 169.191 198.676 169.191 c 330.188 169.191 l 341.289 169.191 350.32 178.227
 350.32 189.328 c 350.32 200.43 341.289 209.465 330.188 209.465 c 198.676
 209.465 l 195.254 209.465 192.484 212.234 192.484 215.656 c 192.484 219.074
 195.254 221.848 198.676 221.848 c h
198.676 221.848 m f
0.854902 0.815686 0.796078 rg
328.41 192.605 m 198.676 192.605 l 198.676 200.336 l 328.41 200.336 l 330.547
 200.336 332.277 198.605 332.277 196.469 c 332.277 194.336 330.547 192.605
 328.41 192.605 c h
328.41 192.605 m f
328.41 178.32 m 198.676 178.32 l 198.676 186.051 l 328.41 186.051 l 330.547
 186.051 332.277 184.32 332.277 182.184 c 332.277 180.051 330.547 178.32
 328.41 178.32 c h
328.41 178.32 m f
Q Q
showpage
%%Trailer
end
%%EOF
