%!PS-Adobe-3.0 EPSF-3.0
%%Creator: cairo 1.16.0 (https://cairographics.org)
%%CreationDate: Thu Nov 14 08:46:31 2019
%%Pages: 1
%%DocumentData: Clean7Bit
%%LanguageLevel: 2
%%BoundingBox: 0 0 384 384
%%EndComments
%%BeginProlog
50 dict begin
/q { gsave } bind def
/Q { grestore } bind def
/cm { 6 array astore concat } bind def
/w { setlinewidth } bind def
/J { setlinecap } bind def
/j { setlinejoin } bind def
/M { setmiterlimit } bind def
/d { setdash } bind def
/m { moveto } bind def
/l { lineto } bind def
/c { curveto } bind def
/h { closepath } bind def
/re { exch dup neg 3 1 roll 5 3 roll moveto 0 rlineto
      0 exch rlineto 0 rlineto closepath } bind def
/S { stroke } bind def
/f { fill } bind def
/f* { eofill } bind def
/n { newpath } bind def
/W { clip } bind def
/W* { eoclip } bind def
/BT { } bind def
/ET { } bind def
/BDC { mark 3 1 roll /BDC pdfmark } bind def
/EMC { mark /EMC pdfmark } bind def
/cairo_store_point { /cairo_point_y exch def /cairo_point_x exch def } def
/Tj { show currentpoint cairo_store_point } bind def
/TJ {
  {
    dup
    type /stringtype eq
    { show } { -0.001 mul 0 cairo_font_matrix dtransform rmoveto } ifelse
  } forall
  currentpoint cairo_store_point
} bind def
/cairo_selectfont { cairo_font_matrix aload pop pop pop 0 0 6 array astore
    cairo_font exch selectfont cairo_point_x cairo_point_y moveto } bind def
/Tf { pop /cairo_font exch def /cairo_font_matrix where
      { pop cairo_selectfont } if } bind def
/Td { matrix translate cairo_font_matrix matrix concatmatrix dup
      /cairo_font_matrix exch def dup 4 get exch 5 get cairo_store_point
      /cairo_font where { pop cairo_selectfont } if } bind def
/Tm { 2 copy 8 2 roll 6 array astore /cairo_font_matrix exch def
      cairo_store_point /cairo_font where { pop cairo_selectfont } if } bind def
/g { setgray } bind def
/rg { setrgbcolor } bind def
/d1 { setcachedevice } bind def
/cairo_data_source {
  CairoDataIndex CairoData length lt
    { CairoData CairoDataIndex get /CairoDataIndex CairoDataIndex 1 add def }
    { () } ifelse
} def
/cairo_flush_ascii85_file { cairo_ascii85_file status { cairo_ascii85_file flushfile } if } def
/cairo_image { image cairo_flush_ascii85_file } def
/cairo_imagemask { imagemask cairo_flush_ascii85_file } def
%%EndProlog
%%BeginSetup
%%EndSetup
%%Page: 1 1
%%BeginPageSetup
%%PageBoundingBox: 0 0 384 384
%%EndPageSetup
q 0 0 384 384 rectclip
1 0 0 -1 0 384 cm q
0.564706 0.847059 0.976471 rg
384 192 m 384 227.145 374.559 260.078 358.066 288.414 c 354.488 294.57 
350.574 300.512 346.352 306.211 c 342.676 311.176 338.762 315.953 334.637
 320.527 c 299.488 359.496 248.602 384 192 384 c 85.965 384 0 298.035 0 
192 c 0 85.965 85.965 0 192 0 c 249.555 0 301.191 25.328 336.375 65.438 
c 339.871 69.414 343.191 73.531 346.352 77.789 c 350.574 83.488 354.488 
89.43 358.066 95.586 c 374.559 123.922 384 156.855 384 192 c h
384 192 m f
0.737255 0.584314 0.886275 rg
298.809 351.57 m 289.551 357.781 279.727 363.211 269.422 367.746 c 261.434
 371.273 253.164 374.273 244.648 376.688 c 243.098 377.129 241.531 377.551
 239.961 377.949 c 224.641 381.898 208.566 384 192 384 c 185.82 384 179.707
 383.707 173.676 383.129 c 161.895 382.02 150.422 379.836 139.352 376.695
 c 133.922 375.148 128.578 373.363 123.352 371.355 c 123.031 371.234 122.707
 371.113 122.387 370.988 c 119.754 369.969 117.148 368.879 114.578 367.746
 c 104.273 363.203 94.449 357.781 85.184 351.562 c 92.977 340.785 103.004
 331.738 114.578 325.074 c 122.227 320.672 130.551 317.316 139.352 315.211
 c 140.707 314.879 142.078 314.578 143.461 314.316 c 146.062 313.809 148.711
 313.418 151.387 313.141 c 152.16 313.059 152.926 312.984 153.703 312.922
 c 156.238 312.711 158.805 312.609 161.398 312.609 c 222.594 312.609 l 225.984
 312.609 229.32 312.789 232.605 313.133 c 235.281 313.41 237.922 313.809
 240.531 314.301 c 241.574 314.504 242.609 314.723 243.637 314.953 c 243.977
 315.047 244.32 315.113 244.648 315.203 c 247.004 315.766 249.328 316.426
 251.609 317.168 c 257.859 319.184 263.82 321.848 269.422 325.074 c 272.512
 326.859 275.488 328.809 278.34 330.914 c 286.184 336.699 293.094 343.672
 298.809 351.57 c h
298.809 351.57 m f
0.576471 0.45098 0.72549 rg
161.398 312.609 m 139.379 312.609 124.453 344.43 123.352 371.355 c 123.031
 371.234 122.707 371.113 122.387 370.988 c 119.754 369.969 117.148 368.879
 114.578 367.746 c 104.273 363.203 94.449 357.781 85.184 351.562 c 92.977
 340.785 103.004 331.738 114.578 325.074 c 122.227 320.672 130.551 317.316
 139.352 315.211 c 140.707 314.879 142.078 314.578 143.461 314.316 c 146.062
 313.809 148.711 313.418 151.387 313.141 c 152.16 313.059 152.926 312.984
 153.703 312.922 c 156.238 312.711 158.805 312.609 161.398 312.609 c h
161.398 312.609 m f
0.964706 0.945098 0.945098 rg
191.992 351.082 m 152.246 373.172 l 140.152 313.184 l 164.852 302.387 l
 f
191.992 351.082 m 231.734 373.172 l 243.828 313.184 l 219.129 302.387 l
 f
0.917647 0.67451 0.615686 rg
225.531 276.402 m 225.531 317.555 l 225.531 332.621 215.598 345.355 201.914
 349.586 c 198.781 350.559 195.441 351.082 191.992 351.082 c 173.473 351.082
 158.465 336.074 158.465 317.555 c 158.465 276.402 l h
225.531 276.402 m f
1 0.796078 0.745098 rg
225.531 314.949 m 225.531 317.555 l 225.531 332.621 215.598 345.355 201.914
 349.586 c 189.566 345.789 180.285 335.055 178.57 321.922 c 180.812 322.059
 183.062 322.129 185.328 322.129 c 191.672 322.129 197.891 321.625 203.949
 320.629 c 211.414 319.43 218.625 317.508 225.531 314.949 c h
225.531 314.949 m f
99.406 208.613 m 99.406 223.988 88.176 236.734 73.473 239.098 c 71.863 
239.359 70.211 239.496 68.523 239.496 c 51.465 239.496 37.641 225.672 37.641
 208.613 c 37.641 191.555 51.465 177.734 68.523 177.734 c 70.211 177.734
 71.863 177.867 73.473 178.129 c 88.176 180.496 99.406 193.242 99.406 208.613
 c h
99.406 208.613 m f
0.917647 0.67451 0.615686 rg
99.406 208.613 m 99.406 223.988 88.176 236.734 73.473 239.098 c 70.801 
229.387 69.371 219.164 69.371 208.613 c 69.371 198.066 70.801 187.844 73.473
 178.129 c 88.176 180.496 99.406 193.242 99.406 208.613 c h
99.406 208.613 m f
79.562 208.613 m 79.562 214.711 74.621 219.652 68.523 219.652 c 62.43 219.652
 57.488 214.711 57.488 208.613 c 57.488 202.52 62.43 197.578 68.523 197.578
 c 74.621 197.578 79.562 202.52 79.562 208.613 c h
79.562 208.613 m f
1 0.796078 0.745098 rg
284.586 208.613 m 284.586 223.988 295.816 236.734 310.52 239.098 c 312.129
 239.359 313.781 239.496 315.469 239.496 c 332.527 239.496 346.348 225.672
 346.348 208.613 c 346.348 191.555 332.527 177.734 315.469 177.734 c 313.781
 177.734 312.129 177.867 310.52 178.129 c 295.816 180.496 284.586 193.242
 284.586 208.613 c h
284.586 208.613 m f
0.917647 0.67451 0.615686 rg
284.586 208.613 m 284.586 223.988 295.816 236.734 310.52 239.098 c 313.191
 229.387 314.617 219.164 314.617 208.613 c 314.617 198.066 313.191 187.844
 310.52 178.129 c 295.816 180.496 284.586 193.242 284.586 208.613 c h
284.586 208.613 m f
326.504 208.613 m 326.504 214.711 321.562 219.652 315.469 219.652 c 309.371
 219.652 304.43 214.711 304.43 208.613 c 304.43 202.52 309.371 197.578 315.469
 197.578 c 321.562 197.578 326.504 202.52 326.504 208.613 c h
326.504 208.613 m f
1 0.796078 0.745098 rg
308.023 192.383 m 308.023 250.121 265.84 298.02 210.617 306.91 c 204.559
 307.906 198.34 308.41 191.996 308.41 c 127.914 308.41 75.969 256.469 75.969
 192.383 c 75.969 74.258 l 308.023 74.258 l h
308.023 192.383 m f
0.917647 0.67451 0.615686 rg
212.434 306.609 m 211.832 306.711 211.227 306.816 210.617 306.914 c 204.559
 307.906 198.34 308.406 191.996 308.406 c 127.914 308.406 75.969 256.469
 75.969 192.383 c 75.969 74.258 l 116.883 74.258 l 116.883 192.383 l 116.883
 249.488 158.117 296.941 212.434 306.609 c h
212.434 306.609 m f
0.741176 0.329412 0.137255 rg
129.523 21.949 m 144.75 21.949 157.098 34.293 157.098 49.523 c 157.098 
71.637 l 157.098 89.566 142.562 104.102 124.633 104.102 c 75.969 104.102
 l 75.969 75.5 l 75.969 45.926 99.945 21.949 129.523 21.949 c h
129.523 21.949 m f
96.242 202.867 m 75.969 202.867 l 75.969 104.102 l 98.738 92.629 l 108.215
 104.102 l h
96.242 202.867 m f
0.85098 0.447059 0.243137 rg
287.75 202.867 m 308.023 202.867 l 308.023 53.223 l 274.996 97.641 l h
287.75 202.867 m f
337.668 0 m 194.137 0 l 173.68 0 157.098 16.582 157.098 37.039 c 157.098
 73.094 l 157.098 90.219 170.98 104.102 188.105 104.102 c 253.07 104.102
 l 299.793 104.102 337.668 66.227 337.668 19.504 c h
337.668 0 m f
0.741176 0.329412 0.137255 rg
221.777 104.102 m 188.109 104.102 l 170.98 104.102 157.098 90.219 157.098
 73.094 c 157.098 37.043 l 157.098 16.582 173.68 0 194.141 0 c 227.809 0
 l 207.355 0 190.773 16.582 190.773 37.043 c 190.773 73.094 l 190.773 90.219
 204.656 104.102 221.777 104.102 c h
221.777 104.102 m f
0.87451 0.576471 0.501961 rg
191.996 253.449 m 182.281 253.449 172.566 251.012 163.711 246.145 c 161.211
 244.773 160.301 241.633 161.672 239.137 c 163.047 236.637 166.184 235.727
 168.684 237.098 c 183.281 245.125 200.711 245.125 215.309 237.098 c 217.809
 235.727 220.945 236.637 222.32 239.137 c 223.691 241.633 222.781 244.773
 220.285 246.145 c 211.426 251.016 201.711 253.449 191.996 253.449 c h
191.996 253.449 m f
0.964706 0.945098 0.945098 rg
165.5 158.324 m 107.238 158.324 l 100.656 158.324 95.32 163.66 95.32 170.246
 c 95.32 200.812 l 95.32 207.395 100.656 212.734 107.238 212.734 c 165.5
 212.734 l 172.082 212.734 177.418 207.398 177.418 200.812 c 177.418 170.246
 l 177.418 163.664 172.082 158.324 165.5 158.324 c h
165.5 158.324 m f
276.754 158.324 m 218.492 158.324 l 211.91 158.324 206.574 163.66 206.574
 170.246 c 206.574 200.812 l 206.574 207.395 211.91 212.734 218.492 212.734
 c 276.754 212.734 l 283.336 212.734 288.672 207.398 288.672 200.812 c 288.672
 170.246 l 288.672 163.664 283.336 158.324 276.754 158.324 c h
276.754 158.324 m f
0.917647 0.67451 0.615686 rg
205.156 218.77 m 178.836 218.77 l 175.699 218.77 173.156 216.23 173.156
 213.094 c 173.156 209.957 175.699 207.414 178.836 207.414 c 205.156 207.414
 l 208.293 207.414 210.836 209.957 210.836 213.094 c 210.836 216.227 208.293
 218.77 205.156 218.77 c h
205.156 218.77 m f
0.87451 0.917647 0.937255 rg
211.004 186.871 m 211.004 199.746 221.441 210.18 234.316 210.18 c 247.188
 210.18 257.625 199.746 257.625 186.871 c f
0.184314 0.215686 0.231373 rg
251.031 186.871 m 251.031 196.102 243.547 203.586 234.316 203.586 c 225.082
 203.586 217.602 196.102 217.602 186.871 c 217.602 177.641 225.082 170.156
 234.316 170.156 c 243.547 170.156 251.031 177.641 251.031 186.871 c h
251.031 186.871 m f
1 g
248.445 183.922 m 248.445 187.875 245.238 191.082 241.281 191.082 c 237.324
 191.082 234.117 187.875 234.117 183.922 c 234.117 179.965 237.324 176.758
 241.281 176.758 c 245.238 176.758 248.445 179.965 248.445 183.922 c h
248.445 183.922 m f
0.87451 0.917647 0.937255 rg
126.367 186.871 m 126.367 199.746 136.805 210.18 149.676 210.18 c 162.551
 210.18 172.988 199.746 172.988 186.871 c f
0.184314 0.215686 0.231373 rg
166.395 186.871 m 166.395 196.102 158.91 203.586 149.676 203.586 c 140.445
 203.586 132.961 196.102 132.961 186.871 c 132.961 177.641 140.445 170.156
 149.676 170.156 c 158.91 170.156 166.395 177.641 166.395 186.871 c h
166.395 186.871 m f
0.0941176 0.117647 0.129412 rg
153.586 203.125 m 152.336 203.43 151.023 203.59 149.68 203.59 c 140.445
 203.59 132.961 196.102 132.961 186.871 c 132.961 177.637 140.445 170.152
 149.68 170.152 c 151.023 170.152 152.336 170.312 153.586 170.617 c 146.238
 172.375 140.785 178.988 140.785 186.871 c 140.785 194.754 146.238 201.367
 153.586 203.125 c h
153.586 203.125 m f
238.223 203.125 m 236.973 203.43 235.66 203.59 234.316 203.59 c 225.086
 203.59 217.598 196.102 217.598 186.871 c 217.598 177.637 225.086 170.152
 234.316 170.152 c 235.66 170.152 236.973 170.312 238.223 170.617 c 230.875
 172.375 225.422 178.988 225.422 186.871 c 225.422 194.754 230.875 201.367
 238.223 203.125 c h
238.223 203.125 m f
1 g
163.805 183.922 m 163.805 187.875 160.598 191.082 156.645 191.082 c 152.688
 191.082 149.48 187.875 149.48 183.922 c 149.48 179.965 152.688 176.758 
156.645 176.758 c 160.598 176.758 163.805 179.965 163.805 183.922 c h
163.805 183.922 m f
0.0941176 0.117647 0.129412 rg
313.688 162.746 m 294.664 162.746 l 291.723 155.75 284.805 150.824 276.754
 150.824 c 218.492 150.824 l 207.785 150.824 199.074 159.535 199.074 170.246
 c 199.074 175.543 l 184.918 175.543 l 184.918 170.246 l 184.918 159.539
 176.207 150.824 165.5 150.824 c 107.238 150.824 l 99.188 150.824 92.266
 155.75 89.328 162.746 c 70.305 162.746 l 70.305 177.746 l 87.82 177.746
 l 87.82 200.812 l 87.82 211.523 96.531 220.234 107.238 220.234 c 165.5 
220.234 l 176.207 220.234 184.918 211.523 184.918 200.812 c 184.918 190.543
 l 199.074 190.543 l 199.074 200.812 l 199.074 211.523 207.785 220.234 218.492
 220.234 c 276.754 220.234 l 287.461 220.234 296.172 211.523 296.172 200.812
 c 296.172 177.746 l 313.691 177.746 l 313.691 162.746 l h
169.918 200.812 m 169.918 203.25 167.934 205.234 165.5 205.234 c 107.238
 205.234 l 104.801 205.234 102.816 203.25 102.816 200.812 c 102.816 170.246
 l 102.816 167.809 104.801 165.824 107.238 165.824 c 165.5 165.824 l 167.934
 165.824 169.918 167.809 169.918 170.246 c h
281.172 200.812 m 281.172 203.25 279.191 205.234 276.754 205.234 c 218.492
 205.234 l 216.055 205.234 214.074 203.25 214.074 200.812 c 214.074 170.246
 l 214.074 167.809 216.055 165.824 218.492 165.824 c 276.754 165.824 l 279.191
 165.824 281.172 167.809 281.172 170.246 c h
281.172 200.812 m f
0.741176 0.329412 0.137255 rg
191.996 227.441 m 191.996 227.441 174.227 214.031 156.348 220.734 c 146.457
 224.445 139.664 233.289 132.906 240.449 c 128.578 245.035 131.914 252.562
 138.219 252.391 c 156.441 251.895 180.578 247.168 191.996 227.441 c h
191.996 227.441 m f
0.85098 0.447059 0.243137 rg
191.996 227.441 m 191.996 227.441 209.766 214.031 227.645 220.734 c 237.535
 224.445 244.328 233.289 251.086 240.449 c 255.414 245.035 252.078 252.562
 245.773 252.391 c 227.551 251.895 203.414 247.168 191.996 227.441 c h
191.996 227.441 m f
0.976471 0.741176 0.364706 rg
378.523 196.336 m 265.973 369.227 l 255.516 373.598 244.59 377.07 233.289
 379.547 c 369.996 190.484 l 371.641 188.211 374.797 187.664 377.113 189.246
 c 378.293 190.059 379.027 191.266 379.273 192.57 c 379.508 193.828 379.273
 195.18 378.523 196.336 c h
378.523 196.336 m f
1 0.639216 0.113725 rg
377.113 189.246 m 376.68 188.949 375.051 190.547 373.449 192.855 c 246.336
 376.199 l 242.055 377.461 237.703 378.578 233.301 379.547 c 369.996 190.484
 l 371.641 188.211 374.797 187.656 377.113 189.246 c h
377.113 189.246 m f
Q Q
showpage
%%Trailer
end
%%EOF
