%!PS-Adobe-3.0 EPSF-3.0
%%Creator: cairo 1.16.0 (https://cairographics.org)
%%CreationDate: Thu Nov 14 08:46:32 2019
%%Pages: 1
%%DocumentData: Clean7Bit
%%LanguageLevel: 2
%%BoundingBox: 0 0 384 384
%%EndComments
%%BeginProlog
50 dict begin
/q { gsave } bind def
/Q { grestore } bind def
/cm { 6 array astore concat } bind def
/w { setlinewidth } bind def
/J { setlinecap } bind def
/j { setlinejoin } bind def
/M { setmiterlimit } bind def
/d { setdash } bind def
/m { moveto } bind def
/l { lineto } bind def
/c { curveto } bind def
/h { closepath } bind def
/re { exch dup neg 3 1 roll 5 3 roll moveto 0 rlineto
      0 exch rlineto 0 rlineto closepath } bind def
/S { stroke } bind def
/f { fill } bind def
/f* { eofill } bind def
/n { newpath } bind def
/W { clip } bind def
/W* { eoclip } bind def
/BT { } bind def
/ET { } bind def
/BDC { mark 3 1 roll /BDC pdfmark } bind def
/EMC { mark /EMC pdfmark } bind def
/cairo_store_point { /cairo_point_y exch def /cairo_point_x exch def } def
/Tj { show currentpoint cairo_store_point } bind def
/TJ {
  {
    dup
    type /stringtype eq
    { show } { -0.001 mul 0 cairo_font_matrix dtransform rmoveto } ifelse
  } forall
  currentpoint cairo_store_point
} bind def
/cairo_selectfont { cairo_font_matrix aload pop pop pop 0 0 6 array astore
    cairo_font exch selectfont cairo_point_x cairo_point_y moveto } bind def
/Tf { pop /cairo_font exch def /cairo_font_matrix where
      { pop cairo_selectfont } if } bind def
/Td { matrix translate cairo_font_matrix matrix concatmatrix dup
      /cairo_font_matrix exch def dup 4 get exch 5 get cairo_store_point
      /cairo_font where { pop cairo_selectfont } if } bind def
/Tm { 2 copy 8 2 roll 6 array astore /cairo_font_matrix exch def
      cairo_store_point /cairo_font where { pop cairo_selectfont } if } bind def
/g { setgray } bind def
/rg { setrgbcolor } bind def
/d1 { setcachedevice } bind def
/cairo_data_source {
  CairoDataIndex CairoData length lt
    { CairoData CairoDataIndex get /CairoDataIndex CairoDataIndex 1 add def }
    { () } ifelse
} def
/cairo_flush_ascii85_file { cairo_ascii85_file status { cairo_ascii85_file flushfile } if } def
/cairo_image { image cairo_flush_ascii85_file } def
/cairo_imagemask { imagemask cairo_flush_ascii85_file } def
%%EndProlog
%%BeginSetup
%%EndSetup
%%Page: 1 1
%%BeginPageSetup
%%PageBoundingBox: 0 0 384 384
%%EndPageSetup
q 0 0 384 384 rectclip
1 0 0 -1 0 384 cm q
0.72549 0.894118 0.937255 rg
384 192 m 384 192.832 383.992 193.664 383.984 194.496 c 383.949 197.363
 383.852 200.211 383.684 203.039 c 383.266 210.473 382.426 217.793 381.18
 224.977 c 380.184 230.754 378.922 236.43 377.422 242.012 c 375.059 250.793
 372.09 259.328 368.551 267.562 c 367.688 269.602 366.773 271.629 365.828
 273.637 c 365.102 275.184 364.352 276.719 363.578 278.242 c 352.754 299.746
 337.996 318.938 320.25 334.867 c 320.055 335.047 319.852 335.219 319.656
 335.398 c 316.762 337.988 313.793 340.477 310.738 342.879 c 309.227 344.07
 307.695 345.238 306.148 346.387 c 274.246 370.02 234.75 384 192 384 c 149.25
 384 109.754 370.02 77.852 346.387 c 76.305 345.238 74.773 344.07 73.262
 342.879 c 70.125 340.41 67.074 337.844 64.109 335.184 c 63.426 334.582 
62.754 333.969 62.086 333.352 c 45.082 317.73 30.914 299.078 20.422 278.242
 c 19.648 276.719 18.898 275.191 18.18 273.637 c 17.145 271.434 16.148 269.203
 15.188 266.949 c 11.773 258.914 8.895 250.598 6.594 242.047 c 5.086 236.453
 3.824 230.762 2.828 224.977 c 1.582 217.793 0.734 210.473 0.316 203.039
 c 0.148 200.102 0.051 197.137 0.016 194.16 c 0.008 193.441 0 192.719 0 
192 c 0 189.324 0.051 186.66 0.164 184.004 c 4.359 81.676 88.641 0 192 0
 c 295.359 0 379.648 81.684 383.836 184.012 c 383.949 186.66 384 189.324
 384 192 c h
384 192 m f
0.92549 0.764706 0.180392 rg
383.984 194.496 m 382.648 299.379 297.203 384 192 384 c 86.684 384 1.172
 299.199 0.016 194.16 c 137.145 131.961 l 240.008 131.961 l h
383.984 194.496 m f
0.301961 g
47.086 231.254 m 47.086 273.637 l 18.18 273.637 l 13.434 263.559 9.539 
252.996 6.594 242.047 c 6.594 231.254 l 6.594 220.59 15.234 211.941 25.906
 211.941 c 27.781 211.941 l 38.445 211.941 47.086 220.59 47.086 231.254 
c h
47.086 231.254 m f
0.905882 0.647059 0.180392 rg
27.781 207.344 m 25.906 207.344 l 14.902 207.344 5.594 214.824 2.828 224.977
 c 3.824 230.762 5.086 236.453 6.594 242.047 c 7.934 247.027 9.473 251.926
 11.199 256.727 c 11.199 231.262 l 11.199 223.148 17.789 216.531 25.906 
216.531 c 27.781 216.531 l 35.887 216.531 42.488 223.148 42.488 231.262 
c 42.488 269.031 l 16.086 269.031 l 16.77 270.578 17.461 272.113 18.18 273.637
 c 18.898 275.191 19.648 276.719 20.422 278.242 c 51.676 278.242 l 51.676
 231.262 l 51.676 218.07 40.949 207.344 27.781 207.344 c h
27.781 207.344 m f
0.301961 g
104.848 231.254 m 104.848 273.637 l 64.359 273.637 l 64.359 231.254 l 64.359
 220.586 73 211.941 83.668 211.941 c 85.543 211.941 l 96.207 211.945 104.848
 220.586 104.848 231.254 c h
104.848 231.254 m f
0.905882 0.647059 0.180392 rg
85.543 207.344 m 83.668 207.344 l 70.492 207.344 59.75 218.066 59.75 231.258
 c 59.75 278.242 l 109.441 278.242 l 109.441 231.258 l 109.441 218.066 98.715
 207.344 85.543 207.344 c h
100.25 269.035 m 68.961 269.035 l 68.961 231.258 l 68.961 223.148 75.559
 216.535 83.668 216.535 c 85.543 216.535 l 93.652 216.535 100.246 223.148
 100.246 231.258 c 100.246 269.035 l h
100.25 269.035 m f
0.301961 g
319.66 231.254 m 319.66 273.637 l 279.164 273.637 l 279.164 231.254 l 279.164
 220.586 287.809 211.941 298.473 211.941 c 300.352 211.941 l 311.016 211.945
 319.66 220.586 319.66 231.254 c h
319.66 231.254 m f
0.905882 0.647059 0.180392 rg
300.352 207.344 m 298.477 207.344 l 285.301 207.344 274.559 218.066 274.559
 231.258 c 274.559 278.242 l 324.25 278.242 l 324.25 231.258 l 324.25 218.066
 313.523 207.344 300.352 207.344 c h
315.059 269.035 m 283.77 269.035 l 283.77 231.258 l 283.77 223.148 290.367
 216.535 298.477 216.535 c 300.352 216.535 l 308.461 216.535 315.059 223.148
 315.059 231.258 c h
315.059 269.035 m f
0.301961 g
377.422 231.254 m 377.422 242.012 l 374.477 252.977 370.574 263.551 365.828
 273.637 c 336.93 273.637 l 336.93 231.254 l 336.93 220.59 345.57 211.941
 356.234 211.941 c 358.117 211.941 l 368.781 211.941 377.422 220.59 377.422
 231.254 c h
377.422 231.254 m f
0.905882 0.647059 0.180392 rg
358.117 207.344 m 356.242 207.344 l 343.066 207.344 332.324 218.07 332.324
 231.262 c 332.324 278.242 l 363.578 278.242 l 364.352 276.719 365.102 275.184
 365.828 273.637 c 366.547 272.113 367.246 270.578 367.914 269.031 c 341.535
 269.031 l 341.535 231.262 l 341.535 223.148 348.129 216.531 356.242 216.531
 c 358.117 216.531 l 366.227 216.531 372.816 223.148 372.816 231.262 c 372.816
 256.711 l 374.543 251.895 376.078 246.996 377.422 242.012 c 378.922 236.43
 380.184 230.754 381.18 224.977 c 378.414 214.824 369.113 207.344 358.117
 207.344 c h
358.117 207.344 m f
0.501961 0.886275 0.615686 rg
94.957 306.539 m 94.957 322.402 82.094 335.258 66.238 335.258 c 65.527 
335.258 64.816 335.234 64.109 335.184 c 63.426 334.582 62.754 333.969 62.086
 333.352 c 45.082 317.73 30.914 299.078 20.422 278.242 c 19.648 276.719 
18.898 275.191 18.18 273.637 c 17.145 271.434 16.148 269.203 15.188 266.949
 c 18.164 266.113 21.301 265.672 24.539 265.672 c 36.496 265.672 47.047 
271.703 53.309 280.898 c 57.195 278.934 61.59 277.824 66.238 277.824 c 82.094
 277.824 94.957 290.676 94.957 306.539 c h
94.957 306.539 m f
368.551 267.562 m 367.688 269.602 366.773 271.629 365.828 273.637 c 365.102
 275.184 364.352 276.719 363.578 278.242 c 352.754 299.746 337.996 318.938
 320.25 334.867 c 318.711 335.121 317.121 335.258 315.512 335.258 c 299.648
 335.258 286.793 322.402 286.793 306.539 c 286.793 290.676 299.648 277.824
 315.512 277.824 c 320.16 277.824 324.547 278.934 328.434 280.898 c 334.695
 271.703 345.246 265.672 357.211 265.672 c 361.176 265.672 364.996 266.34
 368.551 267.562 c h
368.551 267.562 m f
0.74902 0.733333 0.713726 rg
102.812 102.887 176.121 211.113 re f
0.905882 0.647059 0.180392 rg
114.898 149.781 m 114.898 154.891 l 0.316 203.039 l 0.148 200.102 0.051
 197.137 0.016 194.16 c 0.008 193.441 0 192.719 0 192 c 0 189.324 0.051 
186.66 0.164 184.004 c 114.887 135.801 l 114.887 149.781 l h
114.898 149.781 m f
384 192 m 384 192.832 383.992 193.664 383.984 194.496 c 383.949 197.363
 383.852 200.211 383.684 203.039 c 269.102 154.891 l 269.102 149.781 l 269.113
 149.781 l 269.113 135.801 l 383.836 184.012 l 383.949 186.66 384 189.324
 384 192 c h
384 192 m f
0.964706 0.945098 0.945098 rg
91.594 128.582 26.953 185.418 re f
0.87451 0.917647 0.937255 rg
91.594 128.582 26.953 35.172 re f
91.594 128.582 11.219 185.418 re f
0.92549 0.764706 0.180392 rg
82.848 106.359 44.441 44.441 re f
0.905882 0.647059 0.180392 rg
82.848 106.359 18.5 44.441 re f
0.964706 0.945098 0.945098 rg
265.457 128.582 26.949 185.418 re f
0.87451 0.917647 0.937255 rg
265.457 128.582 26.949 35.172 re f
265.457 128.582 11.219 185.418 re f
0.92549 0.764706 0.180392 rg
256.711 106.359 44.441 44.441 re f
0.905882 0.647059 0.180392 rg
256.711 106.359 18.5 44.441 re f
0.964706 0.945098 0.945098 rg
310.312 86.648 m 201.234 3.129 l 195.789 -1.043 188.227 -1.043 182.781 
3.129 c 73.688 86.648 l 67.949 91.043 66.613 97.816 68.52 103.508 c 70.441
 109.238 75.637 113.871 82.914 113.871 c 301.086 113.871 l 308.371 113.871
 313.566 109.238 315.488 103.508 c 317.387 97.816 316.051 91.043 310.312
 86.648 c h
310.312 86.648 m f
0.87451 0.917647 0.937255 rg
201.961 16.59 m 196.086 12.09 187.926 12.09 182.055 16.59 c 68.52 103.508
 l 70.441 109.238 75.637 113.871 82.914 113.871 c 99.523 113.871 l 182.055
 50.691 l 187.926 46.199 196.086 46.199 201.961 50.699 c 284.477 113.871
 l 301.086 113.871 l 308.371 113.871 313.566 109.238 315.488 103.508 c h
201.961 16.59 m f
0.92549 0.764706 0.180392 rg
319.68 93.5 m 201.961 3.375 l 196.086 -1.125 187.93 -1.125 182.055 3.375
 c 64.328 93.5 l 62.891 94.602 61.711 95.84 60.77 97.172 c 51.949 109.637
 68.152 124.672 80.277 115.391 c 182.055 37.473 l 187.93 32.98 196.086 32.98
 201.961 37.48 c 303.734 115.398 l 315.855 124.68 332.043 109.66 323.246
 97.184 c 322.305 95.848 321.121 94.605 319.68 93.5 c h
319.68 93.5 m f
0.25098 0.290196 0.290196 rg
214.074 72.512 m 214.074 84.699 204.191 94.582 192 94.582 c 179.812 94.582
 169.93 84.699 169.93 72.512 c 169.93 60.32 179.812 50.438 192 50.438 c 
204.191 50.438 214.074 60.32 214.074 72.512 c h
214.074 72.512 m f
0.301961 g
182.242 151.27 m 182.242 193.656 l 141.75 193.656 l 141.75 151.27 l 141.75
 140.605 150.395 131.961 161.059 131.961 c 162.938 131.961 l 173.602 131.961
 182.242 140.605 182.242 151.27 c h
182.242 151.27 m f
0.87451 0.917647 0.937255 rg
162.938 127.359 m 161.062 127.359 l 147.887 127.359 137.148 138.086 137.148
 151.277 c 137.148 198.262 l 186.836 198.262 l 186.836 151.277 l 186.836
 138.086 176.109 127.359 162.938 127.359 c h
177.645 189.051 m 146.355 189.051 l 146.355 151.277 l 146.355 143.168 152.953
 136.551 161.062 136.551 c 162.938 136.551 l 171.047 136.551 177.645 143.168
 177.645 151.277 c h
177.645 189.051 m f
0.301961 g
240.008 151.27 m 240.008 193.656 l 199.516 193.656 l 199.516 151.27 l 199.516
 140.605 208.16 131.961 218.824 131.961 c 220.699 131.961 l 231.367 131.961
 240.008 140.605 240.008 151.27 c h
240.008 151.27 m f
0.87451 0.917647 0.937255 rg
220.699 127.359 m 218.828 127.359 l 205.652 127.359 194.91 138.086 194.91
 151.277 c 194.91 198.262 l 244.598 198.262 l 244.598 151.277 l 244.598 
138.086 233.875 127.359 220.699 127.359 c h
235.406 189.051 m 204.121 189.051 l 204.121 151.277 l 204.121 143.168 210.715
 136.551 218.824 136.551 c 220.699 136.551 l 228.812 136.551 235.406 143.168
 235.406 151.277 c h
235.406 189.051 m f
0.301961 g
182.242 231.254 m 182.242 300.465 l 141.75 300.465 l 141.75 231.254 l 141.75
 220.586 150.395 211.941 161.059 211.941 c 162.938 211.941 l 173.602 211.945
 182.242 220.586 182.242 231.254 c h
182.242 231.254 m f
0.87451 0.917647 0.937255 rg
162.938 207.344 m 161.062 207.344 l 147.887 207.344 137.148 218.066 137.148
 231.258 c 137.148 300.465 l 186.836 300.465 l 186.836 231.258 l 186.836
 218.066 176.109 207.344 162.938 207.344 c h
177.645 300.465 m 146.355 300.465 l 146.355 231.262 l 146.355 223.148 152.953
 216.535 161.062 216.535 c 162.938 216.535 l 171.047 216.535 177.645 223.148
 177.645 231.262 c h
177.645 300.465 m f
0.301961 g
240.008 231.254 m 240.008 300.465 l 199.516 300.465 l 199.516 231.254 l
 199.516 220.586 208.16 211.941 218.824 211.941 c 220.699 211.941 l 231.367
 211.945 240.008 220.586 240.008 231.254 c h
240.008 231.254 m f
0.87451 0.917647 0.937255 rg
220.699 207.344 m 218.828 207.344 l 205.652 207.344 194.91 218.066 194.91
 231.258 c 194.91 300.465 l 244.598 300.465 l 244.598 231.258 l 244.598 
218.066 233.875 207.344 220.699 207.344 c h
235.406 300.465 m 204.121 300.465 l 204.121 231.262 l 204.121 223.148 210.715
 216.535 218.824 216.535 c 220.699 216.535 l 228.812 216.535 235.406 223.148
 235.406 231.262 c h
235.406 300.465 m f
79.086 298.555 223.574 28.637 re f
0.964706 0.945098 0.945098 rg
319.656 317.746 m 319.656 335.398 l 316.762 337.988 313.793 340.477 310.738
 342.879 c 309.227 344.07 307.695 345.238 306.148 346.387 c 77.852 346.387
 l 76.305 345.238 74.773 344.07 73.262 342.879 c 69.414 339.848 65.684 336.668
 62.086 333.352 c 62.086 317.746 l h
319.656 317.746 m f
0.87451 0.917647 0.937255 rg
310.738 342.879 m 278.07 368.633 236.828 384 192 384 c 147.172 384 105.93
 368.633 73.262 342.879 c h
310.738 342.879 m f
Q Q
showpage
%%Trailer
end
%%EOF
