%!PS-Adobe-3.0 EPSF-3.0
%%Creator: cairo 1.16.0 (https://cairographics.org)
%%CreationDate: Thu Nov 14 08:46:32 2019
%%Pages: 1
%%DocumentData: Clean7Bit
%%LanguageLevel: 2
%%BoundingBox: 0 0 384 384
%%EndComments
%%BeginProlog
50 dict begin
/q { gsave } bind def
/Q { grestore } bind def
/cm { 6 array astore concat } bind def
/w { setlinewidth } bind def
/J { setlinecap } bind def
/j { setlinejoin } bind def
/M { setmiterlimit } bind def
/d { setdash } bind def
/m { moveto } bind def
/l { lineto } bind def
/c { curveto } bind def
/h { closepath } bind def
/re { exch dup neg 3 1 roll 5 3 roll moveto 0 rlineto
      0 exch rlineto 0 rlineto closepath } bind def
/S { stroke } bind def
/f { fill } bind def
/f* { eofill } bind def
/n { newpath } bind def
/W { clip } bind def
/W* { eoclip } bind def
/BT { } bind def
/ET { } bind def
/BDC { mark 3 1 roll /BDC pdfmark } bind def
/EMC { mark /EMC pdfmark } bind def
/cairo_store_point { /cairo_point_y exch def /cairo_point_x exch def } def
/Tj { show currentpoint cairo_store_point } bind def
/TJ {
  {
    dup
    type /stringtype eq
    { show } { -0.001 mul 0 cairo_font_matrix dtransform rmoveto } ifelse
  } forall
  currentpoint cairo_store_point
} bind def
/cairo_selectfont { cairo_font_matrix aload pop pop pop 0 0 6 array astore
    cairo_font exch selectfont cairo_point_x cairo_point_y moveto } bind def
/Tf { pop /cairo_font exch def /cairo_font_matrix where
      { pop cairo_selectfont } if } bind def
/Td { matrix translate cairo_font_matrix matrix concatmatrix dup
      /cairo_font_matrix exch def dup 4 get exch 5 get cairo_store_point
      /cairo_font where { pop cairo_selectfont } if } bind def
/Tm { 2 copy 8 2 roll 6 array astore /cairo_font_matrix exch def
      cairo_store_point /cairo_font where { pop cairo_selectfont } if } bind def
/g { setgray } bind def
/rg { setrgbcolor } bind def
/d1 { setcachedevice } bind def
/cairo_data_source {
  CairoDataIndex CairoData length lt
    { CairoData CairoDataIndex get /CairoDataIndex CairoDataIndex 1 add def }
    { () } ifelse
} def
/cairo_flush_ascii85_file { cairo_ascii85_file status { cairo_ascii85_file flushfile } if } def
/cairo_image { image cairo_flush_ascii85_file } def
/cairo_imagemask { imagemask cairo_flush_ascii85_file } def
%%EndProlog
%%BeginSetup
%%EndSetup
%%Page: 1 1
%%BeginPageSetup
%%PageBoundingBox: 0 0 384 384
%%EndPageSetup
q 0 0 384 384 rectclip
1 0 0 -1 0 384 cm q
0.85098 0.447059 0.243137 rg
384 192 m 384 221.371 377.398 249.203 365.602 274.094 c 352.027 302.773
 331.547 327.539 306.316 346.266 c 274.379 369.977 234.824 384 192 384 c
 149.176 384 109.621 369.977 77.684 346.266 c 60.676 333.637 45.816 318.262
 33.789 300.797 c 27.969 292.359 22.816 283.434 18.398 274.094 c 6.602 249.203
 0 221.371 0 192 c 0 162.629 6.602 134.797 18.398 109.906 c 22.816 100.559
 27.977 91.637 33.789 83.199 c 48.082 62.445 66.352 44.656 87.496 30.906
 c 117.57 11.363 153.457 0 192 0 c 230.543 0 266.43 11.363 296.504 30.906
 c 326.25 50.242 350.309 77.594 365.602 109.906 c 377.398 134.797 384 162.629
 384 192 c h
384 192 m f
0.92549 0.764706 0.180392 rg
365.602 67.328 m 365.602 274.094 l 352.027 302.773 331.547 327.539 306.316
 346.266 c 77.684 346.266 l 52.453 327.539 31.973 302.773 18.398 274.094
 c 18.398 67.328 l 18.398 47.211 34.703 30.906 54.816 30.906 c 329.184 30.906
 l 349.297 30.906 365.602 47.211 365.602 67.328 c h
365.602 67.328 m f
0.905882 0.647059 0.180392 rg
70.207 30.906 m 50.102 30.906 33.789 47.211 33.789 67.328 c 33.789 300.797
 l 27.969 292.359 22.816 283.434 18.398 274.094 c 18.398 67.328 l 18.398
 47.211 34.703 30.906 54.816 30.906 c h
70.207 30.906 m f
54.816 316.266 m 51.277 316.266 48.398 313.383 48.398 309.844 c 48.398 
67.328 l 48.398 63.789 51.277 60.91 54.816 60.91 c 329.184 60.91 l 332.723
 60.91 335.602 63.789 335.602 67.328 c 335.602 309.844 l 335.602 313.383
 332.723 316.266 329.184 316.266 c h
54.816 316.266 m f
0.964706 0.945098 0.945098 rg
66.398 78.906 251.203 219.359 re f
0.976471 0.239216 0.431373 rg
203.328 334.496 m 195.289 330.199 l 193.234 329.102 190.766 329.102 188.707
 330.199 c 180.672 334.496 l 176.02 336.984 170.398 333.613 170.398 328.34
 c 170.398 276.078 l 213.602 276.078 l 213.602 328.34 l 213.602 333.613 
207.98 336.984 203.328 334.496 c h
203.328 334.496 m f
0.92549 0.764706 0.180392 rg
233.145 248.145 m 233.145 243.301 239.691 237.477 238.273 233.109 c 236.805
 228.578 228.031 227.73 225.289 223.961 c 222.52 220.152 224.402 211.559
 220.594 208.789 c 216.824 206.043 209.246 210.473 204.719 209 c 200.348
 207.582 196.844 199.5 192 199.5 c 187.156 199.5 183.652 207.582 179.281
 209.004 c 174.754 210.473 167.176 206.047 163.406 208.789 c 159.598 211.559
 161.48 220.152 158.711 223.961 c 155.965 227.73 147.195 228.578 145.727
 233.109 c 144.309 237.477 150.855 243.301 150.855 248.145 c 150.855 252.984
 144.309 258.809 145.727 263.18 c 147.195 267.707 155.965 268.555 158.711
 272.324 c 161.48 276.133 159.598 284.727 163.406 287.496 c 167.176 290.242
 174.754 285.812 179.281 287.285 c 183.652 288.703 187.156 296.785 192 296.785
 c 196.844 296.785 200.348 288.703 204.719 287.285 c 209.246 285.812 216.824
 290.242 220.594 287.496 c 224.402 284.727 222.52 276.133 225.289 272.324
 c 228.035 268.555 236.805 267.707 238.273 263.18 c 239.691 258.809 233.145
 252.984 233.145 248.145 c h
233.145 248.145 m f
0.564706 0.847059 0.976471 rg
219.934 248.145 m 219.934 263.57 207.426 276.078 192 276.078 c 176.574 
276.078 164.066 263.57 164.066 248.145 c 164.066 232.715 176.574 220.211
 192 220.211 c 207.426 220.211 219.934 232.715 219.934 248.145 c h
219.934 248.145 m f
0.380392 0.635294 0.976471 rg
197.859 275.449 m 195.973 275.863 194.008 276.074 191.996 276.074 c 176.57
 276.074 164.066 263.57 164.066 248.145 c 164.066 232.715 176.57 220.207
 191.996 220.207 c 194.008 220.207 195.973 220.414 197.859 220.828 c 185.254
 223.52 175.797 234.727 175.797 248.145 c 175.797 261.562 185.254 272.766
 197.859 275.449 c h
197.859 275.449 m f
0.25098 0.290196 0.290196 rg
253.176 112.188 m 130.824 112.188 l 125.02 112.188 120.312 107.48 120.312
 101.68 c 120.312 95.875 125.02 91.172 130.824 91.172 c 253.176 91.172 l
 258.98 91.172 263.688 95.875 263.688 101.68 c 263.688 107.48 258.98 112.188
 253.176 112.188 c h
253.176 112.188 m f
295.316 149.328 m 88.684 149.328 l 82.879 149.328 78.176 144.621 78.176
 138.816 c 78.176 133.016 82.879 128.309 88.684 128.309 c 295.316 128.309
 l 301.121 128.309 305.824 133.016 305.824 138.816 c 305.824 144.621 301.121
 149.328 295.316 149.328 c h
295.316 149.328 m f
295.316 186.465 m 88.684 186.465 l 82.879 186.465 78.176 181.762 78.176
 175.957 c 78.176 170.156 82.879 165.449 88.684 165.449 c 295.316 165.449
 l 301.121 165.449 305.824 170.156 305.824 175.957 c 305.824 181.762 301.121
 186.465 295.316 186.465 c h
295.316 186.465 m f
0.564706 0.847059 0.976471 rg
317.602 78.906 m 317.602 115.273 l 297.516 115.273 281.242 98.992 281.242
 78.906 c h
317.602 78.906 m f
102.758 78.906 m 102.758 98.992 86.484 115.273 66.398 115.273 c 66.398 
78.906 l h
102.758 78.906 m f
102.758 298.266 m 66.398 298.266 l 66.398 261.898 l 86.484 261.898 102.758
 278.184 102.758 298.266 c h
102.758 298.266 m f
317.602 261.898 m 317.602 298.266 l 281.242 298.266 l 281.242 278.184 297.516
 261.898 317.602 261.898 c h
317.602 261.898 m f
Q Q
showpage
%%Trailer
end
%%EOF
