%!PS-Adobe-3.0 EPSF-3.0
%%Creator: cairo 1.16.0 (https://cairographics.org)
%%CreationDate: Thu Nov 14 08:46:32 2019
%%Pages: 1
%%DocumentData: Clean7Bit
%%LanguageLevel: 2
%%BoundingBox: 0 0 384 384
%%EndComments
%%BeginProlog
50 dict begin
/q { gsave } bind def
/Q { grestore } bind def
/cm { 6 array astore concat } bind def
/w { setlinewidth } bind def
/J { setlinecap } bind def
/j { setlinejoin } bind def
/M { setmiterlimit } bind def
/d { setdash } bind def
/m { moveto } bind def
/l { lineto } bind def
/c { curveto } bind def
/h { closepath } bind def
/re { exch dup neg 3 1 roll 5 3 roll moveto 0 rlineto
      0 exch rlineto 0 rlineto closepath } bind def
/S { stroke } bind def
/f { fill } bind def
/f* { eofill } bind def
/n { newpath } bind def
/W { clip } bind def
/W* { eoclip } bind def
/BT { } bind def
/ET { } bind def
/BDC { mark 3 1 roll /BDC pdfmark } bind def
/EMC { mark /EMC pdfmark } bind def
/cairo_store_point { /cairo_point_y exch def /cairo_point_x exch def } def
/Tj { show currentpoint cairo_store_point } bind def
/TJ {
  {
    dup
    type /stringtype eq
    { show } { -0.001 mul 0 cairo_font_matrix dtransform rmoveto } ifelse
  } forall
  currentpoint cairo_store_point
} bind def
/cairo_selectfont { cairo_font_matrix aload pop pop pop 0 0 6 array astore
    cairo_font exch selectfont cairo_point_x cairo_point_y moveto } bind def
/Tf { pop /cairo_font exch def /cairo_font_matrix where
      { pop cairo_selectfont } if } bind def
/Td { matrix translate cairo_font_matrix matrix concatmatrix dup
      /cairo_font_matrix exch def dup 4 get exch 5 get cairo_store_point
      /cairo_font where { pop cairo_selectfont } if } bind def
/Tm { 2 copy 8 2 roll 6 array astore /cairo_font_matrix exch def
      cairo_store_point /cairo_font where { pop cairo_selectfont } if } bind def
/g { setgray } bind def
/rg { setrgbcolor } bind def
/d1 { setcachedevice } bind def
/cairo_data_source {
  CairoDataIndex CairoData length lt
    { CairoData CairoDataIndex get /CairoDataIndex CairoDataIndex 1 add def }
    { () } ifelse
} def
/cairo_flush_ascii85_file { cairo_ascii85_file status { cairo_ascii85_file flushfile } if } def
/cairo_image { image cairo_flush_ascii85_file } def
/cairo_imagemask { imagemask cairo_flush_ascii85_file } def
%%EndProlog
%%BeginSetup
%%EndSetup
%%Page: 1 1
%%BeginPageSetup
%%PageBoundingBox: 0 0 384 384
%%EndPageSetup
q 0 0 384 384 rectclip
1 0 0 -1 0 384 cm q
0.92549 0.764706 0.180392 rg
384 192 m 384 227.676 374.266 261.082 357.316 289.703 c 352.809 297.324
 347.781 304.605 342.293 311.496 c 336.414 318.887 329.992 325.824 323.109
 332.266 c 317.73 337.289 312.066 342.016 306.137 346.402 c 305.812 346.641
 305.484 346.883 305.152 347.121 c 286.027 361.094 264.219 371.625 240.645
 377.781 c 225.113 381.84 208.809 384 192 384 c 149.258 384 109.77 370.027
 77.863 346.402 c 63.277 335.602 50.281 322.793 39.277 308.371 c 36.008 
304.094 32.918 299.672 30.016 295.117 c 11.016 265.328 0 229.949 0 192 c
 0 154.051 11.016 118.672 30.016 88.883 c 32.918 84.328 36.008 79.906 39.277
 75.629 c 54.262 55.988 72.945 39.328 94.297 26.684 c 122.918 9.734 156.324
 0 192 0 c 210.293 0 227.992 2.559 244.746 7.336 c 266.754 13.613 287.137
 23.707 305.152 36.871 c 311.438 41.461 317.438 46.434 323.109 51.742 c 
330 58.176 336.414 65.121 342.293 72.512 c 368.398 105.301 384 146.828 384
 192 c h
384 192 m f
0.85098 0.447059 0.243137 rg
82.133 14.52 m 62.902 -4.711 30.016 8.91 30.016 36.105 c 30.016 295.117
 l 42.703 315.008 58.949 332.398 77.863 346.402 c 306.137 346.402 l 326.746
 331.148 344.199 311.859 357.316 289.703 c h
97.516 278.902 m 97.516 125.363 l 251.055 278.902 l h
97.516 278.902 m f
0.741176 0.329412 0.137255 rg
65.363 5.871 m 51.48 8.012 39.277 19.539 39.277 36.105 c 39.277 308.371
 l 36.008 304.094 32.918 299.672 30.016 295.117 c 30.016 36.105 l 30.016
 15.906 48.156 3.203 65.363 5.871 c h
65.363 5.871 m f
287.707 264.039 m 309.684 242.066 l 318.949 251.332 l 296.973 273.305 l
 294.414 275.863 290.266 275.863 287.707 273.305 c 285.148 270.746 285.148
 266.598 287.707 264.039 c h
287.707 264.039 m f
262.426 238.758 m 284.398 216.781 l 293.668 226.047 l 271.691 248.023 l
 269.133 250.582 264.984 250.582 262.426 248.023 c 259.867 245.465 259.867
 241.316 262.426 238.758 c h
262.426 238.758 m f
237.141 213.473 m 259.117 191.5 l 268.383 200.766 l 246.406 222.742 l 243.848
 225.301 239.699 225.301 237.141 222.742 c 234.582 220.18 234.582 216.031
 237.141 213.473 c h
237.141 213.473 m f
211.859 188.191 m 233.832 166.215 l 243.102 175.48 l 221.125 197.457 l 
218.566 200.016 214.418 200.016 211.859 197.457 c 209.301 194.898 209.301
 190.75 211.859 188.191 c h
211.859 188.191 m f
186.574 162.906 m 208.551 140.934 l 217.816 150.199 l 195.844 172.172 l
 193.285 174.734 189.137 174.734 186.574 172.172 c 184.016 169.613 184.016
 165.465 186.574 162.906 c h
186.574 162.906 m f
161.293 137.625 m 183.27 115.648 l 192.535 124.918 l 170.559 146.891 l 
168 149.449 163.852 149.449 161.293 146.891 c 158.734 144.332 158.734 140.184
 161.293 137.625 c h
161.293 137.625 m f
136.012 112.34 m 157.984 90.367 l 167.25 99.633 l 145.277 121.609 l 142.719
 124.168 138.57 124.168 136.012 121.609 c 133.453 119.051 133.453 114.902
 136.012 112.34 c h
136.012 112.34 m f
110.727 87.059 m 132.703 65.082 l 141.969 74.352 l 119.992 96.324 l 117.434
 98.883 113.285 98.883 110.727 96.324 c 108.168 93.766 108.168 89.617 110.727
 87.059 c h
110.727 87.059 m f
85.445 61.777 m 107.418 39.801 l 116.684 49.066 l 94.711 71.043 l 92.152
 73.602 88.004 73.602 85.445 71.043 c 82.887 68.484 82.887 64.336 85.445
 61.777 c h
85.445 61.777 m f
60.16 36.492 m 82.137 14.52 l 91.402 23.785 l 69.426 45.758 l 66.867 48.316
 62.719 48.316 60.16 45.758 c 57.602 43.199 57.602 39.051 60.16 36.492 c
 h
60.16 36.492 m f
0.72549 0.894118 0.937255 rg
342.293 19.184 m 342.293 311.496 l 331.824 324.645 319.656 336.391 306.137
 346.402 c 286.777 360.734 264.621 371.52 240.645 377.781 c 240.645 19.184
 l 240.645 14.715 242.176 10.598 244.746 7.336 c 248.258 2.863 253.711 0
 259.828 0 c 323.109 0 l 333.699 0 342.293 8.586 342.293 19.184 c h
342.293 19.184 m f
0.576471 0.796078 0.827451 rg
270.758 0 m 264.637 0 259.184 2.863 255.676 7.336 c 253.102 10.598 251.574
 14.715 251.574 19.184 c 251.574 374.574 l 247.973 375.75 244.336 376.824
 240.645 377.781 c 240.645 19.184 l 240.645 14.715 242.176 10.598 244.746
 7.336 c 248.258 2.863 253.711 0 259.828 0 c h
270.758 0 m f
240.645 173.031 m 240.645 268.492 l 251.055 278.902 l 240.645 278.902 l
 240.645 346.402 l 306.137 346.402 l 312.066 342.016 317.73 337.289 323.109
 332.266 c 329.992 325.824 336.414 318.887 342.293 311.496 c 342.293 274.68
 l h
240.645 173.031 m f
0.564706 0.847059 0.976471 rg
323.109 0 m 323.109 332.266 l 317.73 337.289 312.066 342.016 306.137 346.402
 c 305.812 346.641 305.484 346.883 305.152 347.121 c 305.152 0 l h
323.109 0 m f
271.719 45.152 m 240.645 45.152 l 240.645 32.047 l 271.719 32.047 l 275.34
 32.047 278.273 34.98 278.273 38.598 c 278.273 42.219 275.34 45.152 271.719
 45.152 c h
271.719 45.152 m f
271.719 80.906 m 240.645 80.906 l 240.645 67.805 l 271.719 67.805 l 275.34
 67.805 278.273 70.738 278.273 74.355 c 278.273 77.973 275.34 80.906 271.719
 80.906 c h
271.719 80.906 m f
271.719 116.664 m 240.645 116.664 l 240.645 103.559 l 271.719 103.559 l
 275.34 103.559 278.273 106.492 278.273 110.109 c 278.273 113.73 275.34 
116.664 271.719 116.664 c h
271.719 116.664 m f
271.719 152.418 m 240.645 152.418 l 240.645 139.316 l 271.719 139.316 l
 275.34 139.316 278.273 142.246 278.273 145.867 c 278.273 149.484 275.34
 152.418 271.719 152.418 c h
271.719 152.418 m f
271.719 188.176 m 240.645 188.176 l 240.645 175.07 l 271.719 175.07 l 275.34
 175.07 278.273 178.004 278.273 181.621 c 278.273 185.242 275.34 188.176
 271.719 188.176 c h
271.719 188.176 m f
271.719 223.93 m 240.645 223.93 l 240.645 210.824 l 271.719 210.824 l 275.34
 210.824 278.273 213.758 278.273 217.379 c 278.273 220.996 275.34 223.93
 271.719 223.93 c h
271.719 223.93 m f
271.719 259.684 m 240.645 259.684 l 240.645 246.582 l 271.719 246.582 l
 275.34 246.582 278.273 249.516 278.273 253.133 c 278.273 256.754 275.34
 259.684 271.719 259.684 c h
271.719 259.684 m f
271.719 295.441 m 240.645 295.441 l 240.645 282.336 l 271.719 282.336 l
 275.34 282.336 278.273 285.27 278.273 288.891 c 278.273 292.508 275.34 
295.441 271.719 295.441 c h
271.719 295.441 m f
271.719 331.195 m 240.645 331.195 l 240.645 318.094 l 271.719 318.094 l
 275.34 318.094 278.273 321.027 278.273 324.645 c 278.273 328.262 275.34
 331.195 271.719 331.195 c h
271.719 331.195 m f
271.719 366.953 m 240.645 366.953 l 240.645 353.848 l 271.719 353.848 l
 275.34 353.848 278.273 356.781 278.273 360.402 c 278.273 364.02 275.34 
366.953 271.719 366.953 c h
271.719 366.953 m f
Q Q
showpage
%%Trailer
end
%%EOF
