%!PS-Adobe-3.0 EPSF-3.0
%%Creator: cairo 1.16.0 (https://cairographics.org)
%%CreationDate: Thu Nov 14 08:46:33 2019
%%Pages: 1
%%DocumentData: Clean7Bit
%%LanguageLevel: 2
%%BoundingBox: 0 0 384 384
%%EndComments
%%BeginProlog
50 dict begin
/q { gsave } bind def
/Q { grestore } bind def
/cm { 6 array astore concat } bind def
/w { setlinewidth } bind def
/J { setlinecap } bind def
/j { setlinejoin } bind def
/M { setmiterlimit } bind def
/d { setdash } bind def
/m { moveto } bind def
/l { lineto } bind def
/c { curveto } bind def
/h { closepath } bind def
/re { exch dup neg 3 1 roll 5 3 roll moveto 0 rlineto
      0 exch rlineto 0 rlineto closepath } bind def
/S { stroke } bind def
/f { fill } bind def
/f* { eofill } bind def
/n { newpath } bind def
/W { clip } bind def
/W* { eoclip } bind def
/BT { } bind def
/ET { } bind def
/BDC { mark 3 1 roll /BDC pdfmark } bind def
/EMC { mark /EMC pdfmark } bind def
/cairo_store_point { /cairo_point_y exch def /cairo_point_x exch def } def
/Tj { show currentpoint cairo_store_point } bind def
/TJ {
  {
    dup
    type /stringtype eq
    { show } { -0.001 mul 0 cairo_font_matrix dtransform rmoveto } ifelse
  } forall
  currentpoint cairo_store_point
} bind def
/cairo_selectfont { cairo_font_matrix aload pop pop pop 0 0 6 array astore
    cairo_font exch selectfont cairo_point_x cairo_point_y moveto } bind def
/Tf { pop /cairo_font exch def /cairo_font_matrix where
      { pop cairo_selectfont } if } bind def
/Td { matrix translate cairo_font_matrix matrix concatmatrix dup
      /cairo_font_matrix exch def dup 4 get exch 5 get cairo_store_point
      /cairo_font where { pop cairo_selectfont } if } bind def
/Tm { 2 copy 8 2 roll 6 array astore /cairo_font_matrix exch def
      cairo_store_point /cairo_font where { pop cairo_selectfont } if } bind def
/g { setgray } bind def
/rg { setrgbcolor } bind def
/d1 { setcachedevice } bind def
/cairo_data_source {
  CairoDataIndex CairoData length lt
    { CairoData CairoDataIndex get /CairoDataIndex CairoDataIndex 1 add def }
    { () } ifelse
} def
/cairo_flush_ascii85_file { cairo_ascii85_file status { cairo_ascii85_file flushfile } if } def
/cairo_image { image cairo_flush_ascii85_file } def
/cairo_imagemask { imagemask cairo_flush_ascii85_file } def
%%EndProlog
%%BeginSetup
%%EndSetup
%%Page: 1 1
%%BeginPageSetup
%%PageBoundingBox: 0 0 384 384
%%EndPageSetup
q 0 0 384 384 rectclip
1 0 0 -1 0 384 cm q
0.976471 0.239216 0.431373 rg
384 192 m 384 225.309 375.516 256.629 360.602 283.926 c 352.426 298.891
 342.309 312.652 330.602 324.863 c 312.609 343.629 290.836 358.746 266.504
 369 c 243.602 378.66 218.422 384 192 384 c 165.578 384 140.398 378.66 117.496
 369 c 93.164 358.746 71.391 343.629 53.398 324.863 c 48.766 320.023 44.371
 314.941 40.262 309.637 c 33.984 301.559 28.336 292.957 23.398 283.926 c
 8.484 256.629 0 225.309 0 192 c 0 158.691 8.484 127.371 23.398 100.074 
c 28.344 91.035 33.988 82.434 40.262 74.348 c 61.426 47.086 89.781 25.688
 122.469 12.984 c 144.031 4.598 167.477 0 192 0 c 216.523 0 239.969 4.598
 261.531 12.984 c 303.914 29.453 339.008 60.547 360.602 100.074 c 375.516
 127.371 384 158.691 384 192 c h
384 192 m f
0.564706 0.847059 0.976471 rg
360.602 48.113 m 360.602 283.926 l 328.02 343.551 264.727 384 192 384 c
 119.273 384 55.98 343.551 23.398 283.926 c 23.398 48.113 l 23.398 28.711
 39.137 12.984 58.539 12.984 c 325.461 12.984 l 344.863 12.984 360.602 28.711
 360.602 48.113 c h
360.602 48.113 m f
0.380392 0.635294 0.976471 rg
75.391 12.984 m 55.988 12.984 40.262 28.711 40.262 48.113 c 40.262 309.637
 l 33.984 301.559 28.336 292.957 23.398 283.926 c 23.398 48.113 l 23.398
 28.711 39.129 12.984 58.531 12.984 c h
75.391 12.984 m f
236.348 189.676 m 302.562 189.676 l 318.047 189.676 330.598 177.125 330.598
 161.641 c 330.598 71.016 l 330.598 55.531 318.047 42.98 302.562 42.98 c
 236.348 42.98 l 220.867 42.98 208.312 55.531 208.312 71.016 c 208.312 161.641
 l 208.312 177.125 220.863 189.676 236.348 189.676 c h
236.348 189.676 m f
175.688 161.641 m 175.688 71.016 l 175.688 55.531 163.137 42.98 147.652
 42.98 c 81.438 42.98 l 65.953 42.98 53.402 55.531 53.402 71.016 c 53.402
 161.641 l 53.402 177.125 65.953 189.676 81.438 189.676 c 147.652 189.676
 l 163.137 189.676 175.688 177.125 175.688 161.641 c h
175.688 161.641 m f
330.602 250.336 m 330.602 324.863 l 312.609 343.629 290.836 358.746 266.504
 369 c 236.348 369 l 220.867 369 208.312 356.445 208.312 340.965 c 208.312
 250.336 l 208.312 234.855 220.867 222.301 236.348 222.301 c 302.566 222.301
 l 318.047 222.301 330.602 234.855 330.602 250.336 c h
330.602 250.336 m f
175.688 250.336 m 175.688 340.965 l 175.688 356.445 163.133 369 147.652
 369 c 117.496 369 l 93.164 358.746 71.391 343.629 53.398 324.863 c 53.398
 250.336 l 53.398 234.855 65.953 222.301 81.434 222.301 c 147.652 222.301
 l 163.133 222.301 175.688 234.855 175.688 250.336 c h
175.688 250.336 m f
0.92549 0.764706 0.180392 rg
167.832 116.328 m 167.832 126.785 159.355 135.262 148.902 135.262 c 138.445
 135.262 129.969 126.785 129.969 116.328 c 129.969 105.871 138.445 97.395
 148.902 97.395 c 159.355 97.395 167.832 105.871 167.832 116.328 c h
167.832 116.328 m f
0.905882 0.647059 0.180392 rg
157.934 116.328 m 157.934 121.316 153.891 125.363 148.902 125.363 c 143.91
 125.363 139.867 121.316 139.867 116.328 c 139.867 111.34 143.91 107.293
 148.902 107.293 c 153.891 107.293 157.934 111.34 157.934 116.328 c h
157.934 116.328 m f
0.92549 0.764706 0.180392 rg
322.883 116.328 m 322.883 126.785 314.406 135.262 303.949 135.262 c 293.496
 135.262 285.02 126.785 285.02 116.328 c 285.02 105.871 293.496 97.395 303.949
 97.395 c 314.406 97.395 322.883 105.871 322.883 116.328 c h
322.883 116.328 m f
0.905882 0.647059 0.180392 rg
312.984 116.328 m 312.984 121.316 308.938 125.363 303.949 125.363 c 298.961
 125.363 294.918 121.316 294.918 116.328 c 294.918 111.34 298.961 107.293
 303.949 107.293 c 308.938 107.293 312.984 111.34 312.984 116.328 c h
312.984 116.328 m f
0.92549 0.764706 0.180392 rg
167.832 295.652 m 167.832 306.109 159.355 314.582 148.902 314.582 c 138.445
 314.582 129.969 306.109 129.969 295.652 c 129.969 285.195 138.445 276.719
 148.902 276.719 c 159.355 276.719 167.832 285.195 167.832 295.652 c h
167.832 295.652 m f
0.905882 0.647059 0.180392 rg
157.934 295.652 m 157.934 300.641 153.891 304.684 148.902 304.684 c 143.91
 304.684 139.867 300.641 139.867 295.652 c 139.867 290.664 143.91 286.617
 148.902 286.617 c 153.891 286.617 157.934 290.664 157.934 295.652 c h
157.934 295.652 m f
0.92549 0.764706 0.180392 rg
322.883 295.652 m 322.883 306.109 314.406 314.582 303.949 314.582 c 293.496
 314.582 285.02 306.109 285.02 295.652 c 285.02 285.195 293.496 276.719 
303.949 276.719 c 314.406 276.719 322.883 285.195 322.883 295.652 c h
322.883 295.652 m f
0.905882 0.647059 0.180392 rg
312.984 295.652 m 312.984 300.641 308.938 304.684 303.949 304.684 c 298.961
 304.684 294.918 300.641 294.918 295.652 c 294.918 290.664 298.961 286.617
 303.949 286.617 c 308.938 286.617 312.984 290.664 312.984 295.652 c h
312.984 295.652 m f
Q Q
showpage
%%Trailer
end
%%EOF
