%!PS-Adobe-3.0 EPSF-3.0
%%Creator: cairo 1.16.0 (https://cairographics.org)
%%CreationDate: Thu Nov 14 08:46:33 2019
%%Pages: 1
%%DocumentData: Clean7Bit
%%LanguageLevel: 2
%%BoundingBox: 0 0 384 384
%%EndComments
%%BeginProlog
50 dict begin
/q { gsave } bind def
/Q { grestore } bind def
/cm { 6 array astore concat } bind def
/w { setlinewidth } bind def
/J { setlinecap } bind def
/j { setlinejoin } bind def
/M { setmiterlimit } bind def
/d { setdash } bind def
/m { moveto } bind def
/l { lineto } bind def
/c { curveto } bind def
/h { closepath } bind def
/re { exch dup neg 3 1 roll 5 3 roll moveto 0 rlineto
      0 exch rlineto 0 rlineto closepath } bind def
/S { stroke } bind def
/f { fill } bind def
/f* { eofill } bind def
/n { newpath } bind def
/W { clip } bind def
/W* { eoclip } bind def
/BT { } bind def
/ET { } bind def
/BDC { mark 3 1 roll /BDC pdfmark } bind def
/EMC { mark /EMC pdfmark } bind def
/cairo_store_point { /cairo_point_y exch def /cairo_point_x exch def } def
/Tj { show currentpoint cairo_store_point } bind def
/TJ {
  {
    dup
    type /stringtype eq
    { show } { -0.001 mul 0 cairo_font_matrix dtransform rmoveto } ifelse
  } forall
  currentpoint cairo_store_point
} bind def
/cairo_selectfont { cairo_font_matrix aload pop pop pop 0 0 6 array astore
    cairo_font exch selectfont cairo_point_x cairo_point_y moveto } bind def
/Tf { pop /cairo_font exch def /cairo_font_matrix where
      { pop cairo_selectfont } if } bind def
/Td { matrix translate cairo_font_matrix matrix concatmatrix dup
      /cairo_font_matrix exch def dup 4 get exch 5 get cairo_store_point
      /cairo_font where { pop cairo_selectfont } if } bind def
/Tm { 2 copy 8 2 roll 6 array astore /cairo_font_matrix exch def
      cairo_store_point /cairo_font where { pop cairo_selectfont } if } bind def
/g { setgray } bind def
/rg { setrgbcolor } bind def
/d1 { setcachedevice } bind def
/cairo_data_source {
  CairoDataIndex CairoData length lt
    { CairoData CairoDataIndex get /CairoDataIndex CairoDataIndex 1 add def }
    { () } ifelse
} def
/cairo_flush_ascii85_file { cairo_ascii85_file status { cairo_ascii85_file flushfile } if } def
/cairo_image { image cairo_flush_ascii85_file } def
/cairo_imagemask { imagemask cairo_flush_ascii85_file } def
%%EndProlog
%%BeginSetup
%%EndSetup
%%Page: 1 1
%%BeginPageSetup
%%PageBoundingBox: 0 0 384 384
%%EndPageSetup
q 0 0 384 384 rectclip
1 0 0 -1 0 384 cm q
0.92549 0.764706 0.180392 rg
384 192 m 384 223.793 376.273 253.777 362.586 280.184 c 358.184 288.684
 353.168 296.812 347.586 304.508 c 336.562 319.734 323.355 333.277 308.43
 344.676 c 301.23 350.184 293.617 355.176 285.66 359.625 c 285.547 359.691
 285.434 359.762 285.324 359.82 c 280.996 362.234 276.57 364.484 272.039
 366.562 c 267.141 368.812 262.141 370.859 257.039 372.699 c 256.289 372.969
 255.531 373.23 254.773 373.5 c 253.074 374.086 251.355 374.648 249.629 
375.195 c 242.738 377.363 235.672 379.156 228.465 380.535 c 216.66 382.816
 204.473 384 192 384 c 95.504 384 15.629 312.801 2.039 220.078 c 0.984 212.859
 0.324 205.508 0.098 198.051 c 0.031 196.043 0 194.023 0 192 c 0 168.219
 4.328 145.441 12.234 124.426 c 15.164 116.633 18.586 109.078 22.461 101.812
 c 54.75 41.234 118.559 0 192 0 c 234.188 0 273.203 13.613 304.883 36.676
 c 306.328 37.734 307.762 38.805 309.18 39.898 c 354.691 75.008 384 130.078
 384 192 c h
384 192 m f
0.905882 0.647059 0.180392 rg
330.23 82.918 m 330.23 90.211 324.316 96.125 317.02 96.125 c 309.723 96.125
 303.809 90.211 303.809 82.918 c 303.809 75.621 309.723 69.707 317.02 69.707
 c 324.316 69.707 330.23 75.621 330.23 82.918 c h
330.23 82.918 m f
21.473 208.426 m 21.473 215.723 15.562 221.641 8.266 221.641 c 6.016 221.641
 3.891 221.078 2.039 220.078 c 0.984 212.859 0.324 205.508 0.098 198.051
 c 2.34 196.273 5.184 195.219 8.266 195.219 c 15.562 195.219 21.473 201.137
 21.473 208.426 c h
21.473 208.426 m f
183.383 74.355 m 183.383 84.344 175.285 92.441 165.297 92.441 c 155.312
 92.441 147.215 84.344 147.215 74.355 c 147.215 64.367 155.312 56.273 165.297
 56.273 c 175.285 56.273 183.383 64.367 183.383 74.355 c h
183.383 74.355 m f
0.72549 0.894118 0.937255 rg
309.18 36.676 m 309.18 335.762 l 309.18 338.797 308.926 341.773 308.43 
344.676 c 301.125 350.258 293.398 355.32 285.324 359.82 c 280.996 362.234
 276.57 364.484 272.039 366.562 c 267.141 368.812 262.141 370.859 257.039
 372.699 c 247.824 376.02 238.273 378.652 228.465 380.535 c 213.555 371.211
 203.633 354.645 203.633 335.762 c 203.633 36.676 l h
309.18 36.676 m f
0.737255 0.584314 0.886275 rg
294.18 107.297 m 294.18 335.762 l 294.18 344.797 290.984 353.113 285.66
 359.625 c 285.547 359.691 285.434 359.762 285.324 359.82 c 280.996 362.234
 276.57 364.484 272.039 366.562 c 267.141 368.812 262.141 370.859 257.039
 372.699 c 256.289 372.969 255.531 373.23 254.773 373.5 c 234.699 372.645
 218.633 356.039 218.633 335.762 c 218.633 107.297 l h
294.18 107.297 m f
0.576471 0.796078 0.827451 rg
249.629 375.195 m 242.738 377.363 235.672 379.156 228.465 380.535 c 213.555
 371.211 203.633 354.645 203.633 335.762 c 203.633 36.676 l 231.914 36.676
 l 231.914 335.762 l 231.914 349.914 237.48 362.762 246.547 372.234 c 247.539
 373.266 248.566 374.258 249.629 375.195 c h
249.629 375.195 m f
0.576471 0.45098 0.72549 rg
246.547 372.234 m 230.484 367.883 218.633 353.176 218.633 335.762 c 218.633
 107.297 l 231.914 107.297 l 231.914 335.762 l 231.914 349.914 237.48 362.762
 246.547 372.234 c h
246.547 372.234 m f
0.72549 0.894118 0.937255 rg
265.223 281.191 m 265.223 323.371 244.125 360.621 211.906 382.98 c 211.598
 383.012 211.297 383.039 210.988 383.07 c 204.75 383.684 198.414 384 192
 384 c 157.035 384 124.246 374.648 96.008 358.312 c 62.012 338.648 34.59
 308.852 17.91 273.051 c 20.664 230.461 44.977 193.734 80.031 173.676 c 
86.871 169.762 91.086 162.488 91.086 154.613 c 91.078 107.887 l 191.766 
107.887 l 191.766 154.605 l 191.766 162.555 196.102 169.816 202.996 173.773
 c 240.172 195.137 265.223 235.23 265.223 281.191 c h
265.223 281.191 m f
0.576471 0.796078 0.827451 rg
112.906 173.676 m 95.566 195.023 83.895 235.207 83.902 281.266 c 83.91 
310.32 88.629 337.141 96.512 358.32 c 96.406 358.352 96.293 358.379 96.188
 358.41 c 96.129 358.379 96.074 358.344 96.016 358.312 c 96.008 358.312 
l 72.898 344.949 52.836 326.902 37.109 305.477 c 37.102 305.469 l 29.691
 295.363 23.25 284.52 17.91 273.051 c 17.902 273.047 l 17.926 272.738 17.949
 272.422 17.969 272.113 c 21.031 229.922 45.227 193.598 80.031 173.676 c
 86.871 169.77 91.078 162.488 91.078 154.621 c 91.078 107.895 l 118.027 
107.895 l 118.035 154.621 l 118.035 162.488 116.078 169.77 112.906 173.676
 c h
112.906 173.676 m f
0.831373 0.94902 0.976471 rg
248.543 281.191 m 248.543 309.801 237.406 336.699 217.172 356.934 c 204.953
 369.148 190.297 378.051 174.309 383.191 c 174.309 383.191 174.309 383.191
 174.301 383.191 c 146.039 380.609 119.566 371.902 96.188 358.41 c 96.129
 358.379 96.074 358.344 96.016 358.312 c 96.008 358.312 l 72.898 344.949
 52.836 326.902 37.109 305.477 c 37.102 305.469 l 35.281 297.684 34.312 
289.574 34.312 281.25 c 34.312 276.148 34.672 271.094 35.387 266.121 c 36.773
 256.453 39.465 247.094 43.328 238.273 c 43.336 238.262 43.344 238.246 43.359
 238.223 c 43.547 237.773 43.746 237.328 43.949 236.895 c 43.957 236.871
 43.965 236.859 43.973 236.844 c 53.152 216.699 68.504 199.484 88.32 188.145
 c 100.312 181.281 107.762 168.434 107.762 154.613 c 107.762 101.773 l 175.094
 101.773 l 175.094 154.605 l 175.094 168.406 182.602 181.297 194.691 188.227
 c 220.176 202.875 238.254 227.25 245.297 255.09 c 246.211 258.711 246.938
 262.395 247.469 266.121 c 248.176 271.078 248.543 276.113 248.543 281.191
 c h
248.543 281.191 m f
0.72549 0.894118 0.937255 rg
112.906 173.676 m 95.566 195.023 83.895 235.207 83.902 281.266 c 83.91 
310.32 88.629 337.141 96.512 358.32 c 96.406 358.352 96.293 358.379 96.188
 358.41 c 96.129 358.379 96.074 358.344 96.016 358.312 c 96.008 358.312 
l 72.898 344.949 52.836 326.902 37.109 305.477 c 37.102 305.469 l 35.281
 297.684 34.312 289.574 34.312 281.25 c 34.305 266.234 37.477 251.633 43.328
 238.273 c 43.336 238.262 43.344 238.246 43.359 238.223 c 43.547 237.773
 43.746 237.328 43.949 236.895 c 43.957 236.871 43.965 236.859 43.973 236.844
 c 53.152 216.699 68.504 199.484 88.32 188.145 c 100.312 181.281 107.762
 168.434 107.762 154.613 c 107.762 107.895 l 118.027 107.895 l 118.035 154.621
 l 118.035 162.488 116.078 169.77 112.906 173.676 c h
112.906 173.676 m f
186.348 82.918 m 96.512 82.918 l 86.098 82.918 77.656 91.359 77.656 101.77
 c 77.656 112.184 86.098 120.625 96.512 120.625 c 186.348 120.625 l 196.758
 120.625 205.199 112.184 205.199 101.77 c 205.199 91.359 196.758 82.918 
186.348 82.918 c h
186.348 82.918 m f
0.576471 0.796078 0.827451 rg
114.102 115.105 m 117.52 118.516 122.23 120.625 127.434 120.625 c 96.508
 120.625 l 91.305 120.625 86.586 118.516 83.176 115.105 c 79.766 111.695
 77.656 106.984 77.656 101.77 c 77.656 91.355 86.094 82.91 96.508 82.91 
c 127.434 82.91 l 117.027 82.91 108.582 91.355 108.582 101.77 c 108.582 
106.984 110.691 111.695 114.102 115.105 c h
114.102 115.105 m f
203.633 36.676 105.547 29.848 re f
0.72549 0.894118 0.937255 rg
310.75 17.824 m 202.059 17.824 l 191.648 17.824 183.207 26.266 183.207 
36.676 c 183.207 47.09 191.648 55.531 202.059 55.531 c 310.75 55.531 l 321.164
 55.531 329.605 47.09 329.605 36.676 c 329.605 26.266 321.164 17.824 310.75
 17.824 c h
310.75 17.824 m f
0.576471 0.796078 0.827451 rg
219.652 50.012 m 223.07 53.422 227.781 55.531 232.984 55.531 c 202.059 
55.531 l 196.855 55.531 192.137 53.422 188.727 50.012 c 185.316 46.602 183.203
 41.891 183.203 36.676 c 183.203 26.262 191.645 17.816 202.059 17.816 c 
232.98 17.816 l 222.578 17.816 214.129 26.262 214.129 36.676 c 214.133 41.891
 216.242 46.602 219.652 50.012 c h
219.652 50.012 m f
0.72549 0.894118 0.937255 rg
168.176 171.34 m 168.176 176.852 163.703 181.32 158.191 181.32 c 152.68
 181.32 148.211 176.852 148.211 171.34 c 148.211 165.828 152.68 161.359 
158.191 161.359 c 163.703 161.359 168.176 165.828 168.176 171.34 c h
168.176 171.34 m f
128.988 208.426 m 128.988 216.902 122.121 223.773 113.645 223.773 c 105.172
 223.773 98.301 216.902 98.301 208.426 c 98.301 199.953 105.172 193.082 
113.645 193.082 c 122.121 193.082 128.988 199.953 128.988 208.426 c h
128.988 208.426 m f
196.066 222.488 m 196.066 229.016 190.773 234.309 184.246 234.309 c 177.715
 234.309 172.422 229.016 172.422 222.488 c 172.422 215.957 177.715 210.664
 184.246 210.664 c 190.773 210.664 196.066 215.957 196.066 222.488 c h
196.066 222.488 m f
0.976471 0.239216 0.431373 rg
248.543 281.191 m 248.543 309.801 237.406 336.699 217.172 356.934 c 204.953
 369.148 190.297 378.051 174.309 383.191 c 174.309 383.191 174.309 383.191
 174.301 383.191 c 146.039 380.609 119.566 371.902 96.188 358.41 c 96.129
 358.379 96.074 358.344 96.016 358.312 c 96.008 358.312 l 72.898 344.949
 52.836 326.902 37.109 305.477 c 37.102 305.469 l 35.281 297.684 34.312 
289.574 34.312 281.25 c 34.312 276.148 34.672 271.094 35.387 266.121 c 247.469
 266.121 l 248.176 271.078 248.543 276.113 248.543 281.191 c h
248.543 281.191 m f
0.894118 0.0901961 0.32549 rg
96.512 358.32 m 96.406 358.352 96.293 358.379 96.188 358.41 c 96.129 358.379
 96.074 358.344 96.016 358.312 c 96.008 358.312 l 72.898 344.949 52.836 
326.902 37.109 305.477 c 37.102 305.469 l 35.281 297.684 34.312 289.574 
34.312 281.25 c 34.312 276.148 34.672 271.094 35.387 266.121 c 84.328 266.121
 l 84.047 271.086 83.902 276.141 83.902 281.266 c 83.91 310.32 88.629 337.141
 96.512 358.32 c h
96.512 358.32 m f
192 318.27 m 192 328.113 184.02 336.09 174.176 336.09 c 164.332 336.09 
156.352 328.113 156.352 318.27 c 156.352 308.426 164.332 300.445 174.176
 300.445 c 184.02 300.445 192 308.426 192 318.27 c h
192 318.27 m f
101.379 289.324 m 101.379 296.285 95.738 301.926 88.777 301.926 c 81.816
 301.926 76.172 296.285 76.172 289.324 c 76.172 282.363 81.816 276.719 88.777
 276.719 c 95.738 276.719 101.379 282.363 101.379 289.324 c h
101.379 289.324 m f
141.594 336.094 m 141.594 343.055 135.949 348.695 128.988 348.695 c 122.027
 348.695 116.387 343.055 116.387 336.094 c 116.387 329.133 122.027 323.488
 128.988 323.488 c 135.949 323.488 141.594 329.133 141.594 336.094 c h
141.594 336.094 m f
0.72549 0.894118 0.937255 rg
362.586 110.219 m 362.586 280.184 l 340.469 322.891 302.781 356.234 257.039
 372.699 c 257.039 110.219 l h
362.586 110.219 m f
0.501961 0.886275 0.615686 rg
347.586 228.984 m 347.586 304.508 l 328.273 331.176 302.273 352.688 272.039
 366.562 c 272.039 228.984 l h
347.586 228.984 m f
0.576471 0.796078 0.827451 rg
285.324 110.219 m 285.324 359.82 l 280.996 362.234 276.57 364.484 272.039
 366.562 c 267.141 368.812 262.141 370.859 257.039 372.699 c 257.039 110.219
 l h
285.324 110.219 m f
0.4 0.705882 0.615686 rg
285.324 228.984 m 285.324 359.82 l 280.996 362.234 276.57 364.484 272.039
 366.562 c 272.039 228.984 l h
285.324 228.984 m f
0.576471 0.796078 0.827451 rg
257.035 110.219 105.551 29.848 re f
0.72549 0.894118 0.937255 rg
364.156 91.363 m 255.465 91.363 l 245.051 91.363 236.609 99.805 236.609
 110.219 c 236.609 120.633 245.051 129.074 255.465 129.074 c 364.156 129.074
 l 374.57 129.074 383.012 120.633 383.012 110.219 c 383.012 99.809 374.57
 91.363 364.156 91.363 c h
364.156 91.363 m f
0.576471 0.796078 0.827451 rg
273.055 123.551 m 276.473 126.961 281.184 129.07 286.387 129.07 c 255.461
 129.07 l 250.262 129.07 245.539 126.961 242.129 123.551 c 238.719 120.141
 236.609 115.43 236.609 110.219 c 236.609 99.805 245.047 91.359 255.461 
91.359 c 286.387 91.359 l 275.98 91.359 267.535 99.805 267.535 110.219 c
 267.535 115.43 269.645 120.141 273.055 123.551 c h
273.055 123.551 m f
0.905882 0.647059 0.180392 rg
64.258 143.227 m 64.258 153.215 56.16 161.309 46.172 161.309 c 36.188 161.309
 28.09 153.215 28.09 143.227 c 28.09 133.238 36.188 125.141 46.172 125.141
 c 50.969 125.141 55.57 127.047 58.961 130.438 c 62.352 133.832 64.258 138.43
 64.258 143.227 c h
64.258 143.227 m f
34.688 114.984 m 34.688 122.281 28.77 128.199 21.473 128.199 c 17.871 128.199
 14.617 126.758 12.234 124.426 c 15.164 116.633 18.586 109.078 22.461 101.812
 c 29.297 102.316 34.688 108.023 34.688 114.984 c h
34.688 114.984 m f
149.816 45.152 m 149.816 52.449 143.902 58.363 136.605 58.363 c 129.312
 58.363 123.398 52.449 123.398 45.152 c 123.398 37.855 129.312 31.941 136.605
 31.941 c 143.902 31.941 149.816 37.855 149.816 45.152 c h
149.816 45.152 m f
Q Q
showpage
%%Trailer
end
%%EOF
