%!PS-Adobe-3.0 EPSF-3.0
%%Creator: cairo 1.16.0 (https://cairographics.org)
%%CreationDate: Thu Nov 14 08:46:33 2019
%%Pages: 1
%%DocumentData: Clean7Bit
%%LanguageLevel: 2
%%BoundingBox: 0 0 384 384
%%EndComments
%%BeginProlog
50 dict begin
/q { gsave } bind def
/Q { grestore } bind def
/cm { 6 array astore concat } bind def
/w { setlinewidth } bind def
/J { setlinecap } bind def
/j { setlinejoin } bind def
/M { setmiterlimit } bind def
/d { setdash } bind def
/m { moveto } bind def
/l { lineto } bind def
/c { curveto } bind def
/h { closepath } bind def
/re { exch dup neg 3 1 roll 5 3 roll moveto 0 rlineto
      0 exch rlineto 0 rlineto closepath } bind def
/S { stroke } bind def
/f { fill } bind def
/f* { eofill } bind def
/n { newpath } bind def
/W { clip } bind def
/W* { eoclip } bind def
/BT { } bind def
/ET { } bind def
/BDC { mark 3 1 roll /BDC pdfmark } bind def
/EMC { mark /EMC pdfmark } bind def
/cairo_store_point { /cairo_point_y exch def /cairo_point_x exch def } def
/Tj { show currentpoint cairo_store_point } bind def
/TJ {
  {
    dup
    type /stringtype eq
    { show } { -0.001 mul 0 cairo_font_matrix dtransform rmoveto } ifelse
  } forall
  currentpoint cairo_store_point
} bind def
/cairo_selectfont { cairo_font_matrix aload pop pop pop 0 0 6 array astore
    cairo_font exch selectfont cairo_point_x cairo_point_y moveto } bind def
/Tf { pop /cairo_font exch def /cairo_font_matrix where
      { pop cairo_selectfont } if } bind def
/Td { matrix translate cairo_font_matrix matrix concatmatrix dup
      /cairo_font_matrix exch def dup 4 get exch 5 get cairo_store_point
      /cairo_font where { pop cairo_selectfont } if } bind def
/Tm { 2 copy 8 2 roll 6 array astore /cairo_font_matrix exch def
      cairo_store_point /cairo_font where { pop cairo_selectfont } if } bind def
/g { setgray } bind def
/rg { setrgbcolor } bind def
/d1 { setcachedevice } bind def
/cairo_data_source {
  CairoDataIndex CairoData length lt
    { CairoData CairoDataIndex get /CairoDataIndex CairoDataIndex 1 add def }
    { () } ifelse
} def
/cairo_flush_ascii85_file { cairo_ascii85_file status { cairo_ascii85_file flushfile } if } def
/cairo_image { image cairo_flush_ascii85_file } def
/cairo_imagemask { imagemask cairo_flush_ascii85_file } def
%%EndProlog
%%BeginSetup
%%EndSetup
%%Page: 1 1
%%BeginPageSetup
%%PageBoundingBox: 0 0 384 384
%%EndPageSetup
q 0 0 384 384 rectclip
1 0 0 -1 0 384 cm q
0.737255 0.584314 0.886275 rg
384 192 m 384 272.363 334.621 341.203 264.539 369.824 c 257.852 372.555
 250.973 374.918 243.922 376.891 c 227.406 381.523 209.992 384 192 384 c
 180.512 384 169.262 382.988 158.332 381.051 c 152.137 379.957 146.047 378.562
 140.078 376.891 c 133.027 374.918 126.148 372.555 119.461 369.824 c 49.379
 341.203 0 272.363 0 192 c 0 85.965 85.965 0 192 0 c 298.035 0 384 85.965
 384 192 c h
384 192 m f
0.4 0.705882 0.615686 rg
180.75 85.633 22.5 250.062 re f
0.72549 0.894118 0.937255 rg
264.539 249.066 m 264.539 369.824 l 257.852 372.555 250.973 374.918 243.922
 376.891 c 227.406 381.523 209.992 384 192 384 c 174.008 384 156.594 381.523
 140.078 376.891 c 133.027 374.918 126.148 372.555 119.461 369.824 c 119.461
 249.066 l h
264.539 249.066 m f
0.85098 0.447059 0.243137 rg
243.922 346.141 m 243.922 376.891 l 227.406 381.523 209.992 384 192 384
 c 174.008 384 156.594 381.523 140.078 376.891 c 140.078 346.141 l h
243.922 346.141 m f
0.576471 0.796078 0.827451 rg
158.332 249.066 m 158.332 381.051 l 152.137 379.957 146.047 378.562 140.078
 376.891 c 133.027 374.918 126.148 372.555 119.461 369.824 c 119.461 249.066
 l h
158.332 249.066 m f
0.741176 0.329412 0.137255 rg
158.332 346.141 m 158.332 381.051 l 152.137 379.957 146.047 378.562 140.078
 376.891 c 140.078 346.141 l h
158.332 346.141 m f
0.576471 0.796078 0.827451 rg
119.461 249.07 145.082 41.031 re f
0.72549 0.894118 0.937255 rg
266.703 223.156 m 117.297 223.156 l 102.984 223.156 91.379 234.758 91.379
 249.074 c 91.379 263.387 102.984 274.992 117.297 274.992 c 266.703 274.992
 l 281.016 274.992 292.621 263.387 292.621 249.074 c 292.621 234.758 281.016
 223.156 266.703 223.156 c h
266.703 223.156 m f
0.576471 0.796078 0.827451 rg
141.477 267.402 m 146.176 272.09 152.652 274.988 159.805 274.988 c 117.293
 274.988 l 110.141 274.988 103.656 272.09 98.969 267.402 c 94.281 262.715
 91.379 256.238 91.379 249.074 c 91.379 234.758 102.98 223.148 117.293 223.148
 c 159.805 223.148 l 145.5 223.148 133.891 234.758 133.891 249.074 c 133.891
 256.238 136.789 262.711 141.477 267.402 c h
141.477 267.402 m f
0.4 0.705882 0.615686 rg
286.793 0 m 251.293 0 l 212.332 0 180.75 31.582 180.75 70.543 c 180.75 
106.043 l 216.25 106.043 l 255.211 106.043 286.793 74.461 286.793 35.5 c
 h
286.793 0 m f
0.501961 0.886275 0.615686 rg
97.207 102.105 m 132.707 102.105 l 171.668 102.105 203.25 133.688 203.25
 172.648 c 203.25 208.148 l 167.75 208.148 l 128.789 208.148 97.207 176.566
 97.207 137.605 c h
97.207 102.105 m f
256.27 110.219 m 256.27 127.969 l 256.27 147.445 240.48 163.238 221 163.238
 c 203.25 163.238 l 203.25 145.488 l 203.25 126.008 219.043 110.219 238.52
 110.219 c h
256.27 110.219 m f
Q Q
showpage
%%Trailer
end
%%EOF
