%!PS-Adobe-3.0 EPSF-3.0
%%Creator: cairo 1.16.0 (https://cairographics.org)
%%CreationDate: Thu Nov 14 08:46:34 2019
%%Pages: 1
%%DocumentData: Clean7Bit
%%LanguageLevel: 2
%%BoundingBox: 0 0 384 384
%%EndComments
%%BeginProlog
50 dict begin
/q { gsave } bind def
/Q { grestore } bind def
/cm { 6 array astore concat } bind def
/w { setlinewidth } bind def
/J { setlinecap } bind def
/j { setlinejoin } bind def
/M { setmiterlimit } bind def
/d { setdash } bind def
/m { moveto } bind def
/l { lineto } bind def
/c { curveto } bind def
/h { closepath } bind def
/re { exch dup neg 3 1 roll 5 3 roll moveto 0 rlineto
      0 exch rlineto 0 rlineto closepath } bind def
/S { stroke } bind def
/f { fill } bind def
/f* { eofill } bind def
/n { newpath } bind def
/W { clip } bind def
/W* { eoclip } bind def
/BT { } bind def
/ET { } bind def
/BDC { mark 3 1 roll /BDC pdfmark } bind def
/EMC { mark /EMC pdfmark } bind def
/cairo_store_point { /cairo_point_y exch def /cairo_point_x exch def } def
/Tj { show currentpoint cairo_store_point } bind def
/TJ {
  {
    dup
    type /stringtype eq
    { show } { -0.001 mul 0 cairo_font_matrix dtransform rmoveto } ifelse
  } forall
  currentpoint cairo_store_point
} bind def
/cairo_selectfont { cairo_font_matrix aload pop pop pop 0 0 6 array astore
    cairo_font exch selectfont cairo_point_x cairo_point_y moveto } bind def
/Tf { pop /cairo_font exch def /cairo_font_matrix where
      { pop cairo_selectfont } if } bind def
/Td { matrix translate cairo_font_matrix matrix concatmatrix dup
      /cairo_font_matrix exch def dup 4 get exch 5 get cairo_store_point
      /cairo_font where { pop cairo_selectfont } if } bind def
/Tm { 2 copy 8 2 roll 6 array astore /cairo_font_matrix exch def
      cairo_store_point /cairo_font where { pop cairo_selectfont } if } bind def
/g { setgray } bind def
/rg { setrgbcolor } bind def
/d1 { setcachedevice } bind def
/cairo_data_source {
  CairoDataIndex CairoData length lt
    { CairoData CairoDataIndex get /CairoDataIndex CairoDataIndex 1 add def }
    { () } ifelse
} def
/cairo_flush_ascii85_file { cairo_ascii85_file status { cairo_ascii85_file flushfile } if } def
/cairo_image { image cairo_flush_ascii85_file } def
/cairo_imagemask { imagemask cairo_flush_ascii85_file } def
%%EndProlog
%%BeginSetup
%%EndSetup
%%Page: 1 1
%%BeginPageSetup
%%PageBoundingBox: 0 0 384 384
%%EndPageSetup
q 0 0 384 384 rectclip
1 0 0 -1 0 384 cm q
0.737255 0.584314 0.886275 rg
384 192 m 384 252.848 355.688 307.094 311.52 342.27 c 307.012 345.863 302.34
 349.254 297.516 352.434 c 294.512 354.414 291.449 356.309 288.328 358.117
 c 288.324 358.117 l 268.574 369.602 246.594 377.656 223.191 381.473 c 217.598
 382.387 211.922 383.062 206.176 383.484 c 202.621 383.738 199.043 383.902
 195.434 383.961 c 194.297 383.992 193.148 384 192 384 c 174.18 384 156.922
 381.57 140.551 377.023 c 135.051 375.504 129.66 373.738 124.379 371.738
 c 121.012 370.477 117.684 369.121 114.406 367.664 c 47.016 337.867 0 270.422
 0 192 c 0 85.965 85.965 0 192 0 c 298.035 0 384 85.965 384 192 c h
384 192 m f
0.92549 0.764706 0.180392 rg
105.496 298.523 m 122.695 292.613 l 127.863 290.836 127.863 283.531 122.695
 281.758 c 105.496 275.848 l 103.824 275.27 102.512 273.957 101.934 272.285
 c 96.027 255.086 l 94.25 249.922 86.945 249.922 85.172 255.086 c 79.262
 272.285 l 78.684 273.957 77.371 275.27 75.699 275.848 c 58.5 281.758 l 
53.336 283.531 53.336 290.836 58.5 292.613 c 75.699 298.523 l 77.371 299.098
 78.684 300.41 79.262 302.086 c 85.172 319.281 l 86.945 324.449 94.25 324.449
 96.027 319.281 c 101.934 302.086 l 102.512 300.41 103.824 299.098 105.496
 298.523 c h
105.496 298.523 m f
0.564706 0.847059 0.976471 rg
155.852 328.449 m 155.852 329.887 155.625 331.359 155.145 332.805 c 140.551
 377.023 l 131.551 374.527 122.82 371.391 114.406 367.664 c 128.789 324.098
 l 131.191 316.824 139.043 312.871 146.316 315.27 c 152.152 317.199 155.852
 322.621 155.852 328.449 c h
155.852 328.449 m f
0.380392 0.635294 0.976471 rg
151.086 317.977 m 145.68 318.406 140.797 321.996 138.988 327.465 c 124.379
 371.738 l 121.012 370.477 117.684 369.121 114.406 367.664 c 128.789 324.098
 l 131.191 316.824 139.043 312.871 146.316 315.27 c 148.125 315.863 149.73
 316.801 151.086 317.977 c h
151.086 317.977 m f
0.964706 0.945098 0.945098 rg
136.059 346.348 m 126.793 343.289 121.762 333.297 124.82 324.031 c 148.949
 250.957 l 152.008 241.691 162 236.66 171.266 239.719 c 180.531 242.777 
185.562 252.77 182.504 262.035 c 158.375 335.109 l 155.316 344.375 145.324
 349.406 136.059 346.348 c h
136.059 346.348 m f
0.87451 0.917647 0.937255 rg
141.969 347.234 m 140.016 347.277 138.02 346.992 136.059 346.348 c 126.793
 343.285 121.762 333.293 124.82 324.031 c 148.949 250.957 l 152.008 241.688
 162 236.656 171.27 239.719 c 173.227 240.363 175 241.32 176.543 242.52 
c 169.273 242.672 162.551 247.34 160.137 254.652 c 136.008 327.727 l 133.598
 335.031 136.219 342.785 141.969 347.234 c h
141.969 347.234 m f
0.564706 0.847059 0.976471 rg
311.52 342.27 m 307.012 345.863 302.34 349.254 297.516 352.434 c 294.512
 354.414 291.449 356.309 288.328 358.117 c 288.324 358.117 l 276.773 333.988
 l 276.539 333.512 276.336 333.023 276.164 332.527 c 276.164 332.52 276.164
 332.52 276.164 332.52 c 275.316 330.074 275.199 327.523 275.707 325.125
 c 275.91 324.188 276.203 323.273 276.586 322.395 c 276.711 322.102 276.855
 321.816 276.996 321.539 c 278.348 318.984 280.492 316.824 283.289 315.48
 c 283.531 315.359 283.777 315.254 284.016 315.156 c 284.227 315.066 284.438
 314.984 284.656 314.91 c 284.805 314.859 284.953 314.805 285.105 314.766
 c 285.18 314.738 285.254 314.715 285.328 314.691 c 285.473 314.648 285.613
 314.609 285.766 314.574 c 285.848 314.551 285.93 314.527 286.012 314.504
 c 286.164 314.469 286.32 314.438 286.477 314.398 c 286.801 314.332 287.129
 314.281 287.453 314.242 c 287.594 314.211 287.738 314.199 287.887 314.191
 c 288.098 314.16 288.309 314.145 288.516 314.137 c 288.547 314.137 288.57
 314.129 288.594 314.137 c 288.824 314.121 289.051 314.113 289.273 314.113
 c 294.449 314.113 299.422 317.023 301.809 321.996 c h
311.52 342.27 m f
0.380392 0.635294 0.976471 rg
288.324 358.117 m 276.766 333.988 l 276.531 333.512 276.328 333.023 276.164
 332.527 c 276.164 332.52 276.164 332.52 276.164 332.52 c 275.316 330.074
 275.199 327.523 275.707 325.125 c 275.91 324.188 276.203 323.273 276.586
 322.395 c 276.711 322.102 276.855 321.816 276.996 321.539 c 278.348 318.984
 280.492 316.824 283.289 315.48 c 283.531 315.359 283.777 315.254 284.016
 315.156 c 284.227 315.066 284.438 314.984 284.656 314.91 c 284.805 314.859
 284.953 314.805 285.105 314.766 c 285.18 314.738 285.254 314.715 285.328
 314.691 c 285.473 314.648 285.613 314.609 285.766 314.574 c 285.848 314.551
 285.93 314.527 286.012 314.504 c 286.164 314.469 286.32 314.438 286.477
 314.398 c 286.801 314.332 287.129 314.281 287.453 314.242 c 287.594 314.211
 287.738 314.199 287.887 314.191 c 288.098 314.16 288.309 314.145 288.516
 314.137 c 288.547 314.129 288.57 314.129 288.602 314.129 c 288.594 314.137
 l 285 318.188 283.973 324.156 286.453 329.348 c 297.516 352.434 l 294.512
 354.414 291.449 356.309 288.328 358.117 c f
0.964706 0.945098 0.945098 rg
297.43 344.992 m 288.629 349.211 278.078 345.492 273.863 336.691 c 240.617
 267.289 l 236.402 258.488 240.121 247.938 248.922 243.723 c 257.723 239.504
 268.273 243.223 272.488 252.023 c 305.73 321.426 l 309.949 330.227 306.23
 340.777 297.43 344.992 c h
297.43 344.992 m f
0.87451 0.917647 0.937255 rg
302.305 341.539 m 300.926 342.922 299.293 344.098 297.43 344.988 c 288.629
 349.207 278.078 345.488 273.863 336.695 c 240.617 267.289 l 236.402 258.484
 240.121 247.934 248.922 243.719 c 250.781 242.824 252.723 242.289 254.668
 242.082 c 249.531 247.23 247.922 255.254 251.246 262.199 c 284.492 331.602
 l 287.812 338.539 295.078 342.312 302.305 341.539 c h
302.305 341.539 m f
0.564706 0.847059 0.976471 rg
254.559 177.047 m 254.559 233.348 l 254.559 258.336 234.301 278.594 209.309
 278.594 c 184.328 278.594 164.07 258.336 164.07 233.348 c 164.07 177.047
 l h
254.559 177.047 m f
0.380392 0.635294 0.976471 rg
254.559 177.047 m 254.559 199.508 l 176.316 238.824 l 176.316 177.047 l
 h
254.559 177.047 m f
224.906 275.836 m 220.047 277.621 214.797 278.598 209.312 278.598 c 184.324
 278.598 164.066 258.34 164.066 233.348 c 164.066 177.047 l 195.25 177.047
 l 195.25 233.348 l 195.25 252.855 207.598 269.484 224.906 275.836 c h
224.906 275.836 m f
0.964706 0.945098 0.945098 rg
19.094 226.121 m 131.605 164.742 l 150.387 199.168 l 37.875 260.551 l h
19.094 226.121 m f
0.87451 0.917647 0.937255 rg
63.922 201.664 m 131.602 164.742 l 150.383 199.172 l 82.707 236.094 l h
63.922 201.664 m f
30.941 247.84 m 143.453 186.457 l 150.387 199.168 l 37.875 260.551 l h
30.941 247.84 m f
0.964706 0.945098 0.945098 rg
184.848 119.848 m 216.957 178.742 l 110.105 237.004 l 102.875 240.945 93.82
 238.281 89.879 231.051 c 72.039 198.328 l 68.098 191.105 70.766 182.051
 77.992 178.109 c h
184.848 119.848 m f
0.87451 0.917647 0.937255 rg
205.91 158.477 m 216.957 178.738 l 110.102 237 l 102.875 240.941 93.824
 238.273 89.883 231.047 c 78.836 210.785 l 82.777 218.016 91.828 220.68 
99.055 216.742 c h
205.91 158.477 m f
184.848 119.848 m 216.957 178.742 l 167.789 205.551 l 166.445 204.164 165.266
 202.57 164.297 200.793 c 137.781 152.164 l 136.812 150.387 136.113 148.539
 135.676 146.656 c h
184.848 119.848 m f
0.964706 0.945098 0.945098 rg
203.629 204.582 m 362.438 117.988 l 314.715 30.465 l 155.902 117.055 l 
145.16 122.91 141.203 136.367 147.059 147.109 c 173.574 195.734 l 179.43
 206.477 192.887 210.438 203.629 204.582 c h
203.629 204.582 m f
0.87451 0.917647 0.937255 rg
346.023 87.875 m 362.441 117.988 l 203.629 204.582 l 192.887 210.438 179.434
 206.473 173.578 195.73 c 157.156 165.617 l 163.02 176.367 176.469 180.324
 187.211 174.469 c h
346.023 87.875 m f
0.564706 0.847059 0.976471 rg
362.922 136.559 m 371.32 131.98 l 376.137 129.352 377.914 123.316 375.285
 118.5 c 321.246 19.387 l 318.617 14.57 312.582 12.793 307.766 15.422 c 
299.371 20 l 294.551 22.625 292.777 28.66 295.402 33.477 c 349.445 132.59
 l 352.07 137.41 358.105 139.184 362.922 136.559 c h
362.922 136.559 m f
0.380392 0.635294 0.976471 rg
353.332 78.246 m 375.285 118.508 l 377.906 123.32 376.133 129.355 371.32
 131.977 c 362.918 136.559 l 358.102 139.184 352.07 137.41 349.445 132.594
 c 327.496 92.336 l 330.117 97.148 336.152 98.926 340.965 96.301 c 349.367
 91.719 l 354.18 89.094 355.957 83.062 353.332 78.246 c h
353.332 78.246 m f
0.184314 0.215686 0.231373 rg
44.051 266.543 m 40.535 268.457 l 35.227 271.355 28.574 269.395 25.68 264.086
 c 9.496 234.402 l 6.598 229.094 8.559 222.441 13.867 219.547 c 17.379 217.629
 l 22.691 214.734 29.344 216.691 32.238 222.004 c 48.422 251.684 l 51.316
 256.996 49.359 263.648 44.051 266.543 c h
44.051 266.543 m f
0.0941176 0.117647 0.129412 rg
37.547 231.734 m 48.426 251.684 l 51.32 256.992 49.359 263.648 44.047 266.543
 c 40.535 268.457 l 35.223 271.355 28.574 269.395 25.68 264.086 c 14.801
 244.133 l 17.695 249.441 24.344 251.402 29.656 248.508 c 33.168 246.594
 l 38.48 243.695 40.441 237.039 37.547 231.734 c h
37.547 231.734 m f
0.564706 0.847059 0.976471 rg
223.191 347.211 m 223.191 381.473 l 214.141 382.957 204.871 383.805 195.434
 383.961 c 195.434 347.211 l 195.434 339.547 201.645 333.336 209.309 333.336
 c 213.141 333.336 216.613 334.891 219.129 337.402 c 221.641 339.914 223.191
 343.379 223.191 347.211 c h
223.191 347.211 m f
0.380392 0.635294 0.976471 rg
214.688 334.41 m 209.684 336.512 206.176 341.461 206.176 347.211 c 206.176
 383.484 l 202.621 383.738 199.043 383.902 195.434 383.961 c 195.434 347.211
 l 195.434 339.555 201.652 333.328 209.309 333.328 c 211.215 333.328 213.031
 333.719 214.688 334.41 c h
214.688 334.41 m f
0.964706 0.945098 0.945098 rg
209.312 366.062 m 199.555 366.062 191.645 358.152 191.645 348.395 c 191.645
 271.438 l 191.645 261.68 199.555 253.77 209.312 253.77 c 219.07 253.77 
226.98 261.68 226.98 271.438 c 226.98 348.395 l 226.98 358.152 219.07 366.062
 209.312 366.062 c h
209.312 366.062 m f
0.87451 0.917647 0.937255 rg
215.203 365.051 m 213.363 365.707 211.379 366.059 209.316 366.059 c 199.555
 366.059 191.645 358.148 191.645 348.395 c 191.645 271.438 l 191.645 261.68
 199.555 253.77 209.316 253.77 c 211.379 253.77 213.363 254.121 215.203 
254.773 c 208.348 257.199 203.43 263.742 203.43 271.438 c 203.43 348.395
 l 203.43 356.086 208.348 362.629 215.203 365.051 c h
215.203 365.051 m f
0.92549 0.764706 0.180392 rg
100.637 95.211 m 117.836 89.301 l 123 87.527 123 80.223 117.836 78.445 
c 100.637 72.535 l 98.961 71.961 97.648 70.648 97.074 68.973 c 91.164 51.777
 l 89.387 46.609 82.082 46.609 80.309 51.777 c 74.398 68.973 l 73.824 70.648
 72.508 71.961 70.836 72.535 c 53.637 78.445 l 48.473 80.223 48.473 87.527
 53.637 89.301 c 70.836 95.211 l 72.508 95.789 73.824 97.102 74.398 98.773
 c 80.309 115.973 l 82.082 121.137 89.387 121.137 91.164 115.973 c 97.074
 98.773 l 97.648 97.102 98.961 95.789 100.637 95.211 c h
100.637 95.211 m f
342.395 229.137 m 359.594 223.227 l 364.758 221.449 364.758 214.145 359.594
 212.371 c 342.395 206.461 l 340.723 205.883 339.406 204.57 338.832 202.898
 c 332.922 185.699 l 331.148 180.535 323.84 180.535 322.066 185.699 c 316.156
 202.898 l 315.582 204.57 314.266 205.883 312.594 206.461 c 295.395 212.371
 l 290.23 214.145 290.23 221.449 295.395 223.227 c 312.594 229.137 l 314.266
 229.711 315.582 231.023 316.156 232.699 c 322.066 249.895 l 323.84 255.062
 331.148 255.062 332.922 249.895 c 338.832 232.699 l 339.406 231.023 340.723
 229.711 342.395 229.137 c h
342.395 229.137 m f
Q Q
showpage
%%Trailer
end
%%EOF
