%!PS-Adobe-3.0 EPSF-3.0
%%Creator: cairo 1.16.0 (https://cairographics.org)
%%CreationDate: Thu Nov 14 08:46:36 2019
%%Pages: 1
%%DocumentData: Clean7Bit
%%LanguageLevel: 2
%%BoundingBox: 0 0 384 384
%%EndComments
%%BeginProlog
50 dict begin
/q { gsave } bind def
/Q { grestore } bind def
/cm { 6 array astore concat } bind def
/w { setlinewidth } bind def
/J { setlinecap } bind def
/j { setlinejoin } bind def
/M { setmiterlimit } bind def
/d { setdash } bind def
/m { moveto } bind def
/l { lineto } bind def
/c { curveto } bind def
/h { closepath } bind def
/re { exch dup neg 3 1 roll 5 3 roll moveto 0 rlineto
      0 exch rlineto 0 rlineto closepath } bind def
/S { stroke } bind def
/f { fill } bind def
/f* { eofill } bind def
/n { newpath } bind def
/W { clip } bind def
/W* { eoclip } bind def
/BT { } bind def
/ET { } bind def
/BDC { mark 3 1 roll /BDC pdfmark } bind def
/EMC { mark /EMC pdfmark } bind def
/cairo_store_point { /cairo_point_y exch def /cairo_point_x exch def } def
/Tj { show currentpoint cairo_store_point } bind def
/TJ {
  {
    dup
    type /stringtype eq
    { show } { -0.001 mul 0 cairo_font_matrix dtransform rmoveto } ifelse
  } forall
  currentpoint cairo_store_point
} bind def
/cairo_selectfont { cairo_font_matrix aload pop pop pop 0 0 6 array astore
    cairo_font exch selectfont cairo_point_x cairo_point_y moveto } bind def
/Tf { pop /cairo_font exch def /cairo_font_matrix where
      { pop cairo_selectfont } if } bind def
/Td { matrix translate cairo_font_matrix matrix concatmatrix dup
      /cairo_font_matrix exch def dup 4 get exch 5 get cairo_store_point
      /cairo_font where { pop cairo_selectfont } if } bind def
/Tm { 2 copy 8 2 roll 6 array astore /cairo_font_matrix exch def
      cairo_store_point /cairo_font where { pop cairo_selectfont } if } bind def
/g { setgray } bind def
/rg { setrgbcolor } bind def
/d1 { setcachedevice } bind def
/cairo_data_source {
  CairoDataIndex CairoData length lt
    { CairoData CairoDataIndex get /CairoDataIndex CairoDataIndex 1 add def }
    { () } ifelse
} def
/cairo_flush_ascii85_file { cairo_ascii85_file status { cairo_ascii85_file flushfile } if } def
/cairo_image { image cairo_flush_ascii85_file } def
/cairo_imagemask { imagemask cairo_flush_ascii85_file } def
%%EndProlog
%%BeginSetup
%%EndSetup
%%Page: 1 1
%%BeginPageSetup
%%PageBoundingBox: 0 0 384 384
%%EndPageSetup
q 0 0 384 384 rectclip
1 0 0 -1 0 384 cm q
0.976471 0.239216 0.431373 rg
384 192 m 384 278.273 327.09 351.262 248.762 375.465 c 230.82 381.016 211.762
 384 192 384 c 185.934 384 179.934 383.715 174.016 383.168 c 76.41 374.102
 0 291.969 0 192 c 0 85.965 85.965 0 192 0 c 298.035 0 384 85.965 384 192
 c h
384 192 m f
0.576471 0.45098 0.72549 rg
263.16 155.867 32.219 25.449 re f
0.976471 0.239216 0.431373 rg
307.48 243.949 m 184.77 243.949 l 180.555 243.949 177.137 247.367 177.137
 251.586 c 177.137 259.133 l 315.113 259.133 l 315.113 251.586 l 315.113
 247.367 311.695 243.949 307.48 243.949 c h
307.48 243.949 m f
0.737255 0.584314 0.886275 rg
209.035 227.512 m 202.395 223.777 l 199.676 222.246 198.711 218.801 200.242
 216.082 c 214.207 191.266 l 230.691 200.539 l 216.73 225.359 l 215.199 
228.078 211.754 229.043 209.035 227.512 c h
209.035 227.512 m f
0.576471 0.45098 0.72549 rg
208.848 227.406 m 202.398 223.777 l 199.676 222.242 198.711 218.801 200.242
 216.082 c 214.207 191.262 l 220.652 194.891 l 206.688 219.711 l 205.16 
222.426 206.125 225.871 208.848 227.406 c h
208.848 227.406 m f
0.737255 0.584314 0.886275 rg
260.176 225.203 m 253.098 228.031 l 250.203 229.191 246.914 227.781 245.758
 224.883 c 235.188 198.441 l 252.754 191.418 l 263.324 217.863 l 264.48 
220.758 263.074 224.047 260.176 225.203 c h
260.176 225.203 m f
0.576471 0.45098 0.72549 rg
259.973 225.281 m 253.105 228.027 l 250.203 229.188 246.914 227.777 245.758
 224.883 c 235.188 198.438 l 242.055 195.691 l 252.625 222.137 l 253.785
 225.031 257.07 226.441 259.973 225.281 c h
259.973 225.281 m f
0.737255 0.584314 0.886275 rg
214.824 22.289 36.887 36.875 re f
0.576471 0.45098 0.72549 rg
214.828 22.285 15.41 36.879 re f
214.824 22.289 36.887 9.484 re f
0.737255 0.584314 0.886275 rg
258.125 0.457 m 241.898 5.242 224.633 5.242 208.406 0.457 c 201.406 -1.605
 194.391 3.641 194.391 10.941 c 194.391 19.875 201.637 27.121 210.57 27.121
 c 255.961 27.121 l 264.898 27.121 272.141 19.875 272.141 10.941 c 272.145
 3.641 265.125 -1.605 258.125 0.457 c h
258.125 0.457 m f
0.576471 0.45098 0.72549 rg
236.352 27.121 m 210.574 27.121 l 206.105 27.121 202.059 25.312 199.129
 22.383 c 196.199 19.457 194.391 15.406 194.391 10.941 c 194.391 4.727 199.473
 0 205.309 0 c 206.332 0 207.367 0.152 208.41 0.453 c 213.246 1.875 218.176
 2.887 223.141 3.457 c 221.309 5.383 220.168 8 220.168 10.938 c 220.168 
15.406 221.977 19.457 224.906 22.383 c 227.832 25.312 231.883 27.121 236.352
 27.121 c h
236.352 27.121 m f
0.72549 0.894118 0.937255 rg
313.645 250.672 m 175 250.672 l 168.043 250.672 162.398 256.316 162.398
 263.277 c 162.398 280.758 l 162.398 287.715 168.043 293.359 175 293.359
 c 313.645 293.359 l 320.605 293.359 326.246 287.715 326.246 280.758 c 326.246
 263.277 l 326.246 256.316 320.605 250.672 313.645 250.672 c h
313.645 250.672 m f
0.576471 0.796078 0.827451 rg
220.512 293.363 m 175.004 293.363 l 168.047 293.363 162.398 287.715 162.398
 280.758 c 162.398 263.277 l 162.398 256.316 168.047 250.68 175.004 250.68
 c 220.512 250.68 l 213.555 250.68 207.91 256.316 207.91 263.277 c 207.91
 280.758 l 207.91 287.715 213.555 293.363 220.512 293.363 c h
220.512 293.363 m f
0.964706 0.945098 0.945098 rg
254.121 204.477 m 209.125 204.477 l 195.93 204.477 185.234 193.781 185.234
 180.59 c 185.234 64.539 l 185.234 51.348 195.93 40.652 209.125 40.652 c
 254.121 40.652 l 267.312 40.652 278.008 51.348 278.008 64.539 c 278.008
 180.59 l 278.008 193.781 267.312 204.477 254.121 204.477 c h
254.121 204.477 m f
0.87451 0.917647 0.937255 rg
240.91 204.484 m 209.125 204.484 l 195.93 204.484 185.234 193.789 185.234
 180.598 c 185.234 64.539 l 185.234 51.348 195.93 40.652 209.125 40.652 
c 240.91 40.652 l 227.715 40.652 217.02 51.348 217.02 64.539 c 217.02 180.598
 l 217.02 193.789 227.715 204.484 240.91 204.484 c h
240.91 204.484 m f
0.964706 0.945098 0.945098 rg
186.242 371.676 m 111.418 371.676 50.543 310.801 50.543 235.973 c 50.543
 161.148 111.418 100.273 186.242 100.273 c 186.242 161.578 l 145.223 161.578
 111.848 194.953 111.848 235.973 c 111.848 276.996 145.223 310.367 186.242
 310.367 c h
186.242 371.676 m f
0.87451 0.917647 0.937255 rg
170.711 336.457 m 170.711 346.66 160.828 353.883 151.074 350.895 c 101.914
 335.82 66.074 290.004 66.074 235.973 c 66.074 181.941 101.918 136.125 151.074
 121.055 c 160.828 118.062 170.711 125.289 170.711 135.492 c 170.711 142.191
 166.285 148.023 159.883 149.988 c 123.121 161.285 96.316 195.559 96.316
 235.973 c 96.316 276.391 123.121 310.664 159.883 321.961 c 166.285 323.926
 170.711 329.758 170.711 336.457 c h
170.711 336.457 m f
0.737255 0.584314 0.886275 rg
236.531 130.059 m 236.531 157.082 214.625 178.988 187.602 178.988 c 160.578
 178.988 138.672 157.082 138.672 130.059 c 138.672 103.035 160.578 81.129
 187.602 81.129 c 214.625 81.129 236.531 103.035 236.531 130.059 c h
236.531 130.059 m f
0.576471 0.45098 0.72549 rg
221.945 130.059 m 221.945 149.023 206.566 164.402 187.602 164.402 c 168.633
 164.402 153.258 149.023 153.258 130.059 c 153.258 111.09 168.633 95.715
 187.602 95.715 c 206.566 95.715 221.945 111.09 221.945 130.059 c h
221.945 130.059 m f
0.737255 0.584314 0.886275 rg
248.762 294.328 m 248.762 375.465 l 230.82 381.016 211.762 384 192 384 
c 185.934 384 179.934 383.715 174.016 383.168 c 174.016 294.328 l 174.016
 273.684 190.738 256.949 211.387 256.949 c 232.027 256.949 248.762 273.684
 248.762 294.328 c h
248.762 294.328 m f
0.576471 0.45098 0.72549 rg
229.34 294.328 m 229.34 304.242 221.305 312.281 211.387 312.281 c 201.473
 312.281 193.434 304.242 193.434 294.328 c 193.434 284.41 201.473 276.371
 211.387 276.371 c 221.305 276.371 229.34 284.41 229.34 294.328 c h
229.34 294.328 m f
0.737255 0.584314 0.886275 rg
297.57 194.52 m 293.188 194.52 l 289.367 194.52 286.27 191.422 286.27 187.602
 c 286.27 149.578 l 286.27 145.762 289.367 142.664 293.188 142.664 c 297.57
 142.664 l 301.391 142.664 304.488 145.762 304.488 149.578 c 304.488 187.602
 l 304.488 191.422 301.391 194.52 297.57 194.52 c h
297.57 194.52 m f
0.576471 0.45098 0.72549 rg
304.488 168.582 m 304.488 187.609 l 304.488 191.422 301.391 194.52 297.57
 194.52 c 293.191 194.52 l 289.367 194.52 286.27 191.422 286.27 187.609 
c 286.27 168.582 l 286.27 172.402 289.371 175.5 293.191 175.5 c 297.57 175.5
 l 301.391 175.5 304.488 172.402 304.488 168.582 c h
304.488 168.582 m f
Q Q
showpage
%%Trailer
end
%%EOF
