%!PS-Adobe-3.0 EPSF-3.0
%%Creator: cairo 1.16.0 (https://cairographics.org)
%%CreationDate: Thu Nov 14 08:46:36 2019
%%Pages: 1
%%DocumentData: Clean7Bit
%%LanguageLevel: 2
%%BoundingBox: 0 0 384 384
%%EndComments
%%BeginProlog
50 dict begin
/q { gsave } bind def
/Q { grestore } bind def
/cm { 6 array astore concat } bind def
/w { setlinewidth } bind def
/J { setlinecap } bind def
/j { setlinejoin } bind def
/M { setmiterlimit } bind def
/d { setdash } bind def
/m { moveto } bind def
/l { lineto } bind def
/c { curveto } bind def
/h { closepath } bind def
/re { exch dup neg 3 1 roll 5 3 roll moveto 0 rlineto
      0 exch rlineto 0 rlineto closepath } bind def
/S { stroke } bind def
/f { fill } bind def
/f* { eofill } bind def
/n { newpath } bind def
/W { clip } bind def
/W* { eoclip } bind def
/BT { } bind def
/ET { } bind def
/BDC { mark 3 1 roll /BDC pdfmark } bind def
/EMC { mark /EMC pdfmark } bind def
/cairo_store_point { /cairo_point_y exch def /cairo_point_x exch def } def
/Tj { show currentpoint cairo_store_point } bind def
/TJ {
  {
    dup
    type /stringtype eq
    { show } { -0.001 mul 0 cairo_font_matrix dtransform rmoveto } ifelse
  } forall
  currentpoint cairo_store_point
} bind def
/cairo_selectfont { cairo_font_matrix aload pop pop pop 0 0 6 array astore
    cairo_font exch selectfont cairo_point_x cairo_point_y moveto } bind def
/Tf { pop /cairo_font exch def /cairo_font_matrix where
      { pop cairo_selectfont } if } bind def
/Td { matrix translate cairo_font_matrix matrix concatmatrix dup
      /cairo_font_matrix exch def dup 4 get exch 5 get cairo_store_point
      /cairo_font where { pop cairo_selectfont } if } bind def
/Tm { 2 copy 8 2 roll 6 array astore /cairo_font_matrix exch def
      cairo_store_point /cairo_font where { pop cairo_selectfont } if } bind def
/g { setgray } bind def
/rg { setrgbcolor } bind def
/d1 { setcachedevice } bind def
/cairo_data_source {
  CairoDataIndex CairoData length lt
    { CairoData CairoDataIndex get /CairoDataIndex CairoDataIndex 1 add def }
    { () } ifelse
} def
/cairo_flush_ascii85_file { cairo_ascii85_file status { cairo_ascii85_file flushfile } if } def
/cairo_image { image cairo_flush_ascii85_file } def
/cairo_imagemask { imagemask cairo_flush_ascii85_file } def
%%EndProlog
%%BeginSetup
%%EndSetup
%%Page: 1 1
%%BeginPageSetup
%%PageBoundingBox: 0 0 384 384
%%EndPageSetup
q 0 0 384 384 rectclip
1 0 0 -1 0 384 cm q
0.72549 0.894118 0.937255 rg
384 192 m 384 264.578 343.734 327.742 284.316 360.383 c 256.926 375.434
 225.457 384 192 384 c 179.676 384 167.617 382.836 155.934 380.609 c 135.906
 376.809 116.977 369.887 99.684 360.383 c 40.266 327.742 0 264.578 0 192
 c 0 85.965 85.965 0 192 0 c 298.035 0 384 85.965 384 192 c h
384 192 m f
0.905882 0.647059 0.180392 rg
109.156 264.555 m 96.727 264.555 82.387 262.188 66.867 255.355 c 34.586
 241.152 22.289 192.648 18.5 172.453 c 12.035 137.988 12.645 96.078 28.582
 80.141 c 43.988 64.734 68.094 68.832 85.602 74.98 c 102.641 80.969 116.562
 89.77 117.145 90.141 c 121.977 93.215 123.402 99.621 120.328 104.453 c 
117.254 109.285 110.852 110.711 106.023 107.641 c 90.922 98.07 55.711 82.34
 43.246 94.805 c 35.84 102.211 32.316 133.645 38.883 168.633 c 45.41 203.43
 59.336 229.387 75.219 236.375 c 114.684 253.738 144.023 235.223 144.316
 235.035 c 149.125 231.922 155.543 233.293 158.656 238.098 c 161.77 242.902
 160.398 249.324 155.594 252.438 c 154.512 253.137 136.441 264.551 109.156
 264.555 c h
109.156 264.555 m f
0.92549 0.764706 0.180392 rg
365.496 172.453 m 361.711 192.652 349.418 241.156 317.137 255.359 c 301.613
 262.184 287.273 264.555 274.844 264.555 c 247.559 264.555 229.484 253.141
 228.406 252.434 c 223.598 249.324 222.234 242.902 225.344 238.094 c 228.457
 233.289 234.879 231.922 239.684 235.035 c 239.91 235.184 257.852 246.504
 284.484 243.195 c 284.496 243.195 l 291.977 242.266 300.137 240.18 308.781
 236.379 c 324.668 229.387 338.586 203.43 345.121 168.629 c 351.684 133.641
 348.164 102.211 340.754 94.809 c 337.574 91.629 332.934 90.285 327.516 
90.203 c 327.391 90.203 l 327.246 90.195 327.105 90.195 326.961 90.195 c
 311.145 90.195 289.102 100.59 277.98 107.641 c 273.148 110.707 266.746 
109.281 263.672 104.453 c 260.594 99.621 262.02 93.219 266.859 90.141 c 
267.441 89.766 281.363 80.969 298.402 74.984 c 315.906 68.836 340.012 64.734
 355.418 80.145 c 371.355 96.082 371.969 137.992 365.496 172.453 c h
365.496 172.453 m f
308.031 193.328 m 302.633 233.219 212.664 237.719 212.664 275.551 c 212.664
 328.734 l 171.328 328.734 l 171.328 275.551 l 171.328 237.719 81.367 233.219
 75.969 193.328 c 70.551 153.434 81.367 92.723 97.246 64.801 c 101.023 63.742
 l 195.988 36.996 l 286.754 64.801 l 289.172 69.066 291.48 74.086 293.625
 79.688 c 305.551 110.766 312.613 159.523 308.031 193.328 c h
308.031 193.328 m f
0.905882 0.647059 0.180392 rg
293.625 79.684 m 117.91 79.684 l 108.895 79.684 101.523 72.633 101.023 
63.738 c 195.988 36.996 l 286.754 64.805 l 289.172 69.062 291.477 74.09 
293.625 79.684 c h
293.625 79.684 m f
147.512 193.328 m 149.582 233.215 184.074 237.719 184.074 275.555 c 184.074
 328.73 l 171.336 328.73 l 171.336 275.555 l 171.336 237.719 81.367 233.219
 75.961 193.328 c 70.559 153.438 81.367 92.723 97.246 64.805 c 191.996 38.125
 l 155.668 64.805 l 149.582 92.723 145.441 153.438 147.512 193.328 c h
147.512 193.328 m f
0.917647 0.694118 0.301961 rg
194.172 37.512 m 191.996 38.125 l 193.531 36.996 l h
194.172 37.512 m f
0.92549 0.764706 0.180392 rg
286.754 64.801 m 97.246 64.801 l 87.906 64.801 80.332 57.23 80.332 47.887
 c 80.332 31.961 l 80.332 22.621 87.906 15.047 97.246 15.047 c 286.754 15.047
 l 296.094 15.047 303.668 22.617 303.668 31.961 c 303.668 47.887 l 303.668
 57.23 296.094 64.801 286.754 64.801 c h
286.754 64.801 m f
0.905882 0.647059 0.180392 rg
158.641 64.805 m 97.246 64.805 l 87.906 64.805 80.332 57.23 80.332 47.887
 c 80.332 31.957 l 80.332 22.617 87.906 15.043 97.246 15.043 c 158.641 15.043
 l 149.297 15.043 141.727 22.617 141.727 31.957 c 141.727 47.887 l 141.727
 57.23 149.297 64.805 158.641 64.805 c h
158.641 64.805 m f
171.328 295.402 41.336 33.332 re f
0.92549 0.764706 0.180392 rg
243.801 303.027 m 140.199 303.027 l 128.324 303.027 118.695 312.656 118.695
 324.531 c 118.695 336.406 128.324 346.035 140.199 346.035 c 243.801 346.035
 l 255.676 346.035 265.305 336.406 265.305 324.531 c 265.305 312.656 255.676
 303.027 243.801 303.027 c h
243.801 303.027 m f
0.905882 0.647059 0.180392 rg
170.168 339.734 m 174.062 343.617 179.43 346.023 185.371 346.023 c 140.199
 346.023 l 134.266 346.023 128.891 343.617 124.996 339.734 c 121.105 335.84
 118.695 330.461 118.695 324.531 c 118.695 312.648 128.328 303.027 140.199
 303.027 c 185.371 303.027 l 173.5 303.027 163.867 312.648 163.867 324.531
 c 163.867 330.461 166.277 335.84 170.168 339.734 c h
170.168 339.734 m f
0.92549 0.764706 0.180392 rg
284.316 360.383 m 256.926 375.434 225.457 384 192 384 c 158.543 384 127.074
 375.434 99.684 360.383 c 104.504 351.816 113.676 346.035 124.207 346.035
 c 259.793 346.035 l 267.562 346.035 274.598 349.184 279.691 354.277 c 281.496
 356.086 283.059 358.141 284.316 360.383 c h
284.316 360.383 m f
0.905882 0.647059 0.180392 rg
155.191 374.176 m 155.191 376.387 155.445 378.547 155.934 380.609 c 135.906
 376.809 116.977 369.887 99.684 360.383 c 104.504 351.816 113.684 346.035
 124.207 346.035 c 183.324 346.035 l 167.789 346.035 155.191 358.629 155.191
 374.176 c h
155.191 374.176 m f
353.789 169.621 m 340.246 246.523 285.621 243.27 284.496 243.195 c 291.977
 242.266 300.137 240.18 308.781 236.379 c 324.668 229.387 338.586 203.43
 345.121 168.629 c 351.684 133.641 348.164 102.211 340.754 94.809 c 337.574
 91.629 332.934 90.285 327.516 90.203 c 348.488 90.211 367.441 92.07 353.789
 169.621 c h
353.789 169.621 m f
265.449 136.875 m 265.449 162.016 245.066 182.398 219.926 182.398 c 194.785
 182.398 174.402 162.016 174.402 136.875 c 174.402 111.734 194.785 91.352
 219.926 91.352 c 245.066 91.352 265.449 111.734 265.449 136.875 c h
265.449 136.875 m f
255.969 122.703 m 197.324 122.703 l 197.324 122.703 195.402 72.316 194.172
 64.801 c 201.316 48.91 201.316 15.043 201.316 15.043 c 255.969 15.043 l
 h
255.969 122.703 m f
193.574 69.473 58.645 53.23 re f
0.564706 0.847059 0.976471 rg
201.316 15.043 58.645 107.66 re f
0.737255 0.584314 0.886275 rg
209.785 15.043 41.703 107.66 re f
0.564706 0.847059 0.976471 rg
219.512 15.043 22.254 107.66 re f
0.964706 0.945098 0.945098 rg
276.16 136.875 m 276.16 162.016 255.777 182.398 230.637 182.398 c 205.496
 182.398 185.117 162.016 185.117 136.875 c 185.117 111.734 205.496 91.352
 230.637 91.352 c 255.777 91.352 276.16 111.734 276.16 136.875 c h
276.16 136.875 m f
0.87451 0.917647 0.937255 rg
262.355 136.875 m 262.355 154.391 248.156 168.59 230.637 168.59 c 213.121
 168.59 198.922 154.391 198.922 136.875 c 198.922 119.359 213.121 105.16
 230.637 105.16 c 248.156 105.16 262.355 119.359 262.355 136.875 c h
262.355 136.875 m f
0.964706 0.945098 0.945098 rg
242.051 125.961 m 244.203 125.961 245.949 124.215 245.949 122.062 c 245.949
 119.109 l 245.949 116.957 244.203 115.211 242.051 115.211 c 219.227 115.211
 l 217.07 115.211 215.324 116.957 215.324 119.109 c 215.324 122.062 l 215.324
 124.215 217.07 125.961 219.227 125.961 c 224.609 125.961 l 224.609 147.789
 l 219.227 147.789 l 217.07 147.789 215.324 149.535 215.324 151.688 c 215.324
 154.641 l 215.324 156.793 217.07 158.539 219.227 158.539 c 242.051 158.539
 l 244.203 158.539 245.949 156.793 245.949 154.641 c 245.949 151.688 l 245.949
 149.535 244.203 147.789 242.051 147.789 c 236.664 147.789 l 236.664 125.961
 l h
242.051 125.961 m f
Q Q
showpage
%%Trailer
end
%%EOF
