%!PS-Adobe-3.0 EPSF-3.0
%%Creator: cairo 1.16.0 (https://cairographics.org)
%%CreationDate: Thu Nov 14 08:46:36 2019
%%Pages: 1
%%DocumentData: Clean7Bit
%%LanguageLevel: 2
%%BoundingBox: 0 0 384 384
%%EndComments
%%BeginProlog
50 dict begin
/q { gsave } bind def
/Q { grestore } bind def
/cm { 6 array astore concat } bind def
/w { setlinewidth } bind def
/J { setlinecap } bind def
/j { setlinejoin } bind def
/M { setmiterlimit } bind def
/d { setdash } bind def
/m { moveto } bind def
/l { lineto } bind def
/c { curveto } bind def
/h { closepath } bind def
/re { exch dup neg 3 1 roll 5 3 roll moveto 0 rlineto
      0 exch rlineto 0 rlineto closepath } bind def
/S { stroke } bind def
/f { fill } bind def
/f* { eofill } bind def
/n { newpath } bind def
/W { clip } bind def
/W* { eoclip } bind def
/BT { } bind def
/ET { } bind def
/BDC { mark 3 1 roll /BDC pdfmark } bind def
/EMC { mark /EMC pdfmark } bind def
/cairo_store_point { /cairo_point_y exch def /cairo_point_x exch def } def
/Tj { show currentpoint cairo_store_point } bind def
/TJ {
  {
    dup
    type /stringtype eq
    { show } { -0.001 mul 0 cairo_font_matrix dtransform rmoveto } ifelse
  } forall
  currentpoint cairo_store_point
} bind def
/cairo_selectfont { cairo_font_matrix aload pop pop pop 0 0 6 array astore
    cairo_font exch selectfont cairo_point_x cairo_point_y moveto } bind def
/Tf { pop /cairo_font exch def /cairo_font_matrix where
      { pop cairo_selectfont } if } bind def
/Td { matrix translate cairo_font_matrix matrix concatmatrix dup
      /cairo_font_matrix exch def dup 4 get exch 5 get cairo_store_point
      /cairo_font where { pop cairo_selectfont } if } bind def
/Tm { 2 copy 8 2 roll 6 array astore /cairo_font_matrix exch def
      cairo_store_point /cairo_font where { pop cairo_selectfont } if } bind def
/g { setgray } bind def
/rg { setrgbcolor } bind def
/d1 { setcachedevice } bind def
/cairo_data_source {
  CairoDataIndex CairoData length lt
    { CairoData CairoDataIndex get /CairoDataIndex CairoDataIndex 1 add def }
    { () } ifelse
} def
/cairo_flush_ascii85_file { cairo_ascii85_file status { cairo_ascii85_file flushfile } if } def
/cairo_image { image cairo_flush_ascii85_file } def
/cairo_imagemask { imagemask cairo_flush_ascii85_file } def
%%EndProlog
%%BeginSetup
%%EndSetup
%%Page: 1 1
%%BeginPageSetup
%%PageBoundingBox: 0 0 384 384
%%EndPageSetup
q 0 0 384 384 rectclip
1 0 0 -1 0 384 cm q
0.501961 0.886275 0.615686 rg
384 192 m 384 266.828 341.191 331.664 278.723 363.336 c 273.727 365.871
 268.613 368.199 263.379 370.289 c 258.367 372.301 253.254 374.102 248.039
 375.691 c 230.309 381.09 211.492 384 192 384 c 172.508 384 153.691 381.09
 135.961 375.691 c 130.746 374.102 125.633 372.301 120.621 370.289 c 115.387
 368.199 110.273 365.871 105.277 363.336 c 42.809 331.664 0 266.828 0 192
 c 0 85.965 85.965 0 192 0 c 298.035 0 384 85.965 384 192 c h
384 192 m f
0.964706 0.945098 0.945098 rg
76.172 299.043 m 57.973 299.043 l 45.441 299.043 35.25 288.852 35.25 276.324
 c 35.25 197.027 l 50.25 197.027 l 50.25 276.32 l 50.25 280.578 53.715 284.043
 57.973 284.043 c 76.172 284.043 l h
76.172 299.043 m f
105.277 122.703 30.688 164.633 re f
0.87451 0.917647 0.937255 rg
105.277 122.703 30.688 51.547 re f
105.277 122.703 15.344 164.633 re f
0.964706 0.945098 0.945098 rg
248.035 122.703 30.688 164.633 re f
0.87451 0.917647 0.937255 rg
248.035 122.703 30.688 51.547 re f
248.035 122.703 15.344 164.633 re f
0.964706 0.945098 0.945098 rg
135.961 281.012 m 135.961 375.691 l 130.746 374.102 125.633 372.301 120.621
 370.289 c 115.387 368.199 110.273 365.871 105.277 363.336 c 105.277 281.012
 l h
135.961 281.012 m f
0.87451 0.917647 0.937255 rg
105.277 281.008 30.688 51.543 re f
120.621 281.012 m 120.621 370.289 l 115.387 368.199 110.273 365.871 105.277
 363.336 c 105.277 281.012 l h
120.621 281.012 m f
0.964706 0.945098 0.945098 rg
278.723 281.012 m 278.723 363.336 l 273.727 365.871 268.613 368.199 263.379
 370.289 c 258.367 372.301 253.254 374.102 248.039 375.691 c 248.039 281.012
 l h
278.723 281.012 m f
0.87451 0.917647 0.937255 rg
248.035 281.008 30.688 51.543 re f
263.379 281.012 m 263.379 370.289 l 258.367 372.301 253.254 374.102 248.039
 375.691 c 248.039 281.012 l h
263.379 281.012 m f
0.905882 0.647059 0.180392 rg
105.277 287.336 173.449 58.699 re f
0.92549 0.764706 0.180392 rg
271.094 160.859 m 112.906 160.859 l 89.387 160.859 70.316 141.793 70.316
 118.27 c 70.316 46.285 l 70.316 22.762 89.387 3.695 112.906 3.695 c 271.094
 3.695 l 294.613 3.695 313.684 22.762 313.684 46.285 c 313.684 118.27 l 
313.684 141.789 294.613 160.859 271.094 160.859 c h
271.094 160.859 m f
0.905882 0.647059 0.180392 rg
127.391 160.859 m 112.91 160.859 l 89.391 160.859 70.316 141.789 70.316
 118.27 c 70.316 46.285 l 70.316 22.762 89.391 3.691 112.91 3.691 c 127.391
 3.691 l 103.871 3.691 84.809 22.762 84.809 46.285 c 84.809 118.27 l 84.809
 141.789 103.871 160.859 127.391 160.859 c h
127.391 160.859 m f
0.92549 0.764706 0.180392 rg
303.758 312.066 m 80.242 312.066 l 70.914 312.066 63.352 304.508 63.352
 295.176 c 63.352 287.91 l 63.352 278.582 70.914 271.02 80.242 271.02 c 
303.758 271.02 l 313.086 271.02 320.648 278.578 320.648 287.91 c 320.648
 295.176 l 320.648 304.508 313.086 312.066 303.758 312.066 c h
303.758 312.066 m f
0.905882 0.647059 0.180392 rg
112.5 312.066 m 80.242 312.066 l 70.922 312.066 63.352 304.508 63.352 295.176
 c 63.352 287.91 l 63.352 278.578 70.922 271.02 80.242 271.02 c 112.5 271.02
 l 103.172 271.02 95.609 278.578 95.609 287.91 c 95.609 295.176 l 95.609
 304.508 103.172 312.066 112.5 312.066 c h
112.5 312.066 m f
0.92549 0.764706 0.180392 rg
176.727 179.609 m 31.922 179.609 l 22.887 179.609 15.562 186.934 15.562
 195.969 c 15.562 198.086 l 15.562 207.121 22.887 214.445 31.922 214.445
 c 176.727 214.445 l 185.762 214.445 193.086 207.121 193.086 198.086 c 193.086
 195.969 l 193.086 186.934 185.762 179.609 176.727 179.609 c h
176.727 179.609 m f
0.905882 0.647059 0.180392 rg
79.164 214.441 m 31.922 214.441 l 22.891 214.441 15.566 207.121 15.566 
198.086 c 15.566 195.969 l 15.566 186.934 22.891 179.613 31.922 179.613 
c 79.164 179.613 l 70.129 179.613 62.801 186.934 62.801 195.969 c 62.801
 198.086 l 62.801 207.121 70.129 214.441 79.164 214.441 c h
79.164 214.441 m f
0.92549 0.764706 0.180392 rg
5.918 112.254 m 6.23 114.57 8.359 116.195 10.676 115.879 c 21.941 114.355
 l 20.809 105.973 l 9.543 107.496 l 7.227 107.809 5.605 109.941 5.918 112.254
 c h
5.918 112.254 m f
0.964706 0.945098 0.945098 rg
137.992 90.656 m 138.984 97.969 l 139.457 101.473 137 104.699 133.492 105.176
 c 109.016 108.488 l 106.305 88.484 l 130.785 85.168 l 134.293 84.695 137.52
 87.152 137.992 90.656 c h
137.992 90.656 m f
0.87451 0.917647 0.937255 rg
138.082 91.285 m 138.555 94.793 136.098 98.016 132.59 98.492 c 108.109 
101.805 l 109.016 108.488 l 133.496 105.176 l 137 104.699 139.457 101.473
 138.984 97.965 c h
138.082 91.285 m f
0.905882 0.647059 0.180392 rg
6.047 110.508 m 5.887 111.059 5.836 111.648 5.918 112.254 c 6.234 114.57
 8.359 116.195 10.676 115.879 c 21.941 114.355 l 21.484 110.965 l 10.219
 112.492 l 8.504 112.723 6.895 111.891 6.047 110.508 c h
6.047 110.508 m f
0.737255 0.584314 0.886275 rg
74.32 82.828 m 52.949 85.719 33.383 93.348 16.531 104.504 c 15.672 105.07
 15.223 106.086 15.359 107.109 c 16.391 114.703 l 16.527 115.727 17.23 116.586
 18.211 116.906 c 37.422 123.184 58.309 125.336 79.684 122.441 c 92.406 
120.719 104.48 117.32 115.734 112.496 c 119.395 110.926 121.543 107.094 
121.012 103.148 c 119.289 90.441 l 118.758 86.496 115.664 83.371 111.723
 82.828 c 99.59 81.172 87.043 81.105 74.32 82.828 c h
74.32 82.828 m f
0.576471 0.45098 0.72549 rg
16.027 112.035 m 16.387 114.703 l 16.527 115.727 17.23 116.582 18.211 116.906
 c 37.418 123.184 58.309 125.336 79.68 122.441 c 92.402 120.719 104.48 117.32
 115.734 112.496 c 119.391 110.926 121.543 107.09 121.008 103.148 c 120.402
 98.676 l 120.562 99.844 118.082 101.234 114.324 102.062 c 102.758 104.602
 90.516 106.781 77.797 108.504 c 56.426 111.398 36 112.688 17.617 112.543
 c 16.684 112.535 16.066 112.336 16.027 112.035 c h
16.027 112.035 m f
0.964706 0.945098 0.945098 rg
69.73 70.996 m 68.062 72.289 66.703 73.918 65.762 75.719 c 65.762 75.719
 65.762 75.723 65.758 75.727 c 65.121 76.945 64.672 78.234 64.449 79.547
 c 64.262 80.684 64.242 81.809 64.387 82.887 c 64.609 84.539 65.227 86.094
 66.207 87.426 c 67.43 89.082 69.844 91.234 74.426 92.074 c 83.039 93.656
 90.773 87.594 97.598 82.246 c 103.074 77.949 108.246 73.891 112.379 74.676
 c 120.984 76.309 120.402 94.383 120.395 94.566 c 122.84 94.684 l 126.605
 94.855 l 126.652 93.895 127.566 71.223 113.531 68.566 c 106.629 67.258 
100.086 72.387 93.758 77.352 c 87.684 82.113 81.406 87.035 75.547 85.957
 c 72.945 85.48 69.977 84.164 70.582 80.594 c 70.844 79.051 71.812 77.32
 73.336 76.059 c 74.23 78.801 76.977 80.605 79.938 80.203 c 82.789 79.816
 84.91 77.52 85.188 74.777 c 85.234 74.312 85.227 73.832 85.16 73.352 c 
84.812 70.77 82.891 68.793 80.492 68.238 c 80.492 68.234 l 80.484 68.234
 80.477 68.234 80.469 68.234 c 79.969 68.117 79.449 68.059 78.918 68.078
 c 75.613 67.93 72.395 68.938 69.73 70.996 c h
69.73 70.996 m f
0.87451 0.917647 0.937255 rg
65.758 75.727 m 65.121 76.945 64.672 78.234 64.449 79.547 c 64.262 80.684
 64.242 81.809 64.387 82.887 c 64.609 84.539 65.227 86.094 66.207 87.426
 c 67.43 89.082 69.844 91.234 74.426 92.074 c 83.039 93.656 90.773 87.594
 97.598 82.246 c 103.074 77.949 108.246 73.891 112.379 74.676 c 117.133 
75.574 119.082 81.496 119.871 86.645 c 121.762 86.391 l 119.961 77.953 116.184
 71.211 111.699 71.82 c 100.957 73.273 93.016 87.551 78.344 89.539 c 63.871
 91.496 65.711 76.145 65.758 75.727 c h
65.758 75.727 m f
74.105 73.973 m 72.246 75.02 71.102 75.441 70.582 80.594 c 70.844 79.051
 71.812 77.32 73.34 76.055 c 74.23 78.801 76.98 80.602 79.938 80.203 c 82.789
 79.816 84.91 77.52 85.188 74.777 c 82.242 70.543 75.965 72.918 74.105 73.973
 c h
74.105 73.973 m f
0.937255 0.905882 0.894118 rg
159.789 128.121 m 44.723 128.121 l 32 128.121 21.688 138.434 21.688 151.156
 c 21.688 163.879 32 174.191 44.723 174.191 c 159.789 174.191 l f
0.976471 0.239216 0.431373 rg
159.789 179.609 m 44.723 179.609 l 29.035 179.609 16.27 166.844 16.27 151.156
 c 16.27 135.469 29.035 122.703 44.723 122.703 c 159.789 122.703 l 162.781
 122.703 165.207 125.129 165.207 128.121 c 165.207 131.113 162.781 133.539
 159.789 133.539 c 44.723 133.539 l 35.008 133.539 27.105 141.441 27.105
 151.156 c 27.105 160.871 35.008 168.773 44.723 168.773 c 159.789 168.773
 l 162.781 168.773 165.207 171.199 165.207 174.191 c 165.207 177.184 162.781
 179.609 159.789 179.609 c h
159.789 179.609 m f
0.854902 0.815686 0.796078 rg
46.277 154.023 m 159.789 154.023 l 159.789 160.789 l 46.277 160.789 l 44.406
 160.789 42.895 159.273 42.895 157.406 c 42.895 155.539 44.406 154.023 46.277
 154.023 c h
46.277 154.023 m f
46.277 141.523 m 159.789 141.523 l 159.789 148.289 l 46.277 148.289 l 44.406
 148.289 42.895 146.773 42.895 144.906 c 42.895 143.039 44.406 141.523 46.277
 141.523 c h
46.277 141.523 m f
Q Q
showpage
%%Trailer
end
%%EOF
