%!PS-Adobe-3.0 EPSF-3.0
%%Creator: cairo 1.16.0 (https://cairographics.org)
%%CreationDate: Thu Nov 14 08:46:37 2019
%%Pages: 1
%%DocumentData: Clean7Bit
%%LanguageLevel: 2
%%BoundingBox: 0 0 384 384
%%EndComments
%%BeginProlog
50 dict begin
/q { gsave } bind def
/Q { grestore } bind def
/cm { 6 array astore concat } bind def
/w { setlinewidth } bind def
/J { setlinecap } bind def
/j { setlinejoin } bind def
/M { setmiterlimit } bind def
/d { setdash } bind def
/m { moveto } bind def
/l { lineto } bind def
/c { curveto } bind def
/h { closepath } bind def
/re { exch dup neg 3 1 roll 5 3 roll moveto 0 rlineto
      0 exch rlineto 0 rlineto closepath } bind def
/S { stroke } bind def
/f { fill } bind def
/f* { eofill } bind def
/n { newpath } bind def
/W { clip } bind def
/W* { eoclip } bind def
/BT { } bind def
/ET { } bind def
/BDC { mark 3 1 roll /BDC pdfmark } bind def
/EMC { mark /EMC pdfmark } bind def
/cairo_store_point { /cairo_point_y exch def /cairo_point_x exch def } def
/Tj { show currentpoint cairo_store_point } bind def
/TJ {
  {
    dup
    type /stringtype eq
    { show } { -0.001 mul 0 cairo_font_matrix dtransform rmoveto } ifelse
  } forall
  currentpoint cairo_store_point
} bind def
/cairo_selectfont { cairo_font_matrix aload pop pop pop 0 0 6 array astore
    cairo_font exch selectfont cairo_point_x cairo_point_y moveto } bind def
/Tf { pop /cairo_font exch def /cairo_font_matrix where
      { pop cairo_selectfont } if } bind def
/Td { matrix translate cairo_font_matrix matrix concatmatrix dup
      /cairo_font_matrix exch def dup 4 get exch 5 get cairo_store_point
      /cairo_font where { pop cairo_selectfont } if } bind def
/Tm { 2 copy 8 2 roll 6 array astore /cairo_font_matrix exch def
      cairo_store_point /cairo_font where { pop cairo_selectfont } if } bind def
/g { setgray } bind def
/rg { setrgbcolor } bind def
/d1 { setcachedevice } bind def
/cairo_data_source {
  CairoDataIndex CairoData length lt
    { CairoData CairoDataIndex get /CairoDataIndex CairoDataIndex 1 add def }
    { () } ifelse
} def
/cairo_flush_ascii85_file { cairo_ascii85_file status { cairo_ascii85_file flushfile } if } def
/cairo_image { image cairo_flush_ascii85_file } def
/cairo_imagemask { imagemask cairo_flush_ascii85_file } def
%%EndProlog
%%BeginSetup
%%EndSetup
%%Page: 1 1
%%BeginPageSetup
%%PageBoundingBox: 0 0 384 384
%%EndPageSetup
q 0 0 384 384 rectclip
1 0 0 -1 0 384 cm q
0.501961 0.886275 0.615686 rg
384 192 m 384 298.039 298.039 384 192 384 c 85.961 384 0 298.039 0 192 
c 0 85.961 85.961 0 192 0 c 298.039 0 384 85.961 384 192 c h
384 192 m f
1 0.796078 0.745098 rg
352.301 120.051 m 352.301 127.941 358.066 134.484 365.613 135.695 c 366.438
 135.832 367.285 135.898 368.152 135.898 c 376.906 135.898 384 128.805 384
 120.051 c 384 111.297 376.906 104.203 368.152 104.203 c 367.285 104.203
 366.438 104.273 365.613 104.406 c 358.066 105.621 352.301 112.16 352.301
 120.051 c h
352.301 120.051 m f
0.917647 0.67451 0.615686 rg
352.301 120.051 m 352.301 127.941 358.066 134.484 365.613 135.695 c 366.984
 130.711 367.715 125.465 367.715 120.051 c 367.715 114.637 366.984 109.391
 365.613 104.406 c 358.066 105.621 352.301 112.16 352.301 120.051 c h
352.301 120.051 m f
373.816 120.051 m 373.816 123.18 371.281 125.715 368.152 125.715 c 365.023
 125.715 362.484 123.18 362.484 120.051 c 362.484 116.922 365.023 114.387
 368.152 114.387 c 371.281 114.387 373.816 116.922 373.816 120.051 c h
373.816 120.051 m f
1 0.796078 0.745098 rg
364.328 111.719 m 364.328 141.352 342.68 165.934 314.34 170.5 c 311.23 
171.012 308.039 171.27 304.781 171.27 c 271.891 171.27 245.234 144.609 245.234
 111.719 c 245.234 51.094 l 364.328 51.094 l h
364.328 111.719 m f
0.917647 0.67451 0.615686 rg
315.27 170.344 m 314.961 170.398 314.652 170.453 314.34 170.5 c 311.227
 171.008 308.035 171.266 304.781 171.266 c 271.891 171.266 245.234 144.609
 245.234 111.719 c 245.234 51.094 l 266.23 51.094 l 266.23 111.719 l 266.23
 141.027 287.395 165.383 315.27 170.344 c h
315.27 170.344 m f
304.781 143.059 m 299.797 143.059 294.809 141.812 290.262 139.312 c 288.98
 138.609 288.516 136.996 289.219 135.715 c 289.922 134.434 291.535 133.965
 292.816 134.668 c 300.309 138.789 309.254 138.789 316.746 134.668 c 318.027
 133.965 319.641 134.434 320.344 135.715 c 321.051 136.996 320.582 138.609
 319.301 139.312 c 314.754 141.812 309.766 143.059 304.781 143.059 c h
304.781 143.059 m f
311.535 125.262 m 298.027 125.262 l 296.418 125.262 295.113 123.957 295.113
 122.348 c 295.113 120.738 296.418 119.434 298.027 119.434 c 311.535 119.434
 l 313.145 119.434 314.449 120.738 314.449 122.348 c 314.449 123.957 313.145
 125.262 311.535 125.262 c h
311.535 125.262 m f
314.539 108.891 m 314.539 115.5 319.895 120.855 326.5 120.855 c 333.105
 120.855 338.465 115.496 338.465 108.891 c f
0.184314 0.215686 0.231373 rg
335.078 108.891 m 335.078 113.629 331.238 117.469 326.5 117.469 c 321.762
 117.469 317.922 113.629 317.922 108.891 c 317.922 104.152 321.762 100.312
 326.5 100.312 c 331.238 100.312 335.078 104.152 335.078 108.891 c h
335.078 108.891 m f
1 g
333.75 107.375 m 333.75 109.406 332.105 111.051 330.074 111.051 c 328.047
 111.051 326.398 109.406 326.398 107.375 c 326.398 105.348 328.047 103.699
 330.074 103.699 c 332.105 103.699 333.75 105.348 333.75 107.375 c h
333.75 107.375 m f
0.917647 0.67451 0.615686 rg
271.098 108.891 m 271.098 115.5 276.453 120.855 283.062 120.855 c 289.668
 120.855 295.023 115.496 295.023 108.891 c f
0.184314 0.215686 0.231373 rg
291.641 108.891 m 291.641 113.629 287.801 117.469 283.062 117.469 c 278.324
 117.469 274.484 113.629 274.484 108.891 c 274.484 104.152 278.324 100.312
 283.062 100.312 c 287.801 100.312 291.641 104.152 291.641 108.891 c h
291.641 108.891 m f
0.0941176 0.117647 0.129412 rg
285.066 117.23 m 284.426 117.391 283.754 117.469 283.062 117.469 c 278.324
 117.469 274.484 113.629 274.484 108.891 c 274.484 104.152 278.324 100.309
 283.062 100.309 c 283.754 100.309 284.426 100.391 285.066 100.547 c 281.297
 101.449 278.496 104.844 278.496 108.891 c 278.496 112.938 281.297 116.332
 285.066 117.23 c h
285.066 117.23 m f
328.508 117.23 m 327.863 117.391 327.191 117.469 326.5 117.469 c 321.762
 117.469 317.922 113.629 317.922 108.891 c 317.922 104.152 321.762 100.309
 326.5 100.309 c 327.191 100.309 327.863 100.391 328.508 100.547 c 324.734
 101.449 321.938 104.844 321.938 108.891 c 321.938 112.938 324.734 116.332
 328.508 117.23 c h
328.508 117.23 m f
1 g
290.312 107.375 m 290.312 109.406 288.668 111.051 286.637 111.051 c 284.605
 111.051 282.961 109.406 282.961 107.375 c 282.961 105.348 284.605 103.699
 286.637 103.699 c 288.668 103.699 290.312 105.348 290.312 107.375 c h
290.312 107.375 m f
0.85098 0.447059 0.243137 rg
364.328 96.75 m 356.52 88.941 351.695 67.754 351.695 67.754 c 351.695 67.754
 332.508 81.398 304.781 81.398 c 296.621 81.398 289.195 80.219 282.785 78.547
 c 267.422 74.551 257.871 67.754 257.871 67.754 c 257.871 67.754 253.043
 88.941 245.23 96.75 c 245.23 96.75 219.906 48.129 238.676 34.484 c 243.367
 31.074 249.844 27.977 256.922 25.258 c 271.094 19.812 285.988 16.875 300.945
 16.449 c 301.129 16.438 301.309 16.434 301.492 16.43 c 301.684 16.43 301.871
 16.422 302.059 16.418 c 319.203 16.07 336.391 19.02 352.641 25.258 c 359.719
 27.977 366.195 31.074 370.887 34.484 c 389.652 48.129 364.328 96.75 364.328
 96.75 c h
364.328 96.75 m f
0.741176 0.329412 0.137255 rg
282.789 78.547 m 267.426 74.551 257.871 67.754 257.871 67.754 c 257.871
 67.754 253.043 88.941 245.234 96.75 c 245.234 96.75 219.91 48.129 238.68
 34.484 c 243.367 31.074 249.848 27.977 256.922 25.258 c 271.094 19.812 
285.988 16.875 300.945 16.449 c 275.051 17.523 259.641 55.406 282.789 78.547
 c h
282.789 78.547 m f
1 0.796078 0.745098 rg
239.52 153.168 m 239.52 161.059 245.285 167.602 252.832 168.816 c 253.656
 168.949 254.504 169.02 255.371 169.02 c 264.125 169.02 271.219 161.926 
271.219 153.168 c 271.219 144.414 264.125 137.32 255.371 137.32 c 254.504
 137.32 253.656 137.391 252.832 137.523 c 245.285 138.738 239.52 145.277
 239.52 153.168 c h
239.52 153.168 m f
0.917647 0.67451 0.615686 rg
239.52 153.168 m 239.52 161.059 245.285 167.602 252.832 168.816 c 254.203
 163.828 254.934 158.582 254.934 153.168 c 254.934 147.754 254.203 142.508
 252.832 137.523 c 245.285 138.738 239.52 145.277 239.52 153.168 c h
239.52 153.168 m f
261.035 153.168 m 261.035 156.297 258.5 158.832 255.371 158.832 c 252.242
 158.832 249.703 156.297 249.703 153.168 c 249.703 150.039 252.242 147.504
 255.371 147.504 c 258.5 147.504 261.035 150.039 261.035 153.168 c h
261.035 153.168 m f
1 0.796078 0.745098 rg
251.547 144.84 m 251.547 174.473 229.898 199.055 201.559 203.617 c 198.449
 204.129 195.258 204.387 192 204.387 c 159.109 204.387 132.453 177.727 132.453
 144.84 c 132.453 84.215 l 251.547 84.215 l h
251.547 144.84 m f
0.917647 0.67451 0.615686 rg
202.488 203.461 m 202.18 203.516 201.871 203.57 201.559 203.617 c 198.445
 204.125 195.254 204.383 192 204.383 c 159.109 204.383 132.453 177.73 132.453
 144.836 c 132.453 84.211 l 153.449 84.211 l 153.449 144.836 l 153.449 174.145
 174.613 198.5 202.488 203.461 c h
202.488 203.461 m f
192 176.18 m 187.016 176.18 182.027 174.93 177.48 172.43 c 176.199 171.727
 175.734 170.117 176.438 168.832 c 177.141 167.551 178.754 167.082 180.035
 167.789 c 187.527 171.906 196.473 171.906 203.965 167.789 c 205.246 167.082
 206.859 167.551 207.562 168.832 c 208.27 170.113 207.801 171.727 206.52
 172.43 c 201.973 174.93 196.984 176.18 192 176.18 c h
192 176.18 m f
198.754 158.379 m 185.246 158.379 l 183.637 158.379 182.332 157.078 182.332
 155.465 c 182.332 153.855 183.637 152.555 185.246 152.555 c 198.754 152.555
 l 200.363 152.555 201.668 153.855 201.668 155.465 c 201.668 157.078 200.363
 158.379 198.754 158.379 c h
198.754 158.379 m f
201.758 142.008 m 201.758 148.617 207.113 153.973 213.719 153.973 c 220.324
 153.973 225.684 148.617 225.684 142.008 c f
0.184314 0.215686 0.231373 rg
222.297 142.008 m 222.297 146.746 218.457 150.59 213.719 150.59 c 208.98
 150.59 205.141 146.746 205.141 142.008 c 205.141 137.27 208.98 133.43 213.719
 133.43 c 218.457 133.43 222.297 137.27 222.297 142.008 c h
222.297 142.008 m f
1 g
220.969 140.496 m 220.969 142.523 219.324 144.172 217.293 144.172 c 215.266
 144.172 213.617 142.523 213.617 140.496 c 213.617 138.465 215.266 136.82
 217.293 136.82 c 219.324 136.82 220.969 138.465 220.969 140.496 c h
220.969 140.496 m f
0.917647 0.67451 0.615686 rg
158.316 142.008 m 158.316 148.617 163.676 153.973 170.281 153.973 c 176.887
 153.973 182.242 148.617 182.242 142.008 c f
0.184314 0.215686 0.231373 rg
178.859 142.008 m 178.859 146.746 175.02 150.59 170.281 150.59 c 165.543
 150.59 161.703 146.746 161.703 142.008 c 161.703 137.27 165.543 133.43 
170.281 133.43 c 175.02 133.43 178.859 137.27 178.859 142.008 c h
178.859 142.008 m f
0.0941176 0.117647 0.129412 rg
172.285 150.352 m 171.645 150.508 170.973 150.59 170.281 150.59 c 165.543
 150.59 161.703 146.746 161.703 142.008 c 161.703 137.27 165.543 133.43 
170.281 133.43 c 170.973 133.43 171.645 133.508 172.285 133.668 c 168.516
 134.566 165.715 137.965 165.715 142.008 c 165.715 146.055 168.516 149.449
 172.285 150.352 c h
172.285 150.352 m f
215.727 150.352 m 215.082 150.508 214.41 150.59 213.719 150.59 c 208.98
 150.59 205.141 146.746 205.141 142.008 c 205.141 137.27 208.98 133.43 213.719
 133.43 c 214.41 133.43 215.082 133.508 215.727 133.668 c 211.953 134.566
 209.156 137.965 209.156 142.008 c 209.156 146.055 211.953 149.449 215.727
 150.352 c h
215.727 150.352 m f
1 g
177.531 140.496 m 177.531 142.523 175.887 144.172 173.855 144.172 c 171.824
 144.172 170.18 142.523 170.18 140.496 c 170.18 138.465 171.824 136.82 173.855
 136.82 c 175.887 136.82 177.531 138.465 177.531 140.496 c h
177.531 140.496 m f
0.184314 0.215686 0.231373 rg
251.547 129.871 m 243.738 122.059 238.914 100.871 238.914 100.871 c 238.914
 100.871 219.727 114.516 192 114.516 c 183.84 114.516 176.414 113.336 170.004
 111.664 c 154.641 107.668 145.09 100.871 145.09 100.871 c 145.09 100.871
 140.262 122.059 132.449 129.871 c 132.449 129.871 107.125 81.25 125.895
 67.602 c 130.586 64.191 137.062 61.098 144.141 58.375 c 158.312 52.93 173.207
 49.992 188.164 49.566 c 188.348 49.559 188.527 49.551 188.711 49.547 c 
188.902 49.547 189.094 49.543 189.281 49.535 c 206.426 49.188 223.609 52.137
 239.859 58.375 c 246.941 61.098 253.414 64.191 258.109 67.602 c 276.871
 81.25 251.547 129.871 251.547 129.871 c h
251.547 129.871 m f
0.0941176 0.117647 0.129412 rg
170.008 111.664 m 154.645 107.668 145.09 100.871 145.09 100.871 c 145.09
 100.871 140.262 122.059 132.453 129.871 c 132.453 129.871 107.129 81.25
 125.898 67.602 c 130.586 64.191 137.066 61.098 144.141 58.375 c 158.312
 52.93 173.207 49.992 188.164 49.566 c 162.27 50.641 146.859 88.523 170.008
 111.664 c h
170.008 111.664 m f
1 0.796078 0.745098 rg
31.699 186.289 m 31.699 194.176 25.934 200.719 18.387 201.934 c 17.562 
202.066 16.715 202.137 15.848 202.137 c 7.094 202.137 0 195.043 0 186.289
 c 0 177.531 7.094 170.438 15.848 170.438 c 16.715 170.438 17.562 170.508
 18.387 170.641 c 25.934 171.855 31.699 178.398 31.699 186.289 c h
31.699 186.289 m f
0.917647 0.67451 0.615686 rg
31.699 186.289 m 31.699 194.176 25.934 200.719 18.387 201.934 c 17.016 
196.949 16.285 191.703 16.285 186.289 c 16.285 180.871 17.016 175.625 18.387
 170.641 c 25.934 171.855 31.699 178.398 31.699 186.289 c h
31.699 186.289 m f
21.516 186.289 m 21.516 189.414 18.977 191.953 15.848 191.953 c 12.719 
191.953 10.184 189.414 10.184 186.289 c 10.184 183.16 12.719 180.621 15.848
 180.621 c 18.977 180.621 21.516 183.16 21.516 186.289 c h
21.516 186.289 m f
1 0.796078 0.745098 rg
126.738 186.289 m 126.738 194.176 132.504 200.719 140.051 201.934 c 140.875
 202.066 141.723 202.137 142.59 202.137 c 151.344 202.137 158.438 195.043
 158.438 186.289 c 158.438 177.531 151.344 170.438 142.59 170.438 c 141.723
 170.438 140.875 170.508 140.051 170.641 c 132.504 171.855 126.738 178.398
 126.738 186.289 c h
126.738 186.289 m f
0.917647 0.67451 0.615686 rg
126.738 186.289 m 126.738 194.176 132.504 200.719 140.051 201.934 c 141.422
 196.949 142.152 191.703 142.152 186.289 c 142.152 180.871 141.422 175.625
 140.051 170.641 c 132.504 171.855 126.738 178.398 126.738 186.289 c h
126.738 186.289 m f
148.254 186.289 m 148.254 189.414 145.719 191.953 142.59 191.953 c 139.461
 191.953 136.922 189.414 136.922 186.289 c 136.922 183.16 139.461 180.621
 142.59 180.621 c 145.719 180.621 148.254 183.16 148.254 186.289 c h
148.254 186.289 m f
1 0.796078 0.745098 rg
138.766 177.957 m 138.766 207.59 117.117 232.172 88.777 236.734 c 85.668
 237.246 82.477 237.504 79.219 237.504 c 46.328 237.504 19.672 210.848 19.672
 177.957 c 19.672 117.332 l 138.766 117.332 l h
138.766 177.957 m f
0.917647 0.67451 0.615686 rg
89.707 236.578 m 89.398 236.633 89.09 236.688 88.777 236.738 c 85.664 237.246
 82.473 237.504 79.219 237.504 c 46.328 237.504 19.672 210.848 19.672 177.957
 c 19.672 117.328 l 40.668 117.328 l 40.668 177.957 l 40.668 207.266 61.832
 231.617 89.707 236.578 c h
89.707 236.578 m f
79.219 209.297 m 74.234 209.297 69.246 208.047 64.703 205.547 c 63.422 
204.844 62.953 203.234 63.656 201.949 c 64.363 200.668 65.973 200.203 67.254
 200.906 c 74.746 205.023 83.695 205.023 91.188 200.906 c 92.465 200.199
 94.078 200.668 94.785 201.949 c 95.488 203.234 95.02 204.844 93.738 205.547
 c 89.191 208.047 84.207 209.297 79.219 209.297 c h
79.219 209.297 m f
85.973 191.5 m 72.465 191.5 l 70.855 191.5 69.551 190.195 69.551 188.586
 c 69.551 186.977 70.855 185.672 72.465 185.672 c 85.973 185.672 l 87.582
 185.672 88.887 186.977 88.887 188.586 c 88.887 190.195 87.582 191.5 85.973
 191.5 c h
85.973 191.5 m f
88.977 175.125 m 88.977 181.734 94.332 187.09 100.938 187.09 c 107.547 
187.09 112.902 181.734 112.902 175.125 c f
0.184314 0.215686 0.231373 rg
109.516 175.125 m 109.516 179.863 105.676 183.707 100.938 183.707 c 96.199
 183.707 92.359 179.863 92.359 175.125 c 92.359 170.387 96.199 166.547 100.938
 166.547 c 105.676 166.547 109.516 170.387 109.516 175.125 c h
109.516 175.125 m f
1 g
108.188 173.613 m 108.188 175.645 106.543 177.289 104.512 177.289 c 102.484
 177.289 100.836 175.645 100.836 173.613 c 100.836 171.582 102.484 169.938
 104.512 169.938 c 106.543 169.938 108.188 171.582 108.188 173.613 c h
108.188 173.613 m f
0.917647 0.67451 0.615686 rg
45.535 175.125 m 45.535 181.734 50.895 187.09 57.5 187.09 c 64.105 187.09
 69.461 181.734 69.461 175.125 c f
0.184314 0.215686 0.231373 rg
66.078 175.125 m 66.078 179.863 62.238 183.707 57.5 183.707 c 52.762 183.707
 48.922 179.863 48.922 175.125 c 48.922 170.387 52.762 166.547 57.5 166.547
 c 62.238 166.547 66.078 170.387 66.078 175.125 c h
66.078 175.125 m f
0.0941176 0.117647 0.129412 rg
59.504 183.469 m 58.863 183.625 58.191 183.707 57.5 183.707 c 52.762 183.707
 48.922 179.863 48.922 175.125 c 48.922 170.387 52.762 166.547 57.5 166.547
 c 58.191 166.547 58.863 166.629 59.504 166.785 c 55.734 167.688 52.934 
171.082 52.934 175.125 c 52.934 179.172 55.734 182.566 59.504 183.469 c 
h
59.504 183.469 m f
102.945 183.469 m 102.301 183.625 101.629 183.707 100.941 183.707 c 96.199
 183.707 92.359 179.863 92.359 175.125 c 92.359 170.387 96.199 166.547 100.941
 166.547 c 101.629 166.547 102.301 166.629 102.945 166.785 c 99.172 167.688
 96.375 171.082 96.375 175.125 c 96.375 179.172 99.172 182.566 102.945 183.469
 c h
102.945 183.469 m f
1 g
64.75 173.613 m 64.75 175.645 63.105 177.289 61.074 177.289 c 59.043 177.289
 57.398 175.645 57.398 173.613 c 57.398 171.582 59.043 169.938 61.074 169.938
 c 63.105 169.938 64.75 171.582 64.75 173.613 c h
64.75 173.613 m f
0.85098 0.447059 0.243137 rg
138.766 162.988 m 130.957 155.176 126.133 133.988 126.133 133.988 c 126.133
 133.988 106.945 147.637 79.219 147.637 c 71.059 147.637 63.637 146.457 
57.227 144.781 c 41.863 140.785 32.309 133.988 32.309 133.988 c 32.309 133.988
 27.48 155.176 19.672 162.988 c 19.672 162.988 -5.652 114.367 13.117 100.719
 c 17.805 97.309 24.285 94.215 31.359 91.492 c 45.531 86.051 60.426 83.109
 75.383 82.688 c 75.566 82.676 75.746 82.672 75.93 82.664 c 76.121 82.664
 76.312 82.66 76.5 82.652 c 93.645 82.305 110.828 85.254 127.078 91.492 
c 134.16 94.215 140.633 97.309 145.328 100.719 c 164.09 114.367 138.766 
162.988 138.766 162.988 c h
138.766 162.988 m f
0.741176 0.329412 0.137255 rg
57.227 144.781 m 41.863 140.785 32.309 133.988 32.309 133.988 c 32.309 
133.988 27.48 155.176 19.672 162.988 c 19.672 162.988 -5.652 114.367 13.117
 100.719 c 17.805 97.309 24.285 94.215 31.359 91.492 c 45.531 86.051 60.426
 83.109 75.383 82.688 c 49.492 83.758 34.078 121.641 57.227 144.781 c h
57.227 144.781 m f
0.0941176 0.117647 0.129412 rg
321.023 213.016 m 321.023 334.176 l 286.934 365.137 241.664 384 192 384
 c 160.184 384 130.176 376.262 103.754 362.559 c 92.949 356.953 82.738 350.355
 73.254 342.879 c 73.254 213.016 l h
321.023 213.016 m f
0.976471 0.239216 0.431373 rg
348.652 303.031 m 340.59 314.391 331.312 324.832 321.023 334.176 c 298.809
 354.352 271.844 369.391 242.016 377.414 c 242.016 343.637 l 242.016 314.316
 265.785 290.551 295.102 290.551 c 314.461 290.551 l 327.48 290.551 339.414
 295.238 348.652 303.031 c h
348.652 303.031 m f
0.894118 0.0901961 0.32549 rg
314.16 290.551 m 284.844 290.551 261.074 314.316 261.074 343.637 c 261.074
 371.191 l 258.984 372 256.867 372.773 254.738 373.508 c 250.559 374.953
 246.324 376.262 242.016 377.414 c 242.016 343.637 l 242.016 314.316 265.785
 290.551 295.102 290.551 c h
314.16 290.551 m f
0.917647 0.67451 0.615686 rg
331.656 290.789 m 329.961 302.5 320.789 311.777 309.141 313.652 c 307.727
 313.883 306.27 314.004 304.785 314.004 c 291.129 314.004 279.816 303.922
 277.906 290.789 c 283.297 288.938 289.086 287.934 295.109 287.934 c 314.461
 287.934 l 320.484 287.934 326.266 288.938 331.656 290.789 c h
331.656 290.789 m f
0.92549 0.764706 0.180392 rg
254.738 373.508 m 250.559 374.953 246.324 376.262 242.016 377.414 c 226.074
 381.711 209.301 384 192 384 c 170.031 384 148.926 380.309 129.262 373.516
 c 129.945 350.934 144.734 331.898 165.121 324.922 c 170.512 323.07 176.301
 322.066 182.324 322.066 c 201.676 322.066 l 207.699 322.066 213.48 323.07
 218.871 324.922 c 239.258 331.891 254.047 350.926 254.738 373.508 c h
254.738 373.508 m f
0.905882 0.647059 0.180392 rg
201.383 322.066 m 172.066 322.066 148.297 345.832 148.297 375.148 c 148.297
 379.004 l 141.816 377.496 135.473 375.66 129.262 373.516 c 130.125 344.953
 153.555 322.066 182.324 322.066 c h
201.383 322.066 m f
0.917647 0.67451 0.615686 rg
218.871 324.922 m 217.176 336.629 208.004 345.906 196.359 347.781 c 194.941
 348.016 193.484 348.137 192 348.137 c 178.344 348.137 167.031 338.055 165.121
 324.922 c 170.512 323.07 176.301 322.066 182.324 322.066 c 201.676 322.066
 l 207.699 322.066 213.48 323.07 218.871 324.922 c h
218.871 324.922 m f
1 0.796078 0.745098 rg
378.383 238.273 m 376.004 247.891 372.906 257.211 369.137 266.191 c 368.812
 266.219 368.484 266.227 368.152 266.227 c 367.281 266.227 366.434 266.16
 365.609 266.023 c 358.066 264.809 352.305 258.27 352.305 250.379 c 352.305
 242.488 358.066 235.941 365.609 234.734 c 366.434 234.602 367.281 234.523
 368.152 234.523 c 372.051 234.523 375.621 235.926 378.383 238.273 c h
378.383 238.273 m f
0.917647 0.67451 0.615686 rg
352.301 250.379 m 352.301 258.27 358.066 264.809 365.613 266.023 c 366.984
 261.039 367.715 255.793 367.715 250.379 c 367.715 244.961 366.984 239.715
 365.613 234.73 c 358.066 235.945 352.301 242.488 352.301 250.379 c h
352.301 250.379 m f
373.816 250.379 m 373.816 253.508 371.281 256.043 368.152 256.043 c 365.023
 256.043 362.484 253.508 362.484 250.379 c 362.484 247.25 365.023 244.715
 368.152 244.715 c 371.281 244.715 373.816 247.25 373.816 250.379 c h
373.816 250.379 m f
1 0.796078 0.745098 rg
364.328 242.047 m 364.328 271.68 342.68 296.262 314.34 300.828 c 311.23
 301.336 308.039 301.594 304.781 301.594 c 271.891 301.594 245.234 274.938
 245.234 242.047 c 245.234 181.422 l 364.328 181.422 l h
364.328 242.047 m f
0.917647 0.67451 0.615686 rg
315.27 300.672 m 314.961 300.723 314.652 300.777 314.34 300.828 c 311.227
 301.336 308.035 301.594 304.781 301.594 c 271.891 301.594 245.234 274.938
 245.234 242.047 c 245.234 181.422 l 266.23 181.422 l 266.23 242.047 l 266.23
 271.355 287.395 295.707 315.27 300.672 c h
315.27 300.672 m f
304.781 273.387 m 299.797 273.387 294.809 272.137 290.262 269.641 c 288.98
 268.934 288.516 267.324 289.219 266.043 c 289.922 264.758 291.535 264.293
 292.816 264.996 c 300.309 269.113 309.254 269.113 316.746 264.996 c 318.027
 264.289 319.641 264.758 320.344 266.043 c 321.051 267.324 320.582 268.934
 319.301 269.641 c 314.754 272.137 309.766 273.387 304.781 273.387 c h
304.781 273.387 m f
311.535 255.59 m 298.027 255.59 l 296.418 255.59 295.113 254.285 295.113
 252.676 c 295.113 251.066 296.418 249.762 298.027 249.762 c 311.535 249.762
 l 313.145 249.762 314.449 251.066 314.449 252.676 c 314.449 254.285 313.145
 255.59 311.535 255.59 c h
311.535 255.59 m f
314.539 239.219 m 314.539 245.824 319.895 251.18 326.5 251.18 c 333.105
 251.18 338.465 245.824 338.465 239.219 c f
0.184314 0.215686 0.231373 rg
335.078 239.219 m 335.078 243.957 331.238 247.797 326.5 247.797 c 321.762
 247.797 317.922 243.957 317.922 239.219 c 317.922 234.48 321.762 230.637
 326.5 230.637 c 331.238 230.637 335.078 234.48 335.078 239.219 c h
335.078 239.219 m f
1 g
333.75 237.703 m 333.75 239.734 332.105 241.379 330.074 241.379 c 328.047
 241.379 326.398 239.734 326.398 237.703 c 326.398 235.672 328.047 234.027
 330.074 234.027 c 332.105 234.027 333.75 235.672 333.75 237.703 c h
333.75 237.703 m f
0.917647 0.67451 0.615686 rg
271.098 239.219 m 271.098 245.824 276.453 251.18 283.062 251.18 c 289.668
 251.18 295.023 245.824 295.023 239.219 c f
0.184314 0.215686 0.231373 rg
291.641 239.219 m 291.641 243.957 287.801 247.797 283.062 247.797 c 278.324
 247.797 274.484 243.957 274.484 239.219 c 274.484 234.48 278.324 230.637
 283.062 230.637 c 287.801 230.637 291.641 234.48 291.641 239.219 c h
291.641 239.219 m f
0.0941176 0.117647 0.129412 rg
285.066 247.559 m 284.426 247.715 283.754 247.797 283.062 247.797 c 278.324
 247.797 274.484 243.957 274.484 239.219 c 274.484 234.477 278.324 230.637
 283.062 230.637 c 283.754 230.637 284.426 230.719 285.066 230.875 c 281.297
 231.777 278.496 235.172 278.496 239.219 c 278.496 243.262 281.297 246.656
 285.066 247.559 c h
285.066 247.559 m f
328.508 247.559 m 327.863 247.715 327.191 247.797 326.5 247.797 c 321.762
 247.797 317.922 243.957 317.922 239.219 c 317.922 234.477 321.762 230.637
 326.5 230.637 c 327.191 230.637 327.863 230.719 328.508 230.875 c 324.734
 231.777 321.938 235.172 321.938 239.219 c 321.938 243.262 324.734 246.656
 328.508 247.559 c h
328.508 247.559 m f
1 g
290.312 237.703 m 290.312 239.734 288.668 241.379 286.637 241.379 c 284.605
 241.379 282.961 239.734 282.961 237.703 c 282.961 235.672 284.605 234.027
 286.637 234.027 c 288.668 234.027 290.312 235.672 290.312 237.703 c h
290.312 237.703 m f
0.92549 0.764706 0.180392 rg
364.328 227.078 m 356.52 219.27 351.695 198.078 351.695 198.078 c 351.695
 198.078 332.508 211.727 304.781 211.727 c 296.621 211.727 289.195 210.547
 282.785 208.871 c 267.422 204.875 257.871 198.078 257.871 198.078 c 257.871
 198.078 253.043 219.27 245.23 227.078 c 245.23 227.078 219.906 178.457 
238.676 164.812 c 243.367 161.398 249.844 158.305 256.922 155.586 c 271.094
 150.141 285.988 147.199 300.945 146.777 c 301.129 146.766 301.309 146.762
 301.492 146.754 c 301.684 146.754 301.871 146.75 302.059 146.746 c 319.203
 146.395 336.391 149.348 352.641 155.586 c 359.719 158.305 366.195 161.398
 370.887 164.812 c 389.652 178.457 364.328 227.078 364.328 227.078 c h
364.328 227.078 m f
0.905882 0.647059 0.180392 rg
282.789 208.871 m 267.426 204.875 257.871 198.078 257.871 198.078 c 257.871
 198.078 253.043 219.27 245.234 227.078 c 245.234 227.078 219.91 178.457
 238.68 164.812 c 243.367 161.398 249.848 158.305 256.922 155.586 c 271.094
 150.141 285.988 147.199 300.945 146.777 c 275.051 147.848 259.641 185.73
 282.789 208.871 c h
282.789 208.871 m f
1 0.796078 0.745098 rg
239.52 283.496 m 239.52 291.387 245.285 297.926 252.832 299.141 c 253.656
 299.273 254.504 299.344 255.371 299.344 c 264.125 299.344 271.219 292.25
 271.219 283.496 c 271.219 274.738 264.125 267.648 255.371 267.648 c 254.504
 267.648 253.656 267.715 252.832 267.852 c 245.285 269.062 239.52 275.605
 239.52 283.496 c h
239.52 283.496 m f
0.917647 0.67451 0.615686 rg
239.52 283.496 m 239.52 291.387 245.285 297.926 252.832 299.141 c 254.203
 294.156 254.934 288.91 254.934 283.496 c 254.934 278.082 254.203 272.836
 252.832 267.852 c 245.285 269.062 239.52 275.605 239.52 283.496 c h
239.52 283.496 m f
261.035 283.496 m 261.035 286.625 258.5 289.16 255.371 289.16 c 252.242
 289.16 249.703 286.625 249.703 283.496 c 249.703 280.367 252.242 277.832
 255.371 277.832 c 258.5 277.832 261.035 280.367 261.035 283.496 c h
261.035 283.496 m f
1 0.796078 0.745098 rg
251.547 275.164 m 251.547 304.797 229.898 329.379 201.559 333.945 c 198.449
 334.457 195.258 334.715 192 334.715 c 159.109 334.715 132.453 308.055 132.453
 275.164 c 132.453 214.539 l 251.547 214.539 l h
251.547 275.164 m f
0.917647 0.67451 0.615686 rg
202.488 333.789 m 202.18 333.844 201.871 333.895 201.559 333.945 c 198.445
 334.453 195.254 334.711 192 334.711 c 159.109 334.711 132.453 308.055 132.453
 275.164 c 132.453 214.539 l 153.449 214.539 l 153.449 275.164 l 153.449
 304.473 174.613 328.828 202.488 333.789 c h
202.488 333.789 m f
192 306.504 m 187.016 306.504 182.027 305.258 177.48 302.758 c 176.199 
302.055 175.734 300.441 176.438 299.16 c 177.141 297.879 178.754 297.41 
180.035 298.113 c 187.527 302.234 196.473 302.234 203.965 298.113 c 205.246
 297.41 206.859 297.879 207.562 299.16 c 208.27 300.441 207.801 302.055 
206.52 302.758 c 201.973 305.258 196.984 306.504 192 306.504 c h
192 306.504 m f
198.754 288.707 m 185.246 288.707 l 183.637 288.707 182.332 287.402 182.332
 285.793 c 182.332 284.184 183.637 282.879 185.246 282.879 c 198.754 282.879
 l 200.363 282.879 201.668 284.184 201.668 285.793 c 201.668 287.402 200.363
 288.707 198.754 288.707 c h
198.754 288.707 m f
201.758 272.336 m 201.758 278.941 207.113 284.297 213.719 284.297 c 220.324
 284.297 225.684 278.941 225.684 272.336 c f
0.184314 0.215686 0.231373 rg
222.297 272.336 m 222.297 277.074 218.457 280.914 213.719 280.914 c 208.98
 280.914 205.141 277.074 205.141 272.336 c 205.141 267.598 208.98 263.758
 213.719 263.758 c 218.457 263.758 222.297 267.598 222.297 272.336 c h
222.297 272.336 m f
1 g
220.969 270.82 m 220.969 272.852 219.324 274.496 217.293 274.496 c 215.266
 274.496 213.617 272.852 213.617 270.82 c 213.617 268.793 215.266 267.145
 217.293 267.145 c 219.324 267.145 220.969 268.793 220.969 270.82 c h
220.969 270.82 m f
0.917647 0.67451 0.615686 rg
158.316 272.336 m 158.316 278.941 163.676 284.297 170.281 284.297 c 176.887
 284.297 182.242 278.941 182.242 272.336 c f
0.184314 0.215686 0.231373 rg
178.859 272.336 m 178.859 277.074 175.02 280.914 170.281 280.914 c 165.543
 280.914 161.703 277.074 161.703 272.336 c 161.703 267.598 165.543 263.758
 170.281 263.758 c 175.02 263.758 178.859 267.598 178.859 272.336 c h
178.859 272.336 m f
0.0941176 0.117647 0.129412 rg
172.285 280.676 m 171.645 280.836 170.973 280.914 170.281 280.914 c 165.543
 280.914 161.703 277.074 161.703 272.336 c 161.703 267.598 165.543 263.754
 170.281 263.754 c 170.973 263.754 171.645 263.836 172.285 263.992 c 168.516
 264.895 165.715 268.289 165.715 272.336 c 165.715 276.383 168.516 279.777
 172.285 280.676 c h
172.285 280.676 m f
215.727 280.676 m 215.082 280.836 214.41 280.914 213.719 280.914 c 208.98
 280.914 205.141 277.074 205.141 272.336 c 205.141 267.598 208.98 263.754
 213.719 263.754 c 214.41 263.754 215.082 263.836 215.727 263.992 c 211.953
 264.895 209.156 268.289 209.156 272.336 c 209.156 276.383 211.953 279.777
 215.727 280.676 c h
215.727 280.676 m f
1 g
177.531 270.82 m 177.531 272.852 175.887 274.496 173.855 274.496 c 171.824
 274.496 170.18 272.852 170.18 270.82 c 170.18 268.793 171.824 267.145 173.855
 267.145 c 175.887 267.145 177.531 268.793 177.531 270.82 c h
177.531 270.82 m f
0.564706 0.847059 0.976471 rg
251.547 260.195 m 243.738 252.387 238.914 231.199 238.914 231.199 c 238.914
 231.199 219.727 244.844 192 244.844 c 183.84 244.844 176.414 243.664 170.004
 241.992 c 154.641 237.996 145.09 231.199 145.09 231.199 c 145.09 231.199
 140.262 252.387 132.449 260.195 c 132.449 260.195 107.125 211.574 125.895
 197.93 c 130.586 194.52 137.062 191.422 144.141 188.703 c 158.312 183.258
 173.207 180.32 188.164 179.895 c 188.348 179.883 188.527 179.879 188.711
 179.875 c 188.902 179.875 189.094 179.867 189.281 179.863 c 206.426 179.516
 223.609 182.465 239.859 188.703 c 246.941 191.422 253.414 194.52 258.109
 197.93 c 276.871 211.574 251.547 260.195 251.547 260.195 c h
251.547 260.195 m f
0.380392 0.635294 0.976471 rg
170.008 241.992 m 154.645 237.996 145.09 231.199 145.09 231.199 c 145.09
 231.199 140.262 252.387 132.453 260.195 c 132.453 260.195 107.129 211.574
 125.898 197.93 c 130.586 194.52 137.066 191.422 144.141 188.703 c 158.312
 183.258 173.207 180.32 188.164 179.895 c 162.27 180.969 146.859 218.848
 170.008 241.992 c h
170.008 241.992 m f
1 0.796078 0.745098 rg
126.738 316.613 m 126.738 324.504 132.504 331.047 140.051 332.258 c 140.875
 332.395 141.723 332.465 142.59 332.465 c 151.344 332.465 158.438 325.371
 158.438 316.613 c 158.438 307.859 151.344 300.766 142.59 300.766 c 141.723
 300.766 140.875 300.836 140.051 300.969 c 132.504 302.184 126.738 308.723
 126.738 316.613 c h
126.738 316.613 m f
0.917647 0.67451 0.615686 rg
126.738 316.613 m 126.738 324.504 132.504 331.047 140.051 332.258 c 141.422
 327.273 142.152 322.027 142.152 316.613 c 142.152 311.199 141.422 305.953
 140.051 300.969 c 132.504 302.184 126.738 308.723 126.738 316.613 c h
126.738 316.613 m f
148.254 316.613 m 148.254 319.742 145.719 322.277 142.59 322.277 c 139.461
 322.277 136.922 319.742 136.922 316.613 c 136.922 313.484 139.461 310.949
 142.59 310.949 c 145.719 310.949 148.254 313.484 148.254 316.613 c h
148.254 316.613 m f
1 0.796078 0.745098 rg
138.766 247.656 m 138.766 308.281 l 138.766 332.422 124.402 353.203 103.754
 362.559 c 67.379 343.703 37.801 313.547 19.672 276.742 c 19.672 247.656
 l h
138.766 247.656 m f
0.917647 0.67451 0.615686 rg
40.695 310.199 m 32.594 299.852 25.539 288.645 19.672 276.742 c 19.672 
247.656 l 40.664 247.656 l 40.664 308.281 l 40.664 308.926 40.672 309.562
 40.695 310.199 c h
40.695 310.199 m f
79.219 339.625 m 74.234 339.625 69.246 338.375 64.703 335.875 c 63.422 
335.172 62.953 333.559 63.656 332.277 c 64.363 330.996 65.973 330.527 67.254
 331.23 c 74.746 335.352 83.695 335.352 91.188 331.23 c 92.465 330.527 94.078
 330.996 94.785 332.277 c 95.488 333.559 95.02 335.172 93.738 335.875 c 
89.191 338.375 84.207 339.625 79.219 339.625 c h
79.219 339.625 m f
85.973 321.824 m 72.465 321.824 l 70.855 321.824 69.551 320.523 69.551 
318.91 c 69.551 317.301 70.855 316 72.465 316 c 85.973 316 l 87.582 316 
88.887 317.305 88.887 318.91 c 88.887 320.52 87.582 321.824 85.973 321.824
 c h
85.973 321.824 m f
88.977 305.453 m 88.977 312.062 94.332 317.418 100.938 317.418 c 107.547
 317.418 112.902 312.062 112.902 305.453 c f
0.184314 0.215686 0.231373 rg
109.516 305.453 m 109.516 310.191 105.676 314.035 100.938 314.035 c 96.199
 314.035 92.359 310.191 92.359 305.453 c 92.359 300.715 96.199 296.875 100.938
 296.875 c 105.676 296.875 109.516 300.715 109.516 305.453 c h
109.516 305.453 m f
1 g
108.188 303.941 m 108.188 305.969 106.543 307.617 104.512 307.617 c 102.484
 307.617 100.836 305.969 100.836 303.941 c 100.836 301.91 102.484 300.266
 104.512 300.266 c 106.543 300.266 108.188 301.91 108.188 303.941 c h
108.188 303.941 m f
0.917647 0.67451 0.615686 rg
45.535 305.453 m 45.535 312.062 50.895 317.418 57.5 317.418 c 64.105 317.418
 69.461 312.062 69.461 305.453 c f
0.184314 0.215686 0.231373 rg
66.078 305.453 m 66.078 310.191 62.238 314.035 57.5 314.035 c 52.762 314.035
 48.922 310.191 48.922 305.453 c 48.922 300.715 52.762 296.875 57.5 296.875
 c 62.238 296.875 66.078 300.715 66.078 305.453 c h
66.078 305.453 m f
0.0941176 0.117647 0.129412 rg
59.504 313.793 m 58.863 313.953 58.191 314.035 57.5 314.035 c 52.762 314.035
 48.922 310.191 48.922 305.453 c 48.922 300.715 52.762 296.875 57.5 296.875
 c 58.191 296.875 58.863 296.953 59.504 297.113 c 55.734 298.012 52.934 
301.406 52.934 305.453 c 52.934 309.5 55.734 312.895 59.504 313.793 c h
59.504 313.793 m f
102.945 313.793 m 102.301 313.953 101.629 314.035 100.941 314.035 c 96.199
 314.035 92.359 310.191 92.359 305.453 c 92.359 300.715 96.199 296.875 100.941
 296.875 c 101.629 296.875 102.301 296.953 102.945 297.113 c 99.172 298.012
 96.375 301.406 96.375 305.453 c 96.375 309.5 99.172 312.895 102.945 313.793
 c h
102.945 313.793 m f
1 g
64.75 303.941 m 64.75 305.969 63.105 307.617 61.074 307.617 c 59.043 307.617
 57.398 305.969 57.398 303.941 c 57.398 301.91 59.043 300.266 61.074 300.266
 c 63.105 300.266 64.75 301.91 64.75 303.941 c h
64.75 303.941 m f
0.184314 0.215686 0.231373 rg
138.766 293.316 m 130.957 285.504 126.137 264.316 126.137 264.316 c 126.137
 264.316 106.941 277.965 79.215 277.965 c 71.062 277.965 63.637 276.781 
57.227 275.109 c 41.863 271.109 32.309 264.316 32.309 264.316 c 32.309 264.316
 29.469 276.781 24.621 286.117 c 22.891 283.043 21.238 279.914 19.672 276.742
 c 14.289 265.816 9.906 254.297 6.668 242.316 c 7.492 237.652 9.48 233.691
 13.117 231.047 c 17.805 227.633 24.285 224.543 31.359 221.82 c 45.531 216.375
 60.426 213.434 75.383 213.016 c 75.562 213 75.75 213 75.93 212.992 c 76.125
 212.992 76.312 212.984 76.5 212.977 c 93.645 212.633 110.828 215.578 127.078
 221.82 c 134.16 224.543 140.633 227.633 145.328 231.047 c 164.094 244.695
 138.766 293.316 138.766 293.316 c h
138.766 293.316 m f
0.0941176 0.117647 0.129412 rg
57.227 275.109 m 41.863 271.109 32.309 264.316 32.309 264.316 c 32.309 
264.316 29.469 276.781 24.621 286.117 c 22.891 283.043 21.238 279.914 19.672
 276.742 c 14.289 265.816 9.906 254.297 6.668 242.316 c 7.492 237.652 9.48
 233.691 13.117 231.047 c 17.805 227.633 24.285 224.543 31.359 221.82 c 
45.531 216.375 60.426 213.434 75.383 213.016 c 49.492 214.086 34.078 251.969
 57.227 275.109 c h
57.227 275.109 m f
Q Q
showpage
%%Trailer
end
%%EOF
