%!PS-Adobe-3.0 EPSF-3.0
%%Creator: cairo 1.16.0 (https://cairographics.org)
%%CreationDate: Thu Nov 14 08:46:37 2019
%%Pages: 1
%%DocumentData: Clean7Bit
%%LanguageLevel: 2
%%BoundingBox: 0 0 384 384
%%EndComments
%%BeginProlog
50 dict begin
/q { gsave } bind def
/Q { grestore } bind def
/cm { 6 array astore concat } bind def
/w { setlinewidth } bind def
/J { setlinecap } bind def
/j { setlinejoin } bind def
/M { setmiterlimit } bind def
/d { setdash } bind def
/m { moveto } bind def
/l { lineto } bind def
/c { curveto } bind def
/h { closepath } bind def
/re { exch dup neg 3 1 roll 5 3 roll moveto 0 rlineto
      0 exch rlineto 0 rlineto closepath } bind def
/S { stroke } bind def
/f { fill } bind def
/f* { eofill } bind def
/n { newpath } bind def
/W { clip } bind def
/W* { eoclip } bind def
/BT { } bind def
/ET { } bind def
/BDC { mark 3 1 roll /BDC pdfmark } bind def
/EMC { mark /EMC pdfmark } bind def
/cairo_store_point { /cairo_point_y exch def /cairo_point_x exch def } def
/Tj { show currentpoint cairo_store_point } bind def
/TJ {
  {
    dup
    type /stringtype eq
    { show } { -0.001 mul 0 cairo_font_matrix dtransform rmoveto } ifelse
  } forall
  currentpoint cairo_store_point
} bind def
/cairo_selectfont { cairo_font_matrix aload pop pop pop 0 0 6 array astore
    cairo_font exch selectfont cairo_point_x cairo_point_y moveto } bind def
/Tf { pop /cairo_font exch def /cairo_font_matrix where
      { pop cairo_selectfont } if } bind def
/Td { matrix translate cairo_font_matrix matrix concatmatrix dup
      /cairo_font_matrix exch def dup 4 get exch 5 get cairo_store_point
      /cairo_font where { pop cairo_selectfont } if } bind def
/Tm { 2 copy 8 2 roll 6 array astore /cairo_font_matrix exch def
      cairo_store_point /cairo_font where { pop cairo_selectfont } if } bind def
/g { setgray } bind def
/rg { setrgbcolor } bind def
/d1 { setcachedevice } bind def
/cairo_data_source {
  CairoDataIndex CairoData length lt
    { CairoData CairoDataIndex get /CairoDataIndex CairoDataIndex 1 add def }
    { () } ifelse
} def
/cairo_flush_ascii85_file { cairo_ascii85_file status { cairo_ascii85_file flushfile } if } def
/cairo_image { image cairo_flush_ascii85_file } def
/cairo_imagemask { imagemask cairo_flush_ascii85_file } def
%%EndProlog
%%BeginSetup
%%EndSetup
%%Page: 1 1
%%BeginPageSetup
%%PageBoundingBox: 0 0 384 384
%%EndPageSetup
q 0 0 384 384 rectclip
1 0 0 -1 0 384 cm q
0.564706 0.847059 0.976471 rg
384 192 m 384 298.039 298.039 384 192 384 c 85.961 384 0 298.039 0 192 
c 0 85.961 85.961 0 192 0 c 298.039 0 384 85.961 384 192 c h
384 192 m f
0.976471 0.239216 0.431373 rg
384 184.672 m 383.863 184.738 l 333.129 210.719 l 325.148 214.809 l 300.234
 156.164 l 300.234 350.602 l 269.414 371.676 232.148 384 192 384 c 176.184
 384 160.816 382.086 146.109 378.48 c 146.109 378.473 146.102 378.473 146.102
 378.473 c 123.488 372.93 102.441 363.375 83.766 350.602 c 83.766 156.164
 l 71.422 185.211 l 71.422 185.219 l 66.414 197.012 l 58.852 214.809 l 19.816
 194.82 l 0.137 184.738 l 0 184.672 l 0.172 183.824 l 4.547 162.57 l 12.586
 123.504 l 16.914 102.457 l 20.145 86.723 27.906 72.699 38.781 61.793 c 
48.105 52.449 59.723 45.398 72.758 41.512 c 74.934 40.859 77.145 40.297 
79.395 39.832 c 86.918 38.266 94.469 36.863 102.039 35.617 c 107.52 34.711
 113.023 33.887 118.531 33.148 c 142.914 29.871 167.453 28.238 192 28.238
 c 216.547 28.238 241.086 29.871 265.469 33.148 c 270.977 33.887 276.48 
34.711 281.961 35.617 c 289.531 36.863 297.082 38.266 304.605 39.832 c 306.855
 40.297 309.066 40.859 311.242 41.512 c 339.48 49.926 361.078 73.238 367.086
 102.457 c 371.414 123.504 l 383.828 183.824 l h
384 184.672 m f
0.894118 0.0901961 0.32549 rg
333.129 210.719 m 325.148 214.809 l 300.234 156.164 l 300.234 156.164 319.641
 158.496 332.676 188.609 c 337.336 199.363 336.336 206.281 333.129 210.719
 c h
333.129 210.719 m f
102.039 35.617 m 74.168 49.793 39.141 59.551 23.461 173.102 c 22.328 181.312
 21.105 188.52 19.816 194.82 c 0.137 184.738 l 0 184.672 l 0.172 183.824
 l 4.547 162.57 l 12.586 123.504 l 16.914 102.457 l 20.145 86.723 27.906
 72.699 38.781 61.793 c 48.105 52.449 59.723 45.398 72.758 41.512 c 74.934
 40.859 77.145 40.297 79.395 39.832 c 86.918 38.266 94.469 36.863 102.039
 35.617 c h
102.039 35.617 m f
0.92549 0.764706 0.180392 rg
66.414 197.008 m 58.852 214.805 l 0 184.668 l 4.547 162.566 l h
66.414 197.008 m f
317.586 197.008 m 325.148 214.805 l 384 184.668 l 379.453 162.566 l h
317.586 197.008 m f
265.637 33.168 m 275.07 34.434 280.789 44.277 277.254 53.113 c 264.531 
84.91 231.16 107.609 192 107.609 c 152.84 107.609 119.469 84.91 106.746 
53.113 c 103.211 44.277 108.93 34.434 118.363 33.168 c 118.418 33.16 118.477
 33.156 118.531 33.148 c 142.914 29.871 167.453 28.234 192 28.234 c 216.547
 28.234 241.086 29.871 265.469 33.148 c 265.523 33.156 265.582 33.16 265.637
 33.168 c h
265.637 33.168 m f
0.894118 0.0901961 0.32549 rg
245.746 30.855 m 257.195 31.977 263.895 44.441 258.422 54.562 c 246.328
 76.938 221.129 92.324 192 92.324 c 162.871 92.324 137.668 76.938 125.578
 54.562 c 120.105 44.441 126.805 31.977 138.254 30.855 c 156.125 29.109 
174.062 28.234 192 28.234 c 209.938 28.234 227.875 29.109 245.746 30.855
 c h
245.746 30.855 m f
146.102 378.473 m 123.488 372.93 102.441 363.375 83.766 350.602 c 83.766
 156.164 l 96.113 127.109 l 96.113 127.109 78.434 339.082 146.102 378.473
 c h
146.102 378.473 m f
0.92549 0.764706 0.180392 rg
261.527 145.859 m 215.492 145.859 l 210.031 145.859 205.602 150.289 205.602
 155.75 c 205.602 180.969 l 205.602 186.434 210.031 190.859 215.492 190.859
 c 216.527 190.859 l 216.527 222.316 l 216.527 236.039 205.297 247.562 191.578
 247.328 c 178.246 247.102 167.473 236.188 167.473 222.805 c 167.473 190.859
 l 168.508 190.859 l 173.969 190.859 178.398 186.434 178.398 180.969 c 178.398
 155.75 l 178.398 150.289 173.969 145.859 168.508 145.859 c 122.473 145.859
 l 117.008 145.859 112.582 150.289 112.582 155.75 c 112.582 180.969 l 112.582
 186.434 117.008 190.859 122.473 190.859 c 122.473 221.918 l 122.473 260.199
 153.039 291.961 191.316 292.332 c 229.965 292.703 261.527 261.371 261.527
 222.805 c 261.527 190.859 l 266.992 190.859 271.418 186.434 271.418 180.969
 c 271.418 155.75 l 271.418 150.285 266.992 145.859 261.527 145.859 c h
261.527 145.859 m f
0.905882 0.647059 0.180392 rg
191.461 277.328 m 161.691 277.043 137.473 252.184 137.473 221.918 c 137.473
 175.859 l 127.582 175.859 l 127.582 160.859 l 163.398 160.859 l 163.398
 175.859 l 152.473 175.859 l 152.473 222.801 l 152.473 244.23 169.898 261.961
 191.32 262.324 c 191.543 262.328 191.984 262.332 191.988 262.332 c 213.789
 262.332 231.531 244.379 231.531 222.316 c 231.531 175.859 l 220.602 175.859
 l 220.602 160.859 l 256.418 160.859 l 256.418 175.859 l 246.531 175.859
 l 246.531 222.805 l 246.531 237.34 240.852 251.027 230.535 261.34 c 220.227
 271.652 206.543 277.332 192.008 277.332 c 192.004 277.332 191.461 277.328
 191.461 277.328 c h
191.461 277.328 m f
0.92549 0.764706 0.180392 rg
206.473 60.277 m 177.527 60.277 l 174.793 60.277 172.574 58.059 172.574
 55.324 c 172.574 43.602 l 172.574 40.867 174.793 38.648 177.527 38.648 
c 206.473 38.648 l 209.207 38.648 211.426 40.867 211.426 43.602 c 211.426
 55.324 l 211.426 58.059 209.207 60.277 206.473 60.277 c h
206.473 60.277 m f
Q Q
showpage
%%Trailer
end
%%EOF
