%!PS-Adobe-3.0 EPSF-3.0
%%Creator: cairo 1.16.0 (https://cairographics.org)
%%CreationDate: Thu Nov 14 08:46:38 2019
%%Pages: 1
%%DocumentData: Clean7Bit
%%LanguageLevel: 2
%%BoundingBox: 0 0 384 384
%%EndComments
%%BeginProlog
50 dict begin
/q { gsave } bind def
/Q { grestore } bind def
/cm { 6 array astore concat } bind def
/w { setlinewidth } bind def
/J { setlinecap } bind def
/j { setlinejoin } bind def
/M { setmiterlimit } bind def
/d { setdash } bind def
/m { moveto } bind def
/l { lineto } bind def
/c { curveto } bind def
/h { closepath } bind def
/re { exch dup neg 3 1 roll 5 3 roll moveto 0 rlineto
      0 exch rlineto 0 rlineto closepath } bind def
/S { stroke } bind def
/f { fill } bind def
/f* { eofill } bind def
/n { newpath } bind def
/W { clip } bind def
/W* { eoclip } bind def
/BT { } bind def
/ET { } bind def
/BDC { mark 3 1 roll /BDC pdfmark } bind def
/EMC { mark /EMC pdfmark } bind def
/cairo_store_point { /cairo_point_y exch def /cairo_point_x exch def } def
/Tj { show currentpoint cairo_store_point } bind def
/TJ {
  {
    dup
    type /stringtype eq
    { show } { -0.001 mul 0 cairo_font_matrix dtransform rmoveto } ifelse
  } forall
  currentpoint cairo_store_point
} bind def
/cairo_selectfont { cairo_font_matrix aload pop pop pop 0 0 6 array astore
    cairo_font exch selectfont cairo_point_x cairo_point_y moveto } bind def
/Tf { pop /cairo_font exch def /cairo_font_matrix where
      { pop cairo_selectfont } if } bind def
/Td { matrix translate cairo_font_matrix matrix concatmatrix dup
      /cairo_font_matrix exch def dup 4 get exch 5 get cairo_store_point
      /cairo_font where { pop cairo_selectfont } if } bind def
/Tm { 2 copy 8 2 roll 6 array astore /cairo_font_matrix exch def
      cairo_store_point /cairo_font where { pop cairo_selectfont } if } bind def
/g { setgray } bind def
/rg { setrgbcolor } bind def
/d1 { setcachedevice } bind def
/cairo_data_source {
  CairoDataIndex CairoData length lt
    { CairoData CairoDataIndex get /CairoDataIndex CairoDataIndex 1 add def }
    { () } ifelse
} def
/cairo_flush_ascii85_file { cairo_ascii85_file status { cairo_ascii85_file flushfile } if } def
/cairo_image { image cairo_flush_ascii85_file } def
/cairo_imagemask { imagemask cairo_flush_ascii85_file } def
%%EndProlog
%%BeginSetup
%%EndSetup
%%Page: 1 1
%%BeginPageSetup
%%PageBoundingBox: 0 0 384 384
%%EndPageSetup
q 0 0 384 384 rectclip
1 0 0 -1 0 384 cm q
0.737255 0.584314 0.886275 rg
384 192 m 384 273.961 332.641 343.926 260.348 371.477 c 250.207 375.344
 239.648 378.375 228.766 380.484 c 216.863 382.793 204.578 384 192 384 c
 179.422 384 167.137 382.793 155.234 380.484 c 144.352 378.375 133.793 375.344
 123.652 371.477 c 51.359 343.926 0 273.961 0 192 c 0 85.965 85.965 0 192
 0 c 298.035 0 384 85.965 384 192 c h
384 192 m f
0.905882 0.647059 0.180392 rg
241.352 373.172 m 142.648 373.172 l 149.82 347.477 l 234.18 347.477 l h
241.352 373.172 m f
0.92549 0.764706 0.180392 rg
169.273 317.773 m 165.324 335.406 l 164.379 339.613 l 158.211 367.176 l
 155.234 380.484 l 144.352 378.375 133.793 375.344 123.652 371.477 c 130.949
 338.879 l 131.73 335.406 l 135.676 317.773 l h
169.273 317.773 m f
260.348 371.477 m 250.207 375.344 239.648 378.375 228.766 380.484 c 225.789
 367.176 l 219.621 339.613 l 218.676 335.406 l 214.727 317.773 l 248.324
 317.773 l 252.27 335.406 l 253.051 338.879 l h
260.348 371.477 m f
0.905882 0.647059 0.180392 rg
135.676 317.773 m 169.273 317.773 l 165.324 335.406 l 164.379 339.613 l
 153.234 339.461 142.094 339.215 130.949 338.879 c 131.73 335.406 l h
135.676 317.773 m f
253.051 338.879 m 241.906 339.215 230.766 339.461 219.621 339.613 c 218.676
 335.406 l 214.727 317.773 l 248.324 317.773 l 252.27 335.406 l h
253.051 338.879 m f
0.92549 0.764706 0.180392 rg
367.926 61.266 m 367.926 269.012 l 361.746 283.109 353.926 296.316 344.691
 308.406 c 340.418 314.016 335.836 319.371 330.984 324.465 c 329.887 324.562
 328.777 324.609 327.652 324.609 c 56.348 324.609 l 55.223 324.609 54.113
 324.562 53.016 324.465 c 48.164 319.371 43.582 314.016 39.309 308.406 c
 30.074 296.316 22.254 283.109 16.074 269.012 c 16.074 61.266 l 16.074 39.023
 34.102 20.992 56.348 20.992 c 327.652 20.992 l 349.898 20.992 367.926 39.023
 367.926 61.266 c h
367.926 61.266 m f
0.905882 0.647059 0.180392 rg
29.754 284.332 m 29.754 289.434 30.699 294.316 32.43 298.801 c 26.137 289.418
 20.656 279.457 16.074 269.012 c 16.074 61.266 l 16.074 39.023 34.102 20.992
 56.34 20.992 c 70.027 20.992 l 47.781 20.992 29.754 39.023 29.754 61.266
 c h
29.754 284.332 m f
56.344 294.609 m 50.68 294.609 46.074 290 46.074 284.336 c 46.074 61.266
 l 46.074 55.602 50.68 50.992 56.344 50.992 c 327.656 50.992 l 333.32 50.992
 337.926 55.602 337.926 61.266 c 337.926 284.336 l 337.926 290 333.32 294.609
 327.656 294.609 c h
56.344 294.609 m f
0.184314 0.215686 0.231373 rg
56.344 285.609 m 55.656 285.609 55.074 285.027 55.074 284.336 c 55.074 
61.266 l 55.074 60.574 55.656 59.992 56.344 59.992 c 327.656 59.992 l 328.344
 59.992 328.926 60.574 328.926 61.266 c 328.926 284.336 l 328.926 285.027
 328.344 285.609 327.656 285.609 c h
56.344 285.609 m f
0.87451 0.917647 0.937255 rg
190.84 243.637 m 188.77 243.637 187.09 241.961 187.09 239.887 c 187.09 
142.484 l 103.066 142.484 l 100.996 142.484 99.316 140.805 99.316 138.734
 c 99.316 136.664 100.996 134.984 103.066 134.984 c 194.59 134.984 l 194.59
 239.887 l 194.59 241.961 192.91 243.637 190.84 243.637 c h
190.84 243.637 m f
0.964706 0.945098 0.945098 rg
298.633 227.125 m 115.543 227.125 l 115.543 86.207 l 115.543 79.605 110.172
 74.234 103.57 74.234 c 96.969 74.234 91.598 79.605 91.598 86.207 c 91.598
 227.125 l 79.492 227.125 l 72.891 227.125 67.52 232.496 67.52 239.098 c
 67.52 245.699 72.891 251.07 79.492 251.07 c 91.598 251.07 l 91.598 261.668
 l 91.598 268.27 96.969 273.641 103.57 273.641 c 110.172 273.641 115.543
 268.27 115.543 261.668 c 115.543 251.07 l 298.633 251.07 l 305.234 251.07
 310.605 245.699 310.605 239.098 c 310.605 232.496 305.234 227.125 298.633
 227.125 c h
298.633 227.125 m f
281.926 206.984 m 212.762 206.984 196.938 171.129 184.223 142.32 c 173.891
 118.902 166.422 101.984 135.676 101.984 c 131.535 101.984 128.176 98.625
 128.176 94.484 c 128.176 90.344 131.535 86.984 135.676 86.984 c 153.848
 86.984 167.762 92.172 178.219 102.844 c 187.277 112.09 192.703 124.379 
197.949 136.266 c 203.98 149.934 210.219 164.066 222.07 174.453 c 235.531
 186.25 255.113 191.984 281.926 191.984 c 286.066 191.984 289.426 195.34
 289.426 199.484 c 289.426 203.625 286.066 206.984 281.926 206.984 c h
281.926 206.984 m f
252.602 119.293 m 231.539 119.293 l 230.168 119.293 228.906 118.543 228.25
 117.34 c 227.59 116.137 227.645 114.668 228.387 113.516 c 241.949 92.453
 l 243.07 90.715 245.391 90.211 247.133 91.332 c 248.871 92.453 249.375 
94.773 248.254 96.516 c 238.414 111.793 l 252.602 111.793 l 254.672 111.793
 256.352 113.473 256.352 115.543 c 256.352 117.613 254.672 119.293 252.602
 119.293 c h
252.602 119.293 m f
278.352 105.121 m 277.832 105.121 l 277.867 99.152 277.887 92.707 277.812
 91.824 c 277.656 89.918 276.516 88.367 274.91 87.871 c 273.32 87.379 271.621
 88 270.371 89.535 c 268.977 91.246 262.492 102.934 260.539 106.477 c 260.09
 107.289 260.102 108.281 260.574 109.078 c 261.047 109.879 261.906 110.371
 262.836 110.371 c 272.547 110.371 l 272.535 112.016 272.523 113.594 272.512
 115.016 c 272.5 116.465 273.664 117.648 275.113 117.66 c 275.137 117.66
 l 276.578 117.66 277.75 116.5 277.762 115.059 c 277.77 114.191 277.785 
112.484 277.801 110.371 c 278.352 110.371 l 279.801 110.371 280.977 109.195
 280.977 107.746 c 280.977 106.293 279.801 105.121 278.352 105.121 c h
272.582 105.121 m 267.297 105.121 l 269.289 101.551 271.238 98.121 272.617
 95.785 c 272.617 98.215 272.602 101.602 272.582 105.121 c h
272.582 105.121 m f
300.988 100.695 m 302.02 99.367 302.641 97.707 302.641 95.898 c 302.641
 91.578 299.125 88.062 294.805 88.062 c 290.488 88.062 286.973 91.578 286.973
 95.898 c 286.973 97.703 287.594 99.367 288.625 100.695 c 286.438 102.488
 285.035 105.207 285.035 108.25 c 285.035 113.637 289.418 118.02 294.805
 118.02 c 300.191 118.02 304.574 113.637 304.574 108.25 c 304.574 105.207
 303.176 102.488 300.988 100.695 c h
292.223 95.898 m 292.223 94.473 293.383 93.312 294.805 93.312 c 296.23 
93.312 297.391 94.473 297.391 95.898 c 297.391 97.324 296.23 98.48 294.805
 98.48 c 293.383 98.48 292.223 97.324 292.223 95.898 c h
294.805 112.77 m 292.312 112.77 290.285 110.742 290.285 108.25 c 290.285
 105.758 292.316 103.73 294.805 103.73 c 297.297 103.73 299.324 105.758 
299.324 108.25 c 299.324 110.742 297.297 112.77 294.805 112.77 c h
294.805 112.77 m f
310.605 86.633 m 310.605 88.301 309.254 89.648 307.59 89.648 c 305.926 
89.648 304.574 88.301 304.574 86.633 c 304.574 84.969 305.926 83.621 307.59
 83.621 c 309.254 83.621 310.605 84.969 310.605 86.633 c h
310.605 86.633 m f
146.953 265.641 m 146.953 270.059 143.371 273.641 138.949 273.641 c 134.531
 273.641 130.949 270.059 130.949 265.641 c 130.949 261.223 134.531 257.641
 138.949 257.641 c 143.371 257.641 146.953 261.223 146.953 265.641 c h
146.953 265.641 m f
198.133 265.641 m 198.133 270.059 194.551 273.641 190.133 273.641 c 185.715
 273.641 182.133 270.059 182.133 265.641 c 182.133 261.223 185.715 257.641
 190.133 257.641 c 194.551 257.641 198.133 261.223 198.133 265.641 c h
198.133 265.641 m f
249.316 265.641 m 249.316 270.059 245.734 273.641 241.312 273.641 c 236.895
 273.641 233.312 270.059 233.312 265.641 c 233.312 261.223 236.895 257.641
 241.312 257.641 c 245.734 257.641 249.316 261.223 249.316 265.641 c h
249.316 265.641 m f
300.496 265.641 m 300.496 270.059 296.914 273.641 292.496 273.641 c 288.078
 273.641 284.496 270.059 284.496 265.641 c 284.496 261.223 288.078 257.641
 292.496 257.641 c 296.914 257.641 300.496 261.223 300.496 265.641 c h
300.496 265.641 m f
80.523 104.621 m 80.523 109.039 76.941 112.621 72.523 112.621 c 68.102 
112.621 64.52 109.039 64.52 104.621 c 64.52 100.203 68.102 96.621 72.523
 96.621 c 76.941 96.621 80.523 100.203 80.523 104.621 c h
80.523 104.621 m f
80.523 155.805 m 80.523 160.223 76.941 163.805 72.523 163.805 c 68.102 
163.805 64.52 160.223 64.52 155.805 c 64.52 151.383 68.102 147.801 72.523
 147.801 c 76.941 147.801 80.523 151.383 80.523 155.805 c h
80.523 155.805 m f
80.523 206.984 m 80.523 211.402 76.941 214.984 72.523 214.984 c 68.102 
214.984 64.52 211.402 64.52 206.984 c 64.52 202.566 68.102 198.984 72.523
 198.984 c 76.941 198.984 80.523 202.566 80.523 206.984 c h
80.523 206.984 m f
Q Q
showpage
%%Trailer
end
%%EOF
