%!PS-Adobe-3.0 EPSF-3.0
%%Creator: cairo 1.16.0 (https://cairographics.org)
%%CreationDate: Thu Nov 14 08:46:38 2019
%%Pages: 1
%%DocumentData: Clean7Bit
%%LanguageLevel: 2
%%BoundingBox: 0 0 384 384
%%EndComments
%%BeginProlog
50 dict begin
/q { gsave } bind def
/Q { grestore } bind def
/cm { 6 array astore concat } bind def
/w { setlinewidth } bind def
/J { setlinecap } bind def
/j { setlinejoin } bind def
/M { setmiterlimit } bind def
/d { setdash } bind def
/m { moveto } bind def
/l { lineto } bind def
/c { curveto } bind def
/h { closepath } bind def
/re { exch dup neg 3 1 roll 5 3 roll moveto 0 rlineto
      0 exch rlineto 0 rlineto closepath } bind def
/S { stroke } bind def
/f { fill } bind def
/f* { eofill } bind def
/n { newpath } bind def
/W { clip } bind def
/W* { eoclip } bind def
/BT { } bind def
/ET { } bind def
/BDC { mark 3 1 roll /BDC pdfmark } bind def
/EMC { mark /EMC pdfmark } bind def
/cairo_store_point { /cairo_point_y exch def /cairo_point_x exch def } def
/Tj { show currentpoint cairo_store_point } bind def
/TJ {
  {
    dup
    type /stringtype eq
    { show } { -0.001 mul 0 cairo_font_matrix dtransform rmoveto } ifelse
  } forall
  currentpoint cairo_store_point
} bind def
/cairo_selectfont { cairo_font_matrix aload pop pop pop 0 0 6 array astore
    cairo_font exch selectfont cairo_point_x cairo_point_y moveto } bind def
/Tf { pop /cairo_font exch def /cairo_font_matrix where
      { pop cairo_selectfont } if } bind def
/Td { matrix translate cairo_font_matrix matrix concatmatrix dup
      /cairo_font_matrix exch def dup 4 get exch 5 get cairo_store_point
      /cairo_font where { pop cairo_selectfont } if } bind def
/Tm { 2 copy 8 2 roll 6 array astore /cairo_font_matrix exch def
      cairo_store_point /cairo_font where { pop cairo_selectfont } if } bind def
/g { setgray } bind def
/rg { setrgbcolor } bind def
/d1 { setcachedevice } bind def
/cairo_data_source {
  CairoDataIndex CairoData length lt
    { CairoData CairoDataIndex get /CairoDataIndex CairoDataIndex 1 add def }
    { () } ifelse
} def
/cairo_flush_ascii85_file { cairo_ascii85_file status { cairo_ascii85_file flushfile } if } def
/cairo_image { image cairo_flush_ascii85_file } def
/cairo_imagemask { imagemask cairo_flush_ascii85_file } def
%%EndProlog
%%BeginSetup
%%EndSetup
%%Page: 1 1
%%BeginPageSetup
%%PageBoundingBox: 0 0 384 384
%%EndPageSetup
q 0 0 384 384 rectclip
1 0 0 -1 0 384 cm q
0.92549 0.764706 0.180392 rg
384 192 m 384 298.039 298.039 384 192 384 c 85.961 384 0 298.039 0 192 
c 0 85.961 85.961 0 192 0 c 298.039 0 384 85.961 384 192 c h
384 192 m f
0.501961 0.886275 0.615686 rg
344.719 46.828 m 345.961 306.742 l 310.961 353.633 255.023 384 192.008 
384 c 128.996 384 73.059 353.633 38.059 306.742 c 38.059 46.828 l h
344.719 46.828 m f
0.4 0.705882 0.615686 rg
91.195 46.828 m 91.195 355.426 l 70.555 342.668 52.516 326.113 38.059 306.742
 c 38.059 46.828 l h
91.195 46.828 m f
344.719 72.805 m 70.074 80.094 l 51.703 80.094 39.566 65.27 39.566 46.898
 c 39.566 28.527 51.703 13.57 70.074 13.57 c 344.719 20.992 l h
344.719 72.805 m f
0.964706 0.945098 0.945098 rg
69.375 65.094 m 59.691 65.094 51.812 56.898 51.812 46.832 c 51.812 36.762
 59.691 28.57 69.375 28.57 c 333.469 28.57 l 333.469 65.094 l h
69.375 65.094 m f
0.87451 0.917647 0.937255 rg
79.91 38.945 m 333.469 38.945 l 333.469 28.57 l 79.91 28.57 l 77.043 28.57
 74.723 30.891 74.723 33.758 c 74.719 36.625 77.043 38.945 79.91 38.945 
c h
79.91 38.945 m f
79.91 55.887 m 333.469 55.887 l 333.469 45.512 l 79.91 45.512 l 77.043 
45.512 74.723 47.832 74.723 50.699 c 74.719 53.562 77.043 55.887 79.91 55.887
 c h
79.91 55.887 m f
0.501961 0.886275 0.615686 rg
333.469 84.055 m 75.836 84.055 l 55.492 84.055 38.449 67.957 38.062 47.617
 c 37.668 26.801 54.484 9.742 75.211 9.742 c 333.469 9.742 l 339.68 9.742
 344.719 14.781 344.719 20.992 c 344.719 27.207 339.68 32.242 333.469 32.242
 c 75.57 32.242 l 67.637 32.242 60.867 38.402 60.566 46.332 c 60.254 54.672
 66.945 61.555 75.211 61.555 c 333.469 61.555 l 339.68 61.555 344.719 66.59
 344.719 72.805 c 344.719 79.016 339.68 84.055 333.469 84.055 c h
333.469 84.055 m f
0.4 0.705882 0.615686 rg
283.402 324.609 m 137.449 324.609 l 120.617 324.609 106.973 310.961 106.973
 294.129 c 106.973 165.461 l 106.973 148.629 120.621 134.984 137.449 134.984
 c 283.398 134.984 l 300.234 134.984 313.879 148.629 313.879 165.461 c 313.879
 294.129 l 313.879 310.961 300.234 324.609 283.402 324.609 c h
283.402 324.609 m f
0.737255 0.584314 0.886275 rg
298.879 165.465 m 298.879 294.129 l 298.879 302.664 291.934 309.609 283.398
 309.609 c 137.453 309.609 l 134.801 309.609 132.301 308.941 130.129 307.746
 c 128.059 306.645 126.273 305.062 124.906 303.164 c 123.062 300.621 121.977
 297.496 121.977 294.129 c 121.977 165.465 l 121.977 156.93 128.918 149.984
 137.453 149.984 c 283.398 149.984 l 291.934 149.984 298.879 156.93 298.879
 165.465 c h
298.879 165.465 m f
0.976471 0.239216 0.431373 rg
278.031 239.121 m 278.031 253.191 266.625 264.594 252.555 264.594 c 238.484
 264.594 227.078 253.191 227.078 239.121 c 227.078 225.051 238.484 213.645
 252.555 213.645 c 266.625 213.645 278.031 225.051 278.031 239.121 c h
278.031 239.121 m f
188.148 183.59 m 188.148 197.656 176.742 209.062 162.672 209.062 c 148.602
 209.062 137.195 197.656 137.195 183.59 c 137.195 169.52 148.602 158.113
 162.672 158.113 c 176.742 158.113 188.148 169.52 188.148 183.59 c h
188.148 183.59 m f
0.894118 0.0901961 0.32549 rg
258.707 263.844 m 256.734 264.336 254.676 264.594 252.555 264.594 c 238.484
 264.594 227.078 253.191 227.078 239.121 c 227.078 225.051 238.484 213.641
 252.555 213.641 c 254.676 213.641 256.734 213.898 258.707 214.391 c 247.613
 217.145 239.387 227.172 239.387 239.121 c 239.387 251.066 247.613 261.09
 258.707 263.844 c h
258.707 263.844 m f
0.964706 0.945098 0.945098 rg
219.16 261.145 m 215.949 261.145 212.906 259.242 211.602 256.094 c 209.871
 251.922 211.852 247.137 216.023 245.41 c 234.594 237.711 l 238.766 235.984
 243.551 237.965 245.277 242.137 c 247.008 246.309 245.027 251.09 240.855
 252.82 c 222.285 260.52 l 221.262 260.941 220.203 261.145 219.16 261.145
 c h
219.16 261.145 m f
0.894118 0.0901961 0.32549 rg
168.824 208.312 m 166.855 208.805 164.793 209.062 162.672 209.062 c 148.602
 209.062 137.195 197.656 137.195 183.59 c 137.195 169.52 148.602 158.109
 162.672 158.109 c 164.793 158.109 166.855 158.367 168.824 158.859 c 157.73
 161.613 149.504 171.641 149.504 183.59 c 149.504 195.535 157.73 205.559
 168.824 208.312 c h
168.824 208.312 m f
0.964706 0.945098 0.945098 rg
251.059 309.609 m 229.066 309.609 l 202.457 279.988 l 205.391 277.359 l
 214.621 269.055 l h
251.059 309.609 m f
191.043 256 m 187.902 256 184.906 254.184 183.559 251.125 c 163.398 205.48
 l 161.574 201.348 163.445 196.52 167.578 194.695 c 171.707 192.871 176.535
 194.742 178.359 198.871 c 198.52 244.516 l 200.344 248.648 198.473 253.477
 194.34 255.301 c 193.266 255.777 192.145 256 191.043 256 c h
191.043 256 m f
0.87451 0.917647 0.937255 rg
195.602 254.609 m 195.211 254.875 194.789 255.105 194.34 255.305 c 193.266
 255.777 192.145 256.004 191.039 256.004 c 187.902 256.004 184.906 254.184
 183.555 251.125 c 163.398 205.48 l 161.574 201.352 163.441 196.523 167.574
 194.699 c 169.418 193.883 171.402 193.801 173.195 194.332 c 169.965 196.496
 168.652 200.734 170.277 204.422 c 190.438 250.066 l 191.445 252.352 193.379
 253.949 195.602 254.609 c h
195.602 254.609 m f
239.117 309.609 m 229.066 309.609 l 202.457 279.988 l 205.391 277.359 l
 209.621 276.621 l h
239.117 309.609 m f
0.976471 0.239216 0.431373 rg
270.176 309.609 m 220.621 309.609 l 223.301 298.402 233.371 290.07 245.395
 290.07 c 257.418 290.07 267.496 298.402 270.176 309.609 c h
270.176 309.609 m f
0.87451 0.917647 0.937255 rg
243.785 239.789 m 241.531 237.293 237.875 236.352 234.594 237.711 c 216.023
 245.41 l 212.977 246.672 211.105 249.566 210.988 252.656 c h
243.785 239.789 m f
0.894118 0.0901961 0.32549 rg
251.551 290.82 m 242.352 293.102 235.133 300.383 232.938 309.609 c 220.621
 309.609 l 223.301 298.402 233.371 290.07 245.395 290.07 c 247.516 290.07
 249.578 290.324 251.551 290.82 c h
251.551 290.82 m f
0.976471 0.239216 0.431373 rg
222.785 261.875 m 222.785 275.945 211.379 287.352 197.309 287.352 c 183.238
 287.352 171.832 275.945 171.832 261.875 c 171.832 247.805 183.238 236.398
 197.309 236.398 c 211.379 236.398 222.785 247.805 222.785 261.875 c h
222.785 261.875 m f
0.894118 0.0901961 0.32549 rg
203.461 286.602 m 201.492 287.094 199.43 287.352 197.309 287.352 c 183.238
 287.352 171.832 275.945 171.832 261.875 c 171.832 247.805 183.238 236.398
 197.309 236.398 c 199.43 236.398 201.492 236.656 203.461 237.145 c 192.367
 239.902 184.141 249.93 184.141 261.875 c 184.141 273.824 192.367 283.848
 203.461 286.602 c h
203.461 286.602 m f
0.964706 0.945098 0.945098 rg
187.105 279.238 m 144.137 309.609 l 137.453 309.609 l 132.289 309.609 127.703
 307.066 124.906 303.164 c 177.668 265.883 l 181.352 263.281 186.461 264.148
 189.062 267.84 c 191.672 271.531 190.793 276.629 187.105 279.238 c h
187.105 279.238 m f
0.87451 0.917647 0.937255 rg
187.383 266.094 m 187.277 266.152 187.18 266.219 187.082 266.289 c 132.73
 304.695 l 131.582 305.512 130.703 306.562 130.129 307.746 c 128.059 306.645
 126.273 305.062 124.906 303.164 c 177.668 265.883 l 180.668 263.762 184.613
 263.949 187.383 266.094 c h
187.383 266.094 m f
0.976471 0.239216 0.431373 rg
153.48 309.609 m 137.453 309.609 l 128.918 309.609 121.977 302.664 121.977
 294.129 c 121.977 286.223 l 123.918 285.742 125.949 285.496 128.035 285.496
 c 141.648 285.496 152.77 296.168 153.48 309.609 c h
153.48 309.609 m f
0.894118 0.0901961 0.32549 rg
134.191 286.238 m 129.453 287.406 125.246 289.914 121.977 293.324 c 121.977
 286.215 l 123.918 285.734 125.941 285.488 128.035 285.488 c 130.156 285.488
 132.219 285.742 134.191 286.238 c h
134.191 286.238 m f
0.4 0.705882 0.615686 rg
274.32 122.5 m 146.531 122.5 l 141.16 122.5 136.805 118.145 136.805 112.77
 c 136.805 107.398 141.16 103.043 146.531 103.043 c 274.32 103.043 l 279.691
 103.043 284.047 107.398 284.047 112.77 c 284.047 118.145 279.691 122.5 
274.32 122.5 c h
274.32 122.5 m f
Q Q
showpage
%%Trailer
end
%%EOF
