%!PS-Adobe-3.0 EPSF-3.0
%%Creator: cairo 1.16.0 (https://cairographics.org)
%%CreationDate: Thu Nov 14 08:46:38 2019
%%Pages: 1
%%DocumentData: Clean7Bit
%%LanguageLevel: 2
%%BoundingBox: 0 0 384 384
%%EndComments
%%BeginProlog
50 dict begin
/q { gsave } bind def
/Q { grestore } bind def
/cm { 6 array astore concat } bind def
/w { setlinewidth } bind def
/J { setlinecap } bind def
/j { setlinejoin } bind def
/M { setmiterlimit } bind def
/d { setdash } bind def
/m { moveto } bind def
/l { lineto } bind def
/c { curveto } bind def
/h { closepath } bind def
/re { exch dup neg 3 1 roll 5 3 roll moveto 0 rlineto
      0 exch rlineto 0 rlineto closepath } bind def
/S { stroke } bind def
/f { fill } bind def
/f* { eofill } bind def
/n { newpath } bind def
/W { clip } bind def
/W* { eoclip } bind def
/BT { } bind def
/ET { } bind def
/BDC { mark 3 1 roll /BDC pdfmark } bind def
/EMC { mark /EMC pdfmark } bind def
/cairo_store_point { /cairo_point_y exch def /cairo_point_x exch def } def
/Tj { show currentpoint cairo_store_point } bind def
/TJ {
  {
    dup
    type /stringtype eq
    { show } { -0.001 mul 0 cairo_font_matrix dtransform rmoveto } ifelse
  } forall
  currentpoint cairo_store_point
} bind def
/cairo_selectfont { cairo_font_matrix aload pop pop pop 0 0 6 array astore
    cairo_font exch selectfont cairo_point_x cairo_point_y moveto } bind def
/Tf { pop /cairo_font exch def /cairo_font_matrix where
      { pop cairo_selectfont } if } bind def
/Td { matrix translate cairo_font_matrix matrix concatmatrix dup
      /cairo_font_matrix exch def dup 4 get exch 5 get cairo_store_point
      /cairo_font where { pop cairo_selectfont } if } bind def
/Tm { 2 copy 8 2 roll 6 array astore /cairo_font_matrix exch def
      cairo_store_point /cairo_font where { pop cairo_selectfont } if } bind def
/g { setgray } bind def
/rg { setrgbcolor } bind def
/d1 { setcachedevice } bind def
/cairo_data_source {
  CairoDataIndex CairoData length lt
    { CairoData CairoDataIndex get /CairoDataIndex CairoDataIndex 1 add def }
    { () } ifelse
} def
/cairo_flush_ascii85_file { cairo_ascii85_file status { cairo_ascii85_file flushfile } if } def
/cairo_image { image cairo_flush_ascii85_file } def
/cairo_imagemask { imagemask cairo_flush_ascii85_file } def
%%EndProlog
%%BeginSetup
%%EndSetup
%%Page: 1 1
%%BeginPageSetup
%%PageBoundingBox: 0 0 384 384
%%EndPageSetup
q 0 0 384 384 rectclip
1 0 0 -1 0 384 cm q
0.501961 0.886275 0.615686 rg
384 192 m 384 233.219 371.012 271.402 348.898 302.684 c 314.137 351.879
 256.816 384 192 384 c 143.812 384 99.766 366.238 66.051 336.914 c 55.281
 327.555 45.57 317.012 37.117 305.484 c 13.785 273.691 0 234.457 0 192 c
 0 85.965 85.965 0 192 0 c 298.035 0 384 85.965 384 192 c h
384 192 m f
0.85098 0.447059 0.243137 rg
348.898 134.984 m 348.898 302.684 l 314.137 351.879 256.816 384 192 384
 c 143.812 384 99.766 366.238 66.051 336.914 c 55.281 327.555 45.57 317.012
 37.117 305.484 c 37.117 134.984 l h
348.898 134.984 m f
0.741176 0.329412 0.137255 rg
66.051 134.984 m 66.051 336.914 l 55.281 327.555 45.57 317.012 37.117 305.484
 c 37.117 134.984 l h
66.051 134.984 m f
348.898 134.984 m 348.898 248.902 l 346.957 249.324 344.941 249.547 342.863
 249.547 c 41.137 249.547 l 39.773 249.547 38.43 249.449 37.117 249.262 
c 37.117 134.984 l h
348.898 134.984 m f
0.25098 0.290196 0.290196 rg
128.004 315.043 m 97.418 315.043 l 89.648 315.043 83.352 308.746 83.352
 300.977 c 83.352 188.828 l 83.352 181.059 89.648 174.762 97.418 174.762
 c 128.004 174.762 l 135.773 174.762 142.07 181.059 142.07 188.828 c 142.07
 300.977 l 142.07 308.746 135.773 315.043 128.004 315.043 c h
128.004 315.043 m f
299.609 315.043 m 269.023 315.043 l 261.254 315.043 254.957 308.746 254.957
 300.977 c 254.957 188.828 l 254.957 181.059 261.254 174.762 269.023 174.762
 c 299.609 174.762 l 307.379 174.762 313.68 181.059 313.68 188.828 c 313.68
 300.977 l 313.68 308.746 307.379 315.043 299.609 315.043 c h
299.609 315.043 m f
0.92549 0.764706 0.180392 rg
309.199 243.508 m 259.434 243.508 l 253.34 243.508 248.398 248.445 248.398
 254.543 c 248.398 283.781 l 248.398 289.879 253.34 294.816 259.434 294.816
 c 309.199 294.816 l 315.293 294.816 320.234 289.879 320.234 283.781 c 320.234
 254.543 l 320.234 248.445 315.293 243.508 309.199 243.508 c h
309.199 243.508 m f
0.905882 0.647059 0.180392 rg
265.996 294.816 m 259.434 294.816 l 253.34 294.816 248.398 289.875 248.398
 283.777 c 248.398 254.543 l 248.398 248.445 253.34 243.504 259.434 243.504
 c 265.996 243.504 l 259.898 243.504 254.953 248.445 254.953 254.543 c 254.953
 283.777 l 254.953 289.875 259.898 294.816 265.996 294.816 c h
265.996 294.816 m f
302.645 259.633 m 265.992 259.633 l 263.156 259.633 260.859 257.336 260.859
 254.5 c 260.859 251.668 263.156 249.371 265.992 249.371 c 302.645 249.371
 l 305.477 249.371 307.773 251.668 307.773 254.5 c 307.773 257.336 305.477
 259.633 302.645 259.633 c h
302.645 259.633 m f
302.645 274.293 m 265.992 274.293 l 263.156 274.293 260.859 271.996 260.859
 269.164 c 260.859 266.328 263.156 264.031 265.992 264.031 c 302.645 264.031
 l 305.477 264.031 307.773 266.328 307.773 269.164 c 307.773 271.996 305.477
 274.293 302.645 274.293 c h
302.645 274.293 m f
302.645 288.953 m 265.992 288.953 l 263.156 288.953 260.859 286.656 260.859
 283.824 c 260.859 280.988 263.156 278.691 265.992 278.691 c 302.645 278.691
 l 305.477 278.691 307.773 280.988 307.773 283.824 c 307.773 286.656 305.477
 288.953 302.645 288.953 c h
302.645 288.953 m f
0.25098 0.290196 0.290196 rg
282.188 89.023 m 101.812 89.023 l 101.812 30.773 l 101.812 13.805 115.617
 0 132.586 0 c 251.418 0 l 268.383 0 282.188 13.805 282.188 30.773 c h
124.312 66.523 m 259.688 66.523 l 259.688 30.773 l 259.688 26.211 255.977
 22.5 251.418 22.5 c 132.586 22.5 l 128.023 22.5 124.312 26.211 124.312 
30.773 c h
124.312 66.523 m f
0.92549 0.764706 0.180392 rg
137.594 243.508 m 87.828 243.508 l 81.734 243.508 76.793 248.445 76.793
 254.543 c 76.793 283.781 l 76.793 289.879 81.734 294.816 87.828 294.816
 c 137.594 294.816 l 143.688 294.816 148.629 289.879 148.629 283.781 c 148.629
 254.543 l 148.629 248.445 143.688 243.508 137.594 243.508 c h
137.594 243.508 m f
0.905882 0.647059 0.180392 rg
94.387 294.816 m 87.824 294.816 l 81.734 294.816 76.793 289.875 76.793 
283.777 c 76.793 254.543 l 76.793 248.445 81.734 243.504 87.824 243.504 
c 94.387 243.504 l 88.289 243.504 83.348 248.445 83.348 254.543 c 83.348
 283.777 l 83.348 289.875 88.289 294.816 94.387 294.816 c h
94.387 294.816 m f
131.035 259.633 m 94.387 259.633 l 91.551 259.633 89.254 257.336 89.254
 254.5 c 89.254 251.668 91.551 249.371 94.387 249.371 c 131.035 249.371 
l 133.871 249.371 136.168 251.668 136.168 254.5 c 136.168 257.336 133.871
 259.633 131.035 259.633 c h
131.035 259.633 m f
131.035 274.293 m 94.387 274.293 l 91.551 274.293 89.254 271.996 89.254
 269.164 c 89.254 266.328 91.551 264.031 94.387 264.031 c 131.035 264.031
 l 133.871 264.031 136.168 266.328 136.168 269.164 c 136.168 271.996 133.871
 274.293 131.035 274.293 c h
131.035 274.293 m f
131.035 288.953 m 94.387 288.953 l 91.551 288.953 89.254 286.656 89.254
 283.824 c 89.254 280.988 91.551 278.691 94.387 278.691 c 131.035 278.691
 l 133.871 278.691 136.168 280.988 136.168 283.824 c 136.168 286.656 133.871
 288.953 131.035 288.953 c h
131.035 288.953 m f
0.85098 0.447059 0.243137 rg
343.699 229.793 m 40.301 229.793 l 23.227 229.793 10.02 214.82 12.148 197.879
 c 28.121 70.742 l 29.906 56.551 41.973 45.906 56.277 45.906 c 327.727 45.906
 l 342.027 45.906 354.094 56.551 355.879 70.742 c 371.852 197.879 l 373.98
 214.824 360.773 229.793 343.699 229.793 c h
343.699 229.793 m f
0.741176 0.329412 0.137255 rg
68.371 229.797 m 40.309 229.797 l 23.227 229.797 10.02 214.828 12.148 197.879
 c 28.129 70.738 l 29.906 56.555 41.973 45.906 56.281 45.906 c 84.34 45.906
 l 70.043 45.906 57.969 56.555 56.188 70.738 c 40.219 197.879 l 38.09 214.828
 51.297 229.797 68.371 229.797 c h
68.371 229.797 m f
Q Q
showpage
%%Trailer
end
%%EOF
