%!PS-Adobe-3.0 EPSF-3.0
%%Creator: cairo 1.16.0 (https://cairographics.org)
%%CreationDate: Thu Nov 14 08:46:39 2019
%%Pages: 1
%%DocumentData: Clean7Bit
%%LanguageLevel: 2
%%BoundingBox: 0 0 384 384
%%EndComments
%%BeginProlog
50 dict begin
/q { gsave } bind def
/Q { grestore } bind def
/cm { 6 array astore concat } bind def
/w { setlinewidth } bind def
/J { setlinecap } bind def
/j { setlinejoin } bind def
/M { setmiterlimit } bind def
/d { setdash } bind def
/m { moveto } bind def
/l { lineto } bind def
/c { curveto } bind def
/h { closepath } bind def
/re { exch dup neg 3 1 roll 5 3 roll moveto 0 rlineto
      0 exch rlineto 0 rlineto closepath } bind def
/S { stroke } bind def
/f { fill } bind def
/f* { eofill } bind def
/n { newpath } bind def
/W { clip } bind def
/W* { eoclip } bind def
/BT { } bind def
/ET { } bind def
/BDC { mark 3 1 roll /BDC pdfmark } bind def
/EMC { mark /EMC pdfmark } bind def
/cairo_store_point { /cairo_point_y exch def /cairo_point_x exch def } def
/Tj { show currentpoint cairo_store_point } bind def
/TJ {
  {
    dup
    type /stringtype eq
    { show } { -0.001 mul 0 cairo_font_matrix dtransform rmoveto } ifelse
  } forall
  currentpoint cairo_store_point
} bind def
/cairo_selectfont { cairo_font_matrix aload pop pop pop 0 0 6 array astore
    cairo_font exch selectfont cairo_point_x cairo_point_y moveto } bind def
/Tf { pop /cairo_font exch def /cairo_font_matrix where
      { pop cairo_selectfont } if } bind def
/Td { matrix translate cairo_font_matrix matrix concatmatrix dup
      /cairo_font_matrix exch def dup 4 get exch 5 get cairo_store_point
      /cairo_font where { pop cairo_selectfont } if } bind def
/Tm { 2 copy 8 2 roll 6 array astore /cairo_font_matrix exch def
      cairo_store_point /cairo_font where { pop cairo_selectfont } if } bind def
/g { setgray } bind def
/rg { setrgbcolor } bind def
/d1 { setcachedevice } bind def
/cairo_data_source {
  CairoDataIndex CairoData length lt
    { CairoData CairoDataIndex get /CairoDataIndex CairoDataIndex 1 add def }
    { () } ifelse
} def
/cairo_flush_ascii85_file { cairo_ascii85_file status { cairo_ascii85_file flushfile } if } def
/cairo_image { image cairo_flush_ascii85_file } def
/cairo_imagemask { imagemask cairo_flush_ascii85_file } def
%%EndProlog
%%BeginSetup
%%EndSetup
%%Page: 1 1
%%BeginPageSetup
%%PageBoundingBox: 0 0 384 384
%%EndPageSetup
q 0 0 384 384 rectclip
1 0 0 -1 0 384 cm q
0.564706 0.847059 0.976471 rg
384 192 m 384 227.297 374.477 260.371 357.848 288.789 c 346.566 308.086
 332.012 325.238 314.934 339.48 c 306.766 346.297 298.02 352.453 288.789
 357.855 c 288.781 357.855 l 260.363 374.477 227.297 384 192 384 c 85.965
 384 0 298.035 0 192 c 0 85.965 85.965 0 192 0 c 298.035 0 384 85.965 384
 192 c h
384 192 m f
0.72549 0.894118 0.937255 rg
286.707 155.551 m 286.707 227.988 227.988 286.711 155.551 286.711 c 83.113
 286.711 24.391 227.988 24.391 155.551 c 24.391 83.113 83.113 24.391 155.551
 24.391 c 227.988 24.391 286.707 83.113 286.707 155.551 c h
286.707 155.551 m f
1 g
248.297 62.809 m 299.512 114.027 299.512 197.07 248.289 248.293 c 242.395
 254.188 236.086 259.406 229.434 263.938 c 264.344 212.879 259.125 142.621
 213.805 97.301 c 168.477 51.973 98.219 46.758 47.164 81.664 c 51.695 75.016
 56.91 68.703 62.805 62.809 c 114.027 11.586 197.074 11.586 248.297 62.809
 c h
248.297 62.809 m f
0.85098 0.447059 0.243137 rg
265.59 265.59 m 204.914 326.27 106.184 326.27 45.508 265.59 c -15.168 204.914
 -15.168 106.184 45.508 45.508 c 106.188 -15.168 204.914 -15.168 265.59 
45.508 c 326.27 106.188 326.27 204.914 265.59 265.59 c h
80.105 80.105 m 38.504 121.703 38.504 189.395 80.105 230.996 c 121.703 
272.598 189.395 272.598 230.996 230.996 c 272.598 189.395 272.598 121.703
 230.996 80.105 c 189.395 38.504 121.703 38.504 80.105 80.105 c h
80.105 80.105 m f
0.741176 0.329412 0.137255 rg
238.066 223.191 m 240.758 220.98 243.363 218.629 245.875 216.117 c 287.473
 174.516 287.473 106.828 245.875 65.227 c 204.273 23.625 136.582 23.625 
94.98 65.227 c 92.473 67.734 90.117 70.344 87.91 73.031 c 129.781 38.656
 191.906 41.012 230.996 80.105 c 270.086 119.195 272.441 181.32 238.066 
223.191 c h
238.066 223.191 m f
60.387 250.715 m 2.207 192.535 -0.18 99.387 53.203 38.324 c 50.578 40.621
 48.008 43.008 45.508 45.508 c -15.168 106.184 -15.168 204.914 45.508 265.59
 c 106.184 326.266 204.914 326.27 265.59 265.59 c 268.09 263.09 270.477 
260.52 272.773 257.895 c 211.715 311.277 118.562 308.891 60.387 250.715 
c h
60.387 250.715 m f
0.92549 0.764706 0.180392 rg
357.848 288.789 m 341.168 317.324 317.316 341.168 288.781 357.855 c 278.852
 346.059 270.84 333.984 265.035 322.426 c 254.34 301.141 251.121 281.609
 257.199 268.836 c 258.414 266.266 259.996 263.969 261.984 261.984 c 263.969
 260.004 266.258 258.414 268.828 257.199 c 281.602 251.121 301.141 254.34
 322.426 265.035 c 333.977 270.84 346.051 278.859 357.848 288.789 c h
357.848 288.789 m f
0.905882 0.647059 0.180392 rg
314.934 339.48 m 306.766 346.297 298.02 352.453 288.789 357.855 c 288.781
 357.855 l 256.898 319.957 244.77 279.195 261.984 261.984 c 255.699 268.273
 278.918 301.891 314.934 339.48 c h
314.934 339.48 m f
322.422 265.039 m 265.035 322.426 l 254.336 301.141 251.117 281.609 257.195
 268.836 c 268.832 257.199 l 281.605 251.121 301.137 254.34 322.422 265.039
 c h
322.422 265.039 m f
0.92549 0.764706 0.180392 rg
291.93 214.91 m 214.91 291.93 l 206.43 300.414 206.43 314.164 214.91 322.645
 c 223.395 331.125 237.145 331.125 245.625 322.645 c 322.645 245.625 l 331.125
 237.145 331.125 223.391 322.645 214.91 c 314.164 206.43 300.414 206.43 
291.93 214.91 c h
291.93 214.91 m f
0.905882 0.647059 0.180392 rg
264.742 294.527 m 270.301 294.531 275.855 292.41 280.098 288.168 c 245.625
 322.641 l 241.383 326.879 235.828 329.004 230.266 329.004 c 224.715 329.004
 219.152 326.887 214.91 322.645 c 206.43 314.164 206.43 300.406 214.91 291.926
 c 249.383 257.453 l 240.898 265.938 240.906 279.684 249.391 288.168 c 253.633
 292.41 259.188 294.531 264.742 294.527 c h
264.742 294.527 m f
Q Q
showpage
%%Trailer
end
%%EOF
