%!PS-Adobe-3.0 EPSF-3.0
%%Creator: cairo 1.16.0 (https://cairographics.org)
%%CreationDate: Thu Nov 14 08:46:39 2019
%%Pages: 1
%%DocumentData: Clean7Bit
%%LanguageLevel: 2
%%BoundingBox: 0 0 384 384
%%EndComments
%%BeginProlog
50 dict begin
/q { gsave } bind def
/Q { grestore } bind def
/cm { 6 array astore concat } bind def
/w { setlinewidth } bind def
/J { setlinecap } bind def
/j { setlinejoin } bind def
/M { setmiterlimit } bind def
/d { setdash } bind def
/m { moveto } bind def
/l { lineto } bind def
/c { curveto } bind def
/h { closepath } bind def
/re { exch dup neg 3 1 roll 5 3 roll moveto 0 rlineto
      0 exch rlineto 0 rlineto closepath } bind def
/S { stroke } bind def
/f { fill } bind def
/f* { eofill } bind def
/n { newpath } bind def
/W { clip } bind def
/W* { eoclip } bind def
/BT { } bind def
/ET { } bind def
/BDC { mark 3 1 roll /BDC pdfmark } bind def
/EMC { mark /EMC pdfmark } bind def
/cairo_store_point { /cairo_point_y exch def /cairo_point_x exch def } def
/Tj { show currentpoint cairo_store_point } bind def
/TJ {
  {
    dup
    type /stringtype eq
    { show } { -0.001 mul 0 cairo_font_matrix dtransform rmoveto } ifelse
  } forall
  currentpoint cairo_store_point
} bind def
/cairo_selectfont { cairo_font_matrix aload pop pop pop 0 0 6 array astore
    cairo_font exch selectfont cairo_point_x cairo_point_y moveto } bind def
/Tf { pop /cairo_font exch def /cairo_font_matrix where
      { pop cairo_selectfont } if } bind def
/Td { matrix translate cairo_font_matrix matrix concatmatrix dup
      /cairo_font_matrix exch def dup 4 get exch 5 get cairo_store_point
      /cairo_font where { pop cairo_selectfont } if } bind def
/Tm { 2 copy 8 2 roll 6 array astore /cairo_font_matrix exch def
      cairo_store_point /cairo_font where { pop cairo_selectfont } if } bind def
/g { setgray } bind def
/rg { setrgbcolor } bind def
/d1 { setcachedevice } bind def
/cairo_data_source {
  CairoDataIndex CairoData length lt
    { CairoData CairoDataIndex get /CairoDataIndex CairoDataIndex 1 add def }
    { () } ifelse
} def
/cairo_flush_ascii85_file { cairo_ascii85_file status { cairo_ascii85_file flushfile } if } def
/cairo_image { image cairo_flush_ascii85_file } def
/cairo_imagemask { imagemask cairo_flush_ascii85_file } def
%%EndProlog
%%BeginSetup
%%EndSetup
%%Page: 1 1
%%BeginPageSetup
%%PageBoundingBox: 0 0 384 384
%%EndPageSetup
q 0 0 384 384 rectclip
1 0 0 -1 0 384 cm q
0.737255 0.584314 0.886275 rg
384 192 m 384 298.039 298.039 384 192 384 c 85.961 384 0 298.039 0 192 
c 0 85.961 85.961 0 192 0 c 298.039 0 384 85.961 384 192 c h
384 192 m f
0.92549 0.764706 0.180392 rg
280.426 64.922 m 257.949 23.707 227.16 0.727 193.598 0.016 c 193.066 0.008
 192.531 0 192 0 c 191.469 0 190.934 0.008 190.402 0.016 c 156.84 0.727 
126.051 23.707 103.574 64.922 c 82.32 103.867 70.613 155.316 70.613 209.797
 c 70.613 264.277 82.32 315.727 103.574 354.684 c 105.66 358.5 107.812 362.16
 110.039 365.664 c 127.996 374.16 147.48 379.949 167.961 382.5 c 154.199
 374.715 141.285 360.309 130.266 340.117 c 111.406 305.559 101.023 259.273
 101.023 209.797 c 101.023 160.32 111.406 114.039 130.266 79.477 c 147.531
 47.836 169.453 30.406 192 30.406 c 214.547 30.406 236.469 47.836 253.734
 79.477 c 272.594 114.039 282.977 160.32 282.977 209.797 c 282.977 259.273
 272.594 305.559 253.734 340.117 c 242.715 360.309 229.801 374.715 216.039
 382.5 c 236.52 379.949 256.004 374.16 273.961 365.664 c 276.188 362.16 
278.34 358.5 280.426 354.684 c 301.68 315.727 313.387 264.277 313.387 209.797
 c 313.387 155.316 301.68 103.867 280.426 64.922 c h
280.426 64.922 m f
0.501961 0.886275 0.615686 rg
373.688 104.902 m 367.02 93.359 357.531 83.934 345.609 76.793 c 326.953
 65.633 302.348 60.074 273.254 60.781 c 228.898 61.844 178.484 77.438 131.309
 104.676 c 84.129 131.918 45.422 167.781 22.312 205.656 c 15.195 217.328
 9.766 228.84 6.051 240.016 c 19.094 290.672 52.289 333.234 96.586 358.641
 c 99.629 358.801 102.727 358.875 105.887 358.875 c 107.488 358.875 109.109
 358.859 110.746 358.824 c 155.102 357.75 205.516 342.156 252.691 314.918
 c 299.871 287.676 338.578 251.82 361.688 213.938 c 372.105 196.867 378.898
 180.137 382.012 164.289 c 386.34 142.352 383.609 122.086 373.688 104.902
 c h
335.73 198.105 m 315.227 231.711 280.336 263.852 237.488 288.586 c 194.641
 313.328 149.371 327.473 110.012 328.426 c 73.98 329.297 47.91 319.02 36.637
 299.496 c 25.371 279.977 29.496 252.27 48.27 221.488 c 68.773 187.883 103.664
 155.746 146.512 131.012 c 189.359 106.266 234.629 92.121 273.988 91.176
 c 275.398 91.141 276.797 91.125 278.176 91.125 c 312.047 91.125 336.523
 101.34 347.363 120.105 c 358.629 139.629 354.504 167.324 335.73 198.105
 c h
335.73 198.105 m f
0.976471 0.239216 0.431373 rg
361.688 205.656 m 338.578 167.781 299.871 131.918 252.691 104.676 c 205.516
 77.438 155.102 61.844 110.746 60.781 c 81.66 60.082 57.051 65.633 38.398
 76.793 c 26.469 83.926 16.98 93.352 10.312 104.902 c 0.391 122.086 -2.34
 142.352 1.988 164.289 c 5.102 180.137 11.895 196.867 22.312 213.938 c 45.422
 251.82 84.129 287.676 131.309 314.918 c 178.484 342.156 228.898 357.75 
273.254 358.824 c 274.891 358.859 276.512 358.875 278.113 358.875 c 281.273
 358.875 284.371 358.801 287.414 358.641 c 331.711 333.234 364.906 290.672
 377.949 240.016 c 374.234 228.84 368.805 217.328 361.688 205.656 c h
347.363 299.496 m 336.523 318.254 312.051 328.477 278.176 328.469 c 276.797
 328.469 275.398 328.453 273.988 328.426 c 234.629 327.473 189.359 313.328
 146.512 288.586 c 103.664 263.852 68.773 231.711 48.27 198.105 c 29.496
 167.324 25.371 139.629 36.637 120.105 c 47.477 101.34 71.949 91.125 105.824
 91.125 c 107.203 91.125 108.602 91.141 110.012 91.176 c 149.371 92.121 
194.641 106.266 237.488 131.012 c 280.336 155.746 315.227 187.883 335.73
 221.488 c 354.504 252.27 358.629 279.977 347.363 299.496 c h
347.363 299.496 m f
0.501961 0.886275 0.615686 rg
131.309 104.676 m 129.625 105.648 127.953 106.637 126.289 107.633 c 144.984
 131.902 l 145.496 131.605 146 131.305 146.512 131.012 c 179.172 112.152
 213.234 99.457 245.02 94.066 c 225.441 66.98 l 194.414 74.027 162.168 86.859
 131.309 104.676 c h
131.309 104.676 m f
0.92549 0.764706 0.180392 rg
282.977 209.797 m 282.977 247.406 276.973 283.164 265.809 313.34 c 305.004
 287.484 l 310.504 263.105 313.387 236.824 313.387 209.797 c 313.387 173.09
 308.066 137.77 298.098 106.711 c 265.434 105.25 l 276.836 135.633 282.977
 171.766 282.977 209.797 c h
282.977 209.797 m f
0.501961 0.886275 0.615686 rg
146.465 282.934 m 146.465 299.727 132.852 313.336 116.059 313.336 c 99.27
 313.336 85.656 299.727 85.656 282.934 c 85.656 266.141 99.27 252.527 116.059
 252.527 c 132.852 252.527 146.465 266.141 146.465 282.934 c h
146.465 282.934 m f
0.4 0.705882 0.615686 rg
125.766 311.754 m 122.719 312.781 119.457 313.34 116.059 313.34 c 99.266
 313.34 85.656 299.727 85.656 282.934 c 85.656 266.141 99.266 252.527 116.059
 252.527 c 119.457 252.527 122.719 253.082 125.766 254.109 c 113.727 258.16
 105.066 269.539 105.066 282.934 c 105.066 296.328 113.727 307.707 125.766
 311.754 c h
125.766 311.754 m f
0.976471 0.239216 0.431373 rg
327.152 248.801 m 327.152 265.594 313.539 279.207 296.746 279.207 c 279.953
 279.207 266.344 265.594 266.344 248.801 c 266.344 232.012 279.953 218.398
 296.746 218.398 c 313.539 218.398 327.152 232.012 327.152 248.801 c h
327.152 248.801 m f
0.894118 0.0901961 0.32549 rg
306.453 277.625 m 303.406 278.652 300.145 279.207 296.746 279.207 c 279.953
 279.207 266.344 265.594 266.344 248.801 c 266.344 232.008 279.953 218.398
 296.746 218.398 c 300.145 218.398 303.406 218.953 306.453 219.98 c 294.414
 224.031 285.754 235.406 285.754 248.801 c 285.754 262.195 294.414 273.574
 306.453 277.625 c h
306.453 277.625 m f
0.92549 0.764706 0.180392 rg
60.809 99.441 m 60.809 116.234 47.199 129.848 30.406 129.848 c 13.613 129.848
 0 116.234 0 99.441 c 0 82.652 13.613 69.039 30.406 69.039 c 47.199 69.039
 60.809 82.652 60.809 99.441 c h
60.809 99.441 m f
0.905882 0.647059 0.180392 rg
40.113 128.266 m 37.066 129.293 33.805 129.848 30.406 129.848 c 13.613 
129.848 0 116.234 0 99.441 c 0 82.652 13.613 69.039 30.406 69.039 c 33.805
 69.039 37.066 69.594 40.113 70.621 c 28.074 74.672 19.41 86.047 19.41 99.441
 c 19.41 112.84 28.074 124.215 40.113 128.266 c h
40.113 128.266 m f
Q Q
showpage
%%Trailer
end
%%EOF
