%!PS-Adobe-3.0 EPSF-3.0
%%Creator: cairo 1.16.0 (https://cairographics.org)
%%CreationDate: Thu Nov 14 08:46:40 2019
%%Pages: 1
%%DocumentData: Clean7Bit
%%LanguageLevel: 2
%%BoundingBox: 0 0 384 384
%%EndComments
%%BeginProlog
50 dict begin
/q { gsave } bind def
/Q { grestore } bind def
/cm { 6 array astore concat } bind def
/w { setlinewidth } bind def
/J { setlinecap } bind def
/j { setlinejoin } bind def
/M { setmiterlimit } bind def
/d { setdash } bind def
/m { moveto } bind def
/l { lineto } bind def
/c { curveto } bind def
/h { closepath } bind def
/re { exch dup neg 3 1 roll 5 3 roll moveto 0 rlineto
      0 exch rlineto 0 rlineto closepath } bind def
/S { stroke } bind def
/f { fill } bind def
/f* { eofill } bind def
/n { newpath } bind def
/W { clip } bind def
/W* { eoclip } bind def
/BT { } bind def
/ET { } bind def
/BDC { mark 3 1 roll /BDC pdfmark } bind def
/EMC { mark /EMC pdfmark } bind def
/cairo_store_point { /cairo_point_y exch def /cairo_point_x exch def } def
/Tj { show currentpoint cairo_store_point } bind def
/TJ {
  {
    dup
    type /stringtype eq
    { show } { -0.001 mul 0 cairo_font_matrix dtransform rmoveto } ifelse
  } forall
  currentpoint cairo_store_point
} bind def
/cairo_selectfont { cairo_font_matrix aload pop pop pop 0 0 6 array astore
    cairo_font exch selectfont cairo_point_x cairo_point_y moveto } bind def
/Tf { pop /cairo_font exch def /cairo_font_matrix where
      { pop cairo_selectfont } if } bind def
/Td { matrix translate cairo_font_matrix matrix concatmatrix dup
      /cairo_font_matrix exch def dup 4 get exch 5 get cairo_store_point
      /cairo_font where { pop cairo_selectfont } if } bind def
/Tm { 2 copy 8 2 roll 6 array astore /cairo_font_matrix exch def
      cairo_store_point /cairo_font where { pop cairo_selectfont } if } bind def
/g { setgray } bind def
/rg { setrgbcolor } bind def
/d1 { setcachedevice } bind def
/cairo_data_source {
  CairoDataIndex CairoData length lt
    { CairoData CairoDataIndex get /CairoDataIndex CairoDataIndex 1 add def }
    { () } ifelse
} def
/cairo_flush_ascii85_file { cairo_ascii85_file status { cairo_ascii85_file flushfile } if } def
/cairo_image { image cairo_flush_ascii85_file } def
/cairo_imagemask { imagemask cairo_flush_ascii85_file } def
%%EndProlog
%%BeginSetup
%%EndSetup
%%Page: 1 1
%%BeginPageSetup
%%PageBoundingBox: 0 0 384 384
%%EndPageSetup
q 0 0 384 384 rectclip
1 0 0 -1 0 384 cm q
0.501961 0.886275 0.615686 rg
384 192 m 384 251.016 357.367 303.824 315.465 339.039 c 296.762 354.766
 275.016 366.984 251.234 374.691 c 232.582 380.73 212.672 384 192 384 c 
171.324 384 151.418 380.73 132.758 374.684 c 127.32 372.922 121.996 370.926
 116.781 368.699 c 99.195 361.207 82.957 351.164 68.527 339.039 c 26.633
 303.816 0 251.016 0 192 c 0 85.965 85.965 0 192 0 c 298.035 0 384 85.965
 384 192 c h
384 192 m f
0.905882 0.647059 0.180392 rg
99.406 248.801 193.996 87.148 re f
0.737255 0.584314 0.886275 rg
298.809 351.57 m 289.551 357.781 279.727 363.211 269.422 367.746 c 261.434
 371.273 253.164 374.273 244.648 376.688 c 227.926 381.449 210.262 384 192
 384 c 173.746 384 156.082 381.449 139.352 376.695 c 133.922 375.148 128.578
 373.363 123.352 371.355 c 123.031 371.234 122.707 371.113 122.387 370.988
 c 119.754 369.969 117.148 368.879 114.578 367.746 c 104.273 363.203 94.449
 357.781 85.184 351.562 c 92.977 340.785 103.004 331.738 114.578 325.074
 c 122.227 320.672 130.551 317.316 139.352 315.211 c 140.707 314.879 142.078
 314.578 143.461 314.316 c 146.062 313.809 148.711 313.418 151.387 313.141
 c 152.16 313.059 152.926 312.984 153.703 312.922 c 156.238 312.711 158.805
 312.609 161.398 312.609 c 222.594 312.609 l 225.984 312.609 229.32 312.789
 232.605 313.133 c 235.281 313.41 237.922 313.809 240.531 314.301 c 241.574
 314.504 242.609 314.723 243.637 314.953 c 243.977 315.047 244.32 315.113
 244.648 315.203 c 253.453 317.316 261.773 320.672 269.422 325.074 c 280.996
 331.746 291.016 340.793 298.809 351.57 c h
298.809 351.57 m f
0.564706 0.847059 0.976471 rg
191.992 351.082 m 231.734 373.172 l 243.828 313.184 l 219.129 302.387 l
 f
0.576471 0.45098 0.72549 rg
161.398 312.609 m 139.379 312.609 124.453 344.43 123.352 371.355 c 123.031
 371.234 122.707 371.113 122.387 370.988 c 119.754 369.969 117.148 368.879
 114.578 367.746 c 104.273 363.203 94.449 357.781 85.184 351.562 c 92.977
 340.785 103.004 331.738 114.578 325.074 c 122.227 320.672 130.551 317.316
 139.352 315.211 c 140.707 314.879 142.078 314.578 143.461 314.316 c 146.062
 313.809 148.711 313.418 151.387 313.141 c 152.16 313.059 152.926 312.984
 153.703 312.922 c 156.238 312.711 158.805 312.609 161.398 312.609 c h
161.398 312.609 m f
0.564706 0.847059 0.976471 rg
191.992 351.082 m 152.246 373.172 l 140.152 313.184 l 164.852 302.387 l
 f
0.917647 0.67451 0.615686 rg
225.531 276.402 m 225.531 317.555 l 225.531 332.621 215.598 345.355 201.914
 349.586 c 198.781 350.559 195.441 351.082 191.992 351.082 c 173.473 351.082
 158.465 336.074 158.465 317.555 c 158.465 276.402 l h
225.531 276.402 m f
1 0.796078 0.745098 rg
225.531 314.949 m 225.531 317.555 l 225.531 332.621 215.598 345.355 201.914
 349.586 c 189.566 345.789 180.285 335.055 178.57 321.922 c 180.812 322.059
 183.062 322.129 185.328 322.129 c 191.672 322.129 197.891 321.625 203.949
 320.629 c 211.414 319.43 218.625 317.508 225.531 314.949 c h
225.531 314.949 m f
99.406 208.613 m 99.406 223.988 88.176 236.734 73.473 239.098 c 71.863 
239.359 70.211 239.496 68.523 239.496 c 51.465 239.496 37.641 225.672 37.641
 208.613 c 37.641 191.555 51.465 177.734 68.523 177.734 c 70.211 177.734
 71.863 177.867 73.473 178.129 c 88.176 180.496 99.406 193.242 99.406 208.613
 c h
99.406 208.613 m f
0.917647 0.67451 0.615686 rg
99.406 208.613 m 99.406 223.988 88.176 236.734 73.473 239.098 c 70.801 
229.387 69.371 219.164 69.371 208.613 c 69.371 198.066 70.801 187.844 73.473
 178.129 c 88.176 180.496 99.406 193.242 99.406 208.613 c h
99.406 208.613 m f
79.562 208.613 m 79.562 214.711 74.621 219.652 68.523 219.652 c 62.43 219.652
 57.488 214.711 57.488 208.613 c 57.488 202.52 62.43 197.578 68.523 197.578
 c 74.621 197.578 79.562 202.52 79.562 208.613 c h
79.562 208.613 m f
1 0.796078 0.745098 rg
284.586 208.613 m 284.586 223.988 295.816 236.734 310.52 239.098 c 312.129
 239.359 313.781 239.496 315.469 239.496 c 332.527 239.496 346.348 225.672
 346.348 208.613 c 346.348 191.555 332.527 177.734 315.469 177.734 c 313.781
 177.734 312.129 177.867 310.52 178.129 c 295.816 180.496 284.586 193.242
 284.586 208.613 c h
284.586 208.613 m f
0.917647 0.67451 0.615686 rg
284.586 208.613 m 284.586 223.988 295.816 236.734 310.52 239.098 c 313.191
 229.387 314.617 219.164 314.617 208.613 c 314.617 198.066 313.191 187.844
 310.52 178.129 c 295.816 180.496 284.586 193.242 284.586 208.613 c h
284.586 208.613 m f
326.504 208.613 m 326.504 214.711 321.562 219.652 315.469 219.652 c 309.371
 219.652 304.43 214.711 304.43 208.613 c 304.43 202.52 309.371 197.578 315.469
 197.578 c 321.562 197.578 326.504 202.52 326.504 208.613 c h
326.504 208.613 m f
1 0.796078 0.745098 rg
308.023 192.383 m 308.023 250.121 265.84 298.02 210.617 306.91 c 204.559
 307.906 198.34 308.41 191.996 308.41 c 127.914 308.41 75.969 256.469 75.969
 192.383 c 75.969 74.258 l 308.023 74.258 l h
308.023 192.383 m f
0.917647 0.67451 0.615686 rg
212.434 306.609 m 211.832 306.711 211.227 306.816 210.617 306.914 c 204.559
 307.906 198.34 308.406 191.996 308.406 c 127.914 308.406 75.969 256.469
 75.969 192.383 c 75.969 74.258 l 116.883 74.258 l 116.883 192.383 l 116.883
 249.488 158.117 296.941 212.434 306.609 c h
212.434 306.609 m f
270.195 222.371 m 270.195 230.277 263.789 236.684 255.887 236.684 c 247.98
 236.684 241.574 230.277 241.574 222.371 c 241.574 214.469 247.98 208.059
 255.887 208.059 c 263.789 208.059 270.195 214.469 270.195 222.371 c h
270.195 222.371 m f
142.414 222.371 m 142.414 230.277 136.008 236.684 128.105 236.684 c 120.199
 236.684 113.793 230.277 113.793 222.371 c 113.793 214.469 120.199 208.059
 128.105 208.059 c 136.008 208.059 142.414 214.469 142.414 222.371 c h
142.414 222.371 m f
205.031 223.441 m 178.965 223.441 l 175.859 223.441 173.344 220.926 173.344
 217.82 c 173.344 214.715 175.859 212.199 178.965 212.199 c 205.031 212.199
 l 208.137 212.199 210.656 214.715 210.656 217.82 c 210.656 220.926 208.137
 223.441 205.031 223.441 c h
205.031 223.441 m f
0.87451 0.576471 0.501961 rg
192 259.016 m 182.379 259.016 172.758 256.602 163.988 251.781 c 161.516
 250.422 160.609 247.316 161.973 244.84 c 163.332 242.367 166.438 241.465
 168.91 242.824 c 183.367 250.773 200.633 250.773 215.086 242.824 c 217.559
 241.465 220.668 242.367 222.027 244.84 c 223.387 247.316 222.484 250.422
 220.012 251.781 c 211.242 256.602 201.621 259.016 192 259.016 c h
192 259.016 m f
0.917647 0.67451 0.615686 rg
257.992 183.246 m 257.992 169.891 247.168 159.062 233.812 159.062 c 220.457
 159.062 209.629 169.891 209.629 183.246 c f
0.184314 0.215686 0.231373 rg
250.328 193.539 m 250.328 202.664 242.934 210.059 233.812 210.059 c 224.691
 210.059 217.297 202.664 217.297 193.539 c 217.297 184.418 224.691 177.023
 233.812 177.023 c 242.934 177.023 250.328 184.418 250.328 193.539 c h
250.328 193.539 m f
1 g
247.773 190.625 m 247.773 194.535 244.605 197.703 240.695 197.703 c 236.785
 197.703 233.617 194.535 233.617 190.625 c 233.617 186.719 236.785 183.547
 240.695 183.547 c 244.605 183.547 247.773 186.719 247.773 190.625 c h
247.773 190.625 m f
0.917647 0.67451 0.615686 rg
174.363 183.246 m 174.363 169.891 163.535 159.062 150.18 159.062 c 136.824
 159.062 125.996 169.891 125.996 183.246 c f
0.184314 0.215686 0.231373 rg
166.695 193.539 m 166.695 202.664 159.301 210.059 150.18 210.059 c 141.059
 210.059 133.664 202.664 133.664 193.539 c 133.664 184.418 141.059 177.023
 150.18 177.023 c 159.301 177.023 166.695 184.418 166.695 193.539 c h
166.695 193.539 m f
0.0941176 0.117647 0.129412 rg
153.906 209.633 m 152.707 209.918 151.461 210.059 150.18 210.059 c 141.059
 210.059 133.664 202.664 133.664 193.539 c 133.664 184.418 141.059 177.023
 150.18 177.023 c 151.461 177.023 152.707 177.172 153.906 177.449 c 146.57
 179.137 141.109 185.699 141.109 193.539 c 141.109 201.383 146.57 207.945
 153.906 209.633 c h
153.906 209.633 m f
237.539 209.633 m 236.336 209.918 235.094 210.059 233.809 210.059 c 224.691
 210.059 217.297 202.664 217.297 193.539 c 217.297 184.418 224.691 177.023
 233.809 177.023 c 235.094 177.023 236.336 177.172 237.539 177.449 c 230.203
 179.137 224.742 185.699 224.742 193.539 c 224.742 201.383 230.203 207.945
 237.539 209.633 c h
237.539 209.633 m f
1 g
164.141 190.625 m 164.141 194.535 160.973 197.703 157.062 197.703 c 153.152
 197.703 149.984 194.535 149.984 190.625 c 149.984 186.719 153.152 183.547
 157.062 183.547 c 160.973 183.547 164.141 186.719 164.141 190.625 c h
164.141 190.625 m f
0.905882 0.647059 0.180392 rg
191.992 84.594 m 191.992 89.094 190.836 93.516 188.773 97.906 c 171.652
 134.461 92.289 168.047 104.438 219.301 c 116.086 268.418 138.758 330.84
 132.758 374.684 c 108.977 366.977 87.234 354.758 68.527 339.039 c 68.527
 125.289 l 68.527 82.883 191.992 84.594 191.992 84.594 c h
191.992 84.594 m f
0.92549 0.764706 0.180392 rg
104.438 219.301 m 116.086 268.418 138.758 330.84 132.758 374.684 c 127.32
 372.922 121.996 370.926 116.781 368.699 c 124.461 341.879 114.922 296.934
 98.949 243.699 c 90.594 215.844 93.57 193.605 100.441 174.66 c 114.891 
134.812 148.184 106.059 187.738 98.109 c 188.773 97.906 l 171.652 134.461
 92.289 168.047 104.438 219.301 c h
104.438 219.301 m f
315.465 116.168 m 315.465 339.039 l 296.762 354.766 275.016 366.984 251.234
 374.691 c 245.234 330.848 267.906 268.418 279.555 219.301 c 293.16 161.902
 191.992 126.668 191.992 84.594 c 191.992 84.594 186.488 53.707 186.449 
31.727 c 186.426 19.582 315.465 73.762 315.465 116.168 c h
315.465 116.168 m f
0.737255 0.584314 0.886275 rg
68.523 52.344 246.945 72.941 re f
0.576471 0.45098 0.72549 rg
68.523 52.344 43.539 72.941 re f
68.523 52.344 246.945 25.656 re f
0.737255 0.584314 0.886275 rg
368.227 27.422 m 15.766 27.422 l 7.262 27.422 0.371 34.312 0.371 42.816
 c 0.371 51.316 7.262 58.211 15.766 58.211 c 368.227 58.211 l 376.73 58.211
 383.621 51.316 383.621 42.816 c 383.621 34.312 376.73 27.422 368.227 27.422
 c h
368.227 27.422 m f
0.576471 0.45098 0.72549 rg
73.887 53.707 m 76.668 56.488 80.523 58.211 84.77 58.211 c 15.77 58.211
 l 11.516 58.211 7.668 56.488 4.879 53.707 c 2.098 50.914 0.371 47.066 0.371
 42.816 c 0.371 34.316 7.266 27.426 15.77 27.426 c 84.77 27.426 l 76.27 
27.426 69.379 34.316 69.379 42.816 c 69.379 47.066 71.105 50.914 73.887 
53.707 c h
73.887 53.707 m f
0.92549 0.764706 0.180392 rg
379.09 160.594 m 379.09 145.148 366.566 119.125 351.121 119.125 c 335.672
 119.125 323.148 145.148 323.148 160.594 c 323.148 176.043 335.672 175.066
 351.121 175.066 c 366.566 175.066 379.09 176.043 379.09 160.594 c h
379.09 160.594 m f
0.905882 0.647059 0.180392 rg
341.281 160.594 m 341.281 173.652 344.434 174.977 348.68 175.074 c 334.375
 175.129 323.148 175.227 323.148 160.594 c 323.148 145.152 335.672 119.125
 351.117 119.125 c 345.684 119.125 341.281 145.152 341.281 160.594 c h
341.281 160.594 m f
0.92549 0.764706 0.180392 rg
372.215 102.324 m 372.215 113.977 362.77 123.422 351.121 123.422 c 339.469
 123.422 330.023 113.977 330.023 102.324 c 330.023 90.676 339.469 81.23 
351.121 81.23 c 362.77 81.23 372.215 90.676 372.215 102.324 c h
372.215 102.324 m f
351.121 107.949 m 348.012 107.949 345.496 105.434 345.496 102.324 c 345.496
 37.836 l 345.496 31.969 340.719 27.195 334.852 27.195 c 192 27.195 l 188.895
 27.195 186.375 24.676 186.375 21.57 c 186.375 18.465 188.895 15.945 192
 15.945 c 334.852 15.945 l 346.922 15.945 356.746 25.766 356.746 37.836 
c 356.746 102.324 l 356.746 105.434 354.227 107.949 351.121 107.949 c h
351.121 107.949 m f
0.905882 0.647059 0.180392 rg
358.246 122.184 m 356.02 122.988 353.617 123.422 351.121 123.422 c 339.465
 123.422 330.023 113.973 330.023 102.324 c 330.023 90.672 339.465 81.227
 351.121 81.227 c 353.617 81.227 356.02 81.664 358.246 82.465 c 350.102 
85.383 344.281 93.176 344.281 102.324 c 344.281 111.477 350.102 119.262 
358.246 122.184 c h
358.246 122.184 m f
Q Q
showpage
%%Trailer
end
%%EOF
