%!PS-Adobe-3.0 EPSF-3.0
%%Creator: cairo 1.16.0 (https://cairographics.org)
%%CreationDate: Thu Nov 14 08:46:40 2019
%%Pages: 1
%%DocumentData: Clean7Bit
%%LanguageLevel: 2
%%BoundingBox: 0 0 384 384
%%EndComments
%%BeginProlog
50 dict begin
/q { gsave } bind def
/Q { grestore } bind def
/cm { 6 array astore concat } bind def
/w { setlinewidth } bind def
/J { setlinecap } bind def
/j { setlinejoin } bind def
/M { setmiterlimit } bind def
/d { setdash } bind def
/m { moveto } bind def
/l { lineto } bind def
/c { curveto } bind def
/h { closepath } bind def
/re { exch dup neg 3 1 roll 5 3 roll moveto 0 rlineto
      0 exch rlineto 0 rlineto closepath } bind def
/S { stroke } bind def
/f { fill } bind def
/f* { eofill } bind def
/n { newpath } bind def
/W { clip } bind def
/W* { eoclip } bind def
/BT { } bind def
/ET { } bind def
/BDC { mark 3 1 roll /BDC pdfmark } bind def
/EMC { mark /EMC pdfmark } bind def
/cairo_store_point { /cairo_point_y exch def /cairo_point_x exch def } def
/Tj { show currentpoint cairo_store_point } bind def
/TJ {
  {
    dup
    type /stringtype eq
    { show } { -0.001 mul 0 cairo_font_matrix dtransform rmoveto } ifelse
  } forall
  currentpoint cairo_store_point
} bind def
/cairo_selectfont { cairo_font_matrix aload pop pop pop 0 0 6 array astore
    cairo_font exch selectfont cairo_point_x cairo_point_y moveto } bind def
/Tf { pop /cairo_font exch def /cairo_font_matrix where
      { pop cairo_selectfont } if } bind def
/Td { matrix translate cairo_font_matrix matrix concatmatrix dup
      /cairo_font_matrix exch def dup 4 get exch 5 get cairo_store_point
      /cairo_font where { pop cairo_selectfont } if } bind def
/Tm { 2 copy 8 2 roll 6 array astore /cairo_font_matrix exch def
      cairo_store_point /cairo_font where { pop cairo_selectfont } if } bind def
/g { setgray } bind def
/rg { setrgbcolor } bind def
/d1 { setcachedevice } bind def
/cairo_data_source {
  CairoDataIndex CairoData length lt
    { CairoData CairoDataIndex get /CairoDataIndex CairoDataIndex 1 add def }
    { () } ifelse
} def
/cairo_flush_ascii85_file { cairo_ascii85_file status { cairo_ascii85_file flushfile } if } def
/cairo_image { image cairo_flush_ascii85_file } def
/cairo_imagemask { imagemask cairo_flush_ascii85_file } def
%%EndProlog
%%BeginSetup
%%EndSetup
%%Page: 1 1
%%BeginPageSetup
%%PageBoundingBox: 0 0 384 384
%%EndPageSetup
q 0 0 384 384 rectclip
1 0 0 -1 0 384 cm q
0.737255 0.584314 0.886275 rg
384 192 m 384 222.352 376.949 251.062 364.41 276.586 c 360.211 285.137 
355.387 293.324 350.012 301.102 c 348.832 302.797 347.633 304.477 346.41
 306.129 c 343.004 310.734 339.398 315.18 335.602 319.449 c 334.191 321.039
 332.754 322.605 331.281 324.141 c 317.477 338.691 301.41 351.09 283.641
 360.75 c 279.977 362.754 276.234 364.629 272.422 366.391 c 268.785 368.07
 265.086 369.637 261.336 371.094 c 250.266 375.391 238.695 378.684 226.734
 380.859 c 223.305 381.496 219.84 382.027 216.344 382.469 c 208.371 383.484
 200.25 384 192 384 c 185.273 384 178.629 383.656 172.078 382.98 c 168.023
 382.559 164.012 382.02 160.035 381.352 c 155.949 380.672 151.914 379.852
 147.914 378.914 c 144.441 378.098 141 377.191 137.602 376.184 c 123.309
 371.969 109.711 366.137 97.012 358.883 c 93.891 357.105 90.824 355.246 
87.816 353.297 c 74.984 344.984 63.203 335.191 52.727 324.141 c 51.246 322.598
 49.809 321.031 48.398 319.441 c 45.914 316.648 43.516 313.785 41.203 310.844
 c 38.699 307.68 36.301 304.434 33.996 301.109 c 28.613 293.332 23.789 285.129
 19.59 276.57 c 7.043 251.055 0 222.352 0 192 c 0 161.648 7.043 132.945 
19.59 107.43 c 23.789 98.871 28.613 90.668 33.996 82.891 c 38.43 76.484 
43.238 70.363 48.398 64.559 c 83.566 24.953 134.871 0 192 0 c 249.129 0 
300.426 24.953 335.602 64.551 c 340.762 70.359 345.57 76.484 350.012 82.898
 c 355.387 90.676 360.211 98.863 364.41 107.414 c 376.949 132.938 384 161.648
 384 192 c h
384 192 m f
0.741176 0.329412 0.137255 rg
41.203 130.547 305.207 28.516 re f
0.85098 0.447059 0.243137 rg
41.203 130.547 305.207 14.258 re f
0.741176 0.329412 0.137255 rg
346.41 295.629 m 346.41 306.129 l 343.004 310.734 339.398 315.18 335.602
 319.449 c 334.191 321.039 332.754 322.605 331.281 324.141 c 52.727 324.141
 l 51.246 322.598 49.809 321.031 48.398 319.441 c 45.914 316.648 43.516 
313.785 41.203 310.844 c 41.203 295.629 l h
346.41 295.629 m f
0.85098 0.447059 0.243137 rg
337.789 309.887 m 41.203 309.887 l 41.203 295.629 l 346.41 295.629 l 346.41
 301.266 l 346.41 306.027 342.551 309.887 337.789 309.887 c h
337.789 309.887 m f
48.398 25.711 m 48.398 319.441 l 43.238 313.637 38.43 307.516 33.996 301.109
 c 28.613 293.332 23.789 285.129 19.59 276.57 c 19.59 25.711 l 19.59 17.754
 26.039 11.309 33.996 11.309 c 37.973 11.309 41.574 12.922 44.176 15.523
 c 46.785 18.137 48.398 21.734 48.398 25.711 c h
48.398 25.711 m f
0.741176 0.329412 0.137255 rg
41.203 13.238 m 36.891 15.727 33.996 20.387 33.996 25.711 c 33.996 301.109
 l 28.613 293.332 23.789 285.129 19.59 276.57 c 19.59 25.711 l 19.59 17.762
 26.047 11.316 33.996 11.316 c 36.629 11.316 39.082 12.016 41.203 13.238
 c h
41.203 13.238 m f
0.85098 0.447059 0.243137 rg
364.41 25.711 m 364.41 276.586 l 360.211 285.137 355.387 293.324 350.012
 301.102 c 345.57 307.516 340.762 313.641 335.602 319.449 c 335.602 25.711
 l 335.602 17.754 342.051 11.309 350.004 11.309 c 353.984 11.309 357.586
 12.922 360.188 15.523 c 362.797 18.137 364.41 21.734 364.41 25.711 c h
364.41 25.711 m f
0.741176 0.329412 0.137255 rg
357.211 13.238 m 352.906 15.727 350.012 20.387 350.012 25.711 c 350.012
 301.102 l 345.57 307.516 340.762 313.641 335.602 319.449 c 335.602 25.711
 l 335.602 17.762 342.059 11.316 350.012 11.316 c 352.641 11.316 355.094
 12.016 357.211 13.238 c h
357.211 13.238 m f
0.976471 0.239216 0.431373 rg
107.102 130.547 m 71.66 130.547 l 68.562 130.547 66.051 128.039 66.051 
124.941 c 66.051 5.609 l 66.051 2.512 68.562 0 71.66 0 c 107.102 0 l 110.199
 0 112.711 2.512 112.711 5.609 c 112.711 124.941 l 112.711 128.035 110.199
 130.547 107.102 130.547 c h
107.102 130.547 m f
0.894118 0.0901961 0.32549 rg
82.746 130.547 m 71.664 130.547 l 68.566 130.547 66.051 128.031 66.051 
124.934 c 66.051 5.609 l 66.051 2.512 68.566 0 71.664 0 c 82.746 0 l 79.648
 0 77.137 2.512 77.137 5.609 c 77.137 124.934 l 77.137 128.031 79.648 130.547
 82.746 130.547 c h
82.746 130.547 m f
0.92549 0.764706 0.180392 rg
66.051 15.945 46.66 11.477 re f
66.051 102.215 46.66 11.477 re f
0.905882 0.647059 0.180392 rg
66.051 15.945 11.086 11.477 re f
66.051 102.215 11.086 11.477 re f
0.976471 0.239216 0.431373 rg
189.414 130.547 m 178.328 130.547 l 175.23 130.547 172.719 128.039 172.719
 124.941 c 172.719 5.609 l 172.719 2.512 175.227 0 178.328 0 c 189.414 0
 l 192.512 0 195.023 2.512 195.023 5.609 c 195.023 124.941 l 195.023 128.035
 192.512 130.547 189.414 130.547 c h
189.414 130.547 m f
0.894118 0.0901961 0.32549 rg
189.414 130.547 m 178.328 130.547 l 175.23 130.547 172.719 128.031 172.719
 124.934 c 172.719 5.609 l 172.719 2.512 175.23 0 178.328 0 c 189.414 0 
l 186.316 0 183.801 2.512 183.801 5.609 c 183.801 124.934 l 183.801 128.031
 186.316 130.547 189.414 130.547 c h
189.414 130.547 m f
0.92549 0.764706 0.180392 rg
172.719 15.945 22.305 11.477 re f
172.719 102.215 22.305 11.477 re f
0.905882 0.647059 0.180392 rg
172.719 15.945 11.082 11.477 re f
172.719 102.215 11.082 11.477 re f
0.976471 0.239216 0.431373 rg
283.641 339.336 m 283.641 360.75 l 279.977 362.754 276.234 364.629 272.422
 366.391 c 268.785 368.07 265.086 369.637 261.336 371.094 c 261.336 339.336
 l 261.336 336.238 263.852 333.727 266.949 333.727 c 278.031 333.727 l 281.129
 333.727 283.641 336.238 283.641 339.336 c h
283.641 339.336 m f
0.894118 0.0901961 0.32549 rg
278.031 333.727 m 274.934 333.727 272.422 336.238 272.422 339.336 c 272.422
 366.391 l 268.785 368.07 265.086 369.637 261.336 371.094 c 261.336 339.336
 l 261.336 336.238 263.852 333.727 266.949 333.727 c h
278.031 333.727 m f
0.92549 0.764706 0.180392 rg
261.336 349.672 22.305 11.477 re f
0.905882 0.647059 0.180392 rg
261.336 349.672 11.086 11.477 re f
0.976471 0.239216 0.431373 rg
136.078 296.168 m 124.996 296.168 l 121.898 296.168 119.387 293.656 119.387
 290.559 c 119.387 171.23 l 119.387 168.133 121.895 165.621 124.996 165.621
 c 136.078 165.621 l 139.176 165.621 141.688 168.133 141.688 171.23 c 141.688
 290.559 l 141.688 293.656 139.18 296.168 136.078 296.168 c h
136.078 296.168 m f
0.894118 0.0901961 0.32549 rg
136.078 296.164 m 124.996 296.164 l 121.898 296.164 119.387 293.652 119.387
 290.555 c 119.387 171.23 l 119.387 168.133 121.898 165.621 124.996 165.621
 c 136.078 165.621 l 132.984 165.621 130.469 168.133 130.469 171.23 c 130.469
 290.555 l 130.469 293.652 132.984 296.164 136.078 296.164 c h
136.078 296.164 m f
0.92549 0.764706 0.180392 rg
119.387 181.566 22.301 11.477 re f
119.387 267.832 22.301 11.477 re f
0.905882 0.647059 0.180392 rg
119.387 181.566 11.082 11.477 re f
119.387 267.832 11.082 11.477 re f
0.976471 0.239216 0.431373 rg
158.383 296.168 m 147.297 296.168 l 144.199 296.168 141.688 293.656 141.688
 290.559 c 141.688 171.23 l 141.688 168.133 144.199 165.621 147.297 165.621
 c 158.383 165.621 l 161.48 165.621 163.992 168.133 163.992 171.23 c 163.992
 290.559 l 163.992 293.656 161.48 296.168 158.383 296.168 c h
158.383 296.168 m f
0.894118 0.0901961 0.32549 rg
158.383 296.164 m 147.301 296.164 l 144.203 296.164 141.688 293.652 141.688
 290.555 c 141.688 171.23 l 141.688 168.133 144.203 165.621 147.301 165.621
 c 158.383 165.621 l 155.285 165.621 152.773 168.133 152.773 171.23 c 152.773
 290.555 l 152.773 293.652 155.285 296.164 158.383 296.164 c h
158.383 296.164 m f
0.92549 0.764706 0.180392 rg
141.688 181.566 22.305 11.477 re f
141.688 267.832 22.305 11.477 re f
0.905882 0.647059 0.180392 rg
141.688 181.566 11.086 11.477 re f
141.688 267.832 11.086 11.477 re f
0.976471 0.239216 0.431373 rg
180.688 296.168 m 169.602 296.168 l 166.504 296.168 163.992 293.656 163.992
 290.559 c 163.992 171.23 l 163.992 168.133 166.504 165.621 169.602 165.621
 c 180.688 165.621 l 183.785 165.621 186.297 168.133 186.297 171.23 c 186.297
 290.559 l 186.297 293.656 183.785 296.168 180.688 296.168 c h
180.688 296.168 m f
0.894118 0.0901961 0.32549 rg
180.688 296.164 m 169.602 296.164 l 166.508 296.164 163.992 293.652 163.992
 290.555 c 163.992 171.23 l 163.992 168.133 166.508 165.621 169.602 165.621
 c 180.688 165.621 l 177.59 165.621 175.078 168.133 175.078 171.23 c 175.078
 290.555 l 175.078 293.652 177.59 296.164 180.688 296.164 c h
180.688 296.164 m f
0.92549 0.764706 0.180392 rg
163.992 181.566 22.305 11.477 re f
163.992 267.832 22.305 11.477 re f
0.905882 0.647059 0.180392 rg
163.992 181.566 11.086 11.477 re f
163.992 267.832 11.086 11.477 re f
0.976471 0.239216 0.431373 rg
202.992 296.168 m 191.906 296.168 l 188.809 296.168 186.297 293.656 186.297
 290.559 c 186.297 171.23 l 186.297 168.133 188.809 165.621 191.906 165.621
 c 202.992 165.621 l 206.09 165.621 208.602 168.133 208.602 171.23 c 208.602
 290.559 l 208.602 293.656 206.09 296.168 202.992 296.168 c h
202.992 296.168 m f
0.894118 0.0901961 0.32549 rg
202.992 296.164 m 191.906 296.164 l 188.809 296.164 186.297 293.652 186.297
 290.555 c 186.297 171.23 l 186.297 168.133 188.809 165.621 191.906 165.621
 c 202.992 165.621 l 199.895 165.621 197.383 168.133 197.383 171.23 c 197.383
 290.555 l 197.383 293.652 199.895 296.164 202.992 296.164 c h
202.992 296.164 m f
0.92549 0.764706 0.180392 rg
186.297 181.566 22.305 11.477 re f
186.297 267.832 22.305 11.477 re f
0.905882 0.647059 0.180392 rg
186.297 181.566 11.086 11.477 re f
186.297 267.832 11.086 11.477 re f
0.92549 0.764706 0.180392 rg
289.086 127.512 m 278.371 130.371 l 275.379 131.168 272.305 129.387 271.508
 126.395 c 240.77 11.094 l 239.973 8.098 241.75 5.027 244.742 4.227 c 255.457
 1.371 l 258.449 0.574 261.523 2.352 262.32 5.348 c 293.059 120.648 l 293.859
 123.645 292.078 126.715 289.086 127.512 c h
289.086 127.512 m f
0.905882 0.647059 0.180392 rg
289.082 127.512 m 278.371 130.367 l 275.379 131.164 272.305 129.383 271.508
 126.391 c 240.77 11.094 l 239.973 8.098 241.75 5.023 244.746 4.227 c 255.457
 1.371 l 252.461 2.168 250.68 5.246 251.48 8.238 c 282.219 123.535 l 283.016
 126.527 286.09 128.309 289.082 127.512 c h
289.082 127.512 m f
0.564706 0.847059 0.976471 rg
243.375 20.977 m 264.922 15.223 l 267.883 26.309 l 246.336 32.062 l h
243.375 20.977 m f
265.625 104.305 m 287.172 98.547 l 290.133 109.637 l 268.586 115.391 l 
h
265.625 104.305 m f
0.380392 0.635294 0.976471 rg
243.379 20.977 m 254.086 18.117 l 257.047 29.203 l 246.34 32.062 l h
243.379 20.977 m f
265.629 104.301 m 276.336 101.441 l 279.297 112.527 l 268.59 115.387 l 
h
265.629 104.301 m f
0.92549 0.764706 0.180392 rg
172.078 382.98 m 163.859 382.133 155.797 380.766 147.914 378.914 c 137.852
 341.152 l 137.047 338.16 138.832 335.086 141.824 334.289 c 152.535 331.434
 l 155.527 330.637 158.602 332.414 159.398 335.406 c h
172.078 382.98 m f
0.905882 0.647059 0.180392 rg
160.035 381.352 m 155.949 380.672 151.914 379.852 147.914 378.914 c 137.852
 341.152 l 137.047 338.16 138.832 335.086 141.824 334.289 c 152.535 331.434
 l 149.543 332.227 147.758 335.301 148.559 338.297 c h
160.035 381.352 m f
0.564706 0.847059 0.976471 rg
140.613 350.996 m 162.16 345.242 l 165.121 356.328 l 143.574 362.082 l 
h
140.613 350.996 m f
0.380392 0.635294 0.976471 rg
140.613 350.996 m 151.324 348.133 l 154.285 359.219 l 143.574 362.082 l
 h
140.613 350.996 m f
0.184314 0.215686 0.231373 rg
167.109 130.547 m 118.32 130.547 l 115.223 130.547 112.711 128.039 112.711
 124.941 c 112.711 5.609 l 112.711 2.512 115.223 0 118.32 0 c 167.109 0 
l 170.207 0 172.719 2.512 172.719 5.609 c 172.719 124.941 l 172.719 128.035
 170.207 130.547 167.109 130.547 c h
167.109 130.547 m f
0.0941176 0.117647 0.129412 rg
129.406 130.547 m 118.32 130.547 l 115.223 130.547 112.711 128.031 112.711
 124.934 c 112.711 5.609 l 112.711 2.512 115.223 0 118.32 0 c 129.406 0 
l 126.309 0 123.797 2.512 123.797 5.609 c 123.797 124.934 l 123.797 128.031
 126.309 130.547 129.406 130.547 c h
129.406 130.547 m f
0.964706 0.945098 0.945098 rg
112.711 15.945 60.008 11.477 re f
112.711 102.215 60.008 11.477 re f
0.87451 0.917647 0.937255 rg
112.711 15.945 11.086 11.477 re f
112.711 102.215 11.086 11.477 re f
0.92549 0.764706 0.180392 rg
113.777 296.168 m 64.988 296.168 l 61.891 296.168 59.379 293.656 59.379
 290.559 c 59.379 171.23 l 59.379 168.133 61.891 165.621 64.988 165.621 
c 113.777 165.621 l 116.875 165.621 119.387 168.133 119.387 171.23 c 119.387
 290.559 l 119.387 293.656 116.875 296.168 113.777 296.168 c h
113.777 296.168 m f
0.905882 0.647059 0.180392 rg
76.074 296.164 m 64.988 296.164 l 61.891 296.164 59.379 293.652 59.379 
290.555 c 59.379 171.23 l 59.379 168.133 61.891 165.621 64.988 165.621 c
 76.074 165.621 l 72.977 165.621 70.465 168.133 70.465 171.23 c 70.465 290.555
 l 70.465 293.652 72.977 296.164 76.074 296.164 c h
76.074 296.164 m f
0.976471 0.239216 0.431373 rg
59.379 181.566 60.008 11.477 re f
59.379 267.832 60.008 11.477 re f
0.894118 0.0901961 0.32549 rg
59.379 181.566 11.086 11.477 re f
59.379 267.832 11.086 11.477 re f
0.564706 0.847059 0.976471 rg
240.156 130.547 m 199.676 130.547 l 197.105 130.547 195.023 128.465 195.023
 125.895 c 195.023 26.883 l 195.023 24.312 197.105 22.23 199.676 22.23 c
 240.156 22.23 l 242.727 22.23 244.809 24.312 244.809 26.883 c 244.809 125.895
 l 244.809 128.465 242.727 130.547 240.156 130.547 c h
240.156 130.547 m f
0.380392 0.635294 0.976471 rg
208.875 130.547 m 199.676 130.547 l 197.105 130.547 195.023 128.461 195.023
 125.891 c 195.023 26.883 l 195.023 24.312 197.109 22.23 199.676 22.23 c
 208.875 22.23 l 206.305 22.23 204.219 24.312 204.219 26.883 c 204.219 125.891
 l 204.219 128.461 206.305 130.547 208.875 130.547 c h
208.875 130.547 m f
0.184314 0.215686 0.231373 rg
195.023 35.461 49.785 9.52 re f
195.023 107.035 49.785 9.523 re f
0.0941176 0.117647 0.129412 rg
195.023 35.461 9.195 9.52 re f
195.023 107.035 9.195 9.523 re f
0.501961 0.886275 0.615686 rg
253.734 296.168 m 213.254 296.168 l 210.684 296.168 208.602 294.086 208.602
 291.516 c 208.602 192.504 l 208.602 189.934 210.684 187.852 213.254 187.852
 c 253.734 187.852 l 256.305 187.852 258.391 189.934 258.391 192.504 c 258.391
 291.516 l 258.391 294.086 256.305 296.168 253.734 296.168 c h
253.734 296.168 m f
0.4 0.705882 0.615686 rg
222.453 296.164 m 213.254 296.164 l 210.684 296.164 208.602 294.082 208.602
 291.512 c 208.602 192.504 l 208.602 189.934 210.688 187.852 213.254 187.852
 c 222.453 187.852 l 219.883 187.852 217.797 189.934 217.797 192.504 c 217.797
 291.512 l 217.797 294.082 219.883 296.164 222.453 296.164 c h
222.453 296.164 m f
0.92549 0.764706 0.180392 rg
208.602 201.082 49.789 9.52 re f
208.602 272.656 49.789 9.523 re f
0.905882 0.647059 0.180392 rg
208.602 201.082 9.195 9.52 re f
208.602 272.656 9.195 9.523 re f
0.501961 0.886275 0.615686 rg
137.602 334.492 m 137.602 376.184 l 119.797 370.934 103.066 363.164 87.816
 353.297 c 87.816 334.492 l 87.816 331.926 89.902 329.844 92.477 329.844
 c 132.953 329.844 l 135.523 329.844 137.602 331.926 137.602 334.492 c h
137.602 334.492 m f
0.4 0.705882 0.615686 rg
101.672 329.844 m 99.098 329.844 97.012 331.926 97.012 334.492 c 97.012
 358.883 l 93.891 357.105 90.824 355.246 87.816 353.297 c 87.816 334.492
 l 87.816 331.926 89.902 329.844 92.477 329.844 c h
101.672 329.844 m f
0.92549 0.764706 0.180392 rg
87.816 343.07 49.789 9.523 re f
0.905882 0.647059 0.180392 rg
87.816 343.07 9.199 9.523 re f
0.564706 0.847059 0.976471 rg
330.391 296.168 m 295.914 296.168 l 293.012 296.168 290.656 293.816 290.656
 290.91 c 290.656 179.066 l 290.656 176.164 293.012 173.809 295.914 173.809
 c 330.391 173.809 l 333.297 173.809 335.648 176.164 335.648 179.066 c 335.648
 290.91 l 335.648 293.816 333.297 296.168 330.391 296.168 c h
330.391 296.168 m f
0.380392 0.635294 0.976471 rg
306.305 296.164 m 295.914 296.164 l 293.012 296.164 290.656 293.809 290.656
 290.906 c 290.656 179.066 l 290.656 176.164 293.012 173.809 295.914 173.809
 c 306.305 173.809 l 303.402 173.809 301.047 176.164 301.047 179.066 c 301.047
 290.906 l 301.047 293.809 303.402 296.164 306.305 296.164 c h
306.305 296.164 m f
0.976471 0.239216 0.431373 rg
290.656 188.754 44.992 10.758 re f
290.656 269.609 44.992 10.758 re f
0.894118 0.0901961 0.32549 rg
290.656 188.754 10.391 10.758 re f
290.656 269.609 10.391 10.758 re f
0.85098 0.447059 0.243137 rg
261.336 351.016 m 261.336 371.094 l 247.086 376.621 232.012 380.488 216.344
 382.469 c 216.344 351.016 l 216.344 348.113 218.699 345.758 221.602 345.758
 c 256.078 345.758 l 258.984 345.758 261.336 348.113 261.336 351.016 c h
261.336 351.016 m f
0.741176 0.329412 0.137255 rg
231.988 345.758 m 229.086 345.758 226.734 348.113 226.734 351.016 c 226.734
 380.859 l 223.305 381.496 219.84 382.027 216.344 382.469 c 216.344 351.016
 l 216.344 348.113 218.699 345.758 221.602 345.758 c h
231.988 345.758 m f
0.564706 0.847059 0.976471 rg
216.344 360.703 44.992 10.758 re f
0.380392 0.635294 0.976471 rg
216.344 360.703 10.391 10.758 re f
Q Q
showpage
%%Trailer
end
%%EOF
