%!PS-Adobe-3.0 EPSF-3.0
%%Creator: cairo 1.16.0 (https://cairographics.org)
%%CreationDate: Thu Nov 14 08:46:41 2019
%%Pages: 1
%%DocumentData: Clean7Bit
%%LanguageLevel: 2
%%BoundingBox: 0 0 384 384
%%EndComments
%%BeginProlog
50 dict begin
/q { gsave } bind def
/Q { grestore } bind def
/cm { 6 array astore concat } bind def
/w { setlinewidth } bind def
/J { setlinecap } bind def
/j { setlinejoin } bind def
/M { setmiterlimit } bind def
/d { setdash } bind def
/m { moveto } bind def
/l { lineto } bind def
/c { curveto } bind def
/h { closepath } bind def
/re { exch dup neg 3 1 roll 5 3 roll moveto 0 rlineto
      0 exch rlineto 0 rlineto closepath } bind def
/S { stroke } bind def
/f { fill } bind def
/f* { eofill } bind def
/n { newpath } bind def
/W { clip } bind def
/W* { eoclip } bind def
/BT { } bind def
/ET { } bind def
/BDC { mark 3 1 roll /BDC pdfmark } bind def
/EMC { mark /EMC pdfmark } bind def
/cairo_store_point { /cairo_point_y exch def /cairo_point_x exch def } def
/Tj { show currentpoint cairo_store_point } bind def
/TJ {
  {
    dup
    type /stringtype eq
    { show } { -0.001 mul 0 cairo_font_matrix dtransform rmoveto } ifelse
  } forall
  currentpoint cairo_store_point
} bind def
/cairo_selectfont { cairo_font_matrix aload pop pop pop 0 0 6 array astore
    cairo_font exch selectfont cairo_point_x cairo_point_y moveto } bind def
/Tf { pop /cairo_font exch def /cairo_font_matrix where
      { pop cairo_selectfont } if } bind def
/Td { matrix translate cairo_font_matrix matrix concatmatrix dup
      /cairo_font_matrix exch def dup 4 get exch 5 get cairo_store_point
      /cairo_font where { pop cairo_selectfont } if } bind def
/Tm { 2 copy 8 2 roll 6 array astore /cairo_font_matrix exch def
      cairo_store_point /cairo_font where { pop cairo_selectfont } if } bind def
/g { setgray } bind def
/rg { setrgbcolor } bind def
/d1 { setcachedevice } bind def
/cairo_data_source {
  CairoDataIndex CairoData length lt
    { CairoData CairoDataIndex get /CairoDataIndex CairoDataIndex 1 add def }
    { () } ifelse
} def
/cairo_flush_ascii85_file { cairo_ascii85_file status { cairo_ascii85_file flushfile } if } def
/cairo_image { image cairo_flush_ascii85_file } def
/cairo_imagemask { imagemask cairo_flush_ascii85_file } def
%%EndProlog
%%BeginSetup
%%EndSetup
%%Page: 1 1
%%BeginPageSetup
%%PageBoundingBox: 0 0 384 384
%%EndPageSetup
q 0 0 384 384 rectclip
1 0 0 -1 0 384 cm q
0.501961 0.886275 0.615686 rg
384 192 m 384 256.164 352.523 312.977 304.176 347.836 c 272.617 370.59 
233.871 384 192 384 c 165.309 384 139.883 378.547 116.789 368.699 c 107.109
 364.582 97.828 359.684 89.047 354.082 c 81.668 349.395 74.625 344.211 67.98
 338.578 c 67.98 338.578 67.973 338.578 67.973 338.574 c 26.391 303.352 
0 250.754 0 192 c 0 85.965 85.965 0 192 0 c 207.488 0 222.555 1.836 236.977
 5.301 c 321.316 25.547 384 101.453 384 192 c h
384 192 m f
0.85098 0.447059 0.243137 rg
141.113 239.723 m 141.113 286.703 132.262 330.742 116.789 368.699 c 98.969
 361.117 82.539 350.91 67.973 338.574 c 59.062 308.121 54.141 274.738 54.141
 239.723 c 54.141 218.281 55.996 197.453 59.477 177.531 c 102.098 161.82
 l 135.789 177.531 l 139.266 197.453 141.113 218.281 141.113 239.723 c h
141.113 239.723 m f
0.741176 0.329412 0.137255 rg
89.047 354.082 m 81.668 349.395 74.625 344.211 67.98 338.578 c 67.98 338.578
 67.973 338.578 67.973 338.574 c 59.062 308.121 54.141 274.738 54.141 239.723
 c 54.141 218.281 55.988 197.453 59.469 177.531 c 84.359 177.531 l 83.145
 197.453 82.508 218.281 82.508 239.73 c 82.508 280.793 84.863 319.613 89.047
 354.082 c h
89.047 354.082 m f
0.184314 0.215686 0.231373 rg
120.59 123.832 m 89 143.316 l 78.5 129.086 l 74.629 123.832 l 65.629 114.836
 58.785 101.652 55.789 86.543 c 50.672 60.797 56.727 29.477 82.379 3.816
 c 87.582 -1.379 96.469 2.25 96.684 9.605 c 97.055 22.285 99.844 37.371 
110.578 40.809 c 116.324 42.652 122.332 47.652 127.09 54.711 c 127.09 54.719
 127.098 54.727 127.105 54.734 c 138.262 71.309 142.543 99.168 120.59 123.832
 c h
120.59 123.832 m f
0.964706 0.945098 0.945098 rg
120.594 123.832 m 74.629 123.832 l 59.469 177.535 l 135.754 177.535 l h
120.594 123.832 m f
0.0941176 0.117647 0.129412 rg
88.227 123.832 m 78.496 129.082 l 74.625 123.832 l 65.629 114.836 58.785
 101.648 55.789 86.543 c 50.672 60.797 56.727 29.477 82.379 3.816 c 87.582
 -1.379 96.469 2.246 96.684 9.605 c 59.668 53.156 82.836 109.402 88.227 
123.832 c h
88.227 123.832 m f
0.87451 0.917647 0.937255 rg
84.355 177.531 m 88.227 123.832 l 74.629 123.832 l 59.469 177.535 l h
84.355 177.531 m f
0.976471 0.239216 0.431373 rg
97.629 72.348 m 86.684 66.945 82.086 71.574 76.496 76.938 c 71.773 81.48
 66.34 86.543 55.789 86.543 c 50.672 60.797 56.727 29.477 82.379 3.816 c
 87.473 -1.27 96.098 2.098 96.66 9.148 c 96.676 9.312 96.676 9.461 96.684
 9.605 c 97.055 22.285 99.844 37.367 110.578 40.809 c 116.324 42.652 122.332
 47.652 127.09 54.707 c 127.09 54.719 127.098 54.723 127.105 54.734 c 133.703
 68.562 117.809 82.301 97.629 72.348 c h
97.629 72.348 m f
0.894118 0.0901961 0.32549 rg
76.496 76.938 m 71.773 81.48 66.34 86.543 55.789 86.543 c 50.672 60.797
 56.727 29.477 82.379 3.816 c 87.473 -1.27 96.098 2.098 96.66 9.148 c 96.676
 9.312 96.676 9.461 96.684 9.605 c 78.379 31.141 74.793 55.789 76.496 76.938
 c h
76.496 76.938 m f
0.964706 0.945098 0.945098 rg
384 192 m 384 207.684 382.117 222.914 378.578 237.504 c 372.609 233.641
 365.488 231.398 357.848 231.398 c 336.742 231.398 319.637 248.504 319.637
 269.609 c 319.637 286.738 330.898 301.238 346.434 306.09 c 334.598 322.094
 320.324 336.188 304.176 347.836 c 334.215 238.922 169.844 313.016 151.801
 181.566 c 137.363 76.387 183.816 21.684 236.977 5.301 c 252.496 9.031 267.277
 14.633 281.07 21.871 c 282.137 22.434 283.191 22.996 284.242 23.574 c 288.414
 25.859 292.484 28.297 296.461 30.887 c 309.047 39.059 320.617 48.676 330.938
 59.488 c 331.141 59.699 331.344 59.91 331.539 60.129 c 335.625 64.453 339.516
 68.969 343.184 73.656 c 368.762 106.262 384 147.352 384 192 c h
384 192 m f
0.87451 0.917647 0.937255 rg
291.863 192 m 291.863 219.602 269.488 241.977 241.887 241.977 c 214.285
 241.977 191.906 219.602 191.906 192 c 191.906 164.398 214.285 142.023 241.887
 142.023 c 269.488 142.023 291.863 164.398 291.863 192 c h
291.863 192 m f
0.976471 0.239216 0.431373 rg
280.098 192 m 280.098 213.102 262.988 230.211 241.887 230.211 c 220.781
 230.211 203.676 213.102 203.676 192 c 203.676 170.898 220.781 153.789 241.887
 153.789 c 262.988 153.789 280.098 170.898 280.098 192 c h
280.098 192 m f
0.894118 0.0901961 0.32549 rg
245.527 172.727 m 245.492 172.691 245.461 172.66 245.426 172.625 c 242.438
 169.668 245.242 164.621 249.289 165.758 c 253.637 166.98 257.742 169.305
 261.164 172.727 c 271.812 183.367 271.812 200.633 261.164 211.277 c 257.742
 214.699 253.637 217.02 249.289 218.242 c 245.242 219.379 242.438 214.332
 245.426 211.375 c 245.461 211.34 245.492 211.309 245.527 211.277 c 256.176
 200.633 256.176 183.367 245.527 172.727 c h
245.527 172.727 m f
0.87451 0.917647 0.937255 rg
291.863 86.543 m 291.863 114.145 269.488 136.52 241.887 136.52 c 214.285
 136.52 191.906 114.145 191.906 86.543 c 191.906 58.938 214.285 36.562 241.887
 36.562 c 269.488 36.562 291.863 58.938 291.863 86.543 c h
291.863 86.543 m f
343.184 73.656 m 339.27 74.648 335.16 75.172 330.938 75.172 c 303.336 75.172
 280.957 52.801 280.957 25.199 c 280.957 24.082 280.996 22.973 281.07 21.871
 c 282.137 22.434 283.191 22.996 284.242 23.574 c 288.414 25.859 292.484
 28.297 296.461 30.887 c 309.047 39.059 320.617 48.676 330.938 59.488 c 
331.141 59.699 331.344 59.91 331.539 60.129 c 335.625 64.453 339.516 68.969
 343.184 73.656 c h
343.184 73.656 m f
0.92549 0.764706 0.180392 rg
331.539 60.129 m 331.344 60.137 331.141 60.137 330.938 60.137 c 313.574
 60.137 299.176 47.484 296.461 30.887 c 309.047 39.059 320.617 48.676 330.938
 59.488 c 331.141 59.699 331.344 59.91 331.539 60.129 c h
331.539 60.129 m f
0.564706 0.847059 0.976471 rg
280.098 86.543 m 280.098 107.645 262.988 124.754 241.887 124.754 c 220.781
 124.754 203.676 107.645 203.676 86.543 c 203.676 65.438 220.781 48.332 
241.887 48.332 c 262.988 48.332 280.098 65.438 280.098 86.543 c h
280.098 86.543 m f
0.380392 0.635294 0.976471 rg
245.527 67.266 m 245.492 67.234 245.461 67.203 245.426 67.168 c 242.438
 64.211 245.242 59.164 249.289 60.301 c 253.637 61.523 257.742 63.844 261.164
 67.266 c 271.812 77.91 271.812 95.176 261.164 105.816 c 257.742 109.238
 253.637 111.562 249.289 112.785 c 245.242 113.922 242.438 108.875 245.426
 105.918 c 245.461 105.883 245.492 105.852 245.527 105.816 c 256.176 95.176
 256.176 77.91 245.527 67.266 c h
245.527 67.266 m f
Q Q
showpage
%%Trailer
end
%%EOF
