%!PS-Adobe-3.0 EPSF-3.0
%%Creator: cairo 1.16.0 (https://cairographics.org)
%%CreationDate: Thu Nov 14 08:46:41 2019
%%Pages: 1
%%DocumentData: Clean7Bit
%%LanguageLevel: 2
%%BoundingBox: 0 0 384 384
%%EndComments
%%BeginProlog
50 dict begin
/q { gsave } bind def
/Q { grestore } bind def
/cm { 6 array astore concat } bind def
/w { setlinewidth } bind def
/J { setlinecap } bind def
/j { setlinejoin } bind def
/M { setmiterlimit } bind def
/d { setdash } bind def
/m { moveto } bind def
/l { lineto } bind def
/c { curveto } bind def
/h { closepath } bind def
/re { exch dup neg 3 1 roll 5 3 roll moveto 0 rlineto
      0 exch rlineto 0 rlineto closepath } bind def
/S { stroke } bind def
/f { fill } bind def
/f* { eofill } bind def
/n { newpath } bind def
/W { clip } bind def
/W* { eoclip } bind def
/BT { } bind def
/ET { } bind def
/BDC { mark 3 1 roll /BDC pdfmark } bind def
/EMC { mark /EMC pdfmark } bind def
/cairo_store_point { /cairo_point_y exch def /cairo_point_x exch def } def
/Tj { show currentpoint cairo_store_point } bind def
/TJ {
  {
    dup
    type /stringtype eq
    { show } { -0.001 mul 0 cairo_font_matrix dtransform rmoveto } ifelse
  } forall
  currentpoint cairo_store_point
} bind def
/cairo_selectfont { cairo_font_matrix aload pop pop pop 0 0 6 array astore
    cairo_font exch selectfont cairo_point_x cairo_point_y moveto } bind def
/Tf { pop /cairo_font exch def /cairo_font_matrix where
      { pop cairo_selectfont } if } bind def
/Td { matrix translate cairo_font_matrix matrix concatmatrix dup
      /cairo_font_matrix exch def dup 4 get exch 5 get cairo_store_point
      /cairo_font where { pop cairo_selectfont } if } bind def
/Tm { 2 copy 8 2 roll 6 array astore /cairo_font_matrix exch def
      cairo_store_point /cairo_font where { pop cairo_selectfont } if } bind def
/g { setgray } bind def
/rg { setrgbcolor } bind def
/d1 { setcachedevice } bind def
/cairo_data_source {
  CairoDataIndex CairoData length lt
    { CairoData CairoDataIndex get /CairoDataIndex CairoDataIndex 1 add def }
    { () } ifelse
} def
/cairo_flush_ascii85_file { cairo_ascii85_file status { cairo_ascii85_file flushfile } if } def
/cairo_image { image cairo_flush_ascii85_file } def
/cairo_imagemask { imagemask cairo_flush_ascii85_file } def
%%EndProlog
%%BeginSetup
%%EndSetup
%%Page: 1 1
%%BeginPageSetup
%%PageBoundingBox: 0 0 384 384
%%EndPageSetup
q 0 0 384 384 rectclip
1 0 0 -1 0 384 cm q
0.737255 0.584314 0.886275 rg
384 192 m 384 233.297 370.957 271.547 348.781 302.859 c 321.383 341.543
 280.02 369.637 232.043 379.816 c 219.129 382.559 205.734 384 192 384 c 
190.453 384 188.91 383.984 187.371 383.941 c 166.785 383.461 147 379.727
 128.504 373.246 c 106.762 365.633 86.812 354.219 69.449 339.797 c 54.668
 327.531 41.762 313.094 31.215 296.961 c 31.133 296.844 31.051 296.715 30.969
 296.586 c 27.211 290.82 23.754 284.836 20.633 278.664 c 19.223 275.871 
17.879 273.047 16.605 270.188 c 14.676 265.883 12.906 261.488 11.297 257.016
 c 10.965 256.094 10.637 255.172 10.32 254.242 c 9.359 251.438 8.461 248.609
 7.629 245.746 c 7.629 245.738 l 6.246 241.004 5.047 236.191 4.043 231.309
 c 1.641 219.816 0.277 207.953 0.039 195.809 c 0.039 195.801 0.039 195.801
 0.039 195.801 c 0.016 194.535 0 193.273 0 192 c 0 85.965 85.965 0 192 0
 c 249.801 0 301.641 25.547 336.84 65.961 c 345.449 75.848 353.062 86.617
 359.52 98.121 c 375.113 125.879 384 157.906 384 192 c h
384 192 m f
0.564706 0.847059 0.976471 rg
361.207 65.961 m 359.52 98.121 l 359.461 99.27 l 353.859 206.062 l 349.477
 289.531 l 348.781 302.859 l 321.383 341.543 280.02 369.637 232.043 379.816
 c 219.129 382.559 205.734 384 192 384 c 190.453 384 188.91 383.984 187.371
 383.941 c 166.785 383.461 147 379.727 128.504 373.246 c 112.379 65.961 
l h
361.207 65.961 m f
0.380392 0.635294 0.976471 rg
361.207 65.961 m 359.52 98.121 l 359.461 99.27 l 193.77 99.27 l 182.184
 99.27 172.957 108.988 173.566 120.562 c 187.371 383.941 l 166.785 383.461
 147 379.727 128.504 373.246 c 112.379 65.961 l h
361.207 65.961 m f
0.964706 0.945098 0.945098 rg
344.371 60.172 m 129.211 60.172 l 123.684 60.172 119.391 55.344 120.051
 49.852 c 122.738 27.262 l 122.887 26.004 l 123.441 21.359 127.379 17.863
 132.051 17.863 c 341.527 17.863 l 346.199 17.863 350.137 21.359 350.691
 26.004 c 350.844 27.262 l 353.535 49.852 l 354.188 55.344 349.898 60.172
 344.371 60.172 c h
344.371 60.172 m f
0.87451 0.917647 0.937255 rg
197.543 60.172 m 129.211 60.172 l 123.684 60.172 119.395 55.344 120.051
 49.852 c 122.891 26.004 l 123.441 21.363 127.379 17.871 132.055 17.871 
c 200.391 17.871 l 195.711 17.871 191.781 21.363 191.223 26.004 c 188.383
 49.852 l 187.727 55.344 192.016 60.172 197.543 60.172 c h
197.543 60.172 m f
344.371 60.172 m 129.211 60.172 l 123.684 60.172 119.391 55.344 120.051
 49.852 c 122.738 27.262 l 350.844 27.262 l 353.535 49.852 l 354.188 55.344
 349.898 60.172 344.371 60.172 c h
344.371 60.172 m f
0.964706 0.945098 0.945098 rg
367.633 32.867 m 105.949 32.867 l 100.109 32.867 95.191 37.23 94.504 43.031
 c 90.953 72.824 l 90.133 79.684 95.492 85.715 102.398 85.715 c 371.184 
85.715 l 378.09 85.715 383.449 79.684 382.633 72.824 c 379.082 43.031 l 
378.391 37.23 373.473 32.867 367.633 32.867 c h
367.633 32.867 m f
0.87451 0.917647 0.937255 rg
187.762 85.715 m 102.398 85.715 l 95.488 85.715 90.133 79.688 90.953 72.824
 c 94.5 43.035 l 95.188 37.238 100.109 32.871 105.953 32.871 c 191.316 32.871
 l 185.473 32.871 180.562 37.238 179.863 43.035 c 176.316 72.824 l 175.5
 79.688 180.855 85.715 187.762 85.715 c h
187.762 85.715 m f
0.976471 0.239216 0.431373 rg
69.156 94.59 m 117.668 122.598 l 121.523 63.758 l 117.668 48.52 l 69.156
 76.527 l 62.203 80.543 62.203 90.578 69.156 94.59 c h
69.156 94.59 m f
0.92549 0.764706 0.180392 rg
251.031 321.562 m 251.031 341.594 l 251.031 357.203 243.578 371.062 232.043
 379.816 c 219.129 382.559 205.734 384 192 384 c 169.746 384 148.379 380.211
 128.504 373.246 c 88.125 359.102 53.91 331.844 30.969 296.586 c 226.051
 296.586 l 239.852 296.586 251.031 307.77 251.031 321.562 c h
251.031 321.562 m f
0.85098 0.447059 0.243137 rg
251.031 273.621 m 251.031 286.516 240.578 296.961 227.691 296.961 c 31.215
 296.961 l 31.133 296.844 31.051 296.715 30.969 296.586 c 22.441 283.492
 15.473 269.289 10.32 254.242 c 14.039 251.738 18.516 250.281 23.34 250.281
 c 227.691 250.281 l 234.137 250.281 239.969 252.891 244.191 257.113 c 248.414
 261.344 251.031 267.18 251.031 273.621 c h
251.031 273.621 m f
0.741176 0.329412 0.137255 rg
80.871 290.121 m 85.102 294.344 90.938 296.961 97.379 296.961 c 31.215 
296.961 l 31.133 296.844 31.051 296.715 30.969 296.586 c 22.441 283.492 
15.473 269.289 10.32 254.242 c 14.039 251.746 18.516 250.281 23.34 250.281
 c 97.379 250.281 l 84.488 250.281 74.039 260.73 74.039 273.621 c 74.039
 280.066 76.648 285.898 80.871 290.121 c h
80.871 290.121 m f
0.905882 0.647059 0.180392 rg
94.426 296.586 m 80.633 296.586 69.449 307.77 69.449 321.562 c 69.449 339.797
 l 54.555 327.434 41.559 312.871 30.969 296.586 c h
94.426 296.586 m f
0.741176 0.329412 0.137255 rg
246.141 273.602 m 236.371 289.734 214.844 266.387 195.914 273.602 c 176.992
 280.824 172.449 288.914 156.711 286.801 c 133.164 283.629 132.434 269.289
 125.512 269.289 c 118.59 269.289 117.871 283.629 94.32 286.801 c 92.691
 287.016 91.184 287.129 89.762 287.137 c 89.754 287.137 l 77.484 287.242
 72.074 280.074 55.117 273.602 c 43.492 269.168 30.891 276.262 20.633 278.664
 c 19.223 275.871 17.879 273.047 16.605 270.188 c 14.676 265.883 12.906 
261.488 11.297 257.016 c 19.434 251.82 30.789 249.18 30.789 249.18 c 220.238
 249.18 l 220.238 249.18 255.914 257.477 246.141 273.602 c h
246.141 273.602 m f
0.92549 0.764706 0.180392 rg
188.637 262.492 m 208.898 281.074 l 212.414 284.297 217.957 283.715 220.727
 279.832 c 235.062 259.734 l f
94.191 262.492 m 114.453 281.074 l 117.969 284.297 123.516 283.715 126.281
 279.832 c 140.617 259.734 l f
0.501961 0.886275 0.615686 rg
253.941 265.523 m 243.539 282.699 220.621 257.844 200.469 265.523 c 180.324
 273.219 175.484 281.828 158.73 279.578 c 133.656 276.203 132.887 260.934
 125.512 260.934 c 118.141 260.934 117.375 276.203 92.301 279.578 c 90.57
 279.809 88.965 279.93 87.449 279.938 c 87.441 279.938 l 74.379 280.051 
68.617 272.414 50.566 265.523 c 39.211 261.195 26.977 267.195 16.605 270.188
 c 14.281 264.988 12.18 259.672 10.32 254.242 c 9.359 251.438 8.461 248.609
 7.629 245.746 c 7.629 245.738 l 15.66 241.621 24.66 239.527 24.66 239.527
 c 226.363 239.527 l 226.363 239.527 264.352 248.355 253.941 265.523 c h
253.941 265.523 m f
0.4 0.705882 0.615686 rg
92.414 248.234 m 73.281 258.516 76.949 269.43 87.441 279.938 c 74.379 280.051
 68.617 272.414 50.566 265.523 c 39.211 261.195 26.977 267.195 16.605 270.188
 c 14.281 264.988 12.18 259.672 10.32 254.242 c 9.359 251.438 8.461 248.602
 7.629 245.738 c 15.66 241.621 24.66 239.527 24.66 239.527 c 95.746 239.527
 l 97.254 242.941 96.586 246 92.414 248.234 c h
92.414 248.234 m f
0.576471 0.45098 0.72549 rg
117.668 48.52 15.695 110.543 re f
0.92549 0.764706 0.180392 rg
251.031 197.656 m 251.031 217.688 l 251.031 231.48 239.852 242.664 226.051
 242.664 c 24.977 242.664 l 16.207 242.664 8.488 238.141 4.043 231.309 c
 1.641 219.816 0.277 207.953 0.039 195.809 c 0.039 195.801 0.039 195.801
 0.039 195.801 c 1.012 170.168 22.094 149.699 47.953 149.699 c 203.07 149.699
 l 229.559 149.699 251.031 171.164 251.031 197.656 c h
251.031 197.656 m f
0.905882 0.647059 0.180392 rg
94.426 242.664 m 24.977 242.664 l 16.207 242.664 8.488 238.141 4.043 231.309
 c 1.641 219.816 0.277 207.953 0.039 195.809 c 0.996 170.176 22.078 149.691
 47.953 149.691 c 117.406 149.691 l 90.922 149.691 69.449 171.164 69.449
 197.648 c 69.449 217.688 l 69.449 231.48 80.633 242.664 94.426 242.664 
c h
94.426 242.664 m f
0.964706 0.945098 0.945098 rg
66.293 173.32 m 66.293 179.496 61.289 184.5 55.113 184.5 c 48.941 184.5
 43.934 179.496 43.934 173.32 c 43.934 167.148 48.941 162.141 55.113 162.141
 c 61.289 162.141 66.293 167.148 66.293 173.32 c h
66.293 173.32 m f
113.227 173.32 m 113.227 179.496 108.223 184.5 102.047 184.5 c 95.875 184.5
 90.871 179.496 90.871 173.32 c 90.871 167.148 95.875 162.141 102.047 162.141
 c 108.223 162.141 113.227 167.148 113.227 173.32 c h
113.227 173.32 m f
160.16 173.32 m 160.16 179.496 155.156 184.5 148.98 184.5 c 142.809 184.5
 137.805 179.496 137.805 173.32 c 137.805 167.148 142.809 162.141 148.98
 162.141 c 155.156 162.141 160.16 167.148 160.16 173.32 c h
160.16 173.32 m f
207.094 173.32 m 207.094 179.496 202.09 184.5 195.918 184.5 c 189.742 184.5
 184.738 179.496 184.738 173.32 c 184.738 167.148 189.742 162.141 195.918
 162.141 c 202.09 162.141 207.094 167.148 207.094 173.32 c h
207.094 173.32 m f
89.762 200.809 m 89.762 206.984 84.754 211.988 78.582 211.988 c 72.406 
211.988 67.402 206.984 67.402 200.809 c 67.402 194.637 72.406 189.629 78.582
 189.629 c 84.754 189.629 89.762 194.637 89.762 200.809 c h
89.762 200.809 m f
136.695 200.809 m 136.695 206.984 131.688 211.988 125.516 211.988 c 119.34
 211.988 114.336 206.984 114.336 200.809 c 114.336 194.637 119.34 189.629
 125.516 189.629 c 131.688 189.629 136.695 194.637 136.695 200.809 c h
136.695 200.809 m f
183.629 200.809 m 183.629 206.984 178.625 211.988 172.449 211.988 c 166.277
 211.988 161.27 206.984 161.27 200.809 c 161.27 194.637 166.277 189.629 
172.449 189.629 c 178.625 189.629 183.629 194.637 183.629 200.809 c h
183.629 200.809 m f
353.859 206.062 m 349.477 289.531 l 340.492 307.734 326.391 319.449 310.551
 319.449 c 283.395 319.449 261.375 285.016 261.375 242.535 c 261.375 200.055
 283.395 165.621 310.551 165.621 c 329.273 165.621 345.555 181.988 353.859
 206.062 c h
353.859 206.062 m f
Q Q
showpage
%%Trailer
end
%%EOF
