%!PS-Adobe-3.0 EPSF-3.0
%%Creator: cairo 1.16.0 (https://cairographics.org)
%%CreationDate: Thu Nov 14 08:46:41 2019
%%Pages: 1
%%DocumentData: Clean7Bit
%%LanguageLevel: 2
%%BoundingBox: 0 0 384 384
%%EndComments
%%BeginProlog
50 dict begin
/q { gsave } bind def
/Q { grestore } bind def
/cm { 6 array astore concat } bind def
/w { setlinewidth } bind def
/J { setlinecap } bind def
/j { setlinejoin } bind def
/M { setmiterlimit } bind def
/d { setdash } bind def
/m { moveto } bind def
/l { lineto } bind def
/c { curveto } bind def
/h { closepath } bind def
/re { exch dup neg 3 1 roll 5 3 roll moveto 0 rlineto
      0 exch rlineto 0 rlineto closepath } bind def
/S { stroke } bind def
/f { fill } bind def
/f* { eofill } bind def
/n { newpath } bind def
/W { clip } bind def
/W* { eoclip } bind def
/BT { } bind def
/ET { } bind def
/BDC { mark 3 1 roll /BDC pdfmark } bind def
/EMC { mark /EMC pdfmark } bind def
/cairo_store_point { /cairo_point_y exch def /cairo_point_x exch def } def
/Tj { show currentpoint cairo_store_point } bind def
/TJ {
  {
    dup
    type /stringtype eq
    { show } { -0.001 mul 0 cairo_font_matrix dtransform rmoveto } ifelse
  } forall
  currentpoint cairo_store_point
} bind def
/cairo_selectfont { cairo_font_matrix aload pop pop pop 0 0 6 array astore
    cairo_font exch selectfont cairo_point_x cairo_point_y moveto } bind def
/Tf { pop /cairo_font exch def /cairo_font_matrix where
      { pop cairo_selectfont } if } bind def
/Td { matrix translate cairo_font_matrix matrix concatmatrix dup
      /cairo_font_matrix exch def dup 4 get exch 5 get cairo_store_point
      /cairo_font where { pop cairo_selectfont } if } bind def
/Tm { 2 copy 8 2 roll 6 array astore /cairo_font_matrix exch def
      cairo_store_point /cairo_font where { pop cairo_selectfont } if } bind def
/g { setgray } bind def
/rg { setrgbcolor } bind def
/d1 { setcachedevice } bind def
/cairo_data_source {
  CairoDataIndex CairoData length lt
    { CairoData CairoDataIndex get /CairoDataIndex CairoDataIndex 1 add def }
    { () } ifelse
} def
/cairo_flush_ascii85_file { cairo_ascii85_file status { cairo_ascii85_file flushfile } if } def
/cairo_image { image cairo_flush_ascii85_file } def
/cairo_imagemask { imagemask cairo_flush_ascii85_file } def
%%EndProlog
%%BeginSetup
%%EndSetup
%%Page: 1 1
%%BeginPageSetup
%%PageBoundingBox: 0 0 384 384
%%EndPageSetup
q 0 0 384 384 rectclip
1 0 0 -1 0 384 cm q
0.564706 0.847059 0.976471 rg
384 192 m 384 251.992 356.484 305.559 313.387 340.762 c 280.305 367.785
 238.043 384 192 384 c 152.672 384 116.102 372.172 85.656 351.887 c 80.461
 348.422 75.434 344.707 70.613 340.762 c 27.516 305.559 0 251.992 0 192 
c 0 85.965 85.965 0 192 0 c 298.035 0 384 85.965 384 192 c h
384 192 m f
0.737255 0.584314 0.886275 rg
216.75 222.465 m 166.969 222.465 l 142.688 222.465 123 242.148 123 266.434
 c 123 294.176 l 260.719 294.176 l 260.719 266.434 l 260.719 242.148 241.035
 222.465 216.75 222.465 c h
216.75 222.465 m f
0.576471 0.45098 0.72549 rg
198.52 222.469 m 174.234 222.469 154.555 242.156 154.555 266.434 c 154.555
 294.176 l 123 294.176 l 123 266.434 l 123 242.156 142.688 222.469 166.973
 222.469 c h
198.52 222.469 m f
0.964706 0.945098 0.945098 rg
191.992 242.461 m 164.543 257.715 l 156.195 216.285 l 173.25 208.832 l f
191.992 242.461 m 219.441 257.715 l 227.789 216.285 l 210.734 208.832 l
 f
0.917647 0.67451 0.615686 rg
215.156 190.887 m 215.156 219.305 l 215.156 229.711 208.293 238.504 198.844
 241.426 c 196.68 242.098 194.375 242.461 191.992 242.461 c 179.203 242.461
 168.836 232.098 168.836 219.309 c 168.836 190.887 l h
215.156 190.887 m f
1 0.796078 0.745098 rg
215.156 217.508 m 215.156 219.305 l 215.156 229.711 208.293 238.504 198.844
 241.426 c 190.32 238.805 183.91 231.395 182.723 222.32 c 184.27 222.418
 185.828 222.465 187.391 222.465 c 191.77 222.465 196.066 222.117 200.25
 221.43 c 205.406 220.602 210.387 219.273 215.156 217.508 c h
215.156 217.508 m f
128.051 144.07 m 128.051 154.688 120.297 163.492 110.141 165.125 c 109.031
 165.305 107.891 165.398 106.727 165.398 c 94.945 165.398 85.398 155.852
 85.398 144.07 c 85.398 132.289 94.945 122.746 106.727 122.746 c 107.891
 122.746 109.031 122.84 110.141 123.02 c 120.297 124.652 128.051 133.453
 128.051 144.07 c h
128.051 144.07 m f
0.917647 0.67451 0.615686 rg
128.051 144.07 m 128.051 154.688 120.297 163.492 110.141 165.125 c 108.297
 158.418 107.312 151.359 107.312 144.07 c 107.312 136.785 108.297 129.727
 110.141 123.02 c 120.297 124.652 128.051 133.453 128.051 144.07 c h
128.051 144.07 m f
114.348 144.07 m 114.348 148.281 110.934 151.695 106.727 151.695 c 102.516
 151.695 99.102 148.281 99.102 144.07 c 99.102 139.863 102.516 136.449 106.727
 136.449 c 110.934 136.449 114.348 139.863 114.348 144.07 c h
114.348 144.07 m f
1 0.796078 0.745098 rg
255.941 144.07 m 255.941 154.688 263.695 163.492 273.852 165.125 c 274.961
 165.305 276.102 165.398 277.266 165.398 c 289.047 165.398 298.594 155.852
 298.594 144.07 c 298.594 132.289 289.047 122.746 277.266 122.746 c 276.102
 122.746 274.961 122.84 273.852 123.02 c 263.695 124.652 255.941 133.453
 255.941 144.07 c h
255.941 144.07 m f
0.917647 0.67451 0.615686 rg
255.941 144.07 m 255.941 154.688 263.695 163.492 273.852 165.125 c 275.695
 158.418 276.68 151.359 276.68 144.07 c 276.68 136.785 275.695 129.727 273.852
 123.02 c 263.695 124.652 255.941 133.453 255.941 144.07 c h
255.941 144.07 m f
284.891 144.07 m 284.891 148.281 281.477 151.695 277.266 151.695 c 273.059
 151.695 269.645 148.281 269.645 144.07 c 269.645 139.863 273.059 136.449
 277.266 136.449 c 281.477 136.449 284.891 139.863 284.891 144.07 c h
284.891 144.07 m f
1 0.796078 0.745098 rg
272.125 132.863 m 272.125 172.734 242.992 205.812 204.855 211.957 c 200.672
 212.645 196.379 212.992 191.996 212.992 c 147.742 212.992 111.867 177.117
 111.867 132.863 c 111.867 51.285 l 272.125 51.285 l h
272.125 132.863 m f
0.917647 0.67451 0.615686 rg
206.109 211.746 m 205.695 211.816 205.277 211.891 204.855 211.957 c 200.672
 212.641 196.379 212.988 191.996 212.988 c 147.742 212.988 111.867 177.121
 111.867 132.859 c 111.867 51.281 l 140.121 51.281 l 140.121 132.859 l 140.121
 172.297 168.598 205.07 206.109 211.746 c h
206.109 211.746 m f
0.741176 0.329412 0.137255 rg
148.852 15.156 m 159.367 15.156 167.895 23.684 167.895 34.203 c 167.895
 49.473 l 167.895 61.855 157.855 71.895 145.473 71.895 c 111.867 71.895 
l 111.867 52.141 l 111.867 31.715 128.426 15.156 148.852 15.156 c h
148.852 15.156 m f
125.867 140.102 m 111.867 140.102 l 111.867 71.895 l 127.59 63.969 l 134.137
 71.895 l h
125.867 140.102 m f
0.85098 0.447059 0.243137 rg
258.125 140.102 m 272.125 140.102 l 272.125 36.754 l 249.316 67.43 l h
258.125 140.102 m f
292.598 0 m 193.473 0 l 179.348 0 167.895 11.453 167.895 25.578 c 167.895
 50.48 l 167.895 62.305 177.48 71.895 189.309 71.895 c 234.176 71.895 l 
266.441 71.895 292.598 45.738 292.598 13.473 c h
292.598 0 m f
0.741176 0.329412 0.137255 rg
212.562 71.891 m 189.312 71.891 l 177.484 71.891 167.895 62.305 167.895
 50.48 c 167.895 25.582 l 167.895 11.453 179.348 0 193.477 0 c 216.727 0
 l 202.602 0 191.152 11.453 191.152 25.582 c 191.152 50.48 l 191.152 62.305
 200.738 71.891 212.562 71.891 c h
212.562 71.891 m f
0.87451 0.576471 0.501961 rg
191.996 175.031 m 185.285 175.031 178.578 173.352 172.461 169.988 c 170.734
 169.039 170.105 166.875 171.055 165.148 c 172.004 163.422 174.172 162.793
 175.895 163.742 c 185.977 169.285 198.016 169.285 208.098 163.742 c 209.82
 162.793 211.988 163.422 212.938 165.148 c 213.887 166.875 213.254 169.039
 211.531 169.988 c 205.414 173.352 198.707 175.031 191.996 175.031 c h
191.996 175.031 m f
0.964706 0.945098 0.945098 rg
173.695 109.34 m 133.461 109.34 l 128.914 109.34 125.23 113.027 125.23 
117.574 c 125.23 138.684 l 125.23 143.23 128.914 146.914 133.461 146.914
 c 173.695 146.914 l 178.242 146.914 181.93 143.23 181.93 138.684 c 181.93
 117.574 l 181.93 113.027 178.242 109.34 173.695 109.34 c h
173.695 109.34 m f
250.531 109.34 m 210.293 109.34 l 205.75 109.34 202.062 113.027 202.062
 117.574 c 202.062 138.684 l 202.062 143.23 205.75 146.914 210.293 146.914
 c 250.531 146.914 l 255.078 146.914 258.762 143.23 258.762 138.684 c 258.762
 117.574 l 258.762 113.027 255.078 109.34 250.531 109.34 c h
250.531 109.34 m f
0.917647 0.67451 0.615686 rg
201.086 151.086 m 182.906 151.086 l 180.742 151.086 178.984 149.328 178.984
 147.164 c 178.984 145 180.742 143.242 182.906 143.242 c 201.086 143.242
 l 203.25 143.242 205.008 145 205.008 147.164 c 205.008 149.328 203.25 151.086
 201.086 151.086 c h
201.086 151.086 m f
0.87451 0.917647 0.937255 rg
205.125 129.055 m 205.125 137.945 212.332 145.152 221.223 145.152 c 230.113
 145.152 237.32 137.945 237.32 129.055 c f
0.184314 0.215686 0.231373 rg
232.766 129.055 m 232.766 135.43 227.598 140.598 221.223 140.598 c 214.848
 140.598 209.676 135.43 209.676 129.055 c 209.676 122.68 214.848 117.512
 221.223 117.512 c 227.598 117.512 232.766 122.68 232.766 129.055 c h
232.766 129.055 m f
1 g
230.98 127.016 m 230.98 129.75 228.766 131.965 226.031 131.965 c 223.301
 131.965 221.086 129.75 221.086 127.016 c 221.086 124.285 223.301 122.07
 226.031 122.07 c 228.766 122.07 230.98 124.285 230.98 127.016 c h
230.98 127.016 m f
0.87451 0.917647 0.937255 rg
146.672 129.055 m 146.672 137.945 153.879 145.152 162.77 145.152 c 171.66
 145.152 178.867 137.945 178.867 129.055 c f
0.184314 0.215686 0.231373 rg
174.312 129.055 m 174.312 135.43 169.145 140.598 162.77 140.598 c 156.395
 140.598 151.227 135.43 151.227 129.055 c 151.227 122.68 156.395 117.512
 162.77 117.512 c 169.145 117.512 174.312 122.68 174.312 129.055 c h
174.312 129.055 m f
0.0941176 0.117647 0.129412 rg
165.469 140.277 m 164.605 140.492 163.699 140.598 162.773 140.598 c 156.395
 140.598 151.227 135.43 151.227 129.055 c 151.227 122.68 156.395 117.508
 162.773 117.508 c 163.699 117.508 164.605 117.617 165.469 117.828 c 160.395
 119.043 156.629 123.609 156.629 129.055 c 156.629 134.5 160.395 139.066
 165.469 140.277 c h
165.469 140.277 m f
223.922 140.277 m 223.059 140.492 222.148 140.598 221.223 140.598 c 214.848
 140.598 209.676 135.43 209.676 129.055 c 209.676 122.68 214.848 117.508
 221.223 117.508 c 222.148 117.508 223.059 117.617 223.922 117.828 c 218.844
 119.043 215.078 123.609 215.078 129.055 c 215.078 134.5 218.844 139.066
 223.922 140.277 c h
223.922 140.277 m f
1 g
172.527 127.016 m 172.527 129.75 170.312 131.965 167.582 131.965 c 164.848
 131.965 162.633 129.75 162.633 127.016 c 162.633 124.285 164.848 122.07
 167.582 122.07 c 170.312 122.07 172.527 124.285 172.527 127.016 c h
172.527 127.016 m f
0.0941176 0.117647 0.129412 rg
276.039 112.395 m 262.898 112.395 l 260.871 107.562 256.09 104.16 250.531
 104.16 c 210.293 104.16 l 202.898 104.16 196.883 110.18 196.883 117.574
 c 196.883 121.23 l 187.109 121.23 l 187.109 117.574 l 187.109 110.18 181.09
 104.16 173.695 104.16 c 133.461 104.16 l 127.902 104.16 123.121 107.562
 121.09 112.395 c 107.953 112.395 l 107.953 122.754 l 120.051 122.754 l 
120.051 138.684 l 120.051 146.078 126.066 152.094 133.461 152.094 c 173.695
 152.094 l 181.09 152.094 187.109 146.078 187.109 138.684 c 187.109 131.59
 l 196.883 131.59 l 196.883 138.684 l 196.883 146.078 202.898 152.094 210.293
 152.094 c 250.531 152.094 l 257.926 152.094 263.941 146.078 263.941 138.684
 c 263.941 122.754 l 276.039 122.754 l h
176.75 138.684 m 176.75 140.367 175.379 141.734 173.699 141.734 c 133.461
 141.734 l 131.781 141.734 130.41 140.367 130.41 138.684 c 130.41 117.57
 l 130.41 115.891 131.781 114.52 133.461 114.52 c 173.699 114.52 l 175.379
 114.52 176.75 115.891 176.75 117.57 c h
253.582 138.684 m 253.582 140.367 252.215 141.734 250.531 141.734 c 210.297
 141.734 l 208.613 141.734 207.242 140.367 207.242 138.684 c 207.242 117.57
 l 207.242 115.891 208.613 114.52 210.297 114.52 c 250.531 114.52 l 252.215
 114.52 253.582 115.891 253.582 117.57 c h
253.582 138.684 m f
0.741176 0.329412 0.137255 rg
191.996 157.074 m 191.996 157.074 179.727 147.812 167.379 152.441 c 160.547
 155.004 155.855 161.109 151.188 166.055 c 148.199 169.223 150.504 174.422
 154.855 174.301 c 167.441 173.961 184.109 170.695 191.996 157.074 c h
191.996 157.074 m f
0.85098 0.447059 0.243137 rg
191.996 157.074 m 191.996 157.074 204.266 147.812 216.613 152.441 c 223.445
 155.004 228.137 161.109 232.805 166.055 c 235.793 169.223 233.488 174.422
 229.137 174.301 c 216.551 173.961 199.883 170.695 191.996 157.074 c h
191.996 157.074 m f
0.92549 0.764706 0.180392 rg
313.387 294.172 m 313.387 340.762 l 280.305 367.785 238.043 384 192 384
 c 152.672 384 116.102 372.172 85.656 351.887 c 80.461 348.422 75.434 344.707
 70.613 340.762 c 70.613 294.172 l h
313.387 294.172 m f
0.905882 0.647059 0.180392 rg
85.656 294.172 m 85.656 351.887 l 80.461 348.422 75.434 344.707 70.613 
340.762 c 70.613 294.172 l h
85.656 294.172 m f
70.613 294.176 242.773 31.293 re f
0.976471 0.239216 0.431373 rg
235.949 225.242 8.922 51.312 re f
0.184314 0.215686 0.231373 rg
243.617 250.898 m 237.207 250.898 l 229.145 250.898 222.609 244.363 222.609
 236.301 c 222.609 214.922 l 222.609 206.859 229.145 200.324 237.207 200.324
 c 243.617 200.324 l 251.68 200.324 258.215 206.859 258.215 214.922 c 258.215
 236.301 l 258.215 244.363 251.68 250.898 243.617 250.898 c h
243.617 250.898 m f
0.0941176 0.117647 0.129412 rg
246.406 250.629 m 245.504 250.809 244.566 250.898 243.613 250.898 c 237.211
 250.898 l 229.148 250.898 222.609 244.367 222.609 236.305 c 222.609 214.922
 l 222.609 206.859 229.148 200.324 237.211 200.324 c 243.613 200.324 l 244.566
 200.324 245.504 200.414 246.406 200.598 c 239.672 201.891 234.586 207.812
 234.586 214.922 c 234.586 236.305 l 234.586 243.414 239.672 249.332 246.406
 250.629 c h
246.406 250.629 m f
0.976471 0.239216 0.431373 rg
142.211 225.242 8.922 51.312 re f
0.184314 0.215686 0.231373 rg
149.879 250.898 m 143.465 250.898 l 135.402 250.898 128.867 244.363 128.867
 236.301 c 128.867 214.922 l 128.867 206.859 135.402 200.324 143.465 200.324
 c 149.879 200.324 l 157.941 200.324 164.477 206.859 164.477 214.922 c 164.477
 236.301 l 164.477 244.363 157.941 250.898 149.879 250.898 c h
149.879 250.898 m f
0.0941176 0.117647 0.129412 rg
152.668 250.629 m 151.766 250.809 150.828 250.898 149.875 250.898 c 143.473
 250.898 l 135.41 250.898 128.867 244.367 128.867 236.305 c 128.867 214.922
 l 128.867 206.859 135.41 200.324 143.473 200.324 c 149.875 200.324 l 150.828
 200.324 151.766 200.414 152.668 200.598 c 145.93 201.891 140.848 207.812
 140.848 214.922 c 140.848 236.305 l 140.848 243.414 145.93 249.332 152.668
 250.629 c h
152.668 250.629 m f
0.92549 0.764706 0.180392 rg
325.898 308.836 m 58.102 308.836 l 48.562 308.836 40.828 301.102 40.828
 291.562 c 40.828 283.105 l 40.828 273.566 48.562 265.832 58.102 265.832
 c 325.898 265.832 l 335.438 265.832 343.172 273.566 343.172 283.105 c 343.172
 291.562 l 343.172 301.102 335.438 308.836 325.898 308.836 c h
325.898 308.836 m f
0.905882 0.647059 0.180392 rg
96.441 308.832 m 58.102 308.832 l 48.562 308.832 40.828 301.102 40.828 
291.562 c 40.828 283.102 l 40.828 273.562 48.562 265.828 58.102 265.828 
c 96.441 265.828 l 86.902 265.828 79.168 273.562 79.168 283.102 c 79.168
 291.562 l 79.168 301.102 86.902 308.832 96.441 308.832 c h
96.441 308.832 m f
0.964706 0.945098 0.945098 rg
23.699 0 m 110.117 0 l 119.922 0 127.867 7.949 127.867 17.754 c 127.867
 91.367 l 127.867 101.172 119.922 109.121 110.117 109.121 c 107.25 109.121
 l 95.602 126.352 l 93.164 129.957 87.855 129.957 85.418 126.352 c 73.77
 109.121 l 23.699 109.121 l 13.895 109.121 5.945 101.172 5.945 91.367 c 
5.945 17.754 l 5.945 7.949 13.895 0 23.699 0 c h
23.699 0 m f
0.184314 0.215686 0.231373 rg
103.934 33.004 m 29.879 33.004 l 25.621 33.004 22.172 29.555 22.172 25.297
 c 22.172 21.039 25.621 17.59 29.879 17.59 c 103.938 17.59 l 108.191 17.59
 111.645 21.039 111.645 25.297 c 111.645 29.555 108.191 33.004 103.934 33.004
 c h
103.934 33.004 m f
103.934 60.219 m 29.879 60.219 l 25.621 60.219 22.172 56.77 22.172 52.512
 c 22.172 48.254 25.621 44.805 29.879 44.805 c 103.938 44.805 l 108.191 
44.805 111.645 48.254 111.645 52.512 c 111.645 56.77 108.191 60.219 103.934
 60.219 c h
103.934 60.219 m f
79.391 87.434 m 29.879 87.434 l 25.621 87.434 22.172 83.98 22.172 79.727
 c 22.172 75.469 25.621 72.016 29.879 72.016 c 79.391 72.016 l 83.648 72.016
 87.098 75.469 87.098 79.727 c 87.098 83.984 83.648 87.434 79.391 87.434
 c h
79.391 87.434 m f
Q Q
showpage
%%Trailer
end
%%EOF
