%!PS-Adobe-3.0 EPSF-3.0
%%Creator: cairo 1.16.0 (https://cairographics.org)
%%CreationDate: Thu Nov 14 08:46:42 2019
%%Pages: 1
%%DocumentData: Clean7Bit
%%LanguageLevel: 2
%%BoundingBox: 0 0 384 384
%%EndComments
%%BeginProlog
50 dict begin
/q { gsave } bind def
/Q { grestore } bind def
/cm { 6 array astore concat } bind def
/w { setlinewidth } bind def
/J { setlinecap } bind def
/j { setlinejoin } bind def
/M { setmiterlimit } bind def
/d { setdash } bind def
/m { moveto } bind def
/l { lineto } bind def
/c { curveto } bind def
/h { closepath } bind def
/re { exch dup neg 3 1 roll 5 3 roll moveto 0 rlineto
      0 exch rlineto 0 rlineto closepath } bind def
/S { stroke } bind def
/f { fill } bind def
/f* { eofill } bind def
/n { newpath } bind def
/W { clip } bind def
/W* { eoclip } bind def
/BT { } bind def
/ET { } bind def
/BDC { mark 3 1 roll /BDC pdfmark } bind def
/EMC { mark /EMC pdfmark } bind def
/cairo_store_point { /cairo_point_y exch def /cairo_point_x exch def } def
/Tj { show currentpoint cairo_store_point } bind def
/TJ {
  {
    dup
    type /stringtype eq
    { show } { -0.001 mul 0 cairo_font_matrix dtransform rmoveto } ifelse
  } forall
  currentpoint cairo_store_point
} bind def
/cairo_selectfont { cairo_font_matrix aload pop pop pop 0 0 6 array astore
    cairo_font exch selectfont cairo_point_x cairo_point_y moveto } bind def
/Tf { pop /cairo_font exch def /cairo_font_matrix where
      { pop cairo_selectfont } if } bind def
/Td { matrix translate cairo_font_matrix matrix concatmatrix dup
      /cairo_font_matrix exch def dup 4 get exch 5 get cairo_store_point
      /cairo_font where { pop cairo_selectfont } if } bind def
/Tm { 2 copy 8 2 roll 6 array astore /cairo_font_matrix exch def
      cairo_store_point /cairo_font where { pop cairo_selectfont } if } bind def
/g { setgray } bind def
/rg { setrgbcolor } bind def
/d1 { setcachedevice } bind def
/cairo_data_source {
  CairoDataIndex CairoData length lt
    { CairoData CairoDataIndex get /CairoDataIndex CairoDataIndex 1 add def }
    { () } ifelse
} def
/cairo_flush_ascii85_file { cairo_ascii85_file status { cairo_ascii85_file flushfile } if } def
/cairo_image { image cairo_flush_ascii85_file } def
/cairo_imagemask { imagemask cairo_flush_ascii85_file } def
%%EndProlog
%%BeginSetup
%%EndSetup
%%Page: 1 1
%%BeginPageSetup
%%PageBoundingBox: 0 0 384 384
%%EndPageSetup
q 0 0 384 384 rectclip
1 0 0 -1 0 384 cm q
0.85098 0.447059 0.243137 rg
384 192 m 384 219.137 378.367 244.957 368.211 268.359 c 360.855 285.309
 351.129 300.988 339.441 314.984 c 333.801 321.742 327.703 328.102 321.203
 334.02 c 307.988 346.051 293.086 356.258 276.898 364.254 c 251.301 376.898
 222.48 384 192 384 c 161.52 384 132.699 376.898 107.102 364.254 c 90.914
 356.258 76.012 346.051 62.797 334.02 c 56.297 328.102 50.199 321.742 44.559
 314.984 c 32.871 300.988 23.145 285.309 15.789 268.359 c 5.633 244.957 
0 219.137 0 192 c 0 164.863 5.633 139.043 15.789 115.641 c 32.332 77.512
 60.887 45.801 96.684 25.297 c 124.77 9.203 157.312 0 192 0 c 226.688 0 
259.23 9.203 287.316 25.297 c 323.113 45.801 351.668 77.512 368.211 115.641
 c 378.367 139.043 384 164.863 384 192 c h
384 192 m f
0.964706 0.945098 0.945098 rg
368.211 49.547 m 368.211 268.359 l 350.094 310.117 317.566 344.176 276.898
 364.254 c 107.102 364.254 l 66.434 344.176 33.906 310.117 15.789 268.359
 c 15.789 49.547 l 15.789 36.148 26.641 25.297 40.035 25.297 c 343.965 25.297
 l 357.359 25.297 368.211 36.148 368.211 49.547 c h
368.211 49.547 m f
0.501961 0.886275 0.615686 rg
368.211 49.547 m 368.211 109.344 l 15.789 109.344 l 15.789 49.547 l 15.789
 36.148 26.641 25.297 40.035 25.297 c 343.965 25.297 l 357.359 25.297 368.211
 36.148 368.211 49.547 c h
368.211 49.547 m f
0.976471 0.239216 0.431373 rg
228.938 147.164 m 155.062 147.164 l 149.805 147.164 145.547 142.902 145.547
 137.645 c 145.547 132.391 149.805 128.129 155.062 128.129 c 228.938 128.129
 l 234.195 128.129 238.453 132.391 238.453 137.645 c 238.453 142.902 234.195
 147.164 228.938 147.164 c h
228.938 147.164 m f
0.184314 0.215686 0.231373 rg
228.938 177.492 m 155.062 177.492 l 149.805 177.492 145.547 173.23 145.547
 167.977 c 145.547 162.719 149.805 158.457 155.062 158.457 c 228.938 158.457
 l 234.195 158.457 238.453 162.719 238.453 167.977 c 238.453 173.23 234.195
 177.492 228.938 177.492 c h
228.938 177.492 m f
228.938 207.82 m 155.062 207.82 l 149.805 207.82 145.547 203.559 145.547
 198.305 c 145.547 193.047 149.805 188.785 155.062 188.785 c 228.938 188.785
 l 234.195 188.785 238.453 193.047 238.453 198.305 c 238.453 203.559 234.195
 207.82 228.938 207.82 c h
228.938 207.82 m f
0.976471 0.239216 0.431373 rg
116.047 147.164 m 42.172 147.164 l 36.914 147.164 32.652 142.902 32.652
 137.645 c 32.652 132.391 36.914 128.129 42.172 128.129 c 116.047 128.129
 l 121.301 128.129 125.562 132.391 125.562 137.645 c 125.562 142.902 121.301
 147.164 116.047 147.164 c h
116.047 147.164 m f
0.184314 0.215686 0.231373 rg
116.047 177.492 m 42.172 177.492 l 36.914 177.492 32.652 173.23 32.652 
167.977 c 32.652 162.719 36.914 158.457 42.172 158.457 c 116.047 158.457
 l 121.301 158.457 125.562 162.719 125.562 167.977 c 125.562 173.23 121.301
 177.492 116.047 177.492 c h
116.047 177.492 m f
116.047 207.82 m 42.172 207.82 l 36.914 207.82 32.652 203.559 32.652 198.305
 c 32.652 193.047 36.914 188.785 42.172 188.785 c 116.047 188.785 l 121.301
 188.785 125.562 193.047 125.562 198.305 c 125.562 203.559 121.301 207.82
 116.047 207.82 c h
116.047 207.82 m f
0.976471 0.239216 0.431373 rg
341.828 147.164 m 267.953 147.164 l 262.699 147.164 258.438 142.902 258.438
 137.645 c 258.438 132.391 262.699 128.129 267.953 128.129 c 341.828 128.129
 l 347.086 128.129 351.348 132.391 351.348 137.645 c 351.348 142.902 347.086
 147.164 341.828 147.164 c h
341.828 147.164 m f
0.184314 0.215686 0.231373 rg
341.828 177.492 m 267.953 177.492 l 262.699 177.492 258.438 173.23 258.438
 167.977 c 258.438 162.719 262.699 158.457 267.953 158.457 c 341.828 158.457
 l 347.086 158.457 351.348 162.719 351.348 167.977 c 351.348 173.23 347.086
 177.492 341.828 177.492 c h
341.828 177.492 m f
341.828 207.82 m 267.953 207.82 l 262.699 207.82 258.438 203.559 258.438
 198.305 c 258.438 193.047 262.699 188.785 267.953 188.785 c 341.828 188.785
 l 347.086 188.785 351.348 193.047 351.348 198.305 c 351.348 203.559 347.086
 207.82 341.828 207.82 c h
341.828 207.82 m f
0.976471 0.239216 0.431373 rg
228.938 273.359 m 155.062 273.359 l 149.805 273.359 145.547 269.098 145.547
 263.844 c 145.547 258.586 149.805 254.324 155.062 254.324 c 228.938 254.324
 l 234.195 254.324 238.453 258.586 238.453 263.844 c 238.453 269.102 234.195
 273.359 228.938 273.359 c h
228.938 273.359 m f
0.184314 0.215686 0.231373 rg
228.938 303.691 m 155.062 303.691 l 149.805 303.691 145.547 299.43 145.547
 294.172 c 145.547 288.914 149.805 284.656 155.062 284.656 c 228.938 284.656
 l 234.195 284.656 238.453 288.918 238.453 294.172 c 238.453 299.43 234.195
 303.691 228.938 303.691 c h
228.938 303.691 m f
228.938 334.02 m 155.062 334.02 l 149.805 334.02 145.547 329.758 145.547
 324.5 c 145.547 319.246 149.805 314.984 155.062 314.984 c 228.938 314.984
 l 234.195 314.984 238.453 319.246 238.453 324.5 c 238.453 329.758 234.195
 334.02 228.938 334.02 c h
228.938 334.02 m f
0.976471 0.239216 0.431373 rg
116.047 273.359 m 42.172 273.359 l 36.914 273.359 32.652 269.098 32.652
 263.844 c 32.652 258.586 36.914 254.324 42.172 254.324 c 116.047 254.324
 l 121.301 254.324 125.562 258.586 125.562 263.844 c 125.562 269.102 121.301
 273.359 116.047 273.359 c h
116.047 273.359 m f
0.184314 0.215686 0.231373 rg
116.047 303.691 m 42.172 303.691 l 36.914 303.691 32.652 299.43 32.652 
294.172 c 32.652 288.914 36.914 284.656 42.172 284.656 c 116.047 284.656
 l 121.301 284.656 125.562 288.918 125.562 294.172 c 125.562 299.43 121.301
 303.691 116.047 303.691 c h
116.047 303.691 m f
125.566 324.504 m 125.566 327.137 124.5 329.512 122.773 331.23 c 121.059
 332.953 118.68 334.02 116.047 334.02 c 62.797 334.02 l 56.297 328.102 50.199
 321.742 44.559 314.984 c 116.047 314.984 l 121.305 314.984 125.566 319.246
 125.566 324.504 c h
125.566 324.504 m f
0.976471 0.239216 0.431373 rg
341.828 273.359 m 267.953 273.359 l 262.699 273.359 258.438 269.098 258.438
 263.844 c 258.438 258.586 262.699 254.324 267.953 254.324 c 341.828 254.324
 l 347.086 254.324 351.348 258.586 351.348 263.844 c 351.348 269.102 347.086
 273.359 341.828 273.359 c h
341.828 273.359 m f
0.184314 0.215686 0.231373 rg
341.828 303.691 m 267.953 303.691 l 262.699 303.691 258.438 299.43 258.438
 294.172 c 258.438 288.914 262.699 284.656 267.953 284.656 c 341.828 284.656
 l 347.086 284.656 351.348 288.918 351.348 294.172 c 351.348 299.43 347.086
 303.691 341.828 303.691 c h
341.828 303.691 m f
339.441 314.984 m 333.801 321.742 327.703 328.102 321.203 334.02 c 267.953
 334.02 l 262.695 334.02 258.434 329.762 258.434 324.504 c 258.434 321.871
 259.5 319.492 261.227 317.773 c 262.941 316.051 265.32 314.984 267.953 
314.984 c h
339.441 314.984 m f
0.737255 0.584314 0.886275 rg
241.852 43.699 m 241.836 43.664 241.824 43.633 241.809 43.598 c 241.066
 41.793 239.328 40.629 237.379 40.629 c 237.379 40.629 237.375 40.629 237.375
 40.629 c 235.422 40.633 233.684 41.801 232.945 43.605 c 232.934 43.633 
232.922 43.66 232.914 43.691 c 215.688 88.922 l 214.949 90.859 215.918 93.027
 217.855 93.762 c 219.793 94.5 221.957 93.527 222.695 91.594 c 226.066 82.742
 l 248.57 82.742 l 251.906 91.582 l 252.473 93.086 253.898 94.008 255.414
 94.008 c 255.852 94.008 256.301 93.93 256.738 93.766 c 258.676 93.035 259.652
 90.871 258.922 88.934 c h
228.922 75.242 m 237.367 53.066 l 245.738 75.242 l h
228.922 75.242 m f
112.875 43.699 m 112.863 43.664 112.848 43.633 112.832 43.598 c 112.094
 41.793 110.352 40.629 108.402 40.629 c 108.402 40.629 108.402 40.629 108.398
 40.629 c 106.449 40.633 104.711 41.801 103.969 43.605 c 103.961 43.633 
103.949 43.66 103.938 43.691 c 86.711 88.922 l 86.172 87.516 84.816 86.508
 83.219 86.508 c 67.812 86.508 l 67.812 71.277 l 81.805 71.277 l 83.875 
71.277 85.555 69.598 85.555 67.527 c 85.555 65.457 83.875 63.777 81.805 
63.777 c 67.812 63.777 l 67.812 48.547 l 83.219 48.547 l 85.289 48.547 86.969
 46.867 86.969 44.797 c 86.969 42.727 85.289 41.047 83.219 41.047 c 64.062
 41.047 l 61.992 41.047 60.312 42.727 60.312 44.797 c 60.312 90.258 l 60.312
 92.328 61.992 94.008 64.062 94.008 c 83.219 94.008 l 84.824 94.008 86.184
 92.992 86.719 91.57 c 87.082 92.543 87.832 93.363 88.879 93.762 c 90.816
 94.5 92.98 93.527 93.719 91.594 c 97.09 82.742 l 119.594 82.742 l 122.93
 91.582 l 123.496 93.086 124.922 94.008 126.438 94.008 c 126.879 94.008 
127.324 93.93 127.762 93.766 c 129.699 93.035 130.676 90.871 129.945 88.934
 c h
99.945 75.242 m 108.391 53.066 l 116.762 75.242 l h
99.945 75.242 m f
179.391 44.461 m 178.961 42.332 177.141 40.758 174.973 40.637 c 172.805
 40.52 170.82 41.871 170.148 43.938 c 170.137 43.98 170.121 44.023 170.109
 44.066 c 160.016 79.477 l 149.559 44.027 l 149.543 43.98 149.531 43.938
 149.516 43.895 c 148.824 41.832 146.824 40.504 144.656 40.641 c 142.492
 40.789 140.688 42.379 140.27 44.555 c 132.207 89.234 l 131.84 91.27 133.191
 93.223 135.23 93.59 c 137.266 93.957 139.219 92.602 139.586 90.566 c 145.613
 57.168 l 155.484 90.613 l 155.496 90.656 155.508 90.703 155.523 90.746 
c 156.18 92.699 158 94.008 160.062 94.008 c 160.086 94.008 l 162.156 93.996
 163.977 92.668 164.613 90.699 c 164.629 90.656 164.641 90.613 164.652 90.57
 c 174.184 57.145 l 180.578 90.605 l 180.965 92.637 182.93 93.973 184.965
 93.586 c 187 93.195 188.332 91.23 187.945 89.195 c h
179.391 44.461 m f
324.273 86.469 m 320.621 86.492 315.418 86.52 311.98 86.508 c 311.98 44.379
 l 311.98 42.309 310.301 40.629 308.23 40.629 c 306.16 40.629 304.48 42.309
 304.48 44.379 c 304.48 90.219 l 304.48 92.047 305.797 93.609 307.598 93.918
 c 307.859 93.961 308.145 94.012 313.176 94.012 c 315.605 94.012 319.145
 94 324.316 93.969 c 326.387 93.957 328.059 92.27 328.047 90.199 c 328.035
 88.129 326.359 86.488 324.273 86.469 c h
324.273 86.469 m f
357.512 86.508 m 342.105 86.508 l 342.105 71.277 l 356.098 71.277 l 358.168
 71.277 359.848 69.598 359.848 67.527 c 359.848 65.457 358.168 63.777 356.098
 63.777 c 342.105 63.777 l 342.105 48.547 l 357.512 48.547 l 359.582 48.547
 361.262 46.867 361.262 44.797 c 361.262 42.727 359.582 41.047 357.512 41.047
 c 338.355 41.047 l 336.285 41.047 334.605 42.727 334.605 44.797 c 334.605
 90.258 l 334.605 92.328 336.285 94.008 338.355 94.008 c 357.512 94.008 
l 359.582 94.008 361.262 92.328 361.262 90.258 c 361.262 88.188 359.582 
86.508 357.512 86.508 c h
357.512 86.508 m f
290.938 64.227 m 293.082 61.727 294.387 58.484 294.387 54.938 c 294.387
 47.047 287.969 40.629 280.078 40.629 c 266.75 40.629 l 264.68 40.629 263
 42.309 263 44.379 c 263 90.258 l 263 91.258 263.398 92.211 264.105 92.914
 c 264.809 93.617 265.762 94.008 266.75 94.008 c 266.77 94.008 l 266.77 
94.008 279.027 93.953 282.406 93.953 c 291.281 93.953 298.504 86.73 298.504
 77.855 c 298.504 72.113 295.473 67.078 290.938 64.227 c h
280.078 48.129 m 283.832 48.129 286.887 51.184 286.887 54.938 c 286.887
 58.691 283.832 61.742 280.078 61.742 c 279.098 61.742 277.246 61.75 275.227
 61.758 c 270.5 61.758 l 270.5 48.129 l h
282.406 86.453 m 280.234 86.453 274.406 86.477 270.5 86.492 c 270.5 69.273
 l 271.953 69.27 273.648 69.262 275.238 69.254 c 282.406 69.254 l 287.148
 69.254 291.004 73.113 291.004 77.855 c 291.004 82.598 287.148 86.453 282.406
 86.453 c h
282.406 86.453 m f
51.828 40.629 m 26.488 40.629 l 24.418 40.629 22.738 42.309 22.738 44.379
 c 22.738 46.449 24.418 48.129 26.488 48.129 c 35.355 48.129 l 35.355 90.258
 l 35.355 92.332 37.035 94.008 39.105 94.008 c 41.176 94.008 42.855 92.332
 42.855 90.258 c 42.855 48.129 l 51.828 48.129 l 53.898 48.129 55.578 46.449
 55.578 44.379 c 55.578 42.309 53.898 40.629 51.828 40.629 c h
51.828 40.629 m f
216.09 48.129 m 218.16 48.129 219.84 46.449 219.84 44.379 c 219.84 42.309
 218.16 40.629 216.09 40.629 c 190.754 40.629 l 188.684 40.629 187.004 42.309
 187.004 44.379 c 187.004 46.449 188.684 48.129 190.754 48.129 c 199.621
 48.129 l 199.621 90.258 l 199.621 92.332 201.301 94.008 203.371 94.008 
c 205.441 94.008 207.121 92.332 207.121 90.258 c 207.121 48.129 l h
216.09 48.129 m f
Q Q
showpage
%%Trailer
end
%%EOF
