%!PS-Adobe-3.0 EPSF-3.0
%%Creator: cairo 1.16.0 (https://cairographics.org)
%%CreationDate: Thu Nov 14 08:46:42 2019
%%Pages: 1
%%DocumentData: Clean7Bit
%%LanguageLevel: 2
%%BoundingBox: 0 0 384 384
%%EndComments
%%BeginProlog
50 dict begin
/q { gsave } bind def
/Q { grestore } bind def
/cm { 6 array astore concat } bind def
/w { setlinewidth } bind def
/J { setlinecap } bind def
/j { setlinejoin } bind def
/M { setmiterlimit } bind def
/d { setdash } bind def
/m { moveto } bind def
/l { lineto } bind def
/c { curveto } bind def
/h { closepath } bind def
/re { exch dup neg 3 1 roll 5 3 roll moveto 0 rlineto
      0 exch rlineto 0 rlineto closepath } bind def
/S { stroke } bind def
/f { fill } bind def
/f* { eofill } bind def
/n { newpath } bind def
/W { clip } bind def
/W* { eoclip } bind def
/BT { } bind def
/ET { } bind def
/BDC { mark 3 1 roll /BDC pdfmark } bind def
/EMC { mark /EMC pdfmark } bind def
/cairo_store_point { /cairo_point_y exch def /cairo_point_x exch def } def
/Tj { show currentpoint cairo_store_point } bind def
/TJ {
  {
    dup
    type /stringtype eq
    { show } { -0.001 mul 0 cairo_font_matrix dtransform rmoveto } ifelse
  } forall
  currentpoint cairo_store_point
} bind def
/cairo_selectfont { cairo_font_matrix aload pop pop pop 0 0 6 array astore
    cairo_font exch selectfont cairo_point_x cairo_point_y moveto } bind def
/Tf { pop /cairo_font exch def /cairo_font_matrix where
      { pop cairo_selectfont } if } bind def
/Td { matrix translate cairo_font_matrix matrix concatmatrix dup
      /cairo_font_matrix exch def dup 4 get exch 5 get cairo_store_point
      /cairo_font where { pop cairo_selectfont } if } bind def
/Tm { 2 copy 8 2 roll 6 array astore /cairo_font_matrix exch def
      cairo_store_point /cairo_font where { pop cairo_selectfont } if } bind def
/g { setgray } bind def
/rg { setrgbcolor } bind def
/d1 { setcachedevice } bind def
/cairo_data_source {
  CairoDataIndex CairoData length lt
    { CairoData CairoDataIndex get /CairoDataIndex CairoDataIndex 1 add def }
    { () } ifelse
} def
/cairo_flush_ascii85_file { cairo_ascii85_file status { cairo_ascii85_file flushfile } if } def
/cairo_image { image cairo_flush_ascii85_file } def
/cairo_imagemask { imagemask cairo_flush_ascii85_file } def
%%EndProlog
%%BeginSetup
%%EndSetup
%%Page: 1 1
%%BeginPageSetup
%%PageBoundingBox: 0 0 384 384
%%EndPageSetup
q 0 0 384 384 rectclip
1 0 0 -1 0 384 cm q
0.92549 0.764706 0.180392 rg
384 192 m 384 230.25 372.809 265.891 353.535 295.824 c 344.355 310.074 
333.344 323.023 320.836 334.359 c 286.77 365.203 241.574 384 192 384 c 148.957
 384 109.207 369.832 77.191 345.898 c 72.328 342.277 67.648 338.422 63.164
 334.359 c 58.516 330.141 54.066 325.703 49.844 321.051 c 42.719 313.207
 36.234 304.77 30.465 295.824 c 11.191 265.891 0 230.25 0 192 c 0 85.965
 85.965 0 192 0 c 298.035 0 384 85.965 384 192 c h
384 192 m f
0.184314 0.215686 0.231373 rg
218.23 8.844 m 168.453 8.844 l 150.602 8.844 136.078 23.371 136.078 41.234
 c 136.078 78.641 l 250.609 78.641 l 250.609 41.234 l 250.609 23.371 236.082
 8.844 218.23 8.844 c h
233.578 61.609 m 153.105 61.609 l 153.105 41.234 l 153.105 32.77 159.988
 25.875 168.453 25.875 c 218.23 25.875 l 226.695 25.875 233.578 32.77 233.578
 41.234 c h
233.578 61.609 m f
310.68 0 m 287.707 0 l 280.402 0 274.48 5.922 274.48 13.223 c 274.48 139.73
 l 274.48 143.336 277.406 146.258 281.012 146.258 c 317.371 146.258 l 320.98
 146.258 323.902 143.336 323.902 139.73 c 323.902 13.223 l 323.902 5.922
 317.984 0 310.68 0 c h
310.68 0 m f
96.297 0 m 73.324 0 l 66.02 0 60.102 5.922 60.102 13.223 c 60.102 139.73
 l 60.102 143.336 63.023 146.258 66.629 146.258 c 102.992 146.258 l 106.598
 146.258 109.52 143.336 109.52 139.73 c 109.52 13.223 l 109.523 5.922 103.602
 0 96.297 0 c h
96.297 0 m f
0.564706 0.847059 0.976471 rg
353.535 210.309 m 353.535 295.824 l 344.355 310.074 333.344 323.023 320.836
 334.359 c 286.77 365.203 241.574 384 192 384 c 142.426 384 97.23 365.203
 63.164 334.359 c 50.656 323.023 39.645 310.074 30.465 295.824 c 30.465 
210.309 l 30.465 175.559 41.438 143.387 60.098 117.039 c 73.172 98.586 90.023
 82.996 109.516 71.406 c 117.898 66.406 126.789 62.152 136.074 58.727 c 
141.613 56.676 147.293 54.93 153.105 53.496 c 165.57 50.406 178.59 48.781
 192.008 48.781 c 206.379 48.781 220.312 50.648 233.578 54.188 c 239.391
 55.719 245.078 57.586 250.613 59.746 c 258.922 62.969 266.91 66.891 274.484
 71.398 c 293.977 82.996 310.828 98.586 323.902 117.039 c 342.562 143.387
 353.535 175.559 353.535 210.309 c h
353.535 210.309 m f
0.380392 0.635294 0.976471 rg
201.613 49.066 m 191.625 49.656 181.898 51.156 172.477 53.496 c 166.672
 54.93 160.988 56.676 155.453 58.727 c 146.16 62.152 137.281 66.406 128.895
 71.406 c 109.395 82.996 92.551 98.586 79.477 117.039 c 60.809 143.387 49.844
 175.559 49.844 210.309 c 49.844 321.051 l 42.719 313.207 36.234 304.77 
30.465 295.824 c 30.465 210.309 l 30.465 175.559 41.438 143.387 60.098 117.039
 c 73.172 98.586 90.023 82.996 109.516 71.406 c 117.898 66.406 126.789 62.152
 136.074 58.727 c 141.613 56.676 147.293 54.93 153.105 53.496 c 165.57 50.406
 178.59 48.781 192.008 48.781 c 195.234 48.781 198.434 48.871 201.613 49.066
 c h
201.613 49.066 m f
0.964706 0.945098 0.945098 rg
320.836 215.176 m 320.836 334.359 l 286.77 365.203 241.574 384 192 384 
c 142.426 384 97.23 365.203 63.164 334.359 c 63.164 215.176 l 63.164 189.824
 70.477 166.184 83.121 146.258 c 90.324 134.918 99.238 124.77 109.516 116.199
 c 131.859 97.551 160.621 86.34 192.008 86.34 c 223.379 86.34 252.141 97.551
 274.484 116.199 c 284.762 124.77 293.676 134.918 300.871 146.258 c 313.508
 166.184 320.836 189.824 320.836 215.176 c h
320.836 215.176 m f
0.87451 0.917647 0.937255 rg
199.02 86.535 m 170.379 88.078 144.211 98.953 123.539 116.199 c 113.266
 124.77 104.348 134.918 97.148 146.258 c 84.504 166.184 77.191 189.824 77.191
 215.176 c 77.191 345.898 l 72.328 342.277 67.648 338.422 63.164 334.359
 c 63.164 215.176 l 63.164 189.824 70.477 166.184 83.121 146.258 c 90.324
 134.918 99.238 124.77 109.516 116.199 c 131.859 97.551 160.621 86.34 192.008
 86.34 c 194.363 86.34 196.695 86.414 199.02 86.535 c h
199.02 86.535 m f
0.564706 0.847059 0.976471 rg
235.766 154.441 m 203.848 122.512 l 197.305 115.973 186.703 115.973 180.16
 122.512 c 148.234 154.441 l 141.695 160.98 141.695 171.586 148.234 178.125
 c 180.16 210.051 l 186.703 216.594 197.305 216.594 203.848 210.051 c 235.766
 178.125 l 242.305 171.586 242.305 160.98 235.766 154.441 c h
185.141 181.59 m 185.141 183.48 184.367 185.199 183.133 186.441 c 181.887
 187.68 180.168 188.453 178.277 188.453 c 174.484 188.453 171.418 185.379
 171.418 181.59 c 171.418 150.977 l 171.418 147.188 174.484 144.113 178.277
 144.113 c 182.066 144.113 185.141 147.188 185.141 150.977 c h
212.59 181.59 m 212.59 183.48 211.82 185.199 210.582 186.441 c 209.336 
187.68 207.617 188.453 205.73 188.453 c 201.941 188.453 198.867 185.379 
198.867 181.59 c 198.867 150.977 l 198.867 147.188 201.941 144.113 205.73
 144.113 c 209.516 144.113 212.59 147.188 212.59 150.977 c h
212.59 181.59 m f
277.285 275.324 m 277.285 345.008 l 277.285 356.836 267.695 366.422 255.867
 366.422 c 128.133 366.422 l 116.305 366.422 106.715 356.836 106.715 345.008
 c 106.715 275.324 l 106.715 263.496 116.305 253.914 128.133 253.914 c 255.867
 253.914 l 267.695 253.914 277.285 263.496 277.285 275.324 c h
277.285 275.324 m f
0.380392 0.635294 0.976471 rg
154.266 366.422 m 128.133 366.422 l 116.305 366.422 106.715 356.836 106.715
 345.008 c 106.715 275.324 l 106.715 263.496 116.305 253.914 128.133 253.914
 c 154.266 253.914 l 142.438 253.914 132.844 263.496 132.844 275.324 c 132.844
 345.008 l 132.844 356.836 142.438 366.422 154.266 366.422 c h
154.266 366.422 m f
277.285 275.324 m 277.285 307.746 l 274.82 309.129 271.969 309.914 268.938
 309.914 c 115.062 309.914 l 112.031 309.914 109.18 309.129 106.715 307.746
 c 106.715 275.324 l 106.715 263.496 116.305 253.914 128.133 253.914 c 255.867
 253.914 l 267.695 253.914 277.285 263.496 277.285 275.324 c h
277.285 275.324 m f
0.564706 0.847059 0.976471 rg
268.938 300.699 m 115.062 300.699 l 105.578 300.699 97.895 293.012 97.895
 283.527 c 97.895 252.34 l 97.895 242.859 105.578 235.172 115.062 235.172
 c 268.938 235.172 l 278.418 235.172 286.105 242.859 286.105 252.34 c 286.105
 283.527 l 286.105 293.012 278.422 300.699 268.938 300.699 c h
268.938 300.699 m f
0.380392 0.635294 0.976471 rg
140.035 300.699 m 115.059 300.699 l 105.582 300.699 97.895 293.012 97.895
 283.531 c 97.895 252.34 l 97.895 242.859 105.582 235.172 115.059 235.172
 c 140.035 235.172 l 130.555 235.172 122.867 242.859 122.867 252.34 c 122.867
 283.531 l 122.867 293.012 130.555 300.699 140.035 300.699 c h
140.035 300.699 m f
0.184314 0.215686 0.231373 rg
196.879 348.59 m 187.121 348.59 l 181.648 348.59 177.211 344.152 177.211
 338.68 c 177.211 300.703 l 206.789 300.703 l 206.789 338.68 l 206.789 344.152
 202.352 348.59 196.879 348.59 c h
196.879 348.59 m f
Q Q
showpage
%%Trailer
end
%%EOF
