%!PS-Adobe-3.0 EPSF-3.0
%%Creator: cairo 1.16.0 (https://cairographics.org)
%%CreationDate: Thu Nov 14 08:46:42 2019
%%Pages: 1
%%DocumentData: Clean7Bit
%%LanguageLevel: 2
%%BoundingBox: 0 0 384 384
%%EndComments
%%BeginProlog
50 dict begin
/q { gsave } bind def
/Q { grestore } bind def
/cm { 6 array astore concat } bind def
/w { setlinewidth } bind def
/J { setlinecap } bind def
/j { setlinejoin } bind def
/M { setmiterlimit } bind def
/d { setdash } bind def
/m { moveto } bind def
/l { lineto } bind def
/c { curveto } bind def
/h { closepath } bind def
/re { exch dup neg 3 1 roll 5 3 roll moveto 0 rlineto
      0 exch rlineto 0 rlineto closepath } bind def
/S { stroke } bind def
/f { fill } bind def
/f* { eofill } bind def
/n { newpath } bind def
/W { clip } bind def
/W* { eoclip } bind def
/BT { } bind def
/ET { } bind def
/BDC { mark 3 1 roll /BDC pdfmark } bind def
/EMC { mark /EMC pdfmark } bind def
/cairo_store_point { /cairo_point_y exch def /cairo_point_x exch def } def
/Tj { show currentpoint cairo_store_point } bind def
/TJ {
  {
    dup
    type /stringtype eq
    { show } { -0.001 mul 0 cairo_font_matrix dtransform rmoveto } ifelse
  } forall
  currentpoint cairo_store_point
} bind def
/cairo_selectfont { cairo_font_matrix aload pop pop pop 0 0 6 array astore
    cairo_font exch selectfont cairo_point_x cairo_point_y moveto } bind def
/Tf { pop /cairo_font exch def /cairo_font_matrix where
      { pop cairo_selectfont } if } bind def
/Td { matrix translate cairo_font_matrix matrix concatmatrix dup
      /cairo_font_matrix exch def dup 4 get exch 5 get cairo_store_point
      /cairo_font where { pop cairo_selectfont } if } bind def
/Tm { 2 copy 8 2 roll 6 array astore /cairo_font_matrix exch def
      cairo_store_point /cairo_font where { pop cairo_selectfont } if } bind def
/g { setgray } bind def
/rg { setrgbcolor } bind def
/d1 { setcachedevice } bind def
/cairo_data_source {
  CairoDataIndex CairoData length lt
    { CairoData CairoDataIndex get /CairoDataIndex CairoDataIndex 1 add def }
    { () } ifelse
} def
/cairo_flush_ascii85_file { cairo_ascii85_file status { cairo_ascii85_file flushfile } if } def
/cairo_image { image cairo_flush_ascii85_file } def
/cairo_imagemask { imagemask cairo_flush_ascii85_file } def
%%EndProlog
%%BeginSetup
%%EndSetup
%%Page: 1 1
%%BeginPageSetup
%%PageBoundingBox: 0 0 384 384
%%EndPageSetup
q 0 0 384 384 rectclip
1 0 0 -1 0 384 cm q
0.976471 0.239216 0.431373 rg
384 192 m 384 298.035 298.035 384 192 384 c 150.309 384 111.719 370.711
 80.234 348.137 c 79.223 347.406 78.211 346.672 77.215 345.922 c 71.02 341.297
 65.117 336.301 59.52 330.977 c 57.66 329.199 55.832 327.383 54.039 325.531
 c 20.59 290.969 0 243.887 0 192 c 0 106.949 55.305 34.816 131.91 9.594 
c 144.691 5.387 158.062 2.484 171.871 1.043 c 178.484 0.352 185.199 0 192
 0 c 298.035 0 384 85.965 384 192 c h
384 192 m f
0.905882 0.647059 0.180392 rg
210.871 60.25 m 209.422 67.5 202.367 72.203 195.113 70.758 c 187.859 69.309
 183.156 62.25 184.605 55 c 186.105 47.5 183.984 39.977 178.785 34.359 c
 173.59 28.742 166.254 26.051 158.656 26.965 c 148.555 28.188 140.402 35.703
 138.375 45.668 c 77.215 345.922 l 71.02 341.297 65.117 336.301 59.52 330.977
 c 57.66 329.199 55.832 327.383 54.039 325.531 c 112.125 40.328 l 114.715
 27.641 121.934 16.816 131.91 9.594 c 138.684 4.68 146.723 1.434 155.445
 0.375 c 161.039 -0.297 166.566 -0.059 171.871 1.043 c 181.934 3.129 191.168
 8.312 198.441 16.164 c 209.535 28.156 214.074 44.219 210.871 60.25 c h
210.871 60.25 m f
355.336 73.039 m 353.539 74.832 351.219 76.137 348.547 76.68 c 45.672 138.375
 l 35.703 140.402 28.184 148.555 26.965 158.656 c 26.051 166.25 28.746 173.586
 34.359 178.785 c 39.973 183.98 47.496 186.102 54.996 184.605 c 62.25 183.156
 69.305 187.859 70.754 195.113 c 72.199 202.367 67.496 209.422 60.246 210.867
 c 44.223 214.066 28.156 209.539 16.164 198.438 c 4.176 187.34 -1.582 171.668
 0.375 155.445 c 2.98 133.875 19.035 116.465 40.324 112.129 c 343.199 50.438
 l 350.449 48.961 357.52 53.641 358.996 60.887 c 359.926 65.461 358.406 
69.965 355.336 73.039 c h
355.336 73.039 m f
0.964706 0.945098 0.945098 rg
227.66 281.184 m 220.344 282.266 213.535 277.215 212.453 269.898 c 208.949
 246.254 l 207.863 238.938 212.918 232.129 220.23 231.043 c 227.547 229.957
 234.359 235.012 235.441 242.328 c 238.945 265.973 l 240.027 273.289 234.977
 280.098 227.66 281.184 c h
227.66 281.184 m f
281.184 227.66 m 282.266 220.344 277.215 213.535 269.898 212.449 c 246.254
 208.949 l 238.938 207.863 232.129 212.914 231.043 220.23 c 229.957 227.547
 235.012 234.355 242.328 235.441 c 265.973 238.945 l 273.289 240.027 280.098
 234.977 281.184 227.66 c h
281.184 227.66 m f
0.72549 0.894118 0.937255 rg
207.152 275.809 m 207.152 316.418 174.23 349.336 133.625 349.336 c 93.016
 349.336 60.094 316.418 60.094 275.809 c 60.094 235.199 93.016 202.277 133.625
 202.277 c 174.23 202.277 207.152 235.199 207.152 275.809 c h
207.152 275.809 m f
349.336 133.625 m 349.336 174.23 316.418 207.152 275.809 207.152 c 235.199
 207.152 202.281 174.23 202.281 133.625 c 202.281 93.016 235.199 60.094 
275.809 60.094 c 316.418 60.094 349.336 93.016 349.336 133.625 c h
349.336 133.625 m f
1 g
327.801 81.633 m 356.512 110.344 356.52 156.898 327.801 185.617 c 324.816
 188.602 321.641 191.273 318.305 193.633 c 338.676 164.93 336.008 124.875
 310.281 99.148 c 284.551 73.418 244.496 70.746 215.797 91.125 c 218.16 
87.793 220.828 84.617 223.816 81.633 c 252.531 52.914 299.082 52.914 327.801
 81.633 c h
327.801 81.633 m f
0.905882 0.647059 0.180392 rg
206.715 172.23 m 197.504 172.23 188.844 175.816 182.332 182.332 c 175.816
 188.844 172.23 197.504 172.23 206.715 c 145.449 206.715 l 145.449 190.352
 151.82 174.965 163.391 163.391 c 174.965 151.82 190.352 145.445 206.715
 145.445 c h
206.715 172.23 m f
1 g
185.617 223.816 m 214.328 252.527 214.332 299.082 185.617 327.801 c 182.629
 330.785 179.453 333.457 176.121 335.816 c 196.492 307.113 193.824 267.059
 168.098 241.332 c 142.367 215.602 102.312 212.93 73.613 233.309 c 75.973
 229.977 78.645 226.801 81.629 223.816 c 110.348 195.098 156.898 195.098
 185.617 223.816 c h
185.617 223.816 m f
0.92549 0.764706 0.180392 rg
195.086 337.27 m 161.195 371.16 106.051 371.16 72.16 337.27 c 38.273 303.379
 38.273 248.234 72.16 214.348 c 106.051 180.457 161.195 180.457 195.086 
214.348 c 228.977 248.234 228.977 303.379 195.086 337.27 c h
91.102 233.285 m 67.652 256.73 67.652 294.883 91.102 318.332 c 114.547 
341.777 152.699 341.777 176.148 318.332 c 199.594 294.883 199.594 256.73
 176.148 233.285 c 152.699 209.836 114.547 209.836 91.102 233.285 c h
91.102 233.285 m f
337.27 195.086 m 303.379 228.977 248.234 228.977 214.348 195.086 c 180.457
 161.195 180.457 106.051 214.348 72.16 c 248.234 38.273 303.379 38.273 337.27
 72.16 c 371.16 106.051 371.16 161.195 337.27 195.086 c h
233.285 91.102 m 209.836 114.547 209.836 152.699 233.285 176.148 c 256.73
 199.594 294.883 199.594 318.332 176.148 c 341.777 152.699 341.777 114.547
 318.332 91.102 c 294.883 67.652 256.73 67.652 233.285 91.102 c h
233.285 91.102 m f
91.102 337.27 m 80.234 348.137 l 72.93 342.898 66.016 337.164 59.52 330.977
 c 72.164 318.332 l 77.395 313.102 85.867 313.102 91.102 318.332 c 96.332
 323.559 96.332 332.039 91.102 337.27 c h
91.102 337.27 m f
355.344 73.027 m 337.27 91.102 l 332.039 96.332 323.559 96.332 318.332 
91.102 c 313.102 85.871 313.102 77.391 318.332 72.164 c 336.402 54.09 l 
341.633 48.859 350.113 48.859 355.344 54.09 c 360.57 59.32 360.57 67.797
 355.344 73.027 c h
355.344 73.027 m f
0.905882 0.647059 0.180392 rg
180.012 314.066 m 181.477 312.855 182.902 311.574 184.273 310.203 c 207.723
 286.754 207.723 248.602 184.273 225.156 c 160.828 201.711 122.676 201.711
 99.23 225.156 c 97.859 226.527 96.574 227.953 95.363 229.418 c 118.965 
209.926 154.07 211.207 176.145 233.285 c 198.223 255.359 199.504 290.469
 180.012 314.066 c h
180.012 314.066 m f
80.289 329.141 m 47.766 296.617 46.461 244.523 76.363 210.418 c 74.934 
211.676 73.527 212.98 72.16 214.348 c 38.273 248.234 38.273 303.379 72.16
 337.27 c 106.051 371.16 161.195 371.16 195.086 337.27 c 196.449 335.902
 197.758 334.5 199.012 333.066 c 164.91 362.969 112.816 361.664 80.289 329.141
 c h
80.289 329.141 m f
322.195 171.883 m 323.664 170.672 325.09 169.387 326.461 168.02 c 349.906
 144.57 349.906 106.418 326.461 82.973 c 303.012 59.523 264.859 59.523 241.414
 82.973 c 240.043 84.344 238.758 85.77 237.547 87.234 c 261.148 67.742 296.254
 69.023 318.332 91.102 c 340.406 113.176 341.691 148.281 322.195 171.883
 c h
322.195 171.883 m f
222.477 186.957 m 189.949 154.434 188.645 102.336 218.547 68.234 c 217.117
 69.492 215.715 70.797 214.348 72.16 c 180.457 106.051 180.457 161.195 214.348
 195.086 c 248.238 228.977 303.379 228.977 337.27 195.086 c 338.637 193.719
 339.941 192.316 341.195 190.883 c 307.094 220.785 255 219.48 222.477 186.957
 c h
222.477 186.957 m f
Q Q
showpage
%%Trailer
end
%%EOF
