%!PS-Adobe-3.0 EPSF-3.0
%%Creator: cairo 1.16.0 (https://cairographics.org)
%%CreationDate: Thu Nov 14 08:46:43 2019
%%Pages: 1
%%DocumentData: Clean7Bit
%%LanguageLevel: 2
%%BoundingBox: 0 0 384 384
%%EndComments
%%BeginProlog
50 dict begin
/q { gsave } bind def
/Q { grestore } bind def
/cm { 6 array astore concat } bind def
/w { setlinewidth } bind def
/J { setlinecap } bind def
/j { setlinejoin } bind def
/M { setmiterlimit } bind def
/d { setdash } bind def
/m { moveto } bind def
/l { lineto } bind def
/c { curveto } bind def
/h { closepath } bind def
/re { exch dup neg 3 1 roll 5 3 roll moveto 0 rlineto
      0 exch rlineto 0 rlineto closepath } bind def
/S { stroke } bind def
/f { fill } bind def
/f* { eofill } bind def
/n { newpath } bind def
/W { clip } bind def
/W* { eoclip } bind def
/BT { } bind def
/ET { } bind def
/BDC { mark 3 1 roll /BDC pdfmark } bind def
/EMC { mark /EMC pdfmark } bind def
/cairo_store_point { /cairo_point_y exch def /cairo_point_x exch def } def
/Tj { show currentpoint cairo_store_point } bind def
/TJ {
  {
    dup
    type /stringtype eq
    { show } { -0.001 mul 0 cairo_font_matrix dtransform rmoveto } ifelse
  } forall
  currentpoint cairo_store_point
} bind def
/cairo_selectfont { cairo_font_matrix aload pop pop pop 0 0 6 array astore
    cairo_font exch selectfont cairo_point_x cairo_point_y moveto } bind def
/Tf { pop /cairo_font exch def /cairo_font_matrix where
      { pop cairo_selectfont } if } bind def
/Td { matrix translate cairo_font_matrix matrix concatmatrix dup
      /cairo_font_matrix exch def dup 4 get exch 5 get cairo_store_point
      /cairo_font where { pop cairo_selectfont } if } bind def
/Tm { 2 copy 8 2 roll 6 array astore /cairo_font_matrix exch def
      cairo_store_point /cairo_font where { pop cairo_selectfont } if } bind def
/g { setgray } bind def
/rg { setrgbcolor } bind def
/d1 { setcachedevice } bind def
/cairo_data_source {
  CairoDataIndex CairoData length lt
    { CairoData CairoDataIndex get /CairoDataIndex CairoDataIndex 1 add def }
    { () } ifelse
} def
/cairo_flush_ascii85_file { cairo_ascii85_file status { cairo_ascii85_file flushfile } if } def
/cairo_image { image cairo_flush_ascii85_file } def
/cairo_imagemask { imagemask cairo_flush_ascii85_file } def
%%EndProlog
%%BeginSetup
%%EndSetup
%%Page: 1 1
%%BeginPageSetup
%%PageBoundingBox: 0 0 384 384
%%EndPageSetup
q 0 0 384 384 rectclip
1 0 0 -1 0 384 cm q
0.72549 0.894118 0.937255 rg
384 192 m 384 243.285 363.887 289.883 331.117 324.316 c 330.555 324.906
 329.984 325.492 329.406 326.078 c 323.496 332.152 317.176 337.824 310.492
 343.074 c 308.445 344.684 306.359 346.254 304.246 347.781 c 302.191 349.266
 300.098 350.715 297.977 352.125 c 297 352.77 296.012 353.406 295.02 354.039
 c 291.57 356.242 288.039 358.336 284.438 360.309 c 280.379 362.551 276.227
 364.641 271.996 366.586 c 266.07 369.309 259.973 371.738 253.738 373.852
 c 244.727 376.922 235.41 379.328 225.848 381.023 c 223.77 381.391 221.684
 381.727 219.594 382.027 c 217.516 382.328 215.422 382.598 213.324 382.824
 c 206.324 383.602 199.207 384 192 384 c 184.801 384 177.691 383.602 170.699
 382.828 c 168.602 382.598 166.508 382.336 164.43 382.035 c 162.328 381.734
 160.238 381.398 158.16 381.023 c 147.953 379.207 138.016 376.59 128.43 
373.23 c 122.828 371.266 117.336 369.047 111.988 366.586 c 107.762 364.641
 103.605 362.551 99.547 360.309 c 95.949 358.336 92.414 356.234 88.965 354.039
 c 87.988 353.414 87.023 352.785 86.055 352.148 c 83.934 350.738 81.84 349.289
 79.777 347.805 c 77.656 346.266 75.562 344.691 73.508 343.078 c 66.719 
337.754 60.309 331.98 54.324 325.809 c 53.836 325.312 53.355 324.816 52.883
 324.324 c 20.113 289.883 0 243.293 0 192 c 0 85.965 85.965 0 192 0 c 298.035
 0 384 85.965 384 192 c h
384 192 m f
0.964706 0.945098 0.945098 rg
331.117 126.863 m 331.117 324.316 l 303.523 353.324 266.949 373.711 225.848
 381.023 c 223.77 381.391 221.684 381.727 219.594 382.027 c 217.516 382.328
 215.422 382.598 213.324 382.824 c 206.324 383.602 199.207 384 192 384 c
 184.801 384 177.691 383.602 170.699 382.828 c 168.602 382.598 166.508 382.336
 164.43 382.035 c 162.328 381.734 160.238 381.398 158.16 381.023 c 117.051
 373.719 80.477 353.324 52.883 324.324 c 52.883 126.863 l h
331.117 126.863 m f
0.301961 g
134.941 194.695 m 134.941 252.438 l 79.781 252.438 l 79.781 194.695 l 79.781
 180.168 91.555 168.395 106.082 168.395 c 108.641 168.395 l 123.168 168.395
 134.941 180.168 134.941 194.695 c h
134.941 194.695 m f
0.87451 0.917647 0.937255 rg
108.637 162.129 m 106.086 162.129 l 88.141 162.129 73.508 176.738 73.508
 194.707 c 73.508 258.711 l 141.195 258.711 l 141.195 194.707 l 141.195 
176.738 126.586 162.129 108.637 162.129 c h
128.672 246.164 m 86.055 246.164 l 86.055 194.707 l 86.055 183.66 95.039
 174.645 106.086 174.645 c 108.637 174.645 l 119.684 174.645 128.672 183.66
 128.672 194.707 c h
128.672 246.164 m f
0.301961 g
304.242 194.695 m 304.242 252.438 l 249.082 252.438 l 249.082 194.695 l
 249.082 180.168 260.855 168.395 275.387 168.395 c 277.941 168.395 l 292.469
 168.395 304.242 180.168 304.242 194.695 c h
304.242 194.695 m f
0.87451 0.917647 0.937255 rg
277.941 162.129 m 275.387 162.129 l 257.438 162.129 242.805 176.738 242.805
 194.707 c 242.805 258.711 l 310.492 258.711 l 310.492 194.707 l 310.492
 176.738 295.891 162.129 277.941 162.129 c h
297.977 246.164 m 255.352 246.164 l 255.352 194.707 l 255.352 183.66 264.336
 174.645 275.387 174.645 c 277.941 174.645 l 288.988 174.645 297.977 183.66
 297.977 194.707 c h
297.977 246.164 m f
0.301961 g
219.59 194.695 m 219.59 252.438 l 164.43 252.438 l 164.43 194.695 l 164.43
 180.168 176.203 168.395 190.734 168.395 c 193.289 168.395 l 207.816 168.395
 219.59 180.168 219.59 194.695 c h
219.59 194.695 m f
0.87451 0.917647 0.937255 rg
193.289 162.129 m 190.738 162.129 l 172.793 162.129 158.16 176.738 158.16
 194.707 c 158.16 258.711 l 225.848 258.711 l 225.848 194.707 l 225.848 
176.738 211.238 162.129 193.289 162.129 c h
213.324 246.164 m 170.699 246.164 l 170.699 194.707 l 170.699 183.66 179.684
 174.645 190.738 174.645 c 193.289 174.645 l 204.336 174.645 213.324 183.66
 213.324 194.707 c h
213.324 246.164 m f
0.301961 g
134.941 302.566 m 134.941 360.309 l 99.547 360.309 l 95.949 358.336 92.414
 356.234 88.965 354.039 c 87.988 353.414 87.023 352.785 86.055 352.148 c
 83.934 350.738 81.84 349.289 79.777 347.805 c 79.777 302.566 l 79.777 288.039
 91.551 276.262 106.078 276.262 c 108.637 276.262 l 123.164 276.262 134.941
 288.039 134.941 302.566 c h
134.941 302.566 m f
0.87451 0.917647 0.937255 rg
108.637 270 m 106.086 270 l 88.141 270 73.508 284.602 73.508 302.578 c 
73.508 343.078 l 77.559 346.262 81.75 349.289 86.055 352.148 c 86.055 302.578
 l 86.055 291.531 95.039 282.516 106.086 282.516 c 108.637 282.516 l 119.684
 282.516 128.672 291.531 128.672 302.578 c 128.672 354.039 l 88.965 354.039
 l 96.309 358.719 104.004 362.918 111.988 366.586 c 141.195 366.586 l 141.195
 302.578 l 141.195 284.602 126.586 270 108.637 270 c h
108.637 270 m f
0.301961 g
304.246 302.566 m 304.246 347.781 l 302.191 349.266 300.098 350.715 297.977
 352.125 c 297 352.77 296.012 353.406 295.02 354.039 c 291.57 356.242 288.039
 358.336 284.438 360.309 c 249.082 360.309 l 249.082 302.566 l 249.082 288.039
 260.859 276.262 275.387 276.262 c 277.941 276.262 l 292.469 276.262 304.246
 288.039 304.246 302.566 c h
304.246 302.566 m f
0.87451 0.917647 0.937255 rg
277.941 270 m 275.387 270 l 257.438 270 242.805 284.602 242.805 302.578
 c 242.805 366.586 l 271.996 366.586 l 279.984 362.918 287.676 358.727 295.02
 354.039 c 255.352 354.039 l 255.352 302.578 l 255.352 291.531 264.336 282.516
 275.387 282.516 c 277.941 282.516 l 288.988 282.516 297.977 291.531 297.977
 302.578 c 297.977 352.125 l 302.273 349.266 306.449 346.254 310.492 343.074
 c 310.492 302.578 l 310.492 284.602 295.891 270 277.941 270 c h
277.941 270 m f
0.85098 0.447059 0.243137 rg
219.594 302.566 m 219.594 382.027 l 210.586 383.324 201.367 384 192 384
 c 182.641 384 173.43 383.332 164.43 382.035 c 164.43 302.566 l 164.43 288.039
 176.203 276.262 190.734 276.262 c 193.289 276.262 l 207.816 276.262 219.594
 288.039 219.594 302.566 c h
219.594 302.566 m f
0.87451 0.917647 0.937255 rg
193.289 270 m 190.738 270 l 172.793 270 158.16 284.602 158.16 302.578 c
 158.16 381.023 l 160.238 381.398 162.328 381.734 164.43 382.035 c 166.508
 382.336 168.602 382.598 170.699 382.828 c 170.699 302.578 l 170.699 291.531
 179.684 282.516 190.738 282.516 c 193.289 282.516 l 204.336 282.516 213.324
 291.531 213.324 302.578 c 213.324 382.824 l 215.422 382.598 217.516 382.328
 219.594 382.027 c 221.684 381.727 223.77 381.391 225.848 381.023 c 225.848
 302.578 l 225.848 284.602 211.238 270 193.289 270 c h
193.289 270 m f
0.964706 0.945098 0.945098 rg
342.883 110.5 m 203.773 3.988 l 196.828 -1.328 187.188 -1.328 180.246 3.988
 c 41.117 110.5 l 33.801 116.105 32.098 124.742 34.527 132.004 c 36.977 
139.309 43.602 145.219 52.883 145.219 c 331.117 145.219 l 340.406 145.219
 347.035 139.309 349.48 132.004 c 351.902 124.742 350.199 116.105 342.883
 110.5 c h
342.883 110.5 m f
0.87451 0.917647 0.937255 rg
204.703 21.156 m 197.211 15.418 186.805 15.418 179.316 21.156 c 34.527 
132.004 l 36.977 139.309 43.602 145.219 52.883 145.219 c 74.066 145.219 
l 179.316 64.648 l 186.805 58.918 197.211 58.918 204.703 64.656 c 309.93
 145.223 l 331.117 145.223 l 340.406 145.223 347.035 139.309 349.48 132.004
 c h
204.703 21.156 m f
0.85098 0.447059 0.243137 rg
354.828 119.242 m 204.703 4.305 l 197.211 -1.434 186.809 -1.434 179.312
 4.305 c 29.18 119.242 l 27.348 120.645 25.84 122.227 24.641 123.922 c 13.398
 139.82 34.059 158.992 49.52 147.156 c 179.316 47.785 l 186.809 42.059 197.211
 42.059 204.703 47.797 c 334.492 147.164 l 349.949 159 370.594 139.848 359.375
 123.938 c 358.172 122.234 356.664 120.648 354.828 119.242 c h
354.828 119.242 m f
0.976471 0.239216 0.431373 rg
215.152 149.207 m 168.848 149.207 l 165.816 149.207 163.082 147.379 161.918
 144.578 c 160.758 141.777 161.402 138.551 163.547 136.406 c 189.219 110.734
 l 163.547 85.059 l 161.402 82.914 160.758 79.688 161.918 76.887 c 163.082
 74.086 165.816 72.258 168.848 72.258 c 215.152 72.258 l 219.297 72.258 
222.652 75.613 222.652 79.758 c 222.652 83.898 219.297 87.258 215.152 87.258
 c 186.953 87.258 l 205.129 105.43 l 208.055 108.359 208.055 113.109 205.129
 116.035 c 186.953 134.211 l 215.152 134.211 l 219.297 134.211 222.652 137.566
 222.652 141.711 c 222.652 145.852 219.297 149.207 215.152 149.207 c h
215.152 149.207 m f
0.501961 0.886275 0.615686 rg
129.254 366.383 m 129.254 368.746 128.969 371.031 128.43 373.23 c 122.828
 371.266 117.336 369.047 111.988 366.586 c 107.762 364.641 103.605 362.551
 99.547 360.309 c 95.949 358.336 92.414 356.234 88.965 354.039 c 87.988 
353.414 87.023 352.785 86.055 352.148 c 83.934 350.738 81.84 349.289 79.777
 347.805 c 77.656 346.266 75.562 344.691 73.508 343.078 c 66.719 337.754
 60.309 331.98 54.324 325.809 c 55.801 325.613 57.309 325.516 58.836 325.516
 c 70.793 325.516 81.344 331.547 87.609 340.738 c 91.492 338.773 95.887 
337.664 100.539 337.664 c 116.391 337.664 129.254 350.52 129.254 366.383
 c h
129.254 366.383 m f
329.406 326.078 m 323.496 332.152 317.176 337.824 310.492 343.074 c 308.445
 344.684 306.359 346.254 304.246 347.781 c 302.191 349.266 300.098 350.715
 297.977 352.125 c 297 352.77 296.012 353.406 295.02 354.039 c 291.57 356.242
 288.039 358.336 284.438 360.309 c 280.379 362.551 276.227 364.641 271.996
 366.586 c 266.07 369.309 259.973 371.738 253.738 373.852 c 253.102 371.469
 252.758 368.961 252.758 366.383 c 252.758 350.52 265.613 337.664 281.477
 337.664 c 286.125 337.664 290.512 338.773 294.398 340.738 c 300.66 331.547
 311.211 325.516 323.176 325.516 c 325.297 325.516 327.383 325.711 329.406
 326.078 c h
329.406 326.078 m f
0.87451 0.917647 0.937255 rg
79.777 197.43 61.418 12.977 re f
158.16 197.43 67.688 12.977 re f
242.805 197.43 61.441 12.977 re f
79.777 305.301 61.418 12.977 re f
242.805 305.301 61.441 12.977 re f
Q Q
showpage
%%Trailer
end
%%EOF
