%!PS-Adobe-3.0 EPSF-3.0
%%Creator: cairo 1.16.0 (https://cairographics.org)
%%CreationDate: Thu Nov 14 08:46:45 2019
%%Pages: 1
%%DocumentData: Clean7Bit
%%LanguageLevel: 2
%%BoundingBox: 0 0 384 384
%%EndComments
%%BeginProlog
50 dict begin
/q { gsave } bind def
/Q { grestore } bind def
/cm { 6 array astore concat } bind def
/w { setlinewidth } bind def
/J { setlinecap } bind def
/j { setlinejoin } bind def
/M { setmiterlimit } bind def
/d { setdash } bind def
/m { moveto } bind def
/l { lineto } bind def
/c { curveto } bind def
/h { closepath } bind def
/re { exch dup neg 3 1 roll 5 3 roll moveto 0 rlineto
      0 exch rlineto 0 rlineto closepath } bind def
/S { stroke } bind def
/f { fill } bind def
/f* { eofill } bind def
/n { newpath } bind def
/W { clip } bind def
/W* { eoclip } bind def
/BT { } bind def
/ET { } bind def
/BDC { mark 3 1 roll /BDC pdfmark } bind def
/EMC { mark /EMC pdfmark } bind def
/cairo_store_point { /cairo_point_y exch def /cairo_point_x exch def } def
/Tj { show currentpoint cairo_store_point } bind def
/TJ {
  {
    dup
    type /stringtype eq
    { show } { -0.001 mul 0 cairo_font_matrix dtransform rmoveto } ifelse
  } forall
  currentpoint cairo_store_point
} bind def
/cairo_selectfont { cairo_font_matrix aload pop pop pop 0 0 6 array astore
    cairo_font exch selectfont cairo_point_x cairo_point_y moveto } bind def
/Tf { pop /cairo_font exch def /cairo_font_matrix where
      { pop cairo_selectfont } if } bind def
/Td { matrix translate cairo_font_matrix matrix concatmatrix dup
      /cairo_font_matrix exch def dup 4 get exch 5 get cairo_store_point
      /cairo_font where { pop cairo_selectfont } if } bind def
/Tm { 2 copy 8 2 roll 6 array astore /cairo_font_matrix exch def
      cairo_store_point /cairo_font where { pop cairo_selectfont } if } bind def
/g { setgray } bind def
/rg { setrgbcolor } bind def
/d1 { setcachedevice } bind def
/cairo_data_source {
  CairoDataIndex CairoData length lt
    { CairoData CairoDataIndex get /CairoDataIndex CairoDataIndex 1 add def }
    { () } ifelse
} def
/cairo_flush_ascii85_file { cairo_ascii85_file status { cairo_ascii85_file flushfile } if } def
/cairo_image { image cairo_flush_ascii85_file } def
/cairo_imagemask { imagemask cairo_flush_ascii85_file } def
%%EndProlog
%%BeginSetup
%%EndSetup
%%Page: 1 1
%%BeginPageSetup
%%PageBoundingBox: 0 0 384 384
%%EndPageSetup
q 0 0 384 384 rectclip
1 0 0 -1 0 384 cm q
0.564706 0.847059 0.976471 rg
384 192 m 384 298.039 298.039 384 192 384 c 85.961 384 0 298.039 0 192 
c 0 85.961 85.961 0 192 0 c 298.039 0 384 85.961 384 192 c h
384 192 m f
0.85098 0.447059 0.243137 rg
10.668 17.199 362.664 32.816 re f
0.741176 0.329412 0.137255 rg
10.668 17.199 362.664 15 re f
0.87451 0.917647 0.937255 rg
303.055 298.941 m 183.613 370.52 l 64.176 298.941 l 64.176 17.199 l 303.055
 17.199 l h
303.055 298.941 m f
0.964706 0.945098 0.945098 rg
79.176 290.441 m 79.176 32.199 l 288.055 32.199 l 288.055 290.441 l 183.613
 353.031 l h
79.176 290.441 m f
0.894118 0.0901961 0.32549 rg
245.809 216.434 m 188.164 216.434 l 224.18 180.422 l 229.402 175.199 232.277
 168.258 232.277 160.871 c 232.277 153.488 229.402 146.547 224.18 141.324
 c 188.164 105.309 l 245.809 105.309 l 261.055 105.309 273.457 92.906 273.457
 77.66 c 273.457 62.418 261.055 50.016 245.809 50.016 c 121.422 50.016 l
 110.199 50.016 100.172 56.715 95.875 67.082 c 91.586 77.449 93.938 89.277
 101.871 97.211 c 165.531 160.871 l 101.871 224.535 l 93.938 232.469 91.586
 244.293 95.879 254.66 c 100.172 265.031 110.199 271.73 121.422 271.73 c
 245.809 271.73 l 261.055 271.73 273.457 259.324 273.457 244.082 c 273.457
 228.836 261.055 216.434 245.809 216.434 c h
245.809 216.434 m f
0.976471 0.239216 0.431373 rg
121.422 256.73 m 116.285 256.73 111.699 253.664 109.734 248.922 c 107.773
 244.18 108.848 238.77 112.477 235.137 c 186.746 160.871 l 112.477 86.605
 l 108.848 82.977 107.773 77.562 109.734 72.82 c 111.699 68.078 116.285 
65.016 121.422 65.016 c 245.809 65.016 l 252.781 65.016 258.457 70.688 258.457
 77.66 c 258.457 84.637 252.781 90.309 245.809 90.309 c 151.953 90.309 l
 213.574 151.93 l 215.996 154.355 217.277 157.445 217.277 160.871 c 217.277
 164.301 215.996 167.391 213.574 169.812 c 151.953 231.434 l 245.809 231.434
 l 252.781 231.434 258.457 237.109 258.457 244.082 c 258.457 251.055 252.781
 256.73 245.809 256.73 c h
121.422 256.73 m f
Q Q
showpage
%%Trailer
end
%%EOF
