%!PS-Adobe-3.0 EPSF-3.0
%%Creator: cairo 1.16.0 (https://cairographics.org)
%%CreationDate: Thu Nov 14 08:46:49 2019
%%Pages: 1
%%DocumentData: Clean7Bit
%%LanguageLevel: 2
%%BoundingBox: 0 0 384 384
%%EndComments
%%BeginProlog
50 dict begin
/q { gsave } bind def
/Q { grestore } bind def
/cm { 6 array astore concat } bind def
/w { setlinewidth } bind def
/J { setlinecap } bind def
/j { setlinejoin } bind def
/M { setmiterlimit } bind def
/d { setdash } bind def
/m { moveto } bind def
/l { lineto } bind def
/c { curveto } bind def
/h { closepath } bind def
/re { exch dup neg 3 1 roll 5 3 roll moveto 0 rlineto
      0 exch rlineto 0 rlineto closepath } bind def
/S { stroke } bind def
/f { fill } bind def
/f* { eofill } bind def
/n { newpath } bind def
/W { clip } bind def
/W* { eoclip } bind def
/BT { } bind def
/ET { } bind def
/BDC { mark 3 1 roll /BDC pdfmark } bind def
/EMC { mark /EMC pdfmark } bind def
/cairo_store_point { /cairo_point_y exch def /cairo_point_x exch def } def
/Tj { show currentpoint cairo_store_point } bind def
/TJ {
  {
    dup
    type /stringtype eq
    { show } { -0.001 mul 0 cairo_font_matrix dtransform rmoveto } ifelse
  } forall
  currentpoint cairo_store_point
} bind def
/cairo_selectfont { cairo_font_matrix aload pop pop pop 0 0 6 array astore
    cairo_font exch selectfont cairo_point_x cairo_point_y moveto } bind def
/Tf { pop /cairo_font exch def /cairo_font_matrix where
      { pop cairo_selectfont } if } bind def
/Td { matrix translate cairo_font_matrix matrix concatmatrix dup
      /cairo_font_matrix exch def dup 4 get exch 5 get cairo_store_point
      /cairo_font where { pop cairo_selectfont } if } bind def
/Tm { 2 copy 8 2 roll 6 array astore /cairo_font_matrix exch def
      cairo_store_point /cairo_font where { pop cairo_selectfont } if } bind def
/g { setgray } bind def
/rg { setrgbcolor } bind def
/d1 { setcachedevice } bind def
/cairo_data_source {
  CairoDataIndex CairoData length lt
    { CairoData CairoDataIndex get /CairoDataIndex CairoDataIndex 1 add def }
    { () } ifelse
} def
/cairo_flush_ascii85_file { cairo_ascii85_file status { cairo_ascii85_file flushfile } if } def
/cairo_image { image cairo_flush_ascii85_file } def
/cairo_imagemask { imagemask cairo_flush_ascii85_file } def
%%EndProlog
%%BeginSetup
%%EndSetup
%%Page: 1 1
%%BeginPageSetup
%%PageBoundingBox: 0 0 384 384
%%EndPageSetup
q 0 0 384 384 rectclip
1 0 0 -1 0 384 cm q
0.737255 0.584314 0.886275 rg
384 192 m 384 298.039 298.039 384 192 384 c 85.961 384 0 298.039 0 192 
c 0 85.961 85.961 0 192 0 c 298.039 0 384 85.961 384 192 c h
384 192 m f
0.964706 0.945098 0.945098 rg
46.82 201.594 m 43.086 188.324 41.191 174.547 41.191 160.637 c 41.191 77.484
 108.844 9.832 192 9.832 c 275.156 9.832 342.809 77.48 342.809 160.637 c
 342.809 174.34 340.969 187.922 337.34 201.008 c 322.887 197 l 326.152 185.219
 327.809 172.984 327.809 160.637 c 327.809 85.754 266.887 24.832 192 24.832
 c 117.117 24.832 56.191 85.754 56.191 160.637 c 56.191 173.172 57.898 185.582
 61.262 197.527 c h
46.82 201.594 m f
0.92549 0.764706 0.180392 rg
298.809 351.57 m 289.551 357.781 279.727 363.211 269.422 367.746 c 261.434
 371.273 253.164 374.273 244.648 376.688 c 227.926 381.449 210.262 384 192
 384 c 173.746 384 156.082 381.449 139.352 376.695 c 133.922 375.148 128.578
 373.363 123.352 371.355 c 123.031 371.234 122.707 371.113 122.387 370.988
 c 119.754 369.969 117.148 368.879 114.578 367.746 c 104.273 363.203 94.449
 357.781 85.184 351.562 c 92.977 340.785 103.004 331.738 114.578 325.074
 c 122.227 320.672 130.551 317.316 139.352 315.211 c 140.707 314.879 142.078
 314.578 143.461 314.316 c 146.062 313.809 148.711 313.418 151.387 313.141
 c 152.16 313.059 152.926 312.984 153.703 312.922 c 156.238 312.711 158.805
 312.609 161.398 312.609 c 222.594 312.609 l 225.984 312.609 229.32 312.789
 232.605 313.133 c 235.281 313.41 237.922 313.809 240.531 314.301 c 241.574
 314.504 242.609 314.723 243.637 314.953 c 243.977 315.047 244.32 315.113
 244.648 315.203 c 253.453 317.316 261.773 320.672 269.422 325.074 c 280.996
 331.746 291.016 340.793 298.809 351.57 c h
298.809 351.57 m f
1 0.796078 0.745098 rg
100.012 208.961 m 100.012 224.484 88.672 237.355 73.82 239.742 c 72.199
 240.008 70.527 240.141 68.824 240.141 c 51.598 240.141 37.641 226.184 37.641
 208.957 c 37.641 191.73 51.598 177.773 68.824 177.773 c 70.527 177.773 
72.199 177.91 73.82 178.176 c 88.672 180.562 100.012 193.434 100.012 208.961
 c h
100.012 208.961 m f
0.917647 0.67451 0.615686 rg
100.012 208.961 m 100.012 224.484 88.672 237.355 73.82 239.742 c 71.125
 229.934 69.684 219.613 69.684 208.961 c 69.684 198.305 71.125 187.984 73.82
 178.176 c 88.672 180.562 100.012 193.434 100.012 208.961 c h
100.012 208.961 m f
79.973 208.961 m 79.973 215.113 74.98 220.105 68.824 220.105 c 62.672 220.105
 57.68 215.113 57.68 208.961 c 57.68 202.805 62.672 197.812 68.824 197.812
 c 74.98 197.812 79.973 202.805 79.973 208.961 c h
79.973 208.961 m f
0.905882 0.647059 0.180392 rg
161.398 312.609 m 139.379 312.609 124.453 344.43 123.352 371.355 c 123.031
 371.234 122.707 371.113 122.387 370.988 c 119.754 369.969 117.148 368.879
 114.578 367.746 c 104.273 363.203 94.449 357.781 85.184 351.562 c 92.977
 340.785 103.004 331.738 114.578 325.074 c 122.227 320.672 130.551 317.316
 139.352 315.211 c 140.707 314.879 142.078 314.578 143.461 314.316 c 146.062
 313.809 148.711 313.418 151.387 313.141 c 152.16 313.059 152.926 312.984
 153.703 312.922 c 156.238 312.711 158.805 312.609 161.398 312.609 c h
161.398 312.609 m f
0.564706 0.847059 0.976471 rg
191.992 351.082 m 231.734 373.172 l 243.828 313.184 l 219.129 302.387 l
 f
191.992 351.082 m 152.246 373.172 l 140.152 313.184 l 164.852 302.387 l
 f
1 0.796078 0.745098 rg
283.98 208.961 m 283.98 224.484 295.32 237.355 310.168 239.742 c 311.789
 240.008 313.461 240.141 315.164 240.141 c 332.391 240.141 346.348 226.184
 346.348 208.957 c 346.348 191.73 332.391 177.773 315.164 177.773 c 313.461
 177.773 311.793 177.91 310.168 178.176 c 295.32 180.562 283.98 193.434 
283.98 208.961 c h
283.98 208.961 m f
0.917647 0.67451 0.615686 rg
283.98 208.961 m 283.98 224.484 295.32 237.355 310.168 239.742 c 312.867
 229.934 314.305 219.613 314.305 208.961 c 314.305 198.305 312.867 187.984
 310.168 178.176 c 295.32 180.562 283.98 193.434 283.98 208.961 c h
283.98 208.961 m f
326.309 208.961 m 326.309 215.113 321.32 220.105 315.164 220.105 c 309.008
 220.105 304.02 215.113 304.02 208.961 c 304.02 202.805 309.008 197.812 
315.164 197.812 c 321.32 197.812 326.309 202.805 326.309 208.961 c h
326.309 208.961 m f
225.531 276.402 m 225.531 317.555 l 225.531 332.621 215.598 345.355 201.914
 349.586 c 198.781 350.559 195.441 351.082 191.992 351.082 c 173.473 351.082
 158.465 336.074 158.465 317.555 c 158.465 276.402 l h
225.531 276.402 m f
1 0.796078 0.745098 rg
225.531 314.949 m 225.531 317.555 l 225.531 332.621 215.598 345.355 201.914
 349.586 c 189.566 345.789 180.285 335.055 178.57 321.922 c 180.812 322.059
 183.062 322.129 185.328 322.129 c 191.672 322.129 197.891 321.625 203.949
 320.629 c 211.414 319.43 218.625 317.508 225.531 314.949 c h
225.531 314.949 m f
308.023 192.383 m 308.023 250.121 265.84 298.02 210.617 306.91 c 204.559
 307.906 198.34 308.41 191.996 308.41 c 127.914 308.41 75.969 256.469 75.969
 192.383 c 75.969 74.258 l 308.023 74.258 l h
308.023 192.383 m f
0.917647 0.67451 0.615686 rg
212.434 306.609 m 211.832 306.711 211.227 306.816 210.617 306.914 c 204.559
 307.906 198.34 308.406 191.996 308.406 c 127.914 308.406 75.969 256.469
 75.969 192.383 c 75.969 74.258 l 116.883 74.258 l 116.883 192.383 l 116.883
 249.488 158.117 296.941 212.434 306.609 c h
212.434 306.609 m f
0.85098 0.447059 0.243137 rg
308.016 145.898 m 308.016 192.383 l 286.102 192.383 l 286.102 192.383 297.324
 136.172 266.648 116.715 c 235.973 97.266 220.426 126.441 191.992 126.441
 c 177.789 126.441 166.801 119.16 155.535 114.301 c 144.254 109.426 132.691
 106.98 117.336 116.715 c 86.664 136.172 97.891 192.383 97.891 192.383 c
 75.969 192.383 l 75.969 145.898 l 70.949 120.457 55.613 83.422 85.914 53.121
 c 116.219 22.816 138.293 25.434 147.27 10.469 c 154.004 30.676 l 191.992
 0 l 229.988 30.676 l 236.723 10.469 l 245.699 25.434 267.773 22.816 298.074
 53.121 c 328.379 83.422 313.043 120.457 308.016 145.898 c h
308.016 145.898 m f
0.741176 0.329412 0.137255 rg
138.293 71.324 m 138.293 91.281 155.535 114.301 155.535 114.301 c 144.254
 109.426 132.691 106.98 117.336 116.715 c 86.664 136.172 97.891 192.383 
97.891 192.383 c 75.969 192.383 l 75.969 145.898 l 70.949 120.457 55.613
 83.422 85.914 53.121 c 116.219 22.816 138.293 25.434 147.27 10.469 c 154.004
 30.676 l 191.992 0 l 174.203 35.414 138.293 51.375 138.293 71.324 c h
138.293 71.324 m f
0.87451 0.576471 0.501961 rg
191.996 253.449 m 182.281 253.449 172.566 251.012 163.711 246.145 c 161.211
 244.773 160.301 241.633 161.672 239.137 c 163.047 236.637 166.184 235.727
 168.684 237.098 c 183.281 245.125 200.711 245.125 215.309 237.098 c 217.809
 235.727 220.945 236.637 222.32 239.137 c 223.691 241.633 222.781 244.773
 220.285 246.145 c 211.426 251.016 201.711 253.449 191.996 253.449 c h
191.996 253.449 m f
0.917647 0.67451 0.615686 rg
205.156 218.77 m 178.836 218.77 l 175.699 218.77 173.156 216.23 173.156
 213.094 c 173.156 209.957 175.699 207.414 178.836 207.414 c 205.156 207.414
 l 208.293 207.414 210.836 209.957 210.836 213.094 c 210.836 216.227 208.293
 218.77 205.156 218.77 c h
205.156 218.77 m f
211.004 186.871 m 211.004 199.746 221.441 210.18 234.316 210.18 c 247.188
 210.18 257.625 199.746 257.625 186.871 c f
0.184314 0.215686 0.231373 rg
251.031 186.871 m 251.031 196.102 243.547 203.586 234.316 203.586 c 225.082
 203.586 217.602 196.102 217.602 186.871 c 217.602 177.641 225.082 170.156
 234.316 170.156 c 243.547 170.156 251.031 177.641 251.031 186.871 c h
251.031 186.871 m f
1 g
248.445 183.922 m 248.445 187.875 245.238 191.082 241.281 191.082 c 237.324
 191.082 234.117 187.875 234.117 183.922 c 234.117 179.965 237.324 176.758
 241.281 176.758 c 245.238 176.758 248.445 179.965 248.445 183.922 c h
248.445 183.922 m f
0.917647 0.67451 0.615686 rg
126.367 186.871 m 126.367 199.746 136.805 210.18 149.676 210.18 c 162.551
 210.18 172.988 199.746 172.988 186.871 c f
0.184314 0.215686 0.231373 rg
166.395 186.871 m 166.395 196.102 158.91 203.586 149.676 203.586 c 140.445
 203.586 132.961 196.102 132.961 186.871 c 132.961 177.641 140.445 170.156
 149.676 170.156 c 158.91 170.156 166.395 177.641 166.395 186.871 c h
166.395 186.871 m f
0.0941176 0.117647 0.129412 rg
153.586 203.125 m 152.336 203.43 151.023 203.59 149.68 203.59 c 140.445
 203.59 132.961 196.102 132.961 186.871 c 132.961 177.637 140.445 170.152
 149.68 170.152 c 151.023 170.152 152.336 170.312 153.586 170.617 c 146.238
 172.375 140.785 178.988 140.785 186.871 c 140.785 194.754 146.238 201.367
 153.586 203.125 c h
153.586 203.125 m f
238.223 203.125 m 236.973 203.43 235.66 203.59 234.316 203.59 c 225.086
 203.59 217.598 196.102 217.598 186.871 c 217.598 177.637 225.086 170.152
 234.316 170.152 c 235.66 170.152 236.973 170.312 238.223 170.617 c 230.875
 172.375 225.422 178.988 225.422 186.871 c 225.422 194.754 230.875 201.367
 238.223 203.125 c h
238.223 203.125 m f
1 g
163.805 183.922 m 163.805 187.875 160.598 191.082 156.645 191.082 c 152.688
 191.082 149.48 187.875 149.48 183.922 c 149.48 179.965 152.688 176.758 
156.645 176.758 c 160.598 176.758 163.805 179.965 163.805 183.922 c h
163.805 183.922 m f
0.964706 0.945098 0.945098 rg
275.906 282.035 m 268.508 282.035 261.508 280.93 255.477 279.465 c 259.016
 264.891 l 302.887 275.543 315.664 243.105 316.184 241.719 c 330.266 246.887
 l 330.09 247.375 325.789 258.949 314.316 268.648 c 302.297 278.812 288.527
 282.035 275.906 282.035 c h
275.906 282.035 m f
0.184314 0.215686 0.231373 rg
33.344 247.289 m 41.605 246.086 l 48.227 245.121 52.812 238.973 51.848 
232.352 c 44.621 182.746 l 43.66 176.125 37.508 171.539 30.887 172.504 c
 22.621 173.711 l 16 174.672 11.414 180.824 12.379 187.445 c 19.605 237.047
 l 20.57 243.668 26.723 248.254 33.344 247.289 c h
33.344 247.289 m f
0.564706 0.847059 0.976471 rg
73.492 257.344 m 53.531 260.25 l 44.012 261.637 35.176 255.047 33.789 245.527
 c 23.551 175.27 l 22.164 165.754 28.758 156.914 38.273 155.527 c 58.234
 152.621 l 67.75 151.234 76.59 157.824 77.977 167.344 c 88.211 237.602 l
 89.598 247.117 83.008 255.957 73.492 257.344 c h
73.492 257.344 m f
0.380392 0.635294 0.976471 rg
84.547 212.461 m 88.211 237.602 l 89.598 247.117 83.008 255.957 73.492 
257.344 c 53.527 260.25 l 44.012 261.637 35.172 255.047 33.785 245.531 c
 30.125 220.391 l 31.512 229.906 40.348 236.496 49.867 235.109 c 69.828 
232.203 l 79.344 230.816 85.934 221.977 84.547 212.461 c h
84.547 212.461 m f
0.184314 0.215686 0.231373 rg
350.656 247.289 m 342.395 246.086 l 335.773 245.121 331.188 238.973 332.152
 232.352 c 339.379 182.746 l 340.34 176.125 346.492 171.539 353.113 172.504
 c 361.379 173.711 l 368 174.672 372.586 180.824 371.621 187.445 c 364.395
 237.047 l 363.43 243.668 357.277 248.254 350.656 247.289 c h
350.656 247.289 m f
0.564706 0.847059 0.976471 rg
310.508 257.344 m 330.469 260.25 l 339.988 261.637 348.824 255.047 350.211
 245.527 c 360.449 175.27 l 361.836 165.754 355.242 156.914 345.727 155.527
 c 325.766 152.621 l 316.25 151.234 307.41 157.824 306.023 167.344 c 295.789
 237.602 l 294.402 247.117 300.992 255.957 310.508 257.344 c h
310.508 257.344 m f
0.380392 0.635294 0.976471 rg
299.453 212.461 m 295.789 237.602 l 294.402 247.117 300.992 255.957 310.512
 257.344 c 330.473 260.25 l 339.988 261.637 348.828 255.047 350.215 245.531
 c 353.875 220.391 l 352.492 229.906 343.652 236.496 334.137 235.109 c 314.172
 232.203 l 304.656 230.816 298.066 221.977 299.453 212.461 c h
299.453 212.461 m f
0.184314 0.215686 0.231373 rg
272.273 270.711 m 272.273 281.035 263.906 289.402 253.582 289.402 c 243.258
 289.402 234.891 281.035 234.891 270.711 c 234.891 260.387 243.258 252.02
 253.582 252.02 c 263.906 252.02 272.273 260.387 272.273 270.711 c h
272.273 270.711 m f
0.0941176 0.117647 0.129412 rg
259.145 288.562 m 257.391 289.109 255.52 289.402 253.586 289.402 c 243.258
 289.402 234.891 281.031 234.891 270.711 c 234.891 260.387 243.258 252.023
 253.586 252.023 c 255.52 252.023 257.391 252.316 259.145 252.863 c 251.539
 255.234 246.02 262.328 246.02 270.711 c 246.02 279.098 251.539 286.191 
259.145 288.562 c h
259.145 288.562 m f
Q Q
showpage
%%Trailer
end
%%EOF
