%!PS-Adobe-3.0 EPSF-3.0
%%Creator: cairo 1.16.0 (https://cairographics.org)
%%CreationDate: Thu Nov 14 08:46:51 2019
%%Pages: 1
%%DocumentData: Clean7Bit
%%LanguageLevel: 2
%%BoundingBox: 0 0 384 384
%%EndComments
%%BeginProlog
50 dict begin
/q { gsave } bind def
/Q { grestore } bind def
/cm { 6 array astore concat } bind def
/w { setlinewidth } bind def
/J { setlinecap } bind def
/j { setlinejoin } bind def
/M { setmiterlimit } bind def
/d { setdash } bind def
/m { moveto } bind def
/l { lineto } bind def
/c { curveto } bind def
/h { closepath } bind def
/re { exch dup neg 3 1 roll 5 3 roll moveto 0 rlineto
      0 exch rlineto 0 rlineto closepath } bind def
/S { stroke } bind def
/f { fill } bind def
/f* { eofill } bind def
/n { newpath } bind def
/W { clip } bind def
/W* { eoclip } bind def
/BT { } bind def
/ET { } bind def
/BDC { mark 3 1 roll /BDC pdfmark } bind def
/EMC { mark /EMC pdfmark } bind def
/cairo_store_point { /cairo_point_y exch def /cairo_point_x exch def } def
/Tj { show currentpoint cairo_store_point } bind def
/TJ {
  {
    dup
    type /stringtype eq
    { show } { -0.001 mul 0 cairo_font_matrix dtransform rmoveto } ifelse
  } forall
  currentpoint cairo_store_point
} bind def
/cairo_selectfont { cairo_font_matrix aload pop pop pop 0 0 6 array astore
    cairo_font exch selectfont cairo_point_x cairo_point_y moveto } bind def
/Tf { pop /cairo_font exch def /cairo_font_matrix where
      { pop cairo_selectfont } if } bind def
/Td { matrix translate cairo_font_matrix matrix concatmatrix dup
      /cairo_font_matrix exch def dup 4 get exch 5 get cairo_store_point
      /cairo_font where { pop cairo_selectfont } if } bind def
/Tm { 2 copy 8 2 roll 6 array astore /cairo_font_matrix exch def
      cairo_store_point /cairo_font where { pop cairo_selectfont } if } bind def
/g { setgray } bind def
/rg { setrgbcolor } bind def
/d1 { setcachedevice } bind def
/cairo_data_source {
  CairoDataIndex CairoData length lt
    { CairoData CairoDataIndex get /CairoDataIndex CairoDataIndex 1 add def }
    { () } ifelse
} def
/cairo_flush_ascii85_file { cairo_ascii85_file status { cairo_ascii85_file flushfile } if } def
/cairo_image { image cairo_flush_ascii85_file } def
/cairo_imagemask { imagemask cairo_flush_ascii85_file } def
%%EndProlog
%%BeginSetup
%%EndSetup
%%Page: 1 1
%%BeginPageSetup
%%PageBoundingBox: 0 0 384 384
%%EndPageSetup
q 0 0 384 384 rectclip
1 0 0 -1 0 384 cm q
0.501961 0.886275 0.615686 rg
384 192 m 384 216.676 379.344 240.262 370.859 261.938 c 360.324 288.879
 343.875 312.848 323.109 332.266 c 288.789 364.352 242.684 384 192 384 c
 141.316 384 95.211 364.352 60.891 332.266 c 40.125 312.848 23.676 288.879
 13.141 261.938 c 4.656 240.262 0 216.676 0 192 c 0 167.324 4.656 143.738
 13.141 122.062 c 20.969 102.047 32.07 83.664 45.781 67.566 c 80.992 26.219
 133.434 0 192 0 c 250.566 0 303.008 26.219 338.219 67.566 c 351.93 83.664
 363.031 102.047 370.859 122.062 c 379.344 143.738 384 167.324 384 192 c
 h
384 192 m f
0.184314 0.215686 0.231373 rg
262.141 89.949 m 258.082 75.508 l 308.391 61.359 326.75 42.711 326.816 
33.625 c 326.863 27.285 316.859 23.625 312.555 22.348 c 290.285 15.73 242.605
 26.062 216.801 48.816 c 205.035 59.195 200.016 70.191 201.879 81.508 c 
187.078 83.949 l 184.355 67.43 191.203 51.391 206.879 37.566 c 234.52 13.191
 286.926 -0.918 316.828 7.969 c 338.688 14.461 341.867 26.898 341.816 33.734
 c 341.66 54.949 311.875 75.961 262.141 89.949 c h
262.141 89.949 m f
0.92549 0.764706 0.180392 rg
370.859 101.707 m 370.859 261.938 l 360.324 288.879 343.875 312.848 323.109
 332.266 c 60.891 332.266 l 40.125 312.848 23.676 288.879 13.141 261.938
 c 13.141 101.707 l 13.141 83.355 27.613 68.371 45.781 67.566 c 46.289 67.547
 46.801 67.531 47.316 67.531 c 336.684 67.531 l 337.199 67.531 337.711 67.547
 338.219 67.566 c 356.387 68.371 370.859 83.355 370.859 101.707 c h
370.859 101.707 m f
0.964706 0.945098 0.945098 rg
184.414 104.016 m 51.504 104.016 l 43.426 104.016 36.875 110.566 36.875
 118.648 c 36.875 281.152 l 36.875 289.234 43.422 295.785 51.504 295.785
 c 184.414 295.785 l 192.492 295.785 199.043 289.234 199.043 281.152 c 199.043
 118.645 l 199.043 110.566 192.492 104.016 184.414 104.016 c h
184.414 104.016 m f
1 0.796078 0.745098 rg
69.316 228.465 m 69.316 236.539 63.418 243.234 55.695 244.48 c 54.852 244.617
 53.98 244.688 53.094 244.688 c 44.133 244.688 36.871 237.426 36.871 228.465
 c 36.871 219.504 44.133 212.242 53.094 212.242 c 53.98 212.242 54.852 212.312
 55.695 212.449 c 63.418 213.695 69.316 220.391 69.316 228.465 c h
69.316 228.465 m f
0.917647 0.67451 0.615686 rg
69.316 228.465 m 69.316 236.539 63.418 243.234 55.695 244.48 c 54.289 239.375
 53.543 234.008 53.543 228.465 c 53.543 222.922 54.289 217.555 55.695 212.449
 c 63.418 213.695 69.316 220.391 69.316 228.465 c h
69.316 228.465 m f
58.895 228.465 m 58.895 231.668 56.297 234.262 53.098 234.262 c 49.895 
234.262 47.297 231.668 47.297 228.465 c 47.297 225.262 49.895 222.668 53.098
 222.668 c 56.297 222.668 58.895 225.262 58.895 228.465 c h
58.895 228.465 m f
1 0.796078 0.745098 rg
166.598 228.465 m 166.598 236.539 172.496 243.234 180.223 244.48 c 181.066
 244.617 181.934 244.688 182.82 244.688 c 191.781 244.688 199.043 237.426
 199.043 228.465 c 199.043 219.504 191.781 212.242 182.82 212.242 c 181.934
 212.242 181.066 212.312 180.223 212.449 c 172.496 213.695 166.598 220.391
 166.598 228.465 c h
166.598 228.465 m f
0.917647 0.67451 0.615686 rg
166.598 228.465 m 166.598 236.539 172.496 243.234 180.223 244.48 c 181.625
 239.375 182.375 234.008 182.375 228.465 c 182.375 222.922 181.625 217.555
 180.223 212.449 c 172.496 213.695 166.598 220.391 166.598 228.465 c h
166.598 228.465 m f
188.617 228.465 m 188.617 231.668 186.023 234.262 182.82 234.262 c 179.617
 234.262 177.023 231.668 177.023 228.465 c 177.023 225.262 179.617 222.668
 182.82 222.668 c 186.023 222.668 188.617 225.262 188.617 228.465 c h
188.617 228.465 m f
1 0.796078 0.745098 rg
178.91 219.938 m 178.91 250.27 156.75 275.43 127.738 280.102 c 124.559 
280.625 121.289 280.891 117.957 280.891 c 84.293 280.891 57.008 253.602 
57.008 219.938 c 57.008 157.887 l 178.91 157.887 l h
178.91 219.938 m f
0.917647 0.67451 0.615686 rg
128.691 279.941 m 128.379 279.996 128.059 280.051 127.738 280.102 c 124.555
 280.621 121.289 280.887 117.957 280.887 c 84.293 280.887 57.008 253.602
 57.008 219.938 c 57.008 157.883 l 78.5 157.883 l 78.5 219.938 l 78.5 249.938
 100.16 274.863 128.691 279.941 c h
128.691 279.941 m f
0.0941176 0.117647 0.129412 rg
85.141 130.406 m 93.141 130.406 99.625 136.891 99.625 144.891 c 99.625 
156.508 l 99.625 165.926 91.988 173.562 82.57 173.562 c 57.008 173.562 l
 57.008 158.535 l 57.008 143 69.602 130.406 85.141 130.406 c h
85.141 130.406 m f
67.656 225.445 m 57.008 225.445 l 57.008 173.562 l 68.969 167.535 l 73.945
 173.562 l h
67.656 225.445 m f
0.184314 0.215686 0.231373 rg
168.258 225.445 m 178.91 225.445 l 178.91 146.836 l 161.559 170.168 l h
168.258 225.445 m f
194.48 118.875 m 119.082 118.875 l 108.336 118.875 99.625 127.586 99.625
 138.332 c 99.625 157.273 l 99.625 166.27 106.918 173.562 115.914 173.562
 c 150.043 173.562 l 174.586 173.562 194.484 153.664 194.484 129.121 c 194.484
 118.875 l h
194.48 118.875 m f
0.0941176 0.117647 0.129412 rg
133.602 173.562 m 115.918 173.562 l 106.918 173.562 99.625 166.27 99.625
 157.273 c 99.625 138.336 l 99.625 127.586 108.336 118.875 119.086 118.875
 c 136.77 118.875 l 126.027 118.875 117.316 127.586 117.316 138.336 c 117.316
 157.273 l 117.316 166.27 124.609 173.562 133.602 173.562 c h
133.602 173.562 m f
0.87451 0.576471 0.501961 rg
117.957 252.016 m 112.855 252.016 107.75 250.738 103.098 248.18 c 101.785
 247.457 101.309 245.809 102.027 244.496 c 102.75 243.184 104.398 242.707
 105.711 243.43 c 113.379 247.645 122.539 247.645 130.207 243.43 c 131.516
 242.707 133.164 243.184 133.887 244.496 c 134.609 245.809 134.129 247.457
 132.816 248.18 c 128.164 250.738 123.062 252.016 117.957 252.016 c h
117.957 252.016 m f
0.917647 0.67451 0.615686 rg
124.871 233.801 m 111.043 233.801 l 109.398 233.801 108.062 232.465 108.062
 230.816 c 108.062 229.172 109.398 227.836 111.043 227.836 c 124.871 227.836
 l 126.52 227.836 127.855 229.168 127.855 230.816 c 127.855 232.465 126.52
 233.801 124.871 233.801 c h
124.871 233.801 m f
127.945 217.043 m 127.945 223.805 133.426 229.289 140.188 229.289 c 146.953
 229.289 152.434 223.805 152.434 217.043 c f
0.184314 0.215686 0.231373 rg
148.969 217.043 m 148.969 221.891 145.039 225.824 140.188 225.824 c 135.34
 225.824 131.406 221.891 131.406 217.043 c 131.406 212.191 135.34 208.262
 140.188 208.262 c 145.039 208.262 148.969 212.191 148.969 217.043 c h
148.969 217.043 m f
1 g
147.609 215.492 m 147.609 217.57 145.926 219.254 143.848 219.254 c 141.77
 219.254 140.086 217.57 140.086 215.492 c 140.086 213.414 141.77 211.73 
143.848 211.73 c 145.926 211.73 147.609 213.414 147.609 215.492 c h
147.609 215.492 m f
0.917647 0.67451 0.615686 rg
83.484 217.043 m 83.484 223.805 88.965 229.289 95.727 229.289 c 102.492
 229.289 107.973 223.805 107.973 217.043 c f
0.184314 0.215686 0.231373 rg
104.508 217.043 m 104.508 221.891 100.578 225.824 95.727 225.824 c 90.879
 225.824 86.945 221.891 86.945 217.043 c 86.945 212.191 90.879 208.262 95.727
 208.262 c 100.578 208.262 104.508 212.191 104.508 217.043 c h
104.508 217.043 m f
0.0941176 0.117647 0.129412 rg
97.781 225.578 m 97.121 225.742 96.434 225.824 95.727 225.824 c 90.879 
225.824 86.945 221.891 86.945 217.043 c 86.945 212.191 90.879 208.262 95.727
 208.262 c 96.434 208.262 97.121 208.344 97.781 208.504 c 93.918 209.426
 91.055 212.902 91.055 217.043 c 91.055 221.184 93.918 224.656 97.781 225.578
 c h
97.781 225.578 m f
142.242 225.578 m 141.586 225.742 140.895 225.824 140.191 225.824 c 135.34
 225.824 131.41 221.891 131.41 217.043 c 131.41 212.191 135.34 208.262 140.191
 208.262 c 140.895 208.262 141.586 208.344 142.242 208.504 c 138.383 209.426
 135.516 212.902 135.516 217.043 c 135.516 221.184 138.383 224.656 142.242
 225.578 c h
142.242 225.578 m f
1 g
103.148 215.492 m 103.148 217.57 101.465 219.254 99.387 219.254 c 97.309
 219.254 95.625 217.57 95.625 215.492 c 95.625 213.414 97.309 211.73 99.387
 211.73 c 101.465 211.73 103.148 213.414 103.148 215.492 c h
103.148 215.492 m f
0.184314 0.215686 0.231373 rg
340.141 122.02 m 226.254 122.02 l 221.285 122.02 217.254 117.992 217.254
 113.02 c 217.254 108.047 221.285 104.016 226.254 104.016 c 340.141 104.016
 l 345.113 104.016 349.145 108.047 349.145 113.02 c 349.145 117.992 345.113
 122.02 340.141 122.02 c h
340.141 122.02 m f
340.141 160.984 m 226.254 160.984 l 221.285 160.984 217.254 156.957 217.254
 151.984 c 217.254 147.012 221.285 142.98 226.254 142.98 c 340.141 142.98
 l 345.113 142.98 349.145 147.012 349.145 151.984 c 349.145 156.957 345.113
 160.984 340.141 160.984 c h
340.141 160.984 m f
293.969 199.949 m 226.254 199.949 l 221.285 199.949 217.254 195.922 217.254
 190.949 c 217.254 185.977 221.285 181.945 226.254 181.945 c 293.969 181.945
 l 298.938 181.945 302.969 185.977 302.969 190.949 c 302.969 195.922 298.938
 199.949 293.969 199.949 c h
293.969 199.949 m f
340.141 291.039 m 226.254 291.039 l 221.285 291.039 217.254 287.008 217.254
 282.035 c 217.254 277.062 221.285 273.035 226.254 273.035 c 340.141 273.035
 l 345.113 273.035 349.145 277.062 349.145 282.035 c 349.145 287.008 345.113
 291.039 340.141 291.039 c h
340.141 291.039 m f
216.805 48.816 m 207.137 57.344 202.023 66.285 201.539 75.48 c 201.352 
79.031 198.824 82.012 195.312 82.59 c 195.191 82.613 l 190.559 83.375 186.332
 79.711 186.539 75.023 c 187.129 61.688 194.047 48.887 206.883 37.566 c f
Q Q
showpage
%%Trailer
end
%%EOF
