%!PS-Adobe-3.0 EPSF-3.0
%%Creator: cairo 1.16.0 (https://cairographics.org)
%%CreationDate: Thu Nov 14 08:46:51 2019
%%Pages: 1
%%DocumentData: Clean7Bit
%%LanguageLevel: 2
%%BoundingBox: 0 0 384 384
%%EndComments
%%BeginProlog
50 dict begin
/q { gsave } bind def
/Q { grestore } bind def
/cm { 6 array astore concat } bind def
/w { setlinewidth } bind def
/J { setlinecap } bind def
/j { setlinejoin } bind def
/M { setmiterlimit } bind def
/d { setdash } bind def
/m { moveto } bind def
/l { lineto } bind def
/c { curveto } bind def
/h { closepath } bind def
/re { exch dup neg 3 1 roll 5 3 roll moveto 0 rlineto
      0 exch rlineto 0 rlineto closepath } bind def
/S { stroke } bind def
/f { fill } bind def
/f* { eofill } bind def
/n { newpath } bind def
/W { clip } bind def
/W* { eoclip } bind def
/BT { } bind def
/ET { } bind def
/BDC { mark 3 1 roll /BDC pdfmark } bind def
/EMC { mark /EMC pdfmark } bind def
/cairo_store_point { /cairo_point_y exch def /cairo_point_x exch def } def
/Tj { show currentpoint cairo_store_point } bind def
/TJ {
  {
    dup
    type /stringtype eq
    { show } { -0.001 mul 0 cairo_font_matrix dtransform rmoveto } ifelse
  } forall
  currentpoint cairo_store_point
} bind def
/cairo_selectfont { cairo_font_matrix aload pop pop pop 0 0 6 array astore
    cairo_font exch selectfont cairo_point_x cairo_point_y moveto } bind def
/Tf { pop /cairo_font exch def /cairo_font_matrix where
      { pop cairo_selectfont } if } bind def
/Td { matrix translate cairo_font_matrix matrix concatmatrix dup
      /cairo_font_matrix exch def dup 4 get exch 5 get cairo_store_point
      /cairo_font where { pop cairo_selectfont } if } bind def
/Tm { 2 copy 8 2 roll 6 array astore /cairo_font_matrix exch def
      cairo_store_point /cairo_font where { pop cairo_selectfont } if } bind def
/g { setgray } bind def
/rg { setrgbcolor } bind def
/d1 { setcachedevice } bind def
/cairo_data_source {
  CairoDataIndex CairoData length lt
    { CairoData CairoDataIndex get /CairoDataIndex CairoDataIndex 1 add def }
    { () } ifelse
} def
/cairo_flush_ascii85_file { cairo_ascii85_file status { cairo_ascii85_file flushfile } if } def
/cairo_image { image cairo_flush_ascii85_file } def
/cairo_imagemask { imagemask cairo_flush_ascii85_file } def
%%EndProlog
%%BeginSetup
%%EndSetup
%%Page: 1 1
%%BeginPageSetup
%%PageBoundingBox: 0 0 384 384
%%EndPageSetup
q 0 0 384 384 rectclip
1 0 0 -1 0 384 cm q
0.976471 0.239216 0.431373 rg
384 192 m 384 298.039 298.039 384 192 384 c 85.961 384 0 298.039 0 192 
c 0 85.961 85.961 0 192 0 c 298.039 0 384 85.961 384 192 c h
384 192 m f
0.184314 0.215686 0.231373 rg
365.023 80.344 m 365.023 273.996 l 20.469 273.996 l 20.469 80.344 l 20.469
 62.695 34.777 48.387 52.426 48.387 c 333.066 48.387 l 350.715 48.387 365.023
 62.695 365.023 80.344 c h
365.023 80.344 m f
0.501961 0.886275 0.615686 rg
341.055 80.348 m 341.055 254.902 l 44.438 254.902 l 44.438 80.348 l 44.438
 75.945 48.023 72.352 52.426 72.352 c 333.066 72.352 l 337.469 72.352 341.055
 75.945 341.055 80.348 c h
341.055 80.348 m f
0.0941176 0.117647 0.129412 rg
20.469 260.457 344.555 12.652 re f
0.184314 0.215686 0.231373 rg
366.496 272.191 m 357.195 292.402 344.488 310.719 329.109 326.406 c 54.891
 326.406 l 39.547 310.754 26.863 292.492 17.574 272.34 c 18.711 272.191 
19.875 272.113 21.059 272.113 c 364.441 272.113 l 365.129 272.113 365.82
 272.137 366.496 272.191 c h
366.496 272.191 m f
0.0941176 0.117647 0.129412 rg
332.191 260.094 m 53.301 260.094 l 45.535 260.094 39.242 253.801 39.242
 246.035 c 39.242 80.344 l 39.242 73.066 45.145 67.164 52.426 67.164 c 333.066
 67.164 l 340.348 67.164 346.25 73.062 346.25 80.344 c 346.25 246.035 l 
346.25 253.801 339.953 260.094 332.191 260.094 c h
54.398 249.711 m 331.094 249.711 l 333.727 249.711 335.863 247.574 335.863
 244.941 c 335.863 80.344 l 335.863 78.801 334.613 77.551 333.066 77.551
 c 52.426 77.551 l 50.879 77.551 49.629 78.801 49.629 80.344 c 49.629 244.941
 l 49.629 247.574 51.762 249.711 54.398 249.711 c h
54.398 249.711 m f
222.758 291.617 m 162.742 291.617 l 152.512 291.617 144.219 283.32 144.219
 273.09 c 144.219 272.113 l 241.285 272.113 l 241.285 273.09 l 241.285 283.32
 232.988 291.617 222.758 291.617 c h
222.758 291.617 m f
344.707 308.391 m 339.879 314.723 334.664 320.738 329.109 326.406 c 54.891
 326.406 l 49.328 320.738 44.113 314.715 39.293 308.391 c h
344.707 308.391 m f
0.737255 0.584314 0.886275 rg
232.621 254.902 m 97.965 254.902 l 103.027 236.211 120.105 222.465 140.398
 222.465 c 190.184 222.465 l 210.473 222.465 227.559 236.211 232.621 254.902
 c h
232.621 254.902 m f
0.576471 0.45098 0.72549 rg
171.953 222.465 m 151.656 222.465 134.578 236.211 129.516 254.902 c 97.965
 254.902 l 103.027 236.211 120.113 222.465 140.406 222.465 c h
171.953 222.465 m f
0.964706 0.945098 0.945098 rg
165.422 242.461 m 143.039 254.902 l 137.406 254.902 l 129.621 216.285 l
 146.676 208.828 l h
165.422 242.461 m f
201.227 216.285 m 193.441 254.902 l 187.809 254.902 l 165.422 242.461 l
 184.164 208.828 l h
201.227 216.285 m f
0.917647 0.67451 0.615686 rg
188.586 190.887 m 188.586 219.305 l 188.586 229.711 181.727 238.504 172.273
 241.426 c 170.113 242.098 167.805 242.461 165.422 242.461 c 152.633 242.461
 142.27 232.098 142.27 219.309 c 142.27 190.887 l h
188.586 190.887 m f
1 0.796078 0.745098 rg
188.586 217.508 m 188.586 219.305 l 188.586 229.711 181.727 238.504 172.273
 241.426 c 163.75 238.805 157.34 231.395 156.156 222.32 c 157.703 222.418
 159.258 222.465 160.82 222.465 c 165.203 222.465 169.496 222.117 173.68
 221.43 c 178.836 220.602 183.816 219.273 188.586 217.508 c h
188.586 217.508 m f
101.484 144.07 m 101.484 154.688 93.727 163.492 83.574 165.125 c 82.461
 165.305 81.32 165.398 80.156 165.398 c 68.375 165.398 58.828 155.852 58.828
 144.07 c 58.828 132.289 68.375 122.746 80.156 122.746 c 81.32 122.746 82.461
 122.84 83.574 123.02 c 93.727 124.652 101.484 133.453 101.484 144.07 c 
h
101.484 144.07 m f
0.917647 0.67451 0.615686 rg
101.484 144.07 m 101.484 154.688 93.727 163.492 83.574 165.125 c 81.727
 158.418 80.742 151.359 80.742 144.07 c 80.742 136.785 81.727 129.727 83.574
 123.02 c 93.727 124.652 101.484 133.453 101.484 144.07 c h
101.484 144.07 m f
87.777 144.07 m 87.777 148.281 84.367 151.695 80.156 151.695 c 75.945 151.695
 72.535 148.281 72.535 144.07 c 72.535 139.863 75.945 136.449 80.156 136.449
 c 84.367 136.449 87.777 139.863 87.777 144.07 c h
87.777 144.07 m f
1 0.796078 0.745098 rg
229.371 144.07 m 229.371 154.688 237.125 163.492 247.281 165.125 c 248.391
 165.305 249.531 165.398 250.695 165.398 c 262.477 165.398 272.023 155.852
 272.023 144.07 c 272.023 132.289 262.48 122.746 250.695 122.746 c 249.531
 122.746 248.391 122.84 247.281 123.02 c 237.125 124.652 229.371 133.453
 229.371 144.07 c h
229.371 144.07 m f
0.917647 0.67451 0.615686 rg
229.371 144.07 m 229.371 154.688 237.125 163.492 247.281 165.125 c 249.125
 158.418 250.109 151.359 250.109 144.07 c 250.109 136.785 249.125 129.727
 247.281 123.02 c 237.125 124.652 229.371 133.453 229.371 144.07 c h
229.371 144.07 m f
258.32 144.07 m 258.32 148.281 254.906 151.695 250.695 151.695 c 246.488
 151.695 243.074 148.281 243.074 144.07 c 243.074 139.863 246.488 136.449
 250.695 136.449 c 254.906 136.449 258.32 139.863 258.32 144.07 c h
258.32 144.07 m f
1 0.796078 0.745098 rg
245.555 132.863 m 245.555 172.734 216.426 205.812 178.285 211.957 c 174.102
 212.645 169.809 212.992 165.426 212.992 c 121.172 212.992 85.297 177.117
 85.297 132.863 c 85.297 51.285 l 245.555 51.285 l h
245.555 132.863 m f
0.917647 0.67451 0.615686 rg
179.539 211.746 m 179.125 211.816 178.707 211.891 178.285 211.957 c 174.102
 212.641 169.809 212.988 165.426 212.988 c 121.172 212.988 85.297 177.121
 85.297 132.859 c 85.297 51.281 l 113.555 51.281 l 113.555 132.859 l 113.555
 172.297 142.031 205.07 179.539 211.746 c h
179.539 211.746 m f
0.905882 0.647059 0.180392 rg
122.281 15.156 m 132.801 15.156 141.324 23.684 141.324 34.203 c 141.324
 49.473 l 141.324 61.855 131.289 71.895 118.906 71.895 c 85.297 71.895 l
 85.297 52.141 l 85.297 31.715 101.855 15.156 122.281 15.156 c h
122.281 15.156 m f
99.297 140.102 m 85.297 140.102 l 85.297 71.895 l 101.02 63.969 l 107.566
 71.895 l h
99.297 140.102 m f
0.92549 0.764706 0.180392 rg
231.555 140.102 m 245.555 140.102 l 245.555 36.754 l 222.746 67.43 l h
231.555 140.102 m f
266.027 0 m 166.906 0 l 152.777 0 141.324 11.453 141.324 25.578 c 141.324
 50.48 l 141.324 62.305 150.914 71.895 162.738 71.895 c 207.605 71.895 l
 239.871 71.895 266.027 45.738 266.027 13.473 c h
266.027 0 m f
0.905882 0.647059 0.180392 rg
185.992 71.891 m 162.742 71.891 l 150.914 71.891 141.324 62.305 141.324
 50.48 c 141.324 25.582 l 141.324 11.453 152.777 0 166.906 0 c 190.156 0
 l 176.035 0 164.582 11.453 164.582 25.582 c 164.582 50.48 l 164.582 62.305
 174.168 71.891 185.992 71.891 c h
185.992 71.891 m f
0.87451 0.576471 0.501961 rg
165.426 175.031 m 158.719 175.031 152.008 173.352 145.891 169.988 c 144.168
 169.039 143.535 166.875 144.484 165.148 c 145.434 163.422 147.602 162.793
 149.324 163.742 c 159.406 169.285 171.445 169.285 181.527 163.742 c 183.25
 162.793 185.418 163.422 186.367 165.148 c 187.316 166.875 186.688 169.039
 184.961 169.988 c 178.848 173.352 172.137 175.031 165.426 175.031 c h
165.426 175.031 m f
0.964706 0.945098 0.945098 rg
147.129 109.34 m 106.891 109.34 l 102.348 109.34 98.66 113.027 98.66 117.574
 c 98.66 138.684 l 98.66 143.23 102.348 146.914 106.891 146.914 c 147.129
 146.914 l 151.676 146.914 155.359 143.23 155.359 138.684 c 155.359 117.574
 l 155.359 113.027 151.676 109.34 147.129 109.34 c h
147.129 109.34 m f
223.961 109.34 m 183.727 109.34 l 179.18 109.34 175.492 113.027 175.492
 117.574 c 175.492 138.684 l 175.492 143.23 179.18 146.914 183.727 146.914
 c 223.961 146.914 l 228.508 146.914 232.191 143.23 232.191 138.684 c 232.191
 117.574 l 232.191 113.027 228.508 109.34 223.961 109.34 c h
223.961 109.34 m f
0.917647 0.67451 0.615686 rg
174.516 151.086 m 156.336 151.086 l 154.172 151.086 152.418 149.328 152.418
 147.164 c 152.418 145 154.172 143.242 156.336 143.242 c 174.516 143.242
 l 176.684 143.242 178.438 145 178.438 147.164 c 178.438 149.328 176.684
 151.086 174.516 151.086 c h
174.516 151.086 m f
0.87451 0.917647 0.937255 rg
178.555 129.055 m 178.555 137.945 185.762 145.152 194.652 145.152 c 203.543
 145.152 210.75 137.945 210.75 129.055 c f
0.184314 0.215686 0.231373 rg
206.195 129.055 m 206.195 135.43 201.027 140.598 194.652 140.598 c 188.277
 140.598 183.109 135.43 183.109 129.055 c 183.109 122.68 188.277 117.512
 194.652 117.512 c 201.027 117.512 206.195 122.68 206.195 129.055 c h
206.195 129.055 m f
1 g
204.41 127.016 m 204.41 129.75 202.195 131.965 199.465 131.965 c 196.73
 131.965 194.516 129.75 194.516 127.016 c 194.516 124.285 196.73 122.07 
199.465 122.07 c 202.195 122.07 204.41 124.285 204.41 127.016 c h
204.41 127.016 m f
0.87451 0.917647 0.937255 rg
120.102 129.055 m 120.102 137.945 127.309 145.152 136.199 145.152 c 145.09
 145.152 152.297 137.945 152.297 129.055 c f
0.184314 0.215686 0.231373 rg
147.746 129.055 m 147.746 135.43 142.578 140.598 136.199 140.598 c 129.824
 140.598 124.656 135.43 124.656 129.055 c 124.656 122.68 129.824 117.512
 136.199 117.512 c 142.578 117.512 147.746 122.68 147.746 129.055 c h
147.746 129.055 m f
0.0941176 0.117647 0.129412 rg
138.902 140.277 m 138.035 140.492 137.129 140.598 136.203 140.598 c 129.828
 140.598 124.656 135.43 124.656 129.055 c 124.656 122.68 129.824 117.508
 136.203 117.508 c 137.129 117.508 138.035 117.617 138.902 117.828 c 133.824
 119.043 130.059 123.609 130.059 129.055 c 130.059 134.496 133.824 139.066
 138.902 140.277 c h
138.902 140.277 m f
197.352 140.277 m 196.488 140.492 195.582 140.598 194.652 140.598 c 188.277
 140.598 183.109 135.43 183.109 129.055 c 183.109 122.68 188.277 117.508
 194.652 117.508 c 195.582 117.508 196.488 117.617 197.352 117.828 c 192.277
 119.043 188.512 123.609 188.512 129.055 c 188.512 134.496 192.277 139.066
 197.352 140.277 c h
197.352 140.277 m f
1 g
145.957 127.016 m 145.957 129.75 143.742 131.965 141.012 131.965 c 138.281
 131.965 136.066 129.75 136.066 127.016 c 136.066 124.285 138.281 122.07
 141.012 122.07 c 143.742 122.07 145.957 124.285 145.957 127.016 c h
145.957 127.016 m f
0.0941176 0.117647 0.129412 rg
249.469 112.395 m 236.332 112.395 l 234.301 107.562 229.52 104.16 223.961
 104.16 c 183.727 104.16 l 176.332 104.16 170.312 110.18 170.312 117.574
 c 170.312 121.23 l 160.539 121.23 l 160.539 117.574 l 160.539 110.18 154.523
 104.16 147.125 104.16 c 106.891 104.16 l 101.332 104.16 96.551 107.562 
94.523 112.395 c 81.383 112.395 l 81.383 122.754 l 93.48 122.754 l 93.48
 138.684 l 93.48 146.078 99.496 152.094 106.891 152.094 c 147.125 152.094
 l 154.523 152.094 160.539 146.078 160.539 138.684 c 160.539 131.59 l 170.312
 131.59 l 170.312 138.684 l 170.312 146.078 176.332 152.094 183.727 152.094
 c 223.961 152.094 l 231.355 152.094 237.371 146.078 237.371 138.684 c 237.371
 122.754 l 249.469 122.754 l h
150.18 138.684 m 150.18 140.367 148.809 141.734 147.129 141.734 c 106.895
 141.734 l 105.211 141.734 103.84 140.367 103.84 138.684 c 103.84 117.574
 l 103.84 115.891 105.211 114.52 106.895 114.52 c 147.129 114.52 l 148.812
 114.52 150.18 115.891 150.18 117.574 c h
227.012 138.684 m 227.012 140.367 225.645 141.734 223.961 141.734 c 183.727
 141.734 l 182.043 141.734 180.672 140.367 180.672 138.684 c 180.672 117.574
 l 180.672 115.891 182.043 114.52 183.727 114.52 c 223.961 114.52 l 225.645
 114.52 227.012 115.891 227.012 117.574 c h
227.012 138.684 m f
0.905882 0.647059 0.180392 rg
165.426 157.074 m 165.426 157.074 153.156 147.812 140.809 152.441 c 133.977
 155.004 129.285 161.109 124.617 166.055 c 121.629 169.223 123.934 174.422
 128.289 174.301 c 140.875 173.961 157.539 170.695 165.426 157.074 c h
165.426 157.074 m f
165.426 157.074 m 165.426 157.074 177.699 147.812 190.043 152.441 c 196.879
 155.004 201.57 161.109 206.234 166.055 c 209.227 169.223 206.922 174.422
 202.566 174.301 c 189.98 173.961 173.312 170.695 165.426 157.074 c h
165.426 157.074 m f
0.0941176 0.117647 0.129412 rg
71.805 249.711 186.52 10.383 re f
0.964706 0.945098 0.945098 rg
349.062 3.004 m 262.645 3.004 l 252.84 3.004 244.891 10.953 244.891 20.758
 c 244.891 94.371 l 244.891 104.176 252.84 112.125 262.645 112.125 c 265.512
 112.125 l 277.16 129.355 l 279.598 132.957 284.906 132.957 287.344 129.355
 c 298.992 112.125 l 349.062 112.125 l 358.867 112.125 366.816 104.176 366.816
 94.371 c 366.816 20.754 l 366.816 10.953 358.867 3.004 349.062 3.004 c 
h
349.062 3.004 m f
0.184314 0.215686 0.231373 rg
268.828 36.008 m 342.883 36.008 l 347.141 36.008 350.59 32.559 350.59 28.301
 c 350.59 24.043 347.141 20.59 342.883 20.59 c 268.828 20.59 l 264.57 20.59
 261.117 24.043 261.117 28.301 c 261.117 32.559 264.57 36.008 268.828 36.008
 c h
268.828 36.008 m f
268.828 63.223 m 342.883 63.223 l 347.141 63.223 350.59 59.77 350.59 55.516
 c 350.59 51.258 347.141 47.805 342.883 47.805 c 268.828 47.805 l 264.57
 47.805 261.117 51.258 261.117 55.516 c 261.117 59.77 264.57 63.223 268.828
 63.223 c h
268.828 63.223 m f
293.371 90.438 m 342.883 90.438 l 347.137 90.438 350.59 86.984 350.59 82.727
 c 350.59 78.473 347.137 75.02 342.883 75.02 c 293.371 75.02 l 289.113 75.02
 285.664 78.473 285.664 82.727 c 285.664 86.984 289.113 90.438 293.371 90.438
 c h
293.371 90.438 m f
Q Q
showpage
%%Trailer
end
%%EOF
