%!PS-Adobe-3.0 EPSF-3.0
%%Creator: cairo 1.16.0 (https://cairographics.org)
%%CreationDate: Thu Nov 14 08:46:52 2019
%%Pages: 1
%%DocumentData: Clean7Bit
%%LanguageLevel: 2
%%BoundingBox: 0 0 384 384
%%EndComments
%%BeginProlog
50 dict begin
/q { gsave } bind def
/Q { grestore } bind def
/cm { 6 array astore concat } bind def
/w { setlinewidth } bind def
/J { setlinecap } bind def
/j { setlinejoin } bind def
/M { setmiterlimit } bind def
/d { setdash } bind def
/m { moveto } bind def
/l { lineto } bind def
/c { curveto } bind def
/h { closepath } bind def
/re { exch dup neg 3 1 roll 5 3 roll moveto 0 rlineto
      0 exch rlineto 0 rlineto closepath } bind def
/S { stroke } bind def
/f { fill } bind def
/f* { eofill } bind def
/n { newpath } bind def
/W { clip } bind def
/W* { eoclip } bind def
/BT { } bind def
/ET { } bind def
/BDC { mark 3 1 roll /BDC pdfmark } bind def
/EMC { mark /EMC pdfmark } bind def
/cairo_store_point { /cairo_point_y exch def /cairo_point_x exch def } def
/Tj { show currentpoint cairo_store_point } bind def
/TJ {
  {
    dup
    type /stringtype eq
    { show } { -0.001 mul 0 cairo_font_matrix dtransform rmoveto } ifelse
  } forall
  currentpoint cairo_store_point
} bind def
/cairo_selectfont { cairo_font_matrix aload pop pop pop 0 0 6 array astore
    cairo_font exch selectfont cairo_point_x cairo_point_y moveto } bind def
/Tf { pop /cairo_font exch def /cairo_font_matrix where
      { pop cairo_selectfont } if } bind def
/Td { matrix translate cairo_font_matrix matrix concatmatrix dup
      /cairo_font_matrix exch def dup 4 get exch 5 get cairo_store_point
      /cairo_font where { pop cairo_selectfont } if } bind def
/Tm { 2 copy 8 2 roll 6 array astore /cairo_font_matrix exch def
      cairo_store_point /cairo_font where { pop cairo_selectfont } if } bind def
/g { setgray } bind def
/rg { setrgbcolor } bind def
/d1 { setcachedevice } bind def
/cairo_data_source {
  CairoDataIndex CairoData length lt
    { CairoData CairoDataIndex get /CairoDataIndex CairoDataIndex 1 add def }
    { () } ifelse
} def
/cairo_flush_ascii85_file { cairo_ascii85_file status { cairo_ascii85_file flushfile } if } def
/cairo_image { image cairo_flush_ascii85_file } def
/cairo_imagemask { imagemask cairo_flush_ascii85_file } def
%%EndProlog
%%BeginSetup
%%EndSetup
%%Page: 1 1
%%BeginPageSetup
%%PageBoundingBox: 0 0 384 384
%%EndPageSetup
q 0 0 384 384 rectclip
1 0 0 -1 0 384 cm q
0.501961 0.886275 0.615686 rg
384 192 m 384 228.422 373.852 262.477 356.242 291.488 c 343.336 312.734
 326.43 331.289 306.562 346.078 c 293.414 355.883 278.961 364.035 263.52
 370.23 c 257.355 372.711 251.031 374.871 244.574 376.711 c 241.078 377.699
 237.547 378.602 233.969 379.395 c 225.066 381.383 215.941 382.746 206.617
 383.453 c 204.113 383.641 201.586 383.781 199.051 383.871 c 196.711 383.953
 194.363 384 192 384 c 190.148 384 188.301 383.977 186.457 383.918 c 183.922
 383.852 181.395 383.73 178.883 383.559 c 176.109 383.371 173.348 383.121
 170.602 382.816 c 164.145 382.102 157.785 381.059 151.539 379.727 c 151.531
 379.727 l 147.953 378.961 144.422 378.09 140.918 377.129 c 119.73 371.297
 100.004 361.922 82.434 349.672 c 80.773 348.523 79.133 347.348 77.512 346.141
 c 68.926 339.75 60.891 332.664 53.496 324.961 c 44.445 315.539 36.352 305.203
 29.363 294.098 c 29.363 294.09 l 10.762 264.516 0 229.516 0 192 c 0 153.309
 11.453 117.285 31.141 87.137 c 31.148 87.129 l 38.691 75.57 47.461 64.867
 57.262 55.215 c 76.629 36.141 100.02 21.148 126.047 11.633 c 146.609 4.109
 168.824 0 192 0 c 215.078 0 237.195 4.074 257.691 11.543 c 297.977 26.203
 331.965 53.969 354.496 89.691 c 373.184 119.309 384 154.395 384 192 c h
384 192 m f
0.737255 0.584314 0.886275 rg
356.242 291.488 m 322.574 346.949 261.613 384 192 384 c 123.48 384 63.344
 348.105 29.363 294.09 c 26.484 225.098 27.074 156.121 31.141 87.137 c 31.461
 81.711 31.809 76.297 32.168 70.875 c 32.648 63.539 33.18 56.211 33.742 
48.887 c 35.055 31.988 48.27 18.449 65.129 16.629 c 77.73 15.27 90.316 14.113
 102.906 13.172 c 110.617 12.586 118.336 12.074 126.047 11.633 c 169.926
 9.156 213.809 9.121 257.691 11.543 c 265.996 11.992 274.297 12.539 282.602
 13.172 c 295.191 14.113 307.77 15.27 320.363 16.629 c 337.223 18.449 350.438
 31.988 351.75 48.887 c 352.312 56.211 352.844 63.531 353.324 70.867 c 353.746
 77.145 354.137 83.414 354.496 89.691 c 358.387 156.953 358.965 224.211 
356.242 291.488 c h
356.242 291.488 m f
0.576471 0.45098 0.72549 rg
72.328 15.871 m 64.387 22.051 59.062 31.395 58.238 42.008 c 57.898 46.41
 57.578 50.812 57.262 55.215 c 57.031 58.461 56.805 61.719 56.594 64.965
 c 51.488 141.293 50.453 242.879 53.496 324.961 c 44.445 315.539 36.352 
305.203 29.363 294.098 c 29.363 294.09 l 26.484 225.098 27.074 156.121 31.141
 87.137 c 31.148 87.129 l 31.461 81.711 31.809 76.289 32.168 70.875 c 32.648
 63.539 33.18 56.211 33.742 48.887 c 35.055 31.988 48.27 18.449 65.129 16.629
 c 67.531 16.371 69.93 16.117 72.328 15.871 c h
72.328 15.871 m f
331.055 119.195 m 331.371 126.414 325.914 132.586 318.711 133.148 c 291.547
 135.262 227.973 135.645 192.75 135.645 c 157.527 135.645 93.945 135.262
 66.781 133.148 c 59.578 132.586 54.121 126.414 54.434 119.195 c 55.43 96.348
 56.809 73.547 58.57 50.812 c 58.953 45.891 62.836 41.922 67.801 41.391 
c 109.258 36.918 151.289 34.652 192.75 34.652 c 234.199 34.652 276.242 36.918
 317.699 41.391 c 322.664 41.922 326.539 45.879 326.922 50.812 c 328.68 
73.547 330.059 96.348 331.055 119.195 c h
331.055 119.195 m f
0.964706 0.945098 0.945098 rg
192.75 124.023 m 170.832 124.023 97.039 123.848 67.684 121.562 c 66.723
 121.488 66.004 120.668 66.043 119.699 c 67.016 97.445 68.367 74.953 70.07
 52.832 c 110.781 48.477 152.043 46.27 192.75 46.27 c 233.457 46.27 274.723
 48.477 315.422 52.832 c 317.121 74.945 318.477 97.438 319.449 119.699 c
 319.488 120.668 318.77 121.484 317.809 121.562 c 288.457 123.848 214.664
 124.023 192.75 124.023 c h
192.75 124.023 m f
326.734 181.648 m 326.117 190.051 319.227 196.613 310.797 197.008 c 296.715
 197.688 282.621 197.789 268.539 197.301 c 265.996 197.227 263.461 197.125
 260.93 197.008 c 252.516 196.613 245.605 190.051 244.992 181.648 c 244.391
 173.527 244.391 165.406 244.992 157.285 c 245.609 148.879 252.516 142.332
 260.93 141.922 c 263.461 141.809 265.996 141.691 268.539 141.629 c 282.621
 141.141 296.703 141.246 310.797 141.922 c 319.227 142.332 326.121 148.879
 326.734 157.285 c 327.336 165.406 327.336 173.527 326.734 181.648 c h
326.734 181.648 m f
0.87451 0.917647 0.937255 rg
273.613 197.449 m 271.922 197.406 270.227 197.355 268.543 197.297 c 265.996
 197.223 263.461 197.121 260.934 197 c 252.516 196.605 245.609 190.051 244.992
 181.641 c 244.395 173.52 244.395 165.398 244.992 157.285 c 245.609 148.875
 252.516 142.328 260.934 141.914 c 263.461 141.805 265.996 141.688 268.543
 141.629 c 270.234 141.57 271.922 141.52 273.613 141.477 c 268.246 144.332
 264.449 149.742 263.977 156.137 c 263.32 165.02 263.32 173.906 263.977 
182.789 c 264.449 189.184 268.246 194.602 273.613 197.449 c h
273.613 197.449 m f
0.964706 0.945098 0.945098 rg
233.617 181.648 m 233.004 190.051 226.109 196.613 217.684 197.008 c 203.602
 197.688 189.508 197.789 175.426 197.301 c 172.879 197.227 170.348 197.125
 167.816 197.008 c 159.398 196.613 152.492 190.051 151.879 181.648 c 151.277
 173.527 151.277 165.406 151.879 157.285 c 152.492 148.879 159.398 142.332
 167.816 141.922 c 170.348 141.809 172.879 141.691 175.426 141.629 c 189.508
 141.141 203.59 141.246 217.684 141.922 c 226.109 142.332 233.004 148.879
 233.617 157.285 c 234.219 165.406 234.219 173.527 233.617 181.648 c h
233.617 181.648 m f
0.87451 0.917647 0.937255 rg
180.5 197.449 m 178.809 197.406 177.113 197.355 175.43 197.297 c 172.883
 197.223 170.348 197.121 167.82 197 c 159.402 196.605 152.492 190.051 151.879
 181.641 c 151.281 173.52 151.281 165.398 151.879 157.285 c 152.492 148.875
 159.402 142.328 167.82 141.914 c 170.348 141.805 172.883 141.688 175.43
 141.629 c 177.121 141.57 178.809 141.52 180.5 141.477 c 175.133 144.332
 171.332 149.742 170.859 156.137 c 170.203 165.02 170.203 173.906 170.859
 182.789 c 171.332 189.184 175.133 194.602 180.5 197.449 c h
180.5 197.449 m f
0.964706 0.945098 0.945098 rg
140.504 181.648 m 139.891 190.051 132.996 196.613 124.566 197.008 c 110.484
 197.688 96.391 197.789 82.309 197.301 c 79.766 197.227 77.234 197.125 74.699
 197.008 c 66.285 196.613 59.379 190.051 58.766 181.648 c 58.164 173.527
 58.164 165.406 58.766 157.285 c 59.379 148.879 66.285 142.332 74.699 141.922
 c 77.234 141.809 79.766 141.691 82.309 141.629 c 96.391 141.141 110.473
 141.246 124.566 141.922 c 132.996 142.332 139.891 148.879 140.504 157.285
 c 141.105 165.406 141.105 173.527 140.504 181.648 c h
140.504 181.648 m f
0.87451 0.917647 0.937255 rg
87.387 197.449 m 85.691 197.406 84 197.355 82.312 197.297 c 79.77 197.223
 77.234 197.121 74.707 197 c 66.289 196.605 59.379 190.051 58.766 181.641
 c 58.164 173.52 58.164 165.398 58.766 157.285 c 59.379 148.875 66.289 142.328
 74.707 141.914 c 77.234 141.805 79.77 141.688 82.312 141.629 c 84.008 141.57
 85.691 141.52 87.387 141.477 c 82.02 144.332 78.219 149.742 77.746 156.137
 c 77.09 165.02 77.09 173.906 77.746 182.789 c 78.219 189.184 82.02 194.602
 87.387 197.449 c h
87.387 197.449 m f
0.964706 0.945098 0.945098 rg
326.734 249.762 m 326.117 258.164 319.227 264.727 310.797 265.121 c 296.715
 265.801 282.621 265.902 268.539 265.418 c 265.996 265.34 263.461 265.238
 260.93 265.121 c 252.516 264.727 245.605 258.164 244.992 249.762 c 244.391
 241.641 244.391 233.52 244.992 225.398 c 245.609 216.996 252.516 210.445
 260.93 210.035 c 263.461 209.922 265.996 209.805 268.539 209.742 c 282.621
 209.258 296.703 209.359 310.797 210.035 c 319.227 210.445 326.121 216.996
 326.734 225.398 c 327.336 233.52 327.336 241.641 326.734 249.762 c h
326.734 249.762 m f
0.87451 0.917647 0.937255 rg
273.613 265.562 m 271.922 265.52 270.227 265.469 268.543 265.41 c 265.996
 265.336 263.461 265.234 260.934 265.117 c 252.516 264.719 245.609 258.164
 244.992 249.758 c 244.395 241.633 244.395 233.512 244.992 225.398 c 245.609
 216.988 252.516 210.441 260.934 210.027 c 263.461 209.918 265.996 209.801
 268.543 209.742 c 270.234 209.684 271.922 209.633 273.613 209.59 c 268.246
 212.445 264.449 217.855 263.977 224.25 c 263.32 233.133 263.32 242.02 263.977
 250.902 c 264.449 257.297 268.246 262.715 273.613 265.562 c h
273.613 265.562 m f
0.964706 0.945098 0.945098 rg
233.617 249.762 m 233.004 258.164 226.109 264.727 217.684 265.121 c 203.602
 265.801 189.508 265.902 175.426 265.418 c 172.879 265.34 170.348 265.238
 167.816 265.121 c 159.398 264.727 152.492 258.164 151.879 249.762 c 151.277
 241.641 151.277 233.52 151.879 225.398 c 152.492 216.996 159.398 210.445
 167.816 210.035 c 170.348 209.922 172.879 209.805 175.426 209.742 c 189.508
 209.258 203.59 209.359 217.684 210.035 c 226.109 210.445 233.004 216.996
 233.617 225.398 c 234.219 233.52 234.219 241.641 233.617 249.762 c h
233.617 249.762 m f
0.87451 0.917647 0.937255 rg
180.5 265.562 m 178.809 265.52 177.113 265.469 175.43 265.41 c 172.883 
265.336 170.348 265.234 167.82 265.117 c 159.402 264.719 152.492 258.164
 151.879 249.758 c 151.281 241.633 151.281 233.512 151.879 225.398 c 152.492
 216.988 159.402 210.441 167.82 210.027 c 170.348 209.918 172.883 209.801
 175.43 209.742 c 177.121 209.684 178.809 209.633 180.5 209.59 c 175.133
 212.445 171.332 217.855 170.859 224.25 c 170.203 233.133 170.203 242.02
 170.859 250.902 c 171.332 257.297 175.133 262.715 180.5 265.562 c h
180.5 265.562 m f
0.964706 0.945098 0.945098 rg
140.504 249.762 m 139.891 258.164 132.996 264.727 124.566 265.121 c 110.484
 265.801 96.391 265.902 82.309 265.418 c 79.766 265.34 77.234 265.238 74.699
 265.121 c 66.285 264.727 59.379 258.164 58.766 249.762 c 58.164 241.641
 58.164 233.52 58.766 225.398 c 59.379 216.996 66.285 210.445 74.699 210.035
 c 77.234 209.922 79.766 209.805 82.309 209.742 c 96.391 209.258 110.473
 209.359 124.566 210.035 c 132.996 210.445 139.891 216.996 140.504 225.398
 c 141.105 233.52 141.105 241.641 140.504 249.762 c h
140.504 249.762 m f
0.87451 0.917647 0.937255 rg
87.387 265.562 m 85.691 265.52 84 265.469 82.312 265.41 c 79.77 265.336
 77.234 265.234 74.707 265.117 c 66.289 264.719 59.379 258.164 58.766 249.758
 c 58.164 241.633 58.164 233.512 58.766 225.398 c 59.379 216.988 66.289 
210.441 74.707 210.027 c 77.234 209.918 79.77 209.801 82.312 209.742 c 84.008
 209.684 85.691 209.633 87.387 209.59 c 82.02 212.445 78.219 217.855 77.746
 224.25 c 77.09 233.133 77.09 242.02 77.746 250.902 c 78.219 257.297 82.02
 262.715 87.387 265.562 c h
87.387 265.562 m f
0.964706 0.945098 0.945098 rg
326.734 317.875 m 326.117 326.277 319.227 332.84 310.797 333.234 c 296.715
 333.914 282.621 334.016 268.539 333.531 c 265.996 333.453 263.461 333.352
 260.93 333.234 c 252.516 332.84 245.605 326.277 244.992 317.875 c 244.391
 309.754 244.391 301.633 244.992 293.512 c 245.609 285.109 252.516 278.559
 260.93 278.148 c 263.461 278.035 265.996 277.922 268.539 277.855 c 282.621
 277.371 296.703 277.473 310.797 278.148 c 319.227 278.559 326.121 285.109
 326.734 293.512 c 327.336 301.633 327.336 309.754 326.734 317.875 c h
326.734 317.875 m f
0.87451 0.917647 0.937255 rg
273.613 333.676 m 271.922 333.633 270.227 333.582 268.543 333.523 c 265.996
 333.449 263.461 333.348 260.934 333.23 c 252.516 332.832 245.609 326.277
 244.992 317.871 c 244.395 309.746 244.395 301.625 244.992 293.512 c 245.609
 285.102 252.516 278.555 260.934 278.145 c 263.461 278.035 265.996 277.914
 268.543 277.855 c 270.234 277.797 271.922 277.746 273.613 277.703 c 268.246
 280.562 264.449 285.969 263.977 292.363 c 263.32 301.246 263.32 310.133
 263.977 319.016 c 264.449 325.41 268.246 330.828 273.613 333.676 c h
273.613 333.676 m f
0.964706 0.945098 0.945098 rg
233.617 317.875 m 233.004 326.277 226.109 332.84 217.684 333.234 c 203.602
 333.914 189.508 334.016 175.426 333.531 c 172.879 333.453 170.348 333.352
 167.816 333.234 c 159.398 332.84 152.492 326.277 151.879 317.875 c 151.277
 309.754 151.277 301.633 151.879 293.512 c 152.492 285.109 159.398 278.559
 167.816 278.148 c 170.348 278.035 172.879 277.922 175.426 277.855 c 189.508
 277.371 203.59 277.473 217.684 278.148 c 226.109 278.559 233.004 285.109
 233.617 293.512 c 234.219 301.633 234.219 309.754 233.617 317.875 c h
233.617 317.875 m f
0.87451 0.917647 0.937255 rg
180.5 333.676 m 178.809 333.633 177.113 333.582 175.43 333.523 c 172.883
 333.449 170.348 333.348 167.82 333.23 c 159.402 332.832 152.492 326.277
 151.879 317.871 c 151.281 309.746 151.281 301.625 151.879 293.512 c 152.492
 285.102 159.402 278.555 167.82 278.145 c 170.348 278.035 172.883 277.914
 175.43 277.855 c 177.121 277.797 178.809 277.746 180.5 277.703 c 175.133
 280.562 171.332 285.969 170.859 292.363 c 170.203 301.246 170.203 310.133
 170.859 319.016 c 171.332 325.41 175.133 330.828 180.5 333.676 c h
180.5 333.676 m f
0.964706 0.945098 0.945098 rg
140.504 317.875 m 139.891 326.277 132.996 332.84 124.566 333.234 c 110.484
 333.914 96.391 334.016 82.309 333.531 c 79.766 333.453 77.234 333.352 74.699
 333.234 c 66.285 332.84 59.379 326.277 58.766 317.875 c 58.164 309.754 
58.164 301.633 58.766 293.512 c 59.379 285.109 66.285 278.559 74.699 278.148
 c 77.234 278.035 79.766 277.922 82.309 277.855 c 96.391 277.371 110.473
 277.473 124.566 278.148 c 132.996 278.559 139.891 285.109 140.504 293.512
 c 141.105 301.633 141.105 309.754 140.504 317.875 c h
140.504 317.875 m f
0.87451 0.917647 0.937255 rg
87.387 333.676 m 85.691 333.633 84 333.582 82.312 333.523 c 79.77 333.449
 77.234 333.348 74.707 333.23 c 66.289 332.832 59.379 326.277 58.766 317.871
 c 58.164 309.746 58.164 301.625 58.766 293.512 c 59.379 285.102 66.289 
278.555 74.707 278.145 c 77.234 278.035 79.77 277.914 82.312 277.855 c 84.008
 277.797 85.691 277.746 87.387 277.703 c 82.02 280.562 78.219 285.969 77.746
 292.363 c 77.09 301.246 77.09 310.133 77.746 319.016 c 78.219 325.41 82.02
 330.828 87.387 333.676 c h
87.387 333.676 m f
0.964706 0.945098 0.945098 rg
306.562 346.078 m 288.164 359.789 267.227 370.273 244.574 376.711 c 244.484
 371.684 244.621 366.66 244.996 361.629 c 245.609 353.219 252.516 346.672
 260.934 346.266 c 263.461 346.148 265.996 346.035 268.539 345.969 c 281.211
 345.531 293.879 345.57 306.562 346.078 c h
306.562 346.078 m f
0.87451 0.917647 0.937255 rg
273.613 345.816 m 268.246 348.676 264.449 354.082 263.977 360.48 c 263.738
 363.727 263.578 366.984 263.52 370.23 c 257.355 372.711 251.031 374.871
 244.574 376.711 c 244.484 371.684 244.621 366.652 244.996 361.629 c 245.609
 353.219 252.516 346.672 260.934 346.262 c 263.461 346.148 265.996 346.027
 268.547 345.969 c 270.238 345.914 271.922 345.863 273.613 345.816 c h
273.613 345.816 m f
0.964706 0.945098 0.945098 rg
233.969 379.395 m 220.461 382.41 206.422 384 192 384 c 178.117 384 164.578
 382.523 151.531 379.727 c 151.312 373.695 151.434 367.664 151.883 361.629
 c 152.488 353.219 159.398 346.672 167.812 346.266 c 170.348 346.148 172.883
 346.035 175.426 345.969 c 189.512 345.488 203.586 345.586 217.68 346.266
 c 226.109 346.672 233.004 353.219 233.617 361.629 c 234.051 367.551 234.172
 373.469 233.969 379.395 c h
233.969 379.395 m f
0.87451 0.917647 0.937255 rg
180.504 345.816 m 175.133 348.676 171.328 354.082 170.863 360.48 c 170.309
 367.922 170.219 375.367 170.602 382.816 c 164.145 382.102 157.785 381.059
 151.539 379.727 c 151.32 373.688 151.441 367.656 151.883 361.629 c 152.496
 353.219 159.406 346.672 167.82 346.262 c 170.348 346.148 172.883 346.027
 175.426 345.969 c 177.121 345.914 178.809 345.863 180.504 345.816 c h
180.504 345.816 m f
0.964706 0.945098 0.945098 rg
140.918 377.129 m 117.727 370.746 96.301 360.121 77.512 346.141 c 79.109
 346.074 80.707 346.012 82.312 345.969 c 96.391 345.488 110.477 345.586 
124.566 346.266 c 132.996 346.672 139.891 353.219 140.504 361.629 c 140.887
 366.797 141.023 371.961 140.918 377.129 c h
140.918 377.129 m f
0.87451 0.917647 0.937255 rg
87.383 345.816 m 85.516 346.816 83.836 348.121 82.434 349.672 c 80.773 
348.523 79.133 347.348 77.512 346.141 c 79.109 346.066 80.707 346.004 82.312
 345.969 c 84.008 345.914 85.695 345.863 87.383 345.816 c h
87.383 345.816 m f
0.976471 0.239216 0.431373 rg
95.891 155.699 m 99.629 155.699 l 99.629 186.98 l 99.629 189.051 101.305
 190.73 103.379 190.73 c 105.449 190.73 107.129 189.051 107.129 186.98 c
 107.129 151.949 l 107.129 149.879 105.449 148.199 103.379 148.199 c 95.891
 148.199 l 93.82 148.199 92.141 149.879 92.141 151.949 c 92.141 154.02 93.82
 155.699 95.891 155.699 c h
95.891 155.699 m f
0.184314 0.215686 0.231373 rg
243.914 70.738 m 248.277 70.738 l 248.277 107.254 l 248.277 109.672 250.234
 111.633 252.652 111.633 c 255.07 111.633 257.031 109.672 257.031 107.254
 c 257.031 66.359 l 257.031 63.941 255.07 61.98 252.652 61.98 c 243.914 
61.98 l 241.496 61.98 239.535 63.941 239.535 66.359 c 239.535 68.777 241.496
 70.738 243.914 70.738 c h
243.914 70.738 m f
0.976471 0.239216 0.431373 rg
109.27 284.426 m 89.996 284.426 l 87.926 284.426 86.246 286.105 86.246 
288.176 c 86.246 290.246 87.926 291.926 89.996 291.926 c 103.523 291.926
 l 90.438 321.699 l 89.605 323.598 90.465 325.809 92.359 326.641 c 92.852
 326.859 93.363 326.961 93.867 326.961 c 95.309 326.961 96.684 326.125 97.305
 324.719 c 112.703 289.688 l 113.211 288.527 113.102 287.188 112.41 286.129
 c 111.719 285.066 110.535 284.426 109.27 284.426 c h
109.27 284.426 m f
192.75 230.188 m 191.773 230.188 190.91 230.227 190.121 230.305 c 191.242
 223.543 l 201.227 223.543 l 203.297 223.543 204.977 221.863 204.977 219.793
 c 204.977 217.723 203.297 216.043 201.227 216.043 c 188.062 216.043 l 186.23
 216.043 184.664 217.371 184.363 219.18 c 181.754 234.918 l 181.523 236.312
 182.105 237.715 183.242 238.551 c 184.383 239.387 185.902 239.508 187.164
 238.871 c 187.191 238.855 187.293 238.805 187.449 238.734 c 188.855 238.102
 189.984 237.688 192.746 237.688 c 194.676 237.688 196.469 238.457 197.797
 239.859 c 199.125 241.258 199.805 243.094 199.703 245.027 c 199.516 248.648
 196.523 251.543 192.895 251.613 c 189.375 251.672 186.336 249.113 185.852
 245.629 c 185.805 245.309 185.781 244.98 185.781 244.652 c 185.781 242.582
 184.105 240.902 182.031 240.902 c 179.961 240.902 178.281 242.582 178.281
 244.652 c 178.281 245.324 178.328 246 178.422 246.664 c 179.418 253.812
 185.551 259.117 192.75 259.117 c 192.848 259.117 192.945 259.117 193.043
 259.113 c 200.59 258.961 206.805 252.945 207.191 245.418 c 207.402 241.41
 205.996 237.602 203.238 234.695 c 200.52 231.828 196.695 230.188 192.75
 230.188 c h
192.75 230.188 m f
110.633 241.008 m 109.93 241.008 l 109.977 232.551 110.008 223.434 109.902
 222.18 c 109.676 219.465 108.051 217.258 105.762 216.547 c 103.492 215.844
 101.078 216.73 99.297 218.914 c 97.316 221.348 88.121 237.922 85.352 242.945
 c 84.711 244.105 84.73 245.52 85.406 246.664 c 86.078 247.805 87.309 248.508
 88.633 248.508 c 102.379 248.508 l 102.363 250.828 102.344 253.059 102.328
 255.062 c 102.309 257.133 103.973 258.828 106.043 258.848 c 106.078 258.848
 l 108.133 258.848 109.809 257.188 109.828 255.129 c 109.836 253.898 109.855
 251.488 109.879 248.508 c 110.633 248.508 l 112.703 248.508 114.383 246.828
 114.383 244.758 c 114.383 242.688 112.703 241.008 110.633 241.008 c h
102.426 241.008 m 95.004 241.008 l 97.801 236.008 100.531 231.203 102.473
 227.898 c 102.477 231.328 102.457 236.078 102.426 241.008 c h
102.426 241.008 m f
0.184314 0.215686 0.231373 rg
300.82 90.809 m 299.996 90.809 l 300.055 80.938 300.086 70.293 299.965 
68.832 c 299.699 65.664 297.805 63.086 295.133 62.258 c 292.484 61.438 289.664
 62.473 287.59 65.02 c 285.273 67.859 274.543 87.207 271.305 93.07 c 270.559
 94.426 270.582 96.078 271.371 97.41 c 272.156 98.746 273.59 99.562 275.141
 99.562 c 291.184 99.562 l 291.164 102.273 291.141 104.875 291.121 107.219
 c 291.102 109.637 293.043 111.613 295.461 111.633 c 295.5 111.633 l 297.898
 111.633 299.855 109.699 299.879 107.293 c 299.891 105.859 299.914 103.047
 299.938 99.562 c 300.82 99.562 l 303.238 99.562 305.195 97.602 305.195 
95.184 c 305.195 92.766 303.238 90.809 300.82 90.809 c h
291.242 90.809 m 282.578 90.809 l 285.84 84.973 289.027 79.363 291.293 
75.508 c 291.297 79.512 291.273 85.055 291.242 90.809 c h
291.242 90.809 m f
0.976471 0.239216 0.431373 rg
182.402 162.512 m 184.43 162.91 186.406 161.59 186.805 159.555 c 187.285
 157.125 189.438 155.355 191.922 155.355 c 194.727 155.355 197.023 157.586
 197.133 160.363 c 197.02 161.246 l 196.578 163.008 195.535 165.07 193.914
 167.383 c 188.363 175.312 185.051 179.652 183.273 181.984 c 181.059 184.879
 180.145 186.078 180.789 188.172 c 181.164 189.395 182.09 190.332 183.332
 190.746 c 183.828 190.914 184.34 191.082 191.148 191.082 c 193.812 191.082
 197.445 191.059 202.418 190.996 c 204.488 190.969 206.148 189.27 206.121
 187.199 c 206.094 185.129 204.395 183.469 202.324 183.496 c 198.609 183.543
 194.664 183.57 191.477 183.574 c 193.438 180.961 196.227 177.164 200.059
 171.684 c 202.285 168.508 203.73 165.512 204.367 162.773 c 204.395 162.652
 204.414 162.527 204.434 162.402 c 204.605 161.051 l 204.625 160.891 204.637
 160.73 204.637 160.574 c 204.637 153.562 198.934 147.859 191.922 147.859
 c 185.859 147.859 180.613 152.172 179.445 158.113 c 179.047 160.141 180.371
 162.113 182.402 162.512 c h
182.402 162.512 m f
285.863 183.645 m 283.277 183.645 281.055 181.719 280.699 179.16 c 280.664
 178.922 280.648 178.676 280.648 178.43 c 280.648 176.359 278.973 174.68
 276.898 174.68 c 274.828 174.68 273.148 176.359 273.148 178.43 c 273.148
 179.023 273.191 179.617 273.273 180.199 c 274.141 186.438 279.555 191.145
 285.863 191.145 c 292.875 191.145 298.578 185.441 298.578 178.43 c 298.578
 174.934 297.16 171.766 294.871 169.465 c 297.16 167.164 298.578 163.996
 298.578 160.5 c 298.578 153.492 292.875 147.789 285.863 147.789 c 279.801
 147.789 274.555 152.102 273.387 158.043 c 272.988 160.074 274.312 162.047
 276.344 162.445 c 278.371 162.844 280.348 161.52 280.746 159.488 c 281.223
 157.055 283.375 155.289 285.863 155.289 c 288.738 155.289 291.078 157.629
 291.078 160.504 c 291.078 163.379 288.738 165.715 285.863 165.715 c 283.789
 165.715 282.113 167.395 282.113 169.465 c 282.113 171.535 283.789 173.215
 285.863 173.215 c 288.738 173.215 291.078 175.555 291.078 178.43 c 291.078
 181.305 288.738 183.645 285.863 183.645 c h
285.863 183.645 m f
0.184314 0.215686 0.231373 rg
203.953 102.879 m 200.934 102.879 198.344 100.629 197.926 97.645 c 197.887
 97.363 197.867 97.078 197.867 96.789 c 197.867 94.371 195.906 92.414 193.488
 92.414 c 191.07 92.414 189.113 94.371 189.113 96.789 c 189.113 97.484 189.16
 98.176 189.254 98.855 c 190.27 106.141 196.59 111.633 203.953 111.633 c
 212.137 111.633 218.793 104.973 218.793 96.789 c 218.793 92.711 217.141
 89.012 214.469 86.328 c 217.141 83.641 218.793 79.941 218.793 75.863 c 
218.793 67.68 212.137 61.02 203.953 61.02 c 196.879 61.02 190.754 66.055
 189.391 72.988 c 188.922 75.363 190.469 77.664 192.84 78.129 c 195.211 
78.594 197.516 77.051 197.98 74.676 c 198.539 71.836 201.051 69.777 203.953
 69.777 c 207.309 69.777 210.039 72.508 210.039 75.863 c 210.039 79.219 
207.309 81.949 203.953 81.949 c 201.535 81.949 199.574 83.91 199.574 86.328
 c 199.574 88.746 201.535 90.703 203.953 90.703 c 207.309 90.703 210.039
 93.434 210.039 96.793 c 210.043 100.148 207.309 102.879 203.953 102.879
 c h
203.953 102.879 m f
0.976471 0.239216 0.431373 rg
201.551 302.355 m 203.008 300.473 203.883 298.121 203.883 295.562 c 203.883
 289.422 198.891 284.426 192.75 284.426 c 186.609 284.426 181.613 289.422
 181.613 295.562 c 181.613 298.121 182.488 300.473 183.945 302.355 c 180.848
 304.902 178.867 308.766 178.867 313.078 c 178.867 320.734 185.094 326.961
 192.75 326.961 c 200.402 326.961 206.629 320.734 206.629 313.078 c 206.629
 308.766 204.648 304.902 201.551 302.355 c h
189.113 295.562 m 189.113 293.559 190.742 291.926 192.75 291.926 c 194.754
 291.926 196.383 293.559 196.383 295.562 c 196.383 297.566 194.754 299.199
 192.75 299.199 c 190.742 299.199 189.113 297.566 189.113 295.562 c h
192.75 319.461 m 189.23 319.461 186.367 316.598 186.367 313.078 c 186.367
 309.562 189.23 306.699 192.75 306.699 c 196.266 306.699 199.129 309.562
 199.129 313.078 c 199.129 316.598 196.266 319.461 192.75 319.461 c h
192.75 319.461 m f
285.863 284.617 m 278.211 284.617 271.98 290.84 271.98 298.496 c 271.98
 306.148 278.211 312.375 285.863 312.375 c 286.516 312.375 287.148 312.316
 287.777 312.23 c 284.73 317.25 281.277 319.941 281.172 320.02 c 279.52 
321.258 279.18 323.602 280.41 325.262 c 281.148 326.25 282.277 326.773 283.422
 326.773 c 284.203 326.773 284.988 326.531 285.66 326.031 c 286.148 325.664
 297.715 316.891 299.609 300.395 c 299.613 300.367 299.609 300.34 299.609
 300.312 c 299.688 299.715 299.742 299.113 299.742 298.496 c 299.742 290.84
 293.516 284.617 285.863 284.617 c h
279.484 298.496 m 279.484 294.977 282.344 292.117 285.863 292.117 c 289.383
 292.117 292.246 294.977 292.246 298.496 c 292.246 302.016 289.383 304.875
 285.863 304.875 c 282.344 304.875 279.484 302.016 279.484 298.496 c h
279.484 298.496 m f
285.863 258.66 m 293.516 258.66 299.742 252.434 299.742 244.777 c 299.742
 237.121 293.516 230.898 285.863 230.898 c 285.211 230.898 284.578 230.957
 283.949 231.043 c 286.992 226.023 290.449 223.332 290.555 223.25 c 292.207
 222.012 292.547 219.672 291.316 218.012 c 290.078 216.352 287.73 216.004
 286.066 217.242 c 285.578 217.605 274.012 226.383 272.117 242.879 c 272.113
 242.906 272.117 242.93 272.117 242.957 c 272.039 243.555 271.984 244.16
 271.984 244.777 c 271.984 252.43 278.211 258.66 285.863 258.66 c h
292.242 244.777 m 292.242 248.297 289.383 251.16 285.863 251.16 c 282.344
 251.16 279.48 248.297 279.48 244.777 c 279.48 241.258 282.344 238.398 285.863
 238.398 c 289.383 238.398 292.242 241.258 292.242 244.777 c h
292.242 244.777 m f
192.75 352.785 m 185.094 352.785 178.867 359.016 178.867 366.668 c 178.867
 382.867 l 178.867 383.102 178.875 383.332 178.883 383.559 c 181.395 383.73
 183.922 383.852 186.457 383.918 c 186.398 383.574 186.367 383.227 186.367
 382.867 c 186.367 366.668 l 186.367 363.148 189.234 360.285 192.75 360.285
 c 196.266 360.285 199.133 363.148 199.133 366.668 c 199.133 382.867 l 199.133
 383.203 199.102 383.543 199.051 383.871 c 201.586 383.781 204.113 383.641
 206.617 383.453 c 206.625 383.258 206.633 383.062 206.633 382.867 c 206.633
 366.668 l 206.633 359.016 200.398 352.785 192.75 352.785 c h
192.75 352.785 m f
0.184314 0.215686 0.231373 rg
231.133 107.148 m 231.133 109.582 229.16 111.555 226.727 111.555 c 224.293
 111.555 222.32 109.582 222.32 107.148 c 222.32 104.715 224.293 102.742 
226.727 102.742 c 229.16 102.742 231.133 104.715 231.133 107.148 c h
231.133 107.148 m f
Q Q
showpage
%%Trailer
end
%%EOF
