%!PS-Adobe-3.0 EPSF-3.0
%%Creator: cairo 1.16.0 (https://cairographics.org)
%%CreationDate: Thu Nov 14 08:46:54 2019
%%Pages: 1
%%DocumentData: Clean7Bit
%%LanguageLevel: 2
%%BoundingBox: 0 0 384 384
%%EndComments
%%BeginProlog
50 dict begin
/q { gsave } bind def
/Q { grestore } bind def
/cm { 6 array astore concat } bind def
/w { setlinewidth } bind def
/J { setlinecap } bind def
/j { setlinejoin } bind def
/M { setmiterlimit } bind def
/d { setdash } bind def
/m { moveto } bind def
/l { lineto } bind def
/c { curveto } bind def
/h { closepath } bind def
/re { exch dup neg 3 1 roll 5 3 roll moveto 0 rlineto
      0 exch rlineto 0 rlineto closepath } bind def
/S { stroke } bind def
/f { fill } bind def
/f* { eofill } bind def
/n { newpath } bind def
/W { clip } bind def
/W* { eoclip } bind def
/BT { } bind def
/ET { } bind def
/BDC { mark 3 1 roll /BDC pdfmark } bind def
/EMC { mark /EMC pdfmark } bind def
/cairo_store_point { /cairo_point_y exch def /cairo_point_x exch def } def
/Tj { show currentpoint cairo_store_point } bind def
/TJ {
  {
    dup
    type /stringtype eq
    { show } { -0.001 mul 0 cairo_font_matrix dtransform rmoveto } ifelse
  } forall
  currentpoint cairo_store_point
} bind def
/cairo_selectfont { cairo_font_matrix aload pop pop pop 0 0 6 array astore
    cairo_font exch selectfont cairo_point_x cairo_point_y moveto } bind def
/Tf { pop /cairo_font exch def /cairo_font_matrix where
      { pop cairo_selectfont } if } bind def
/Td { matrix translate cairo_font_matrix matrix concatmatrix dup
      /cairo_font_matrix exch def dup 4 get exch 5 get cairo_store_point
      /cairo_font where { pop cairo_selectfont } if } bind def
/Tm { 2 copy 8 2 roll 6 array astore /cairo_font_matrix exch def
      cairo_store_point /cairo_font where { pop cairo_selectfont } if } bind def
/g { setgray } bind def
/rg { setrgbcolor } bind def
/d1 { setcachedevice } bind def
/cairo_data_source {
  CairoDataIndex CairoData length lt
    { CairoData CairoDataIndex get /CairoDataIndex CairoDataIndex 1 add def }
    { () } ifelse
} def
/cairo_flush_ascii85_file { cairo_ascii85_file status { cairo_ascii85_file flushfile } if } def
/cairo_image { image cairo_flush_ascii85_file } def
/cairo_imagemask { imagemask cairo_flush_ascii85_file } def
%%EndProlog
%%BeginSetup
%%EndSetup
%%Page: 1 1
%%BeginPageSetup
%%PageBoundingBox: 0 0 384 384
%%EndPageSetup
q 0 0 384 384 rectclip
1 0 0 -1 0 384 cm q
0.737255 0.584314 0.886275 rg
384 192 m 384 221.586 377.301 249.613 365.348 274.641 c 351.855 302.91 
331.641 327.352 306.789 345.914 c 300.227 350.812 293.348 355.305 286.176
 359.348 c 274.148 366.129 261.316 371.656 247.852 375.742 c 241.172 377.773
 234.336 379.449 227.363 380.746 c 221.023 381.93 214.574 382.801 208.035
 383.34 c 202.746 383.773 197.406 384 192 384 c 190.898 384 189.797 383.992
 188.699 383.969 c 181.777 383.859 174.945 383.371 168.219 382.539 c 143.406
 379.469 120.066 371.676 99.121 360.066 c 95.203 357.898 91.371 355.598 
87.629 353.168 c 82.395 349.777 77.332 346.133 72.473 342.254 c 71.422 341.43
 70.387 340.582 69.359 339.727 c 61.598 333.285 54.359 326.234 47.707 318.66
 c 47.707 318.66 47.699 318.66 47.699 318.652 c 43.395 313.746 39.328 308.625
 35.535 303.301 c 26.43 290.527 18.855 276.586 13.066 261.75 c 13.059 261.742
 13.059 261.734 13.059 261.734 c 4.629 240.121 0 216.602 0 192 c 0 157.516
 9.098 125.152 25.02 97.176 c 32.488 84.047 41.469 71.871 51.727 60.906 
c 58.516 53.641 65.863 46.906 73.711 40.754 c 106.312 15.227 147.383 0 192
 0 c 298.035 0 384 85.965 384 192 c h
384 192 m f
0.85098 0.447059 0.243137 rg
365.559 261.922 m 365.559 266.184 365.488 270.426 365.348 274.641 c 348.293
 310.363 320.512 339.984 286.176 359.348 c 278.016 329.094 273.547 296.25
 273.547 261.922 c 273.547 239.234 275.504 217.199 279.188 196.125 c 324.285
 179.504 l 359.926 196.125 l 363.609 217.199 365.559 239.234 365.559 261.922
 c h
365.559 261.922 m f
0.741176 0.329412 0.137255 rg
306.789 345.914 m 300.227 350.812 293.348 355.305 286.176 359.348 c 278.016
 329.094 273.547 296.25 273.547 261.922 c 273.547 239.234 275.496 217.199
 279.18 196.125 c 305.52 196.125 l 304.23 217.199 303.555 239.234 303.555
 261.93 c 303.555 291.234 304.688 319.453 306.789 345.914 c h
306.789 345.914 m f
0.184314 0.215686 0.231373 rg
343.848 139.316 m 310.43 159.93 l 299.316 144.871 l 295.219 139.316 l 285.703
 129.797 278.461 115.848 275.289 99.863 c 269.875 72.625 276.281 39.488 
303.422 12.344 c 308.926 6.844 318.328 10.684 318.555 18.465 c 318.945 31.879
 321.898 47.84 333.254 51.477 c 339.336 53.43 345.691 58.719 350.723 66.184
 c 350.723 66.191 350.73 66.199 350.738 66.211 c 362.543 83.746 367.074 
113.219 343.848 139.316 c h
343.848 139.316 m f
0.964706 0.945098 0.945098 rg
343.852 139.312 m 295.223 139.312 l 279.184 196.129 l 359.891 196.129 l
 h
343.852 139.312 m f
0.0941176 0.117647 0.129412 rg
309.609 139.316 m 299.316 144.871 l 295.219 139.316 l 285.703 129.797 278.461
 115.848 275.289 99.863 c 269.875 72.625 276.281 39.488 303.422 12.344 c
 308.926 6.844 318.328 10.684 318.555 18.465 c 279.395 64.543 303.906 124.047
 309.609 139.316 c h
309.609 139.316 m f
0.87451 0.917647 0.937255 rg
305.516 196.129 m 309.609 139.312 l 295.223 139.312 l 279.184 196.129 l
 h
305.516 196.129 m f
0.92549 0.764706 0.180392 rg
319.555 84.848 m 307.977 79.133 303.113 84.027 297.195 89.703 c 292.199
 94.508 286.453 99.863 275.289 99.863 c 269.875 72.625 276.281 39.488 303.422
 12.344 c 308.809 6.961 317.938 10.523 318.527 17.98 c 318.547 18.156 318.547
 18.316 318.555 18.465 c 318.945 31.879 321.898 47.84 333.254 51.477 c 339.336
 53.43 345.691 58.719 350.723 66.184 c 350.723 66.191 350.73 66.199 350.738
 66.211 c 357.723 80.844 340.902 95.375 319.555 84.848 c h
319.555 84.848 m f
0.905882 0.647059 0.180392 rg
297.195 89.703 m 292.199 94.508 286.453 99.863 275.289 99.863 c 269.875
 72.625 276.281 39.488 303.422 12.344 c 308.809 6.961 317.938 10.523 318.527
 17.98 c 318.547 18.156 318.547 18.316 318.555 18.465 c 299.191 41.25 295.395
 67.328 297.195 89.703 c h
297.195 89.703 m f
1 0.443137 0.615686 rg
231.82 75.504 m 231.82 375.742 l 225.137 377.773 218.305 379.449 211.332
 380.746 c 199.871 382.883 188.051 384 175.969 384 c 174.867 384 173.762
 383.992 172.668 383.969 c 165.746 383.859 158.914 383.371 152.184 382.539
 c 152.184 75.504 l h
231.82 75.504 m f
0.894118 0.0901961 0.32549 rg
192.004 75.504 m 192.004 383.34 l 186.715 383.773 181.375 384 175.969 384
 c 174.867 384 173.762 383.992 172.668 383.969 c 165.746 383.859 158.914
 383.371 152.184 382.539 c 152.184 75.504 l h
192.004 75.504 m f
0.976471 0.239216 0.431373 rg
211.332 75.504 m 211.332 380.746 l 199.871 382.883 188.051 384 175.969 
384 c 174.867 384 173.762 383.992 172.668 383.969 c 172.668 75.504 l h
211.332 75.504 m f
0.964706 0.945098 0.945098 rg
231.816 75.5 m 218.02 49.586 l 192 0.68 l 165.98 49.586 l 152.184 75.5 
l h
231.816 75.5 m f
0.87451 0.917647 0.937255 rg
192 0.68 m 165.98 49.586 l 152.184 75.5 l 179.016 75.5 l 183.508 49.586
 l h
192 0.68 m f
0.184314 0.215686 0.231373 rg
218.02 49.586 m 192 0.68 l 165.98 49.586 l 173.73 53.727 182.594 56.07 
192 56.07 c 201.406 56.07 210.27 53.727 218.02 49.586 c h
218.02 49.586 m f
0.0941176 0.117647 0.129412 rg
192 0.68 m 165.98 49.586 l 171.066 52.309 176.629 54.25 182.52 55.258 c
 183.508 49.586 l h
192 0.68 m f
0.92549 0.764706 0.180392 rg
58.457 6.586 m 51.703 6.586 46.23 12.059 46.23 18.812 c 46.23 51.664 l 
70.68 51.664 l 70.68 18.812 l 70.68 12.059 65.207 6.586 58.457 6.586 c h
58.457 6.586 m f
87.629 303.301 m 87.629 353.168 l 82.395 349.777 77.332 346.133 72.473 
342.254 c 71.422 341.43 70.387 340.582 69.359 339.727 c 61.598 333.285 54.359
 326.234 47.707 318.66 c 47.707 318.66 47.699 318.66 47.699 318.652 c 43.395
 313.746 39.328 308.625 35.535 303.301 c h
87.629 303.301 m f
0.905882 0.647059 0.180392 rg
63.41 7.637 m 61.898 6.969 60.219 6.594 58.461 6.594 c 51.707 6.594 46.23
 12.059 46.23 18.812 c 46.23 51.668 l 56.117 51.668 l 56.117 18.812 l 56.117
 13.816 59.117 9.523 63.41 7.637 c h
63.41 7.637 m f
0.501961 0.886275 0.615686 rg
106.191 213.891 m 106.191 250.996 102.016 286.898 94.207 321 c 91.664 332.078
 83.273 339.727 73.77 339.727 c 69.359 339.727 l 44.527 319.094 24.988 292.32
 13.059 261.734 c 11.512 246.047 10.719 230.078 10.719 213.891 c 10.719 
173.289 15.719 134.102 25.02 97.176 c 29.984 77.422 36.188 58.32 43.516 
39.988 c 44.586 37.312 46.844 35.625 49.305 35.625 c 67.613 35.625 l 70.074
 35.625 72.336 37.312 73.41 39.988 c 73.516 40.246 73.613 40.5 73.711 40.754
 c 94.531 93.141 106.191 151.859 106.191 213.891 c h
106.191 213.891 m f
0.4 0.705882 0.615686 rg
55.738 35.625 m 55.012 35.625 54.344 37.312 54.031 39.988 c 53.211 46.852
 52.449 53.828 51.727 60.906 c 46.949 108.031 44.309 159.703 44.309 213.891
 c 44.309 250.148 45.496 285.254 47.699 318.652 c 33.059 301.996 21.27 282.773
 13.066 261.75 c 13.059 261.742 13.059 261.734 13.059 261.734 c 11.512 246.047
 10.719 230.078 10.719 213.891 c 10.719 173.289 15.719 134.102 25.02 97.176
 c 29.992 77.422 36.188 58.32 43.516 39.988 c 44.586 37.312 46.844 35.625
 49.305 35.625 c h
55.738 35.625 m f
0.92549 0.764706 0.180392 rg
156.676 232.777 m 156.523 234.309 156.156 235.77 155.633 237.156 c 155.633
 237.18 155.617 237.203 155.617 237.227 c 155.609 237.227 l 153.09 243.871
 146.684 248.609 139.156 248.609 c 137.754 248.609 136.379 248.445 135.066
 248.129 c 127.312 246.277 121.551 239.309 121.551 231 c 121.551 222.367
 127.785 215.191 135.988 213.703 c 132.969 208.844 128.379 205.402 124.066
 204.051 c 114.074 200.934 109.148 208.926 106.777 216.188 c 101.422 232.559
 113.094 252.441 124.371 271.688 c 136.133 291.727 148.289 312.457 141.863
 331.719 c 135.496 350.828 116.852 357.898 99.121 360.066 c 89.73 354.871
 80.812 348.906 72.473 342.254 c 87.277 343.664 118.703 344.355 124.816 
326.039 c 128.664 314.512 119.047 298.133 108.871 280.777 c 96.195 259.164
 81.824 234.668 89.691 210.609 c 93.887 197.812 100.973 191.73 106.191 188.879
 c 110.391 186.578 115.078 185.414 119.902 185.414 c 123.047 185.414 126.254
 185.91 129.434 186.891 c 133.117 188.047 136.637 189.824 139.875 192.129
 c 139.883 192.137 139.898 192.137 139.898 192.137 c 144.691 195.523 148.828
 200.055 151.883 205.328 c 156.742 213.758 158.387 223.363 156.676 232.777
 c h
156.676 232.777 m f
0.905882 0.647059 0.180392 rg
139.871 192.125 m 136.637 189.828 133.117 188.043 129.438 186.895 c 126.258
 185.91 123.047 185.418 119.902 185.418 c 115.082 185.418 110.391 186.578
 106.195 188.879 c 100.977 191.727 93.883 197.812 89.695 210.605 c 81.828
 234.668 96.191 259.164 108.867 280.777 c 119.047 298.133 128.66 314.512
 124.816 326.039 c 120.395 339.312 102.688 342.598 87.633 342.867 c 87.633
 348.379 l 112.492 346.488 133.258 338.281 133.258 325.207 c 133.258 293.875
 95.441 265.602 95.441 222.812 c 95.441 180.598 138.699 191.82 139.871 192.125
 c h
139.871 192.125 m f
141.664 216.703 m 139.379 210.969 138.617 207.535 124.066 204.051 c 128.379
 205.398 132.965 208.848 135.992 213.703 c 127.781 215.191 121.555 222.367
 121.555 231 c 121.555 239.312 127.312 246.277 135.066 248.129 c 148.328
 241.34 143.965 222.438 141.664 216.703 c h
141.664 216.703 m f
Q Q
showpage
%%Trailer
end
%%EOF
