%!PS-Adobe-3.0 EPSF-3.0
%%Creator: cairo 1.16.0 (https://cairographics.org)
%%CreationDate: Thu Nov 14 08:46:54 2019
%%Pages: 1
%%DocumentData: Clean7Bit
%%LanguageLevel: 2
%%BoundingBox: 0 0 384 384
%%EndComments
%%BeginProlog
50 dict begin
/q { gsave } bind def
/Q { grestore } bind def
/cm { 6 array astore concat } bind def
/w { setlinewidth } bind def
/J { setlinecap } bind def
/j { setlinejoin } bind def
/M { setmiterlimit } bind def
/d { setdash } bind def
/m { moveto } bind def
/l { lineto } bind def
/c { curveto } bind def
/h { closepath } bind def
/re { exch dup neg 3 1 roll 5 3 roll moveto 0 rlineto
      0 exch rlineto 0 rlineto closepath } bind def
/S { stroke } bind def
/f { fill } bind def
/f* { eofill } bind def
/n { newpath } bind def
/W { clip } bind def
/W* { eoclip } bind def
/BT { } bind def
/ET { } bind def
/BDC { mark 3 1 roll /BDC pdfmark } bind def
/EMC { mark /EMC pdfmark } bind def
/cairo_store_point { /cairo_point_y exch def /cairo_point_x exch def } def
/Tj { show currentpoint cairo_store_point } bind def
/TJ {
  {
    dup
    type /stringtype eq
    { show } { -0.001 mul 0 cairo_font_matrix dtransform rmoveto } ifelse
  } forall
  currentpoint cairo_store_point
} bind def
/cairo_selectfont { cairo_font_matrix aload pop pop pop 0 0 6 array astore
    cairo_font exch selectfont cairo_point_x cairo_point_y moveto } bind def
/Tf { pop /cairo_font exch def /cairo_font_matrix where
      { pop cairo_selectfont } if } bind def
/Td { matrix translate cairo_font_matrix matrix concatmatrix dup
      /cairo_font_matrix exch def dup 4 get exch 5 get cairo_store_point
      /cairo_font where { pop cairo_selectfont } if } bind def
/Tm { 2 copy 8 2 roll 6 array astore /cairo_font_matrix exch def
      cairo_store_point /cairo_font where { pop cairo_selectfont } if } bind def
/g { setgray } bind def
/rg { setrgbcolor } bind def
/d1 { setcachedevice } bind def
/cairo_data_source {
  CairoDataIndex CairoData length lt
    { CairoData CairoDataIndex get /CairoDataIndex CairoDataIndex 1 add def }
    { () } ifelse
} def
/cairo_flush_ascii85_file { cairo_ascii85_file status { cairo_ascii85_file flushfile } if } def
/cairo_image { image cairo_flush_ascii85_file } def
/cairo_imagemask { imagemask cairo_flush_ascii85_file } def
%%EndProlog
%%BeginSetup
%%EndSetup
%%Page: 1 1
%%BeginPageSetup
%%PageBoundingBox: 0 0 384 384
%%EndPageSetup
q 0 0 384 384 rectclip
1 0 0 -1 0 384 cm q
0.501961 0.886275 0.615686 rg
384 192 m 384 298.039 298.039 384 192 384 c 85.961 384 0 298.039 0 192 
c 0 85.961 85.961 0 192 0 c 298.039 0 384 85.961 384 192 c h
384 192 m f
0.184314 0.215686 0.231373 rg
246.832 359.691 m 137.168 359.691 l 141.898 338.73 l 146.176 319.785 l 
156.082 275.887 l 227.918 275.887 l 237.824 319.785 l 242.102 338.73 l h
246.832 359.691 m f
0.0941176 0.117647 0.129412 rg
167.258 275.887 m 160.434 319.785 l 154.223 359.691 l 137.168 359.691 l
 146.176 319.785 l 156.082 275.887 l h
167.258 275.887 m f
237.824 319.785 m 207.277 320.477 176.723 320.477 146.176 319.785 c 156.082
 275.887 l 227.918 275.887 l h
237.824 319.785 m f
0.184314 0.215686 0.231373 rg
366.277 272.648 m 362.941 279.871 359.152 286.852 354.969 293.559 c 351.09
 296.309 346.449 298.043 341.445 298.402 c 246.668 305.301 151.883 305.641
 57.105 299.406 c 57.098 299.406 l 52.254 299.094 47.398 298.754 42.555 
298.402 c 37.551 298.043 32.91 296.309 29.031 293.559 c 24.848 286.852 21.059
 279.871 17.723 272.648 c 11.836 222.969 10.109 173.289 12.539 123.609 c
 13.582 102.129 15.414 80.641 18.016 59.152 c 19.547 46.531 29.879 36.832
 42.555 35.91 c 48.383 35.484 54.203 35.086 60.031 34.719 c 67.98 34.199
 75.922 33.742 83.871 33.328 c 155.953 29.527 228.047 29.527 300.129 33.328
 c 313.906 34.043 327.676 34.906 341.445 35.91 c 354.121 36.832 364.453 
46.531 365.984 59.152 c 368.586 80.641 370.418 102.129 371.461 123.609 c
 373.891 173.289 372.164 222.969 366.277 272.648 c h
366.277 272.648 m f
0.964706 0.945098 0.945098 rg
192 276.035 m 145.238 276.035 97.82 274.309 51.062 270.906 c 49.156 270.77
 47.617 269.363 47.398 267.559 c 39.332 200.938 39.332 133.375 47.398 66.754
 c 47.617 64.953 49.156 63.543 51.062 63.406 c 97.82 60.004 145.242 58.281
 192 58.281 c 238.758 58.281 286.18 60.004 332.938 63.406 c 334.84 63.543
 336.383 64.953 336.598 66.754 c 344.668 133.375 344.668 200.938 336.598
 267.559 c 336.383 269.359 334.84 270.77 332.938 270.906 c 286.18 274.309
 238.762 276.035 192 276.035 c h
192 276.035 m f
0.0941176 0.117647 0.129412 rg
246.832 359.691 m 137.168 359.691 l 141.898 338.73 l 242.102 338.73 l h
246.832 359.691 m f
0.184314 0.215686 0.231373 rg
285.172 359.91 m 257.578 375.254 225.809 384 192 384 c 158.191 384 126.422
 375.254 98.828 359.91 c 101.086 352.004 108.359 346.223 116.984 346.223
 c 267.016 346.223 l 272.234 346.223 276.953 348.336 280.371 351.75 c 282.609
 353.984 284.281 356.781 285.172 359.91 c h
285.172 359.91 m f
0.0941176 0.117647 0.129412 rg
151.531 378.465 m 152.121 379.059 152.754 379.613 153.422 380.113 c 133.996
 376.156 115.637 369.254 98.828 359.91 c 101.086 352.004 108.359 346.215
 116.984 346.215 c 164.887 346.215 l 154.453 346.215 145.996 354.676 145.996
 365.109 c 145.996 370.328 148.109 375.047 151.531 378.465 c h
151.531 378.465 m f
57.098 299.406 m 52.254 299.094 47.398 298.754 42.555 298.402 c 37.551 
298.043 32.91 296.309 29.031 293.559 c 24.848 286.852 21.059 279.871 17.723
 272.648 c 11.836 222.969 10.109 173.289 12.539 123.609 c 13.582 102.129
 15.414 80.641 18.016 59.152 c 19.547 46.531 29.879 36.832 42.555 35.91 
c 48.383 35.484 54.203 35.086 60.031 34.719 c 42.555 35.91 26.953 55.098
 26.953 82.215 c 30.25 257.039 l 30.25 276.098 40.223 295.352 57.098 299.406
 c h
57.098 299.406 m f
0.976471 0.239216 0.431373 rg
171.543 160.711 m 139.73 76.418 l 139.691 76.312 139.652 76.211 139.609
 76.105 c 137.566 71.145 132.781 67.938 127.414 67.938 c 127.41 67.938 127.402
 67.938 127.398 67.938 c 122.027 67.945 117.242 71.16 115.207 76.133 c 115.172
 76.219 115.141 76.305 115.105 76.387 c 83.004 160.68 l 80.793 166.484 83.707
 172.984 89.512 175.195 c 90.832 175.699 92.184 175.938 93.516 175.938 c
 98.047 175.938 102.32 173.176 104.031 168.688 c 109.266 154.941 l 145.316
 154.941 l 150.492 168.656 l 152.688 174.469 159.176 177.402 164.992 175.207
 c 170.801 173.016 173.738 166.523 171.543 160.711 c h
117.836 132.441 m 127.375 107.398 l 136.824 132.441 l h
117.836 132.441 m f
0.564706 0.847059 0.976471 rg
222.098 158.117 m 225.074 153.367 226.805 147.758 226.805 141.754 c 226.805
 124.703 212.93 110.828 195.879 110.828 c 171.047 110.828 l 164.832 110.828
 159.797 115.867 159.797 122.078 c 159.797 207.574 l 159.797 210.566 160.988
 213.438 163.109 215.547 c 165.219 217.645 168.07 218.824 171.047 218.824
 c 171.098 218.824 l 171.324 218.824 194.012 218.723 200.219 218.723 c 219.109
 218.723 234.48 203.352 234.48 184.461 c 234.48 173.879 229.66 164.41 222.098
 158.117 c h
195.879 133.328 m 200.523 133.328 204.301 137.109 204.301 141.754 c 204.301
 146.395 200.523 150.176 195.879 150.176 c 194.023 150.176 190.562 150.184
 186.793 150.199 c 182.297 150.199 l 182.297 133.328 l h
200.219 196.223 m 196.918 196.223 189.043 196.25 182.297 196.277 c 182.297
 172.715 l 183.816 172.711 185.371 172.703 186.879 172.699 c 200.219 172.699
 l 206.703 172.699 211.98 177.977 211.98 184.461 c 211.98 190.945 206.703
 196.223 200.219 196.223 c h
200.219 196.223 m f
0.92549 0.764706 0.180392 rg
263.555 266.375 m 233.781 266.375 209.559 242.152 209.559 212.379 c 209.559
 182.605 233.781 158.383 263.555 158.383 c 274.375 158.383 284.816 161.574
 293.754 167.609 c 298.902 171.09 300.254 178.082 296.777 183.23 c 293.297
 188.379 286.305 189.734 281.156 186.254 c 275.953 182.738 269.867 180.883
 263.555 180.883 c 246.188 180.883 232.059 195.012 232.059 212.379 c 232.059
 229.746 246.188 243.875 263.555 243.875 c 269.957 243.875 275.332 241.977
 279.535 238.238 c 280.352 237.508 281.137 236.695 281.867 235.828 c 285.859
 231.066 292.957 230.445 297.715 234.441 c 302.477 238.434 303.098 245.527
 299.105 250.289 c 297.676 251.988 296.129 253.586 294.496 255.039 c 286.172
 262.457 275.469 266.375 263.555 266.375 c h
263.555 266.375 m f
0.184314 0.215686 0.231373 rg
321.16 92.023 m 248.656 92.023 l 244.34 92.023 240.84 88.523 240.84 84.207
 c 240.84 79.887 244.34 76.387 248.656 76.387 c 321.16 76.387 l 325.477 
76.387 328.977 79.887 328.977 84.207 c 328.977 88.523 325.477 92.023 321.16
 92.023 c h
321.16 92.023 m f
321.16 114.898 m 248.656 114.898 l 244.34 114.898 240.84 111.398 240.84
 107.082 c 240.84 102.762 244.34 99.262 248.656 99.262 c 321.16 99.262 l
 325.477 99.262 328.977 102.762 328.977 107.082 c 328.977 111.398 325.477
 114.898 321.16 114.898 c h
321.16 114.898 m f
321.16 137.773 m 248.656 137.773 l 244.34 137.773 240.84 134.273 240.84
 129.953 c 240.84 125.637 244.34 122.137 248.656 122.137 c 321.16 122.137
 l 325.477 122.137 328.977 125.637 328.977 129.953 c 328.977 134.273 325.477
 137.773 321.16 137.773 c h
321.16 137.773 m f
Q Q
showpage
%%Trailer
end
%%EOF
