%!PS-Adobe-3.0 EPSF-3.0
%%Creator: cairo 1.16.0 (https://cairographics.org)
%%CreationDate: Thu Nov 14 08:46:54 2019
%%Pages: 1
%%DocumentData: Clean7Bit
%%LanguageLevel: 2
%%BoundingBox: 0 0 384 384
%%EndComments
%%BeginProlog
50 dict begin
/q { gsave } bind def
/Q { grestore } bind def
/cm { 6 array astore concat } bind def
/w { setlinewidth } bind def
/J { setlinecap } bind def
/j { setlinejoin } bind def
/M { setmiterlimit } bind def
/d { setdash } bind def
/m { moveto } bind def
/l { lineto } bind def
/c { curveto } bind def
/h { closepath } bind def
/re { exch dup neg 3 1 roll 5 3 roll moveto 0 rlineto
      0 exch rlineto 0 rlineto closepath } bind def
/S { stroke } bind def
/f { fill } bind def
/f* { eofill } bind def
/n { newpath } bind def
/W { clip } bind def
/W* { eoclip } bind def
/BT { } bind def
/ET { } bind def
/BDC { mark 3 1 roll /BDC pdfmark } bind def
/EMC { mark /EMC pdfmark } bind def
/cairo_store_point { /cairo_point_y exch def /cairo_point_x exch def } def
/Tj { show currentpoint cairo_store_point } bind def
/TJ {
  {
    dup
    type /stringtype eq
    { show } { -0.001 mul 0 cairo_font_matrix dtransform rmoveto } ifelse
  } forall
  currentpoint cairo_store_point
} bind def
/cairo_selectfont { cairo_font_matrix aload pop pop pop 0 0 6 array astore
    cairo_font exch selectfont cairo_point_x cairo_point_y moveto } bind def
/Tf { pop /cairo_font exch def /cairo_font_matrix where
      { pop cairo_selectfont } if } bind def
/Td { matrix translate cairo_font_matrix matrix concatmatrix dup
      /cairo_font_matrix exch def dup 4 get exch 5 get cairo_store_point
      /cairo_font where { pop cairo_selectfont } if } bind def
/Tm { 2 copy 8 2 roll 6 array astore /cairo_font_matrix exch def
      cairo_store_point /cairo_font where { pop cairo_selectfont } if } bind def
/g { setgray } bind def
/rg { setrgbcolor } bind def
/d1 { setcachedevice } bind def
/cairo_data_source {
  CairoDataIndex CairoData length lt
    { CairoData CairoDataIndex get /CairoDataIndex CairoDataIndex 1 add def }
    { () } ifelse
} def
/cairo_flush_ascii85_file { cairo_ascii85_file status { cairo_ascii85_file flushfile } if } def
/cairo_image { image cairo_flush_ascii85_file } def
/cairo_imagemask { imagemask cairo_flush_ascii85_file } def
%%EndProlog
%%BeginSetup
%%EndSetup
%%Page: 1 1
%%BeginPageSetup
%%PageBoundingBox: 0 0 384 384
%%EndPageSetup
q 0 0 384 384 rectclip
1 0 0 -1 0 384 cm q
0.737255 0.584314 0.886275 rg
384 192 m 384 275.094 331.207 345.863 257.34 372.586 c 236.949 379.973 
214.941 384 192 384 c 85.965 384 0 298.035 0 192 c 0 131.992 27.531 78.406
 70.656 43.199 c 103.734 16.199 145.973 0 192 0 c 298.035 0 384 85.965 384
 192 c h
384 192 m f
0.964706 0.945098 0.945098 rg
257.34 372.586 m 236.949 379.973 214.941 384 192 384 c 85.965 384 0 298.035
 0 192 c 0 131.992 27.531 78.406 70.656 43.199 c 144.828 23.797 l 155.816
 20.922 167.055 27.5 169.926 38.484 c h
257.34 372.586 m f
0.564706 0.847059 0.976471 rg
125.805 258.656 m 125.488 253.844 120.699 250.387 115.754 252.086 c 112.562
 253.18 110.645 256.379 110.844 259.746 c 111.309 267.566 106.699 272.855
 103.324 273.52 c 99.742 274.23 97.5 268.82 96.699 266.461 c 95.195 262.008
 98.371 250.164 100.922 240.648 c 106.074 221.434 111.914 199.66 98.074 
189.016 c 89.137 182.141 79.367 181.102 70.562 186.086 c 70.27 186.254 69.984
 186.434 69.699 186.613 c 71.742 174.395 73.664 160.277 74.77 146.445 c 
76.426 125.773 77.078 100.922 67.363 92.152 c 63.594 88.75 58.727 87.82 
53.672 89.531 c 43.633 92.926 38.148 107.918 41.832 172.074 c 42.434 182.512
 43.234 193.367 44.16 204.242 c 44.309 205.961 44.074 207.715 43.328 209.273
 c 42.273 211.473 40.457 213.121 37.773 214.379 c 33.57 216.344 29.043 216.422
 29.043 216.422 c 24.797 216.422 21.375 219.945 21.547 224.227 c 21.711 
228.32 25.281 231.465 29.379 231.418 c 34.582 231.359 40.809 229.969 46.246
 226.832 c 48.34 248.004 50.699 268.211 52.723 284.441 c 53.234 288.527 
56.852 291.648 60.949 291.234 c 61.355 291.195 61.75 291.121 62.129 291.02
 c 65.699 290.074 68.109 286.609 67.641 282.844 c 66.102 270.523 64.344 
255.668 62.652 239.754 c 62.922 238.824 63.016 237.824 62.898 236.801 c 
61.512 224.863 68.566 204.457 77.953 199.137 c 80.281 197.82 83.633 196.828
 88.93 200.906 c 94.832 205.445 89.977 223.547 86.434 236.762 c 82.73 250.578
 79.531 262.512 82.492 271.266 c 87.559 286.242 98.082 289.848 106.242 288.23
 c 106.66 288.148 107.07 288.055 107.477 287.945 c 118.73 284.965 126.703
 272.383 125.805 258.656 c h
59.789 145.602 m 59.102 154.109 58.051 163.016 56.832 171.598 c 55.777 
153.379 55.469 138.328 55.914 126.801 c 56.371 114.898 57.578 108.785 58.508
 105.762 c 59.918 109.922 61.828 120.473 59.789 145.602 c h
59.789 145.602 m f
0.92549 0.764706 0.180392 rg
117.34 260.836 m 112.988 256.484 112.988 249.434 117.34 245.086 c 138.5
 223.922 l 154.25 239.672 l 133.086 260.836 l 128.738 265.184 121.688 265.184
 117.34 260.836 c h
117.34 260.836 m f
373.234 18.672 m 359.5 4.941 l 352.918 -1.645 342.238 -1.645 335.656 4.941
 c 289.672 50.922 l 327.25 88.504 l 373.234 42.52 l 379.82 35.934 379.82
 25.258 373.234 18.672 c h
373.234 18.672 m f
0.905882 0.647059 0.180392 rg
372.055 17.484 m 365.469 10.898 354.797 10.906 348.207 17.492 c 302.223
 63.477 l 289.672 50.922 l 335.656 4.941 l 342.242 -1.648 352.922 -1.648
 359.508 4.941 c h
372.055 17.484 m f
121.207 263.348 m 119.801 262.805 118.48 261.965 117.348 260.832 c 112.996
 256.484 112.988 249.438 117.34 245.086 c 138.504 223.922 l 144.871 230.289
 l 123.707 251.453 l 120.488 254.672 119.656 259.367 121.207 263.348 c h
121.207 263.348 m f
0.501961 0.886275 0.615686 rg
288.074 164.512 m 247.926 204.66 200.75 233.477 150.512 250.969 c 147.949
 251.863 145.102 251.188 143.184 249.27 c 128.914 235 l 126.996 233.082 
126.32 230.234 127.211 227.672 c 144.699 177.426 173.512 130.246 213.66 
90.102 c 237.559 66.203 263.941 46.328 291.996 30.453 c 301.117 25.301 312.578
 26.91 319.988 34.32 c 343.855 58.188 l 351.266 65.598 352.883 77.062 347.723
 86.18 c 331.844 114.23 311.973 140.613 288.074 164.512 c h
288.074 164.512 m f
0.4 0.705882 0.615686 rg
133.93 240.016 m 128.914 235 l 126.996 233.082 126.324 230.234 127.207 
227.672 c 144.699 177.43 173.516 130.246 213.66 90.098 c 237.559 66.199 
263.941 46.328 291.996 30.453 c 301.117 25.301 312.578 26.91 319.988 34.32
 c 328.387 42.719 l 326.188 40.52 319.32 43.504 311.594 50.051 c 287.832
 70.219 263.738 92.379 239.84 116.277 c 199.695 156.422 164.414 197.145 
135.402 235.867 c 133.93 237.84 133.363 239.449 133.93 240.016 c h
133.93 240.016 m f
0.92549 0.764706 0.180392 rg
305.531 192.996 m 300.168 194.43 294.586 194.68 289.312 193.773 c 289.312
 193.773 289.305 193.766 289.289 193.766 c 285.727 193.16 282.312 192.043
 279.199 190.414 c 276.52 189 274.133 187.246 272.105 185.223 c 269.004 
182.121 266.73 178.352 265.504 174.164 c 263.98 168.969 263.332 160.48 268.875
 149.543 c 279.305 128.977 304.336 122.449 326.422 116.695 c 344.156 112.07
 360.902 107.715 365.848 97.812 c 376.16 77.184 337.383 49.57 336.98 49.289
 c 340.637 43.988 l 346.277 35.82 l 348.363 37.258 397.309 71.504 380.488
 105.137 c 372.223 121.68 351.039 127.199 330.555 132.535 c 310.891 137.66
 290.566 142.957 283.473 156.953 c 280.324 163.152 278.344 171.477 286.789
 175.902 c 290.438 177.816 295.613 178.547 300.688 177.367 c 296.359 171.121
 296.973 162.488 302.531 156.93 c 307.883 151.574 316.078 150.797 322.266
 154.598 c 323.316 155.238 324.305 156.016 325.211 156.922 c 330.062 161.77
 331.133 168.945 328.477 174.852 c 328.484 174.859 l 328.469 174.875 328.461
 174.898 328.445 174.914 c 327.895 176.145 327.184 177.324 326.301 178.402
 c 321.34 185.57 314.094 190.699 305.531 192.996 c h
305.531 192.996 m f
0.905882 0.647059 0.180392 rg
289.289 193.766 m 285.727 193.16 282.312 192.043 279.199 190.414 c 276.52
 189 274.133 187.246 272.105 185.223 c 269.004 182.121 266.73 178.352 265.504
 174.164 c 263.98 168.969 263.332 160.48 268.875 149.543 c 279.305 128.977
 304.336 122.449 326.422 116.695 c 344.156 112.07 360.902 107.715 365.848
 97.812 c 371.551 86.414 362.262 72.895 352.738 63.02 c 356.285 59.473 l
 371.082 76.699 379.172 95.363 370.75 103.785 c 350.57 123.969 308 117.82
 280.438 145.379 c 253.246 172.57 288.34 193.207 289.289 193.766 c h
289.289 193.766 m f
306.277 179.09 m 301.113 181.312 298.406 183.035 286.789 175.902 c 290.438
 177.816 295.613 178.547 300.688 177.367 c 296.359 171.121 296.973 162.488
 302.531 156.93 c 307.887 151.574 316.082 150.797 322.266 154.598 c 326.438
 167.512 311.453 176.879 306.277 179.09 c h
306.277 179.09 m f
Q Q
showpage
%%Trailer
end
%%EOF
