%!PS-Adobe-3.0 EPSF-3.0
%%Creator: cairo 1.16.0 (https://cairographics.org)
%%CreationDate: Thu Nov 14 08:46:54 2019
%%Pages: 1
%%DocumentData: Clean7Bit
%%LanguageLevel: 2
%%BoundingBox: 0 0 384 384
%%EndComments
%%BeginProlog
50 dict begin
/q { gsave } bind def
/Q { grestore } bind def
/cm { 6 array astore concat } bind def
/w { setlinewidth } bind def
/J { setlinecap } bind def
/j { setlinejoin } bind def
/M { setmiterlimit } bind def
/d { setdash } bind def
/m { moveto } bind def
/l { lineto } bind def
/c { curveto } bind def
/h { closepath } bind def
/re { exch dup neg 3 1 roll 5 3 roll moveto 0 rlineto
      0 exch rlineto 0 rlineto closepath } bind def
/S { stroke } bind def
/f { fill } bind def
/f* { eofill } bind def
/n { newpath } bind def
/W { clip } bind def
/W* { eoclip } bind def
/BT { } bind def
/ET { } bind def
/BDC { mark 3 1 roll /BDC pdfmark } bind def
/EMC { mark /EMC pdfmark } bind def
/cairo_store_point { /cairo_point_y exch def /cairo_point_x exch def } def
/Tj { show currentpoint cairo_store_point } bind def
/TJ {
  {
    dup
    type /stringtype eq
    { show } { -0.001 mul 0 cairo_font_matrix dtransform rmoveto } ifelse
  } forall
  currentpoint cairo_store_point
} bind def
/cairo_selectfont { cairo_font_matrix aload pop pop pop 0 0 6 array astore
    cairo_font exch selectfont cairo_point_x cairo_point_y moveto } bind def
/Tf { pop /cairo_font exch def /cairo_font_matrix where
      { pop cairo_selectfont } if } bind def
/Td { matrix translate cairo_font_matrix matrix concatmatrix dup
      /cairo_font_matrix exch def dup 4 get exch 5 get cairo_store_point
      /cairo_font where { pop cairo_selectfont } if } bind def
/Tm { 2 copy 8 2 roll 6 array astore /cairo_font_matrix exch def
      cairo_store_point /cairo_font where { pop cairo_selectfont } if } bind def
/g { setgray } bind def
/rg { setrgbcolor } bind def
/d1 { setcachedevice } bind def
/cairo_data_source {
  CairoDataIndex CairoData length lt
    { CairoData CairoDataIndex get /CairoDataIndex CairoDataIndex 1 add def }
    { () } ifelse
} def
/cairo_flush_ascii85_file { cairo_ascii85_file status { cairo_ascii85_file flushfile } if } def
/cairo_image { image cairo_flush_ascii85_file } def
/cairo_imagemask { imagemask cairo_flush_ascii85_file } def
%%EndProlog
%%BeginSetup
%%EndSetup
%%Page: 1 1
%%BeginPageSetup
%%PageBoundingBox: 0 0 384 384
%%EndPageSetup
q 0 0 384 384 rectclip
1 0 0 -1 0 384 cm q
0.976471 0.239216 0.431373 rg
384 192 m 384 226.184 375.066 258.285 359.398 286.086 c 357.555 289.363
 355.621 292.582 353.586 295.738 c 320.805 346.695 264.586 381.137 200.16
 383.836 c 199.207 383.871 198.246 383.91 197.289 383.934 c 195.531 383.977
 193.77 384 192 384 c 85.965 384 0 298.035 0 192 c 0 141.496 19.508 95.551
 51.383 61.266 c 53.281 59.234 55.215 57.238 57.195 55.297 c 68.949 43.695
 82.191 33.609 96.609 25.344 c 124.711 9.219 157.281 0 192 0 c 226.719 0
 259.289 9.219 287.391 25.344 c 314.184 40.703 336.914 62.348 353.586 88.262
 c 355.621 91.418 357.555 94.637 359.398 97.914 c 375.066 125.715 384 157.816
 384 192 c h
384 192 m f
0.964706 0.945098 0.945098 rg
40.664 125.602 m 36.535 125.602 33.184 122.25 33.184 118.121 c 33.184 74.723
 l 33.184 70.59 36.535 67.242 40.664 67.242 c 44.797 67.242 48.148 70.59
 48.148 74.723 c 48.148 118.121 l 48.148 122.254 44.797 125.602 40.664 125.602
 c h
40.664 125.602 m f
48.148 273.008 m 48.148 316.41 l 48.148 317.219 48.023 318.008 47.773 318.734
 c 42.531 312.781 37.656 306.496 33.18 299.918 c 33.18 273.008 l 33.18 268.875
 36.531 265.531 40.664 265.531 c 42.734 265.531 44.602 266.371 45.961 267.719
 c 47.309 269.07 48.148 270.945 48.148 273.008 c h
48.148 273.008 m f
0.501961 0.886275 0.615686 rg
359.398 45.668 m 359.398 286.086 l 357.555 289.363 355.621 292.582 353.586
 295.738 c 320.805 346.695 264.586 381.137 200.16 383.836 c 145.973 381.578
 97.582 356.852 64.074 318.734 c 61.703 316.043 59.406 313.281 57.195 310.453
 c 57.195 45.668 l 57.195 34.441 66.293 25.344 77.52 25.344 c 339.074 25.344
 l 350.301 25.344 359.398 34.441 359.398 45.668 c h
359.398 45.668 m f
0.964706 0.945098 0.945098 rg
353.586 45.668 m 353.586 295.738 l 320.316 347.453 262.914 382.156 197.289
 383.934 c 141.906 382.461 92.379 357.539 58.262 318.734 c 55.891 316.043
 53.594 313.281 51.383 310.453 c 51.383 45.668 l 51.383 34.441 60.48 25.344
 71.707 25.344 c 333.262 25.344 l 344.488 25.344 353.586 34.441 353.586 
45.668 c h
353.586 45.668 m f
0.501961 0.886275 0.615686 rg
343.102 45.668 m 343.102 310.469 l 307.949 355.238 253.336 384 192 384 
c 134.527 384 82.957 358.746 47.773 318.734 c 45.406 316.043 43.109 313.281
 40.898 310.453 c 40.898 45.668 l 40.898 34.441 49.996 25.344 61.223 25.344
 c 322.777 25.344 l 334.004 25.344 343.102 34.441 343.102 45.668 c h
343.102 45.668 m f
0.4 0.705882 0.615686 rg
73.492 25.344 m 62.266 25.344 53.16 34.441 53.16 45.668 c 53.16 324.609
 l 51.324 322.688 49.531 320.73 47.773 318.734 c 45.406 316.043 43.109 313.281
 40.898 310.453 c 40.898 45.668 l 40.898 34.441 49.996 25.344 61.223 25.344
 c h
73.492 25.344 m f
261.113 243.637 m 122.887 243.637 l 109.746 243.637 99.09 232.98 99.09 
219.84 c 99.09 129.559 l 99.09 116.414 109.746 105.762 122.887 105.762 c
 261.113 105.762 l 274.254 105.762 284.91 116.414 284.91 129.559 c 284.91
 219.84 l 284.91 232.98 274.254 243.637 261.113 243.637 c h
261.113 243.637 m f
0.964706 0.945098 0.945098 rg
249.898 160.301 m 134.102 160.301 l 128.992 160.301 124.852 156.16 124.852
 151.051 c 124.852 145.945 128.992 141.805 134.102 141.805 c 249.898 141.805
 l 255.008 141.805 259.148 145.945 259.148 151.051 c 259.148 156.16 255.008
 160.301 249.898 160.301 c h
249.898 160.301 m f
249.898 207.594 m 134.102 207.594 l 128.992 207.594 124.852 203.453 124.852
 198.344 c 124.852 193.238 128.992 189.098 134.102 189.098 c 249.898 189.098
 l 255.008 189.098 259.148 193.238 259.148 198.344 c 259.148 203.453 255.008
 207.594 249.898 207.594 c h
249.898 207.594 m f
0.92549 0.764706 0.180392 rg
295.645 212.379 m 291.848 212.379 288.77 209.301 288.77 205.504 c 288.77
 187.027 l 302.52 187.027 l 302.52 205.504 l 302.52 209.301 299.441 212.379
 295.645 212.379 c h
295.645 212.379 m f
300.637 0.004 m 290.652 0.004 l 285.867 0.004 281.984 3.883 281.984 8.668
 c 281.984 42.098 l 309.301 42.098 l 309.301 8.668 l 309.305 3.883 305.422
 0.004 300.637 0.004 c h
300.637 0.004 m f
0.905882 0.647059 0.180392 rg
299.777 0 m 294.988 0 291.113 3.883 291.113 8.668 c 291.113 42.094 l 281.988
 42.094 l 281.988 8.668 l 281.984 3.883 285.867 0 290.656 0 c h
299.777 0 m f
298.43 211.789 m 297.578 212.164 296.637 212.375 295.648 212.375 c 291.852
 212.375 288.77 209.301 288.77 205.504 c 288.77 187.027 l 294.328 187.027
 l 294.328 205.504 l 294.328 208.312 296.016 210.727 298.43 211.789 c h
298.43 211.789 m f
0.737255 0.584314 0.886275 rg
328.129 95.805 m 328.129 130.855 320.113 164.027 305.82 193.594 c 305.09
 195.102 303.551 196.051 301.875 196.051 c 289.418 196.051 l 287.746 196.051
 286.207 195.102 285.477 193.594 c 271.176 164.027 263.164 130.855 263.164
 95.805 c 263.164 74.941 266.004 54.75 271.32 35.574 c 273.055 29.344 278.758
 25.043 285.227 25.043 c 306.062 25.043 l 312.531 25.043 318.242 29.344 
319.973 35.574 c 325.285 54.75 328.129 74.941 328.129 95.805 c h
328.129 95.805 m f
0.576471 0.45098 0.72549 rg
293.797 196.051 m 289.418 196.051 l 287.746 196.051 286.207 195.102 285.477
 193.598 c 271.18 164.027 263.16 130.852 263.16 95.805 c 263.16 74.941 266.004
 54.75 271.32 35.574 c 273.051 29.34 278.758 25.043 285.227 25.043 c 292.559
 25.043 l 290.641 25.043 288.945 29.344 288.43 35.574 c 286.859 54.75 286.016
 74.941 286.016 95.805 c 286.016 130.852 288.391 164.027 292.633 193.598
 c 292.848 195.102 293.305 196.051 293.797 196.051 c h
293.797 196.051 m f
0.92549 0.764706 0.180392 rg
334.859 29.324 m 331.484 26.82 327.309 25.344 322.777 25.344 c 320.176 
25.344 l 311.762 22.086 298.77 24.277 298.59 24.309 c 297.988 21.051 l 297.074
 16.035 l 298.352 15.797 328.59 10.453 334.695 28.793 c 334.754 28.973 334.809
 29.145 334.859 29.324 c h
334.859 29.324 m f
0.905882 0.647059 0.180392 rg
326.609 25.711 m 325.371 25.461 324.09 25.344 322.777 25.344 c 320.16 25.344
 l 316.898 24.074 312.938 23.641 309.309 23.574 c 309.309 20.992 l 316.359
 21.523 322.703 23.145 326.609 25.711 c h
326.609 25.711 m f
Q Q
showpage
%%Trailer
end
%%EOF
