%!PS-Adobe-3.0 EPSF-3.0
%%Creator: cairo 1.16.0 (https://cairographics.org)
%%CreationDate: Thu Nov 14 08:46:55 2019
%%Pages: 1
%%DocumentData: Clean7Bit
%%LanguageLevel: 2
%%BoundingBox: 0 0 384 384
%%EndComments
%%BeginProlog
50 dict begin
/q { gsave } bind def
/Q { grestore } bind def
/cm { 6 array astore concat } bind def
/w { setlinewidth } bind def
/J { setlinecap } bind def
/j { setlinejoin } bind def
/M { setmiterlimit } bind def
/d { setdash } bind def
/m { moveto } bind def
/l { lineto } bind def
/c { curveto } bind def
/h { closepath } bind def
/re { exch dup neg 3 1 roll 5 3 roll moveto 0 rlineto
      0 exch rlineto 0 rlineto closepath } bind def
/S { stroke } bind def
/f { fill } bind def
/f* { eofill } bind def
/n { newpath } bind def
/W { clip } bind def
/W* { eoclip } bind def
/BT { } bind def
/ET { } bind def
/BDC { mark 3 1 roll /BDC pdfmark } bind def
/EMC { mark /EMC pdfmark } bind def
/cairo_store_point { /cairo_point_y exch def /cairo_point_x exch def } def
/Tj { show currentpoint cairo_store_point } bind def
/TJ {
  {
    dup
    type /stringtype eq
    { show } { -0.001 mul 0 cairo_font_matrix dtransform rmoveto } ifelse
  } forall
  currentpoint cairo_store_point
} bind def
/cairo_selectfont { cairo_font_matrix aload pop pop pop 0 0 6 array astore
    cairo_font exch selectfont cairo_point_x cairo_point_y moveto } bind def
/Tf { pop /cairo_font exch def /cairo_font_matrix where
      { pop cairo_selectfont } if } bind def
/Td { matrix translate cairo_font_matrix matrix concatmatrix dup
      /cairo_font_matrix exch def dup 4 get exch 5 get cairo_store_point
      /cairo_font where { pop cairo_selectfont } if } bind def
/Tm { 2 copy 8 2 roll 6 array astore /cairo_font_matrix exch def
      cairo_store_point /cairo_font where { pop cairo_selectfont } if } bind def
/g { setgray } bind def
/rg { setrgbcolor } bind def
/d1 { setcachedevice } bind def
/cairo_data_source {
  CairoDataIndex CairoData length lt
    { CairoData CairoDataIndex get /CairoDataIndex CairoDataIndex 1 add def }
    { () } ifelse
} def
/cairo_flush_ascii85_file { cairo_ascii85_file status { cairo_ascii85_file flushfile } if } def
/cairo_image { image cairo_flush_ascii85_file } def
/cairo_imagemask { imagemask cairo_flush_ascii85_file } def
%%EndProlog
%%BeginSetup
%%EndSetup
%%Page: 1 1
%%BeginPageSetup
%%PageBoundingBox: 0 0 384 384
%%EndPageSetup
q 0 0 384 384 rectclip
1 0 0 -1 0 384 cm q
0.92549 0.764706 0.180392 rg
384 192 m 384 298.039 298.039 384 192 384 c 85.961 384 0 298.039 0 192 
c 0 85.961 85.961 0 192 0 c 298.039 0 384 85.961 384 192 c h
384 192 m f
0.0941176 0.117647 0.129412 rg
318.312 142.156 m 300.855 198.023 l 293.371 125.695 l f
119.094 287.16 m 106.41 292.688 92.406 295.746 77.691 295.746 c 56.617 
295.746 36.996 289.461 20.633 278.664 c 7.434 252.629 0 223.184 0 192 c 
0 160.816 7.434 131.371 20.633 105.336 c 36.996 94.539 56.617 88.254 77.691
 88.254 c 92.406 88.254 106.41 91.32 119.094 96.84 c 82.395 112.828 56.738
 149.414 56.738 192 c 56.738 234.578 82.395 271.172 119.094 287.16 c h
119.094 287.16 m f
0.184314 0.215686 0.231373 rg
384 192 m 384 223.176 376.566 252.621 363.375 278.656 c 347.004 289.461
 327.383 295.746 306.301 295.746 c 291.586 295.746 277.582 292.688 264.898
 287.152 c 301.598 271.172 327.254 234.578 327.254 192 c 327.254 149.414
 301.598 112.828 264.898 96.84 c 277.582 91.32 291.586 88.254 306.301 88.254
 c 327.383 88.254 347.004 94.539 363.375 105.344 c 376.566 131.379 384 160.824
 384 192 c h
384 192 m f
0.964706 0.945098 0.945098 rg
298.809 351.57 m 289.551 357.781 279.727 363.211 269.422 367.746 c 264.504
 369.922 259.477 371.887 254.348 373.641 c 251.859 374.504 249.344 375.309
 246.809 376.059 c 246.09 376.273 245.371 376.484 244.648 376.688 c 244.059
 376.852 243.465 377.016 242.871 377.176 c 226.672 381.629 209.617 384 192
 384 c 174.383 384 157.328 381.621 141.121 377.184 c 140.527 377.023 139.934
 376.859 139.352 376.695 c 138.621 376.484 137.895 376.273 137.176 376.066
 c 134.641 375.309 132.137 374.504 129.645 373.648 c 127.531 372.922 125.43
 372.156 123.352 371.355 c 123.031 371.234 122.707 371.113 122.387 370.988
 c 119.754 369.969 117.148 368.879 114.578 367.746 c 104.273 363.203 94.449
 357.781 85.184 351.562 c 92.977 340.785 103.004 331.738 114.578 325.074
 c 119.355 322.32 124.395 319.988 129.645 318.105 c 132.809 316.965 136.051
 315.996 139.352 315.211 c 139.934 315.066 140.527 314.934 141.121 314.805
 c 141.891 314.625 142.68 314.469 143.461 314.316 c 146.062 313.809 148.711
 313.418 151.387 313.141 c 152.16 313.059 152.926 312.984 153.703 312.922
 c 156.238 312.711 158.805 312.609 161.398 312.609 c 222.594 312.609 l 225.984
 312.609 229.32 312.789 232.605 313.133 c 235.281 313.41 237.922 313.809
 240.531 314.301 c 241.32 314.453 242.102 314.617 242.871 314.789 c 243.129
 314.844 243.383 314.895 243.637 314.953 c 243.977 315.047 244.32 315.113
 244.648 315.203 c 247.957 315.996 251.191 316.965 254.348 318.098 c 259.605
 319.98 264.645 322.32 269.422 325.074 c 280.996 331.746 291.016 340.793
 298.809 351.57 c h
298.809 351.57 m f
0.564706 0.847059 0.976471 rg
192.008 328.355 m 214.676 351.023 l 192.008 373.695 l 169.336 351.023 l
 h
192.008 328.355 m f
208.996 383.258 m 203.398 383.754 197.73 384 192 384 c 186.27 384 180.594
 383.746 174.988 383.258 c 191.992 366.254 l h
208.996 383.258 m f
0.87451 0.917647 0.937255 rg
191.992 351.082 m 152.246 373.172 l 140.152 313.184 l 164.852 302.387 l
 f
191.992 351.082 m 231.734 373.172 l 243.828 313.184 l 219.129 302.387 l
 f
161.398 312.609 m 139.379 312.609 124.453 344.43 123.352 371.355 c 123.031
 371.234 122.707 371.113 122.387 370.988 c 119.754 369.969 117.148 368.879
 114.578 367.746 c 104.273 363.203 94.449 357.781 85.184 351.562 c 92.977
 340.785 103.004 331.738 114.578 325.074 c 122.227 320.672 130.551 317.316
 139.352 315.211 c 140.707 314.879 142.078 314.578 143.461 314.316 c 146.062
 313.809 148.711 313.418 151.387 313.141 c 152.16 313.059 152.926 312.984
 153.703 312.922 c 156.238 312.711 158.805 312.609 161.398 312.609 c h
161.398 312.609 m f
0.917647 0.67451 0.615686 rg
225.531 276.402 m 225.531 317.555 l 225.531 332.621 215.598 345.355 201.914
 349.586 c 198.781 350.559 195.441 351.082 191.992 351.082 c 173.473 351.082
 158.465 336.074 158.465 317.555 c 158.465 276.402 l h
225.531 276.402 m f
1 0.796078 0.745098 rg
225.531 314.949 m 225.531 317.555 l 225.531 332.621 215.598 345.355 201.914
 349.586 c 189.566 345.789 180.285 335.055 178.57 321.922 c 180.812 322.059
 183.062 322.129 185.328 322.129 c 191.672 322.129 197.891 321.625 203.949
 320.629 c 211.414 319.43 218.625 317.508 225.531 314.949 c h
225.531 314.949 m f
99.406 208.613 m 99.406 223.988 88.176 236.734 73.473 239.098 c 71.863 
239.359 70.211 239.496 68.523 239.496 c 51.465 239.496 37.641 225.672 37.641
 208.613 c 37.641 191.555 51.465 177.734 68.523 177.734 c 70.211 177.734
 71.863 177.867 73.473 178.129 c 88.176 180.496 99.406 193.242 99.406 208.613
 c h
99.406 208.613 m f
0.917647 0.67451 0.615686 rg
99.406 208.613 m 99.406 223.988 88.176 236.734 73.473 239.098 c 70.801 
229.387 69.371 219.164 69.371 208.613 c 69.371 198.066 70.801 187.844 73.473
 178.129 c 88.176 180.496 99.406 193.242 99.406 208.613 c h
99.406 208.613 m f
79.562 208.613 m 79.562 214.711 74.621 219.652 68.523 219.652 c 62.43 219.652
 57.488 214.711 57.488 208.613 c 57.488 202.52 62.43 197.578 68.523 197.578
 c 74.621 197.578 79.562 202.52 79.562 208.613 c h
79.562 208.613 m f
1 0.796078 0.745098 rg
284.586 208.613 m 284.586 223.988 295.816 236.734 310.52 239.098 c 312.129
 239.359 313.781 239.496 315.469 239.496 c 332.527 239.496 346.348 225.672
 346.348 208.613 c 346.348 191.555 332.527 177.734 315.469 177.734 c 313.781
 177.734 312.129 177.867 310.52 178.129 c 295.816 180.496 284.586 193.242
 284.586 208.613 c h
284.586 208.613 m f
0.917647 0.67451 0.615686 rg
284.586 208.613 m 284.586 223.988 295.816 236.734 310.52 239.098 c 313.191
 229.387 314.617 219.164 314.617 208.613 c 314.617 198.066 313.191 187.844
 310.52 178.129 c 295.816 180.496 284.586 193.242 284.586 208.613 c h
284.586 208.613 m f
326.504 208.613 m 326.504 214.711 321.562 219.652 315.469 219.652 c 309.371
 219.652 304.43 214.711 304.43 208.613 c 304.43 202.52 309.371 197.578 315.469
 197.578 c 321.562 197.578 326.504 202.52 326.504 208.613 c h
326.504 208.613 m f
1 0.796078 0.745098 rg
308.023 192.383 m 308.023 250.121 265.84 298.02 210.617 306.91 c 204.559
 307.906 198.34 308.41 191.996 308.41 c 127.914 308.41 75.969 256.469 75.969
 192.383 c 75.969 74.258 l 308.023 74.258 l h
308.023 192.383 m f
0.917647 0.67451 0.615686 rg
212.434 306.609 m 211.832 306.711 211.227 306.816 210.617 306.914 c 204.559
 307.906 198.34 308.406 191.996 308.406 c 127.914 308.406 75.969 256.469
 75.969 192.383 c 75.969 74.258 l 116.883 74.258 l 116.883 192.383 l 116.883
 249.488 158.117 296.941 212.434 306.609 c h
212.434 306.609 m f
0.964706 0.945098 0.945098 rg
180.176 190.625 m 180.176 213.898 161.312 232.766 138.039 232.766 c 114.766
 232.766 95.902 213.898 95.902 190.625 c 95.902 167.355 114.766 148.488 
138.039 148.488 c 161.312 148.488 180.176 167.355 180.176 190.625 c h
180.176 190.625 m f
288.09 190.625 m 288.09 213.898 269.227 232.766 245.953 232.766 c 222.68
 232.766 203.816 213.898 203.816 190.625 c 203.816 167.355 222.68 148.488
 245.953 148.488 c 269.227 148.488 288.09 167.355 288.09 190.625 c h
288.09 190.625 m f
0.87451 0.917647 0.937255 rg
270.195 222.371 m 270.195 230.277 263.789 236.684 255.887 236.684 c 247.98
 236.684 241.574 230.277 241.574 222.371 c 241.574 214.469 247.98 208.059
 255.887 208.059 c 263.789 208.059 270.195 214.469 270.195 222.371 c h
270.195 222.371 m f
142.414 222.371 m 142.414 230.277 136.008 236.684 128.105 236.684 c 120.199
 236.684 113.793 230.277 113.793 222.371 c 113.793 214.469 120.199 208.059
 128.105 208.059 c 136.008 208.059 142.414 214.469 142.414 222.371 c h
142.414 222.371 m f
0.917647 0.67451 0.615686 rg
205.031 223.441 m 178.965 223.441 l 175.859 223.441 173.344 220.926 173.344
 217.82 c 173.344 214.715 175.859 212.199 178.965 212.199 c 205.031 212.199
 l 208.137 212.199 210.656 214.715 210.656 217.82 c 210.656 220.926 208.137
 223.441 205.031 223.441 c h
205.031 223.441 m f
0.87451 0.576471 0.501961 rg
192 259.016 m 182.379 259.016 172.758 256.602 163.988 251.781 c 161.516
 250.422 160.609 247.316 161.973 244.84 c 163.332 242.367 166.438 241.465
 168.91 242.824 c 183.367 250.773 200.633 250.773 215.086 242.824 c 217.559
 241.465 220.668 242.367 222.027 244.84 c 223.387 247.316 222.484 250.422
 220.012 251.781 c 211.242 256.602 201.621 259.016 192 259.016 c h
192 259.016 m f
0.87451 0.917647 0.937255 rg
257.992 183.246 m 257.992 169.891 247.168 159.062 233.812 159.062 c 220.457
 159.062 209.629 169.891 209.629 183.246 c f
0.184314 0.215686 0.231373 rg
250.328 193.539 m 250.328 202.664 242.934 210.059 233.812 210.059 c 224.691
 210.059 217.297 202.664 217.297 193.539 c 217.297 184.418 224.691 177.023
 233.812 177.023 c 242.934 177.023 250.328 184.418 250.328 193.539 c h
250.328 193.539 m f
1 g
247.773 190.625 m 247.773 194.535 244.605 197.703 240.695 197.703 c 236.785
 197.703 233.617 194.535 233.617 190.625 c 233.617 186.719 236.785 183.547
 240.695 183.547 c 244.605 183.547 247.773 186.719 247.773 190.625 c h
247.773 190.625 m f
0.87451 0.917647 0.937255 rg
174.363 183.246 m 174.363 169.891 163.535 159.062 150.18 159.062 c 136.824
 159.062 125.996 169.891 125.996 183.246 c f
0.184314 0.215686 0.231373 rg
166.695 193.539 m 166.695 202.664 159.301 210.059 150.18 210.059 c 141.059
 210.059 133.664 202.664 133.664 193.539 c 133.664 184.418 141.059 177.023
 150.18 177.023 c 159.301 177.023 166.695 184.418 166.695 193.539 c h
166.695 193.539 m f
0.0941176 0.117647 0.129412 rg
153.906 209.633 m 152.707 209.918 151.461 210.059 150.18 210.059 c 141.059
 210.059 133.664 202.664 133.664 193.539 c 133.664 184.418 141.059 177.023
 150.18 177.023 c 151.461 177.023 152.707 177.172 153.906 177.449 c 146.57
 179.137 141.109 185.699 141.109 193.539 c 141.109 201.383 146.57 207.945
 153.906 209.633 c h
153.906 209.633 m f
237.539 209.633 m 236.336 209.918 235.094 210.059 233.809 210.059 c 224.691
 210.059 217.297 202.664 217.297 193.539 c 217.297 184.418 224.691 177.023
 233.809 177.023 c 235.094 177.023 236.336 177.172 237.539 177.449 c 230.203
 179.137 224.742 185.699 224.742 193.539 c 224.742 201.383 230.203 207.945
 237.539 209.633 c h
237.539 209.633 m f
1 g
164.141 190.625 m 164.141 194.535 160.973 197.703 157.062 197.703 c 153.152
 197.703 149.984 194.535 149.984 190.625 c 149.984 186.719 153.152 183.547
 157.062 183.547 c 160.973 183.547 164.141 186.719 164.141 190.625 c h
164.141 190.625 m f
0.184314 0.215686 0.231373 rg
192 0 m 11.816 0 63.918 178.641 63.918 178.641 c 75.969 178.641 l 75.969
 138.93 226.031 132.43 226.031 74.258 c 226.031 74.258 243.363 142.156 308.023
 142.156 c 318.312 142.156 l 318.312 142.156 357.992 7.484 192 0 c h
192 0 m f
0.0941176 0.117647 0.129412 rg
192 0 m 203.289 0.512 213.613 1.605 223.078 3.211 c 131.863 19.68 123.609
 95.574 127.516 141.977 c 99.277 152.504 75.977 162.996 75.977 178.641 c
 63.922 178.641 l 63.922 178.641 11.82 0 192 0 c h
192 0 m f
0.964706 0.945098 0.945098 rg
315.469 132.953 m 315.469 138.223 315.062 143.414 314.258 148.488 c 305.758
 94.422 253.234 52.801 189.691 52.801 c 182.812 52.801 176.07 53.277 169.508
 54.234 c 153.422 56.52 138.359 61.504 124.941 68.633 c 93.125 85.551 70.469
 114.562 65.117 148.449 c 64.324 143.387 63.918 138.215 63.918 132.953 c
 63.918 92.504 88.379 57.094 124.941 37.664 c 138.371 30.523 153.43 25.539
 169.508 23.258 c 176.07 22.297 182.812 21.824 189.691 21.824 c 259.16 21.82
 315.469 71.578 315.469 132.953 c h
315.469 132.953 m f
0.564706 0.847059 0.976471 rg
138.039 240.266 m 110.668 240.266 88.402 217.996 88.402 190.625 c 88.402
 163.254 110.668 140.988 138.039 140.988 c 165.41 140.988 187.68 163.254
 187.68 190.625 c 187.68 217.996 165.41 240.266 138.039 240.266 c h
138.039 155.988 m 118.941 155.988 103.402 171.527 103.402 190.625 c 103.402
 209.727 118.941 225.266 138.039 225.266 c 157.137 225.266 172.68 209.727
 172.68 190.625 c 172.676 171.527 157.137 155.988 138.039 155.988 c h
138.039 155.988 m f
245.953 240.266 m 218.582 240.266 196.316 217.996 196.316 190.625 c 196.316
 163.254 218.582 140.988 245.953 140.988 c 273.324 140.988 295.59 163.254
 295.59 190.625 c 295.59 217.996 273.324 240.266 245.953 240.266 c h
245.953 155.988 m 226.855 155.988 211.316 171.527 211.316 190.625 c 211.316
 209.727 226.855 225.266 245.953 225.266 c 265.055 225.266 280.59 209.727
 280.59 190.625 c 280.59 171.527 265.051 155.988 245.953 155.988 c h
245.953 155.988 m f
282.738 166.375 m 313.617 158.23 l 317.441 172.738 l 286.562 180.879 l 
h
282.738 166.375 m f
67.066 172.988 m 70.891 158.484 l 101.77 166.625 l 97.945 181.133 l h
67.066 172.988 m f
176.672 166.285 32.957 15 re f
Q Q
showpage
%%Trailer
end
%%EOF
