%!PS-Adobe-3.0 EPSF-3.0
%%Creator: cairo 1.14.2 (http://cairographics.org)
%%CreationDate: Wed Jul 12 12:57:24 2017
%%Pages: 1
%%DocumentData: Clean7Bit
%%LanguageLevel: 2
%%BoundingBox: 0 -1 410 410
%%EndComments
%%BeginProlog
save
50 dict begin
/q { gsave } bind def
/Q { grestore } bind def
/cm { 6 array astore concat } bind def
/w { setlinewidth } bind def
/J { setlinecap } bind def
/j { setlinejoin } bind def
/M { setmiterlimit } bind def
/d { setdash } bind def
/m { moveto } bind def
/l { lineto } bind def
/c { curveto } bind def
/h { closepath } bind def
/re { exch dup neg 3 1 roll 5 3 roll moveto 0 rlineto
      0 exch rlineto 0 rlineto closepath } bind def
/S { stroke } bind def
/f { fill } bind def
/f* { eofill } bind def
/n { newpath } bind def
/W { clip } bind def
/W* { eoclip } bind def
/BT { } bind def
/ET { } bind def
/pdfmark where { pop globaldict /?pdfmark /exec load put }
    { globaldict begin /?pdfmark /pop load def /pdfmark
    /cleartomark load def end } ifelse
/BDC { mark 3 1 roll /BDC pdfmark } bind def
/EMC { mark /EMC pdfmark } bind def
/cairo_store_point { /cairo_point_y exch def /cairo_point_x exch def } def
/Tj { show currentpoint cairo_store_point } bind def
/TJ {
  {
    dup
    type /stringtype eq
    { show } { -0.001 mul 0 cairo_font_matrix dtransform rmoveto } ifelse
  } forall
  currentpoint cairo_store_point
} bind def
/cairo_selectfont { cairo_font_matrix aload pop pop pop 0 0 6 array astore
    cairo_font exch selectfont cairo_point_x cairo_point_y moveto } bind def
/Tf { pop /cairo_font exch def /cairo_font_matrix where
      { pop cairo_selectfont } if } bind def
/Td { matrix translate cairo_font_matrix matrix concatmatrix dup
      /cairo_font_matrix exch def dup 4 get exch 5 get cairo_store_point
      /cairo_font where { pop cairo_selectfont } if } bind def
/Tm { 2 copy 8 2 roll 6 array astore /cairo_font_matrix exch def
      cairo_store_point /cairo_font where { pop cairo_selectfont } if } bind def
/g { setgray } bind def
/rg { setrgbcolor } bind def
/d1 { setcachedevice } bind def
%%EndProlog
%%BeginSetup
%%EndSetup
%%Page: 1 1
%%BeginPageSetup
%%PageBoundingBox: 0 -1 410 410
%%EndPageSetup
q 0 -1 410 411 rectclip q
0.258824 0.341176 0.498039 rg
409.602 204.794 m 409.602 111.333 346.996 32.501 261.43 7.931 c 253 5.509
 244.34 3.615 235.504 2.29 c 225.492 0.783 215.242 0.001 204.805 0.001 c
 188.531 0.001 172.695 1.9 157.523 5.49 c 148.906 7.525 140.496 10.099 132.34
 13.189 c 54.992 42.451 0 117.197 0 204.794 c 0 317.908 91.695 409.591 204.805
 409.591 c 259.422 409.591 309.059 388.201 345.777 353.337 c 347.43 351.775
 349.059 350.177 350.656 348.552 c 365.27 333.744 377.633 316.704 387.207
 298.009 c 388.035 296.392 388.844 294.767 389.625 293.122 c 402.434 266.38
 409.602 236.427 409.602 204.794 c h
409.602 204.794 m f
0.321569 0.764706 0.866667 rg
403.176 325.365 m 403.176 308.033 389.129 293.982 371.797 293.982 c 354.465
 293.982 340.414 308.033 340.414 325.365 c 340.414 342.697 354.465 356.744
 371.797 356.744 c 389.129 356.744 403.176 342.697 403.176 325.365 c h
403.176 325.365 m f
0.839216 0.815686 0.768627 rg
76.566 261.9 m 79.66 254.29 l 63.41 247.697 l 48.586 284.251 l 64.832 290.841
 l 67.926 283.228 l h
76.566 261.9 m f
0.639216 0.345098 0.584314 rg
172.508 325.654 m 181.16 304.326 l 76.566 261.9 l 67.926 283.228 l h
172.508 325.654 m f
0.756863 0.733333 0.690196 rg
125.727 236.669 m 134.379 215.345 l 29.785 172.919 l 21.145 194.247 l h
125.727 236.669 m f
158.742 261.79 m 136.957 315.494 l 145.191 318.833 l 166.973 265.13 l h
158.742 261.79 m f
114.062 243.665 m 92.277 297.372 l 100.512 300.708 l 122.293 247.005 l 
h
114.062 243.665 m f
0.639216 0.345098 0.584314 rg
216.715 184.622 m 216.715 164.044 l 175.145 164.044 l 175.145 184.622 l
 175.145 196.111 184.465 205.408 195.93 205.408 c 207.414 205.408 216.715
 196.111 216.715 184.622 c h
216.715 184.622 m f
0.839216 0.815686 0.768627 rg
261.43 7.931 m 253 5.509 244.34 3.615 235.504 2.29 c 195.93 111.751 l 195.93
 137.744 l 214.504 137.744 l 218.57 126.486 l h
261.43 7.931 m f
195.93 137.744 m 195.93 111.751 l 157.523 5.49 l 148.906 7.525 140.496 
10.099 132.34 13.189 c 173.297 126.486 l 177.367 137.744 l h
195.93 137.744 m f
0.913725 0.894118 0.847059 rg
158.27 164.044 75.34 -26.301 re f
0.756863 0.733333 0.690196 rg
218.57 126.49 m 173.297 126.49 l 177.367 137.744 l 214.504 137.744 l h
218.57 126.49 m f
0.839216 0.815686 0.768627 rg
195.93 224.001 m 195.93 205.408 l 184.465 205.408 175.145 196.111 175.145
 184.622 c 157.293 197.849 l 148.152 204.619 l h
195.93 224.001 m f
57.613 227.021 m 78.203 176.247 l 47.371 171.298 l 32.047 209.087 l h
57.613 227.021 m f
0.639216 0.345098 0.584314 rg
398.934 296.9 m 353.621 278.521 l 350.336 286.622 l 342.191 306.704 l 329.746
 337.396 l 326.461 345.505 l 371.762 363.884 l 387.5 325.083 l h
398.934 296.9 m f
0.556863 0.301961 0.521569 rg
398.934 296.9 m 353.621 278.521 l 350.336 286.622 l 342.191 306.704 l 387.5
 325.083 l h
398.934 296.9 m f
0.913725 0.894118 0.847059 rg
350.336 286.622 m 195.93 224.001 l 148.152 204.619 l 78.203 176.247 l 72.668
 189.892 l 57.613 227.021 l 329.746 337.396 l 344.801 300.267 l h
350.336 286.622 m f
0.847059 0.823529 0.772549 rg
350.336 286.622 m 195.93 224.001 l 148.152 204.619 l 78.203 176.247 l 72.668
 189.892 l 344.801 300.267 l h
350.336 286.622 m f
0.756863 0.733333 0.690196 rg
195.93 224.001 m 195.93 210.763 l 194.715 210.357 l 157.293 197.849 l 148.152
 204.619 l h
195.93 224.001 m f
0.913725 0.894118 0.847059 rg
203.027 183.091 m 203.027 179.165 199.848 175.986 195.922 175.986 c 191.996
 175.986 188.816 179.165 188.816 183.091 c 188.816 187.017 191.996 190.197
 195.922 190.197 c 199.848 190.197 203.027 187.017 203.027 183.091 c h
203.027 183.091 m f
0.941176 0.627451 0.215686 rg
362.023 207.22 m 348.699 207.22 l 346.004 207.22 343.816 209.408 343.816
 212.107 c 343.816 225.431 l 343.816 228.13 341.629 230.318 338.93 230.318
 c 336.23 230.318 334.043 228.13 334.043 225.431 c 334.043 212.107 l 334.043
 209.408 331.855 207.22 329.16 207.22 c 315.836 207.22 l 313.137 207.22 
310.949 205.033 310.949 202.333 c 310.949 199.638 313.137 197.451 315.836
 197.451 c 329.16 197.451 l 331.855 197.451 334.043 195.263 334.043 192.564
 c 334.043 179.24 l 334.043 176.54 336.23 174.353 338.93 174.353 c 341.629
 174.353 343.816 176.54 343.816 179.24 c 343.816 192.564 l 343.816 195.263
 346.004 197.451 348.699 197.451 c 362.023 197.451 l 364.723 197.451 366.91
 199.638 366.91 202.333 c 366.91 205.033 364.723 207.22 362.023 207.22 c
 h
362.023 207.22 m f
110.445 139.029 m 102.621 139.029 l 101.035 139.029 99.75 140.314 99.75
 141.9 c 99.75 149.724 l 99.75 151.31 98.465 152.591 96.883 152.591 c 95.297
 152.591 94.012 151.31 94.012 149.724 c 94.012 141.9 l 94.012 140.314 92.73
 139.029 91.145 139.029 c 83.32 139.029 l 81.734 139.029 80.449 137.744 
80.449 136.161 c 80.449 134.576 81.734 133.29 83.32 133.29 c 91.145 133.29
 l 92.73 133.29 94.012 132.005 94.012 130.423 c 94.012 122.599 l 94.012 
121.013 95.297 119.728 96.883 119.728 c 98.469 119.728 99.75 121.013 99.75
 122.599 c 99.75 130.423 l 99.75 132.009 101.035 133.29 102.621 133.29 c
 110.445 133.29 l 112.031 133.29 113.312 134.576 113.312 136.161 c 113.312
 137.747 112.031 139.029 110.445 139.029 c h
110.445 139.029 m f
245.664 355.966 m 237.84 355.966 l 236.254 355.966 234.969 357.251 234.969
 358.837 c 234.969 366.661 l 234.969 368.247 233.684 369.533 232.102 369.533
 c 230.516 369.533 229.23 368.247 229.23 366.661 c 229.23 358.837 l 229.23
 357.251 227.945 355.966 226.363 355.966 c 218.539 355.966 l 216.953 355.966
 215.668 354.685 215.668 353.099 c 215.668 351.513 216.953 350.232 218.539
 350.232 c 226.363 350.232 l 227.949 350.232 229.23 348.947 229.23 347.361
 c 229.23 339.536 l 229.23 337.951 230.516 336.665 232.102 336.665 c 233.688
 336.665 234.969 337.951 234.969 339.536 c 234.969 347.361 l 234.969 348.947
 236.254 350.232 237.84 350.232 c 245.664 350.232 l 247.25 350.232 248.531
 351.517 248.531 353.099 c 248.531 354.685 247.25 355.966 245.664 355.966
 c h
245.664 355.966 m f
Q Q
showpage
%%Trailer
end restore
%%EOF
