%!PS-Adobe-3.0 EPSF-3.0
%%Creator: cairo 1.14.2 (http://cairographics.org)
%%CreationDate: Wed Jul 12 12:57:24 2017
%%Pages: 1
%%DocumentData: Clean7Bit
%%LanguageLevel: 2
%%BoundingBox: 0 -1 410 410
%%EndComments
%%BeginProlog
save
50 dict begin
/q { gsave } bind def
/Q { grestore } bind def
/cm { 6 array astore concat } bind def
/w { setlinewidth } bind def
/J { setlinecap } bind def
/j { setlinejoin } bind def
/M { setmiterlimit } bind def
/d { setdash } bind def
/m { moveto } bind def
/l { lineto } bind def
/c { curveto } bind def
/h { closepath } bind def
/re { exch dup neg 3 1 roll 5 3 roll moveto 0 rlineto
      0 exch rlineto 0 rlineto closepath } bind def
/S { stroke } bind def
/f { fill } bind def
/f* { eofill } bind def
/n { newpath } bind def
/W { clip } bind def
/W* { eoclip } bind def
/BT { } bind def
/ET { } bind def
/pdfmark where { pop globaldict /?pdfmark /exec load put }
    { globaldict begin /?pdfmark /pop load def /pdfmark
    /cleartomark load def end } ifelse
/BDC { mark 3 1 roll /BDC pdfmark } bind def
/EMC { mark /EMC pdfmark } bind def
/cairo_store_point { /cairo_point_y exch def /cairo_point_x exch def } def
/Tj { show currentpoint cairo_store_point } bind def
/TJ {
  {
    dup
    type /stringtype eq
    { show } { -0.001 mul 0 cairo_font_matrix dtransform rmoveto } ifelse
  } forall
  currentpoint cairo_store_point
} bind def
/cairo_selectfont { cairo_font_matrix aload pop pop pop 0 0 6 array astore
    cairo_font exch selectfont cairo_point_x cairo_point_y moveto } bind def
/Tf { pop /cairo_font exch def /cairo_font_matrix where
      { pop cairo_selectfont } if } bind def
/Td { matrix translate cairo_font_matrix matrix concatmatrix dup
      /cairo_font_matrix exch def dup 4 get exch 5 get cairo_store_point
      /cairo_font where { pop cairo_selectfont } if } bind def
/Tm { 2 copy 8 2 roll 6 array astore /cairo_font_matrix exch def
      cairo_store_point /cairo_font where { pop cairo_selectfont } if } bind def
/g { setgray } bind def
/rg { setrgbcolor } bind def
/d1 { setcachedevice } bind def
%%EndProlog
%%BeginSetup
%%EndSetup
%%Page: 1 1
%%BeginPageSetup
%%PageBoundingBox: 0 -1 410 410
%%EndPageSetup
q 0 -1 410 411 rectclip q
0.258824 0.341176 0.498039 rg
409.602 204.794 m 409.602 150.615 388.566 101.349 354.207 64.728 c 346.855
 56.884 338.887 49.619 330.387 43.017 c 317.922 33.326 304.305 25.048 289.781
 18.415 c 263.898 6.591 235.121 0.001 204.805 0.001 c 162.559 0.001 123.309
 12.79 90.699 34.712 c 86.773 37.353 82.945 40.122 79.223 43.017 c 68.414
 51.411 58.465 60.872 49.547 71.236 c 45.699 75.697 42.051 80.314 38.613
 85.103 c 37.023 87.286 35.496 89.501 34 91.747 c 33.629 92.318 33.254 92.884
 32.883 93.454 c 12.078 125.501 0 163.74 0 204.794 c 0 317.908 91.695 409.591
 204.805 409.591 c 235.262 409.591 264.156 402.939 290.141 391.009 c 294.215
 389.142 298.215 387.146 302.129 385.021 c 309.629 380.97 316.848 376.458
 323.742 371.521 c 337.262 361.872 349.547 350.619 360.336 338.033 c 365.871
 331.583 371.004 324.779 375.703 317.673 c 378.164 313.97 380.5 310.177 
382.711 306.306 c 399.82 276.388 409.602 241.728 409.602 204.794 c h
409.602 204.794 m f
0.941176 0.627451 0.215686 rg
354.207 71.24 m 354.207 64.728 l 346.855 56.884 338.887 49.619 330.387 
43.017 c 79.223 43.017 l 68.414 51.411 58.465 60.872 49.547 71.24 c h
354.207 71.24 m f
0.301961 g
34.004 91.747 m 35.496 89.501 37.023 87.29 38.613 85.103 c 42.051 80.318
 45.699 75.697 49.547 71.24 c 92.246 71.24 l 92.246 280.591 l 32.883 280.591
 l 32.883 93.454 l h
34.004 91.747 m f
0.921569 0.188235 0.356863 rg
194.102 280.587 20.762 -209.344 re f
0.333333 0.776471 0.631373 rg
105.781 220.646 48.492 -149.41 re f
0.913725 0.894118 0.847059 rg
226.121 107.076 111.191 -35.832 re f
0.941176 0.627451 0.215686 rg
32.883 266.728 59.367 -6.645 re f
92.246 91.747 m 92.246 85.103 l 38.613 85.103 l 37.023 87.29 35.496 89.501
 34 91.747 c h
92.246 91.747 m f
0.847059 0.823529 0.772549 rg
43.043 247.533 39.043 -3.797 re f
43.043 235.728 39.043 -3.797 re f
43.043 105.193 39.043 -3.797 re f
0.247059 0.666667 0.513726 rg
105.781 203.396 48.492 -3.797 re f
105.781 192.978 48.492 -3.797 re f
105.781 102.712 48.492 -3.797 re f
105.781 92.294 48.492 -3.797 re f
0.258824 0.341176 0.498039 rg
121.059 180.603 4.746 -69.309 re f
134.258 180.603 4.746 -69.309 re f
0.941176 0.627451 0.215686 rg
194.102 260.068 20.762 -6.645 re f
194.102 246.548 20.762 -6.645 re f
194.102 233.029 20.762 -6.645 re f
0.466667 0.556863 0.698039 rg
180.07 71.244 m 159.355 72.63 l 173.359 281.525 l 194.074 280.134 l h
180.07 71.244 m f
0.941176 0.627451 0.215686 rg
192.258 253.025 m 171.543 254.415 l 171.984 261.044 l 192.703 259.658 l
 h
192.258 253.025 m f
191.352 239.536 m 170.637 240.923 l 171.082 247.556 l 191.797 246.165 l
 h
191.352 239.536 m f
190.445 226.048 m 169.73 227.435 l 170.176 234.068 l 190.891 232.677 l 
h
190.445 226.048 m f
0.466667 0.556863 0.698039 rg
239.711 144.204 111.191 -35.832 re f
0.321569 0.764706 0.866667 rg
267.738 135.107 55.152 -17.629 re f
0.196078 0.666667 0.807843 rg
255.844 144.204 4.746 -35.832 re f
330.023 144.204 4.742 -35.832 re f
0.847059 0.823529 0.772549 rg
226.121 95.767 111.191 -1.898 re f
226.121 103.318 111.191 -1.898 re f
226.121 99.544 111.191 -1.898 re f
226.121 91.994 111.191 -1.898 re f
226.121 84.443 111.191 -1.898 re f
226.121 88.216 111.191 -1.898 re f
226.121 80.665 111.191 -1.898 re f
226.121 76.892 111.191 -1.898 re f
0.921569 0.188235 0.356863 rg
222.258 73.97 119.613 -2.727 re f
222.258 108.38 119.613 -2.727 re f
0.913725 0.894118 0.847059 rg
346.66 160.997 m 346.66 160.38 346.641 159.755 346.602 159.119 c 346.574
 158.49 346.527 157.857 346.449 157.22 c 346.395 156.591 346.309 155.966
 346.203 155.349 c 346.098 154.712 345.977 154.079 345.832 153.451 c 345.691
 152.826 345.52 152.189 345.332 151.572 c 345.141 150.927 344.914 150.298
 344.676 149.673 c 344.344 148.829 343.965 148.001 343.527 147.185 c 236.582
 146.103 l 237.266 147.263 237.875 148.458 238.406 149.673 c 238.699 150.298
 238.957 150.935 239.195 151.572 c 239.43 152.189 239.641 152.826 239.84
 153.451 c 240.039 154.079 240.219 154.712 240.371 155.349 c 240.531 155.966
 240.676 156.591 240.797 157.22 c 240.922 157.845 241.027 158.482 241.113
 159.119 c 241.199 159.744 241.273 160.372 241.32 160.997 c 241.379 161.622
 241.414 162.259 241.434 162.896 c 241.453 163.521 241.453 164.138 241.445
 164.763 c 241.434 165.4 241.406 166.036 241.348 166.661 c 241.309 167.29
 241.242 167.915 241.16 168.544 c 241.082 169.177 240.988 169.814 240.863
 170.439 c 240.75 171.076 240.617 171.704 240.465 172.322 c 240.312 172.954
 240.145 173.591 239.953 174.22 c 239.773 174.845 239.562 175.47 239.336
 176.087 c 239.109 176.724 238.859 177.361 238.586 177.986 c 238.008 179.333
 237.344 180.654 236.594 181.935 c 339.02 181.935 l 339.02 181.935 342.055
 181.728 343.66 177.986 c 343.754 177.759 343.852 177.513 343.934 177.255
 c 344.047 176.923 344.172 176.533 344.316 176.087 c 344.477 175.548 344.656
 174.911 344.848 174.22 c 345 173.63 345.16 172.994 345.312 172.322 c 345.453
 171.732 345.586 171.095 345.711 170.439 c 345.836 169.833 345.949 169.197
 346.055 168.544 c 346.148 167.935 346.242 167.31 346.32 166.661 c 346.395
 166.044 346.461 165.411 346.508 164.763 c 346.555 164.158 346.605 163.533
 346.621 162.896 c 346.648 162.267 346.668 161.642 346.66 160.997 c h
346.66 160.997 m f
0.847059 0.823529 0.772549 rg
346.051 168.544 m 241.156 168.544 l 241.082 169.181 240.988 169.818 240.863
 170.443 c 345.711 170.443 l 345.832 169.833 345.945 169.201 346.051 168.544
 c h
346.051 168.544 m f
344.312 176.091 m 239.336 176.091 l 239.109 176.728 238.859 177.365 238.586
 177.99 c 343.66 177.99 l 343.754 177.763 343.852 177.517 343.934 177.259
 c 344.047 176.927 344.172 176.536 344.312 176.091 c h
344.312 176.091 m f
345.312 172.322 m 240.465 172.322 l 240.312 172.958 240.141 173.595 239.953
 174.22 c 344.844 174.22 l 344.996 173.634 345.16 172.997 345.312 172.322
 c h
345.312 172.322 m f
346.508 164.767 m 241.441 164.767 l 241.434 165.404 241.402 166.036 241.348
 166.665 c 346.316 166.665 l 346.395 166.048 346.461 165.411 346.508 164.767
 c h
346.508 164.767 m f
346.602 159.119 m 241.109 159.119 l 241.023 158.482 240.918 157.845 240.797
 157.22 c 346.449 157.22 l h
346.602 159.119 m f
346.621 162.896 m 241.434 162.896 l 241.414 162.259 241.375 161.622 241.32
 160.997 c 346.66 160.997 l h
346.621 162.896 m f
346.203 155.349 m 346.098 154.712 345.977 154.079 345.832 153.451 c 239.836
 153.451 l 240.035 154.079 240.219 154.712 240.371 155.349 c h
346.203 155.349 m f
345.328 151.572 m 345.141 150.927 344.91 150.298 344.676 149.673 c 238.406
 149.673 l 238.699 150.298 238.957 150.935 239.195 151.572 c h
345.328 151.572 m f
0.941176 0.627451 0.215686 rg
342.254 144.208 m 342.219 144.208 342.184 144.208 342.145 144.212 c 231.062
 144.212 l 231.062 148.009 l 341.152 148.009 l 346.594 157.982 346.594 170.068
 341.156 180.04 c 231.062 180.04 l 231.062 183.837 l 342.254 183.837 l 342.355
 183.837 342.453 183.829 342.547 183.814 c 343.109 183.728 343.609 183.388
 343.898 182.9 c 350.742 171.255 350.742 156.786 343.891 145.146 c 343.543
 144.552 342.914 144.208 342.254 144.208 c h
342.254 144.208 m f
0.639216 0.345098 0.584314 rg
402.457 310.681 m 402.457 265.861 366.125 229.529 321.309 229.529 c 276.488
 229.529 240.156 265.861 240.156 310.681 c 240.156 355.497 276.488 391.829
 321.309 391.829 c 366.125 391.829 402.457 355.497 402.457 310.681 c h
402.457 310.681 m f
0.498039 0.168627 0.435294 rg
395.656 310.681 m 395.656 269.619 362.367 236.333 321.309 236.333 c 280.246
 236.333 246.961 269.619 246.961 310.681 c 246.961 351.74 280.246 385.025
 321.309 385.025 c 362.367 385.025 395.656 351.74 395.656 310.681 c h
395.656 310.681 m f
0.913725 0.894118 0.847059 rg
386.016 310.677 m 386.016 274.943 357.043 245.966 321.309 245.966 c 311.988
 245.966 303.141 247.939 295.141 251.482 c 272.434 261.529 256.598 284.251
 256.598 310.677 c 256.598 346.419 285.562 375.392 321.305 375.392 c 330.473
 375.392 339.188 373.494 347.082 370.056 c 369.992 360.091 386.016 337.251
 386.016 310.677 c f
0.4 0.764706 0.827451 rg
299.75 349.704 m 294.543 358.724 l 296.852 360.056 l 302.055 351.036 l 
h
299.75 349.704 m f
350.777 261.306 m 345.574 270.326 l 347.879 271.658 l 353.086 262.638 l
 350.777 261.306 l f
283.457 332.443 m 274.438 337.65 l 275.77 339.958 l 284.789 334.751 l h
283.457 332.443 m f
371.852 281.404 m 362.836 286.611 l 364.168 288.919 l 373.184 283.712 l
 371.852 281.404 l f
275.777 281.404 m 274.445 283.708 l 283.461 288.915 l 284.793 286.607 l
 h
275.777 281.404 m f
364.168 332.439 m 362.836 334.747 l 371.852 339.954 l 373.184 337.646 l
 364.168 332.439 l f
296.832 261.298 m 294.523 262.634 l 299.73 271.65 l 302.039 270.318 l h
296.832 261.298 m f
347.879 349.701 m 345.574 351.033 l 350.777 360.052 l 353.086 358.72 l 
347.879 349.701 l f
0.372549 0.0901961 0.313726 rg
319.77 313.345 m 344.934 310.681 l 319.77 308.017 l 319.77 313.345 l f
318.645 312.63 m 321.309 342.884 l 323.973 312.63 l 318.645 312.63 l f
0.498039 0.168627 0.435294 rg
327.039 310.681 m 327.039 313.845 324.473 316.411 321.305 316.411 c 318.141
 316.411 315.574 313.845 315.574 310.681 c 315.574 307.513 318.141 304.947
 321.305 304.947 c 324.473 304.947 327.039 307.513 327.039 310.681 c f
0.160784 0.611765 0.717647 rg
313.582 353.661 m 313.582 365.451 l 310.414 363.954 l 309.652 365.654 l
 315.84 368.568 l 315.84 353.661 l 319.34 353.661 l 319.34 351.685 l 310.059
 351.685 l 310.059 353.661 l h
313.582 353.661 m f
323.758 363.927 m 321.832 364.665 l 322.465 366.615 324.109 368.568 327.18
 368.568 c 330.02 368.568 332.352 366.49 332.352 363.728 c 332.352 361.318
 330.754 359.415 328.902 357.337 c 325.633 353.661 l 332.961 353.661 l 332.961
 351.681 l 322.008 351.681 l 322.008 352.646 l 327.102 358.326 l 329.434
 360.935 329.992 362.154 329.992 363.701 c 329.992 365.423 328.727 366.744
 327.078 366.744 c 325.305 366.744 324.367 365.529 323.758 363.927 c h
323.758 363.927 m f
371.004 302.236 m 368.543 302.236 366.391 303.505 365.551 305.81 c 367.555
 306.622 l 368.09 305.025 369.406 304.036 370.953 304.036 c 372.98 304.036
 374.246 305.533 374.246 307.411 c 374.246 308.88 373.438 310.122 371.766
 310.681 c 371.207 310.857 370.574 310.958 369.586 310.958 c 368.746 310.958
 l 368.645 311.24 l 372.879 317.146 l 366.008 317.146 l 366.008 319.122 
l 376.176 319.122 l 376.176 318.517 l 371.688 312.353 l 374.984 312.025 
376.559 309.72 376.559 307.462 c 376.555 304.669 374.453 302.236 371.004
 302.236 c f
274.281 308.474 m 273.801 308.345 273.32 308.294 272.762 308.294 c 270.023
 308.294 267.488 310.478 267.488 313.669 c 267.488 316.79 269.793 319.122
 273.168 319.122 c 276.488 319.122 278.824 316.892 278.824 313.669 c 278.824
 312.251 278.469 311.06 277.07 308.904 c 272.789 302.236 l 270.047 302.236
 l h
276.539 313.697 m 276.539 315.724 275.273 317.322 273.145 317.322 c 270.961
 317.322 269.77 315.65 269.77 313.72 c 269.77 311.564 271.09 310.044 273.145
 310.044 c 275.273 310.044 276.539 311.642 276.539 313.697 c h
276.539 313.697 m f
320.191 263.263 m 320.648 263.392 321.129 263.439 321.688 263.439 c 324.426
 263.439 326.961 261.259 326.961 258.064 c 326.961 254.947 324.656 252.615
 321.281 252.615 c 317.988 252.615 315.652 254.845 315.652 258.064 c 315.652
 259.486 316.008 260.677 317.402 262.833 c 321.664 269.501 l 324.398 269.501
 l 320.191 263.263 l 317.934 258.04 m 317.934 256.013 319.203 254.415 321.309
 254.415 c 323.488 254.415 324.68 256.091 324.68 258.017 c 324.68 260.169
 323.359 261.693 321.309 261.693 c 319.203 261.693 317.934 260.095 317.934
 258.04 c f
0.952941 0.941176 0.917647 rg
321.281 252.615 m 317.984 252.615 315.652 254.845 315.652 258.068 c 315.652
 259.486 316.008 260.677 317.402 262.833 c 321.664 269.501 l 324.398 269.501
 l 320.191 263.263 l 320.645 263.392 321.129 263.443 321.688 263.443 c 324.426
 263.443 326.961 261.259 326.961 258.068 c 326.961 254.947 324.652 252.615
 321.281 252.615 c 350.777 261.306 m 345.574 270.326 l 347.879 271.658 l
 353.086 262.638 l 350.777 261.306 l 371.852 281.404 m 362.836 286.611 l
 364.168 288.919 l 373.184 283.712 l 371.852 281.404 l 366.008 317.146 m
 366.008 319.122 l 376.176 319.122 l 376.176 318.513 l 371.688 312.353 l
 374.984 312.025 376.555 309.716 376.555 307.458 c 376.555 304.669 374.453
 302.236 371.004 302.236 c 368.543 302.236 366.391 303.505 365.551 305.81
 c 367.555 306.622 l 368.09 305.025 369.406 304.036 370.953 304.036 c 372.98
 304.036 374.246 305.533 374.246 307.411 c 374.246 308.88 373.438 310.122
 371.766 310.681 c 371.207 310.857 370.574 310.958 369.586 310.958 c 368.746
 310.958 l 368.645 311.24 l 372.879 317.146 l 366.008 317.146 l 364.168 
332.439 m 362.836 334.747 l 371.852 339.954 l 373.184 337.646 l 364.168 
332.439 l 347.879 349.701 m 345.57 351.033 l 350.777 360.052 l 353.086 358.72
 l 347.879 349.701 l 347.086 370.056 m 323.629 316.517 l 323.684 315.9 l
 325.086 315.259 326.188 314.072 326.707 312.611 c 344.934 310.681 l 326.707
 308.751 l 325.914 306.533 323.797 304.943 321.305 304.943 c 320.41 304.943
 319.566 305.15 318.809 305.513 c 295.137 251.482 l 303.141 247.939 311.988
 245.966 321.305 245.966 c 357.039 245.966 386.016 274.939 386.016 310.677
 c 386.016 337.251 369.992 360.091 347.086 370.056 c f
0.67451 0.87451 0.905882 rg
347.879 271.658 m 345.574 270.326 l 350.777 261.306 l 353.086 262.638 l
 347.879 271.658 l f
364.168 288.919 m 362.836 286.611 l 371.852 281.404 l 373.184 283.712 l
 364.168 288.919 l f
371.852 339.954 m 362.836 334.747 l 364.168 332.439 l 373.184 337.646 l
 371.852 339.954 l f
350.777 360.052 m 345.574 351.033 l 347.879 349.701 l 353.086 358.72 l 
350.777 360.052 l f
0.658824 0.505882 0.627451 rg
326.707 312.611 m 326.922 312.005 327.039 311.357 327.039 310.677 c 327.039
 310.001 326.922 309.353 326.707 308.747 c 344.934 310.681 l 326.707 312.611
 l f
323.629 316.517 m 323.41 316.017 l 323.504 315.978 323.594 315.939 323.688
 315.9 c 323.629 316.517 l f
0.729412 0.54902 0.694118 rg
323.41 316.017 m 318.812 305.517 l 319.566 305.15 320.41 304.947 321.309
 304.947 c 323.797 304.947 325.918 306.533 326.711 308.751 c 326.926 309.353
 327.043 310.001 327.043 310.681 c 327.043 311.357 326.926 312.005 326.711
 312.611 c 326.188 314.072 325.09 315.259 323.688 315.9 c 323.594 315.939
 323.504 315.978 323.41 316.017 c f
0.545098 0.788235 0.847059 rg
376.176 319.122 m 366.008 319.122 l 366.008 317.146 l 372.879 317.146 l
 368.645 311.236 l 368.746 310.958 l 369.586 310.958 l 370.574 310.958 371.207
 310.857 371.766 310.677 c 373.438 310.122 374.246 308.88 374.246 307.408
 c 374.246 305.533 372.98 304.036 370.953 304.036 c 369.406 304.036 368.086
 305.025 367.555 306.622 c 365.551 305.81 l 366.387 303.501 368.543 302.236
 371.004 302.236 c 374.453 302.236 376.555 304.669 376.555 307.458 c 376.555
 309.716 374.984 312.021 371.688 312.353 c 376.176 318.513 l 376.176 319.122
 l f
0.952941 0.941176 0.917647 rg
321.305 261.693 m 319.203 261.693 317.934 260.095 317.934 258.04 c 317.934
 256.013 319.199 254.415 321.305 254.415 c 323.488 254.415 324.68 256.091
 324.68 258.017 c 324.68 260.169 323.359 261.693 321.305 261.693 c f
0.545098 0.788235 0.847059 rg
321.305 254.415 m 319.203 254.415 317.934 256.013 317.934 258.04 c 317.934
 260.095 319.199 261.689 321.305 261.689 c 323.359 261.689 324.68 260.169
 324.68 258.013 c 324.68 256.087 323.488 254.415 321.305 254.415 c 324.398
 269.501 m 321.664 269.501 l 317.402 262.833 l 316.008 260.677 315.652 259.486
 315.652 258.068 c 315.652 254.845 317.988 252.615 321.281 252.615 c 324.656
 252.615 326.961 254.947 326.961 258.068 c 326.961 261.259 324.426 263.443
 321.688 263.443 c 321.129 263.443 320.648 263.392 320.191 263.263 c 324.398
 269.501 l f
Q Q
showpage
%%Trailer
end restore
%%EOF
