%!PS-Adobe-3.0 EPSF-3.0
%%Creator: cairo 1.14.2 (http://cairographics.org)
%%CreationDate: Wed Jul 12 12:57:24 2017
%%Pages: 1
%%DocumentData: Clean7Bit
%%LanguageLevel: 2
%%BoundingBox: 0 -1 407 410
%%EndComments
%%BeginProlog
save
50 dict begin
/q { gsave } bind def
/Q { grestore } bind def
/cm { 6 array astore concat } bind def
/w { setlinewidth } bind def
/J { setlinecap } bind def
/j { setlinejoin } bind def
/M { setmiterlimit } bind def
/d { setdash } bind def
/m { moveto } bind def
/l { lineto } bind def
/c { curveto } bind def
/h { closepath } bind def
/re { exch dup neg 3 1 roll 5 3 roll moveto 0 rlineto
      0 exch rlineto 0 rlineto closepath } bind def
/S { stroke } bind def
/f { fill } bind def
/f* { eofill } bind def
/n { newpath } bind def
/W { clip } bind def
/W* { eoclip } bind def
/BT { } bind def
/ET { } bind def
/pdfmark where { pop globaldict /?pdfmark /exec load put }
    { globaldict begin /?pdfmark /pop load def /pdfmark
    /cleartomark load def end } ifelse
/BDC { mark 3 1 roll /BDC pdfmark } bind def
/EMC { mark /EMC pdfmark } bind def
/cairo_store_point { /cairo_point_y exch def /cairo_point_x exch def } def
/Tj { show currentpoint cairo_store_point } bind def
/TJ {
  {
    dup
    type /stringtype eq
    { show } { -0.001 mul 0 cairo_font_matrix dtransform rmoveto } ifelse
  } forall
  currentpoint cairo_store_point
} bind def
/cairo_selectfont { cairo_font_matrix aload pop pop pop 0 0 6 array astore
    cairo_font exch selectfont cairo_point_x cairo_point_y moveto } bind def
/Tf { pop /cairo_font exch def /cairo_font_matrix where
      { pop cairo_selectfont } if } bind def
/Td { matrix translate cairo_font_matrix matrix concatmatrix dup
      /cairo_font_matrix exch def dup 4 get exch 5 get cairo_store_point
      /cairo_font where { pop cairo_selectfont } if } bind def
/Tm { 2 copy 8 2 roll 6 array astore /cairo_font_matrix exch def
      cairo_store_point /cairo_font where { pop cairo_selectfont } if } bind def
/g { setgray } bind def
/rg { setrgbcolor } bind def
/d1 { setcachedevice } bind def
%%EndProlog
%%BeginSetup
%%EndSetup
%%Page: 1 1
%%BeginPageSetup
%%PageBoundingBox: 0 -1 407 410
%%EndPageSetup
q 0 -1 407 411 rectclip q
0.333333 0.776471 0.631373 rg
406.445 203.217 m 406.445 121.061 357.703 50.303 287.551 18.272 c 261.867
 6.541 233.309 -0.002 203.227 -0.002 c 161.309 -0.002 122.359 12.694 90 
34.444 c 35.715 70.92 0 132.901 0 203.217 c 0 315.455 90.988 406.436 203.227
 406.436 c 315.457 406.436 406.445 315.455 406.445 203.217 c h
406.445 203.217 m f
0.913725 0.894118 0.847059 rg
152.906 370.174 m 148.227 367.83 l 126.871 357.166 l 118.145 352.811 l 
113.473 350.475 l 112.441 352.545 l 101.82 373.795 l 106.5 376.131 l 115.219
 380.487 l 141.266 393.498 l h
152.906 370.174 m f
0.921569 0.188235 0.356863 rg
141.266 393.498 m 115.227 380.487 l 101.828 373.795 l 101.82 373.795 l 
93.781 389.901 l 98.461 392.237 l 107.18 396.592 l 133.219 409.6 l h
141.266 393.498 m f
0.847059 0.823529 0.772549 rg
159.438 345.397 m 140.574 335.975 l 129.355 330.37 l 118.145 352.811 l 
129.363 358.416 l 148.227 367.83 l h
159.438 345.397 m f
0.756863 0.733333 0.682353 rg
140.574 335.971 m 129.355 330.366 l 118.145 352.807 l 129.363 358.413 l
 h
140.574 335.971 m f
0.196078 0.666667 0.807843 rg
220.609 205.096 m 208.754 199.17 l 198.133 220.44 l 192.359 232.006 l 204.215
 237.928 l 208.594 229.147 l h
220.609 205.096 m f
241.754 223.385 m 229.898 217.463 l 219.523 238.237 l 216.59 244.108 l 
228.445 250.03 l 229.988 246.944 l h
241.754 223.385 m f
0.698039 0.670588 0.615686 rg
232.523 273.327 m 241.023 256.315 l 228.445 250.03 l 216.59 244.108 l 204.215
 237.928 l 192.359 232.006 l 176.582 224.123 l 174.184 228.928 l 168.086
 241.135 l 207.52 260.834 l h
232.523 273.327 m f
0.129412 0.564706 0.639216 rg
204.215 237.928 m 208.594 229.147 l 206.691 227.561 l 198.133 220.44 l 
192.359 232.006 l h
204.215 237.928 m f
229.988 246.944 m 227.508 244.893 l 219.523 238.237 l 216.59 244.108 l 
228.445 250.03 l h
229.988 246.944 m f
0.913725 0.894118 0.847059 rg
207.52 260.834 m 181.473 247.827 l 168.086 241.135 l 135.297 306.784 l 
124.676 328.034 l 129.355 330.37 l 138.074 334.725 l 159.438 345.397 l 164.117
 347.733 l h
207.52 260.834 m f
0.858824 0.839216 0.792157 rg
181.473 247.827 m 168.086 241.135 l 135.297 306.784 l 124.676 328.034 l
 129.355 330.37 l 138.074 334.725 l h
181.473 247.827 m f
126.871 357.166 m 118.145 352.811 l 113.473 350.475 l 112.441 352.545 l
 101.82 373.795 l 106.5 376.131 l 115.219 380.487 l h
126.871 357.166 m f
0.827451 0.14902 0.329412 rg
115.227 380.487 m 101.828 373.795 l 93.781 389.901 l 98.461 392.237 l 107.18
 396.592 l h
115.227 380.487 m f
0.913725 0.894118 0.847059 rg
287.551 34.444 m 287.551 18.272 l 261.867 6.541 233.309 -0.002 203.227 
-0.002 c 161.309 -0.002 122.359 12.694 90 34.444 c h
287.551 34.444 m f
0.698039 0.670588 0.615686 rg
220.785 34.444 m 123.637 34.444 l 141.43 73.975 l 145.68 83.409 l 161.52
 73.006 179.695 65.842 199.242 62.881 c 209.457 49.393 l h
220.785 34.444 m f
0.498039 0.482353 0.45098 rg
174.184 228.928 m 167.355 225.518 l 145.617 214.659 l 106.73 292.514 l 
128.465 303.373 l 135.297 306.784 l 168.086 241.135 l h
174.184 228.928 m f
0.847059 0.823529 0.772549 rg
206.391 96.858 m 211.898 85.823 l 186.543 87.577 163.5 97.916 145.688 113.948
 c 146.395 114.018 l 159.332 115.209 168.254 126.112 168.254 137.959 c 168.254
 141.53 167.441 145.178 165.695 148.674 c 183.738 157.686 l 190.172 144.799
 l 183.988 141.713 l 200.469 108.713 l h
206.391 96.858 m f
0.196078 0.666667 0.807843 rg
133.473 238.987 m 128.438 238.608 123.441 240.538 119.969 244.284 c 118.922
 245.42 118.012 246.725 117.281 248.178 c 114.16 254.428 115.316 261.702
 119.652 266.655 c 121.035 268.241 122.754 269.588 124.766 270.592 c 133.023
 274.717 143.062 271.37 147.188 263.112 c 151.312 254.85 147.965 244.823
 139.703 240.698 c 137.695 239.69 135.578 239.135 133.473 238.987 c h
133.473 238.987 m f
0.407843 0.392157 0.360784 rg
174.184 228.928 m 167.355 225.518 l 137.473 285.346 l 128.465 303.373 l
 135.297 306.784 l 168.086 241.135 l h
174.184 228.928 m f
0.152941 0.611765 0.717647 rg
132.742 248.834 m 130.68 248.678 128.637 249.467 127.219 250.998 c 126.789
 251.463 126.418 251.998 126.117 252.592 c 124.84 255.147 125.312 258.123
 127.086 260.151 c 127.652 260.799 128.355 261.35 129.176 261.76 c 132.555
 263.448 136.664 262.08 138.348 258.702 c 140.035 255.323 138.668 251.221
 135.289 249.534 c 134.469 249.12 133.602 248.893 132.742 248.834 c h
132.742 248.834 m f
0.129412 0.564706 0.639216 rg
225.73 121.327 m 231.652 109.471 l 206.391 96.858 l 200.469 108.713 l h
225.73 121.327 m f
0.498039 0.482353 0.45098 rg
280.121 125.178 m 245.492 107.885 l 231.66 100.975 l 228.824 106.643 l 
220.07 124.174 l 233.898 131.073 l 268.531 148.377 l h
280.121 125.178 m f
0.407843 0.392157 0.360784 rg
245.492 107.885 m 231.66 100.975 l 228.824 106.643 l 220.07 124.174 l 233.898
 131.073 l h
245.492 107.885 m f
0.196078 0.666667 0.807843 rg
289.43 215.627 m 297.926 198.616 l 190.172 144.799 l 183.738 157.686 l 
181.676 161.811 l h
289.43 215.627 m f
0.913725 0.894118 0.847059 rg
224.09 61.424 m 222.602 61.373 221.121 61.346 219.629 61.354 c 212.703 
61.354 205.898 61.873 199.242 62.881 c 179.691 65.842 161.52 73.006 145.68
 83.409 c 108.988 107.506 84.766 149.022 84.766 196.194 c 84.766 222.643
 92.371 247.315 105.531 268.135 c 107.957 271.967 110.574 275.678 113.359
 279.241 c 119.652 266.655 l 115.316 261.702 114.16 254.428 117.281 248.178
 c 118.012 246.725 118.922 245.42 119.969 244.284 c 119.555 243.428 119.148
 242.557 118.754 241.682 c 112.477 227.799 108.969 212.401 108.977 196.194
 c 108.969 163.58 123.16 134.213 145.688 113.948 c 163.5 97.916 186.543 
87.577 211.898 85.823 c h
224.09 61.424 m f
0.498039 0.482353 0.45098 rg
209.457 49.393 m 206.012 49.651 202.609 50.03 199.242 50.541 c 179.695 
53.502 161.52 60.666 145.68 71.069 c 144.242 72.01 142.824 72.979 141.43
 73.975 c 145.68 83.409 l 161.52 73.006 179.695 65.842 199.242 62.881 c 
h
209.457 49.393 m f
0.858824 0.839216 0.792157 rg
119.969 244.284 m 119.555 243.428 119.148 242.557 118.754 241.682 c 105.531
 268.135 l 107.957 271.967 110.574 275.678 113.359 279.241 c 119.652 266.655
 l 115.316 261.698 114.16 254.428 117.281 248.178 c 118.012 246.725 118.922
 245.42 119.969 244.284 c h
119.969 244.284 m f
Q Q
showpage
%%Trailer
end restore
%%EOF
