%!PS-Adobe-3.0 EPSF-3.0
%%Creator: cairo 1.14.2 (http://cairographics.org)
%%CreationDate: Wed Jul 12 12:57:24 2017
%%Pages: 1
%%DocumentData: Clean7Bit
%%LanguageLevel: 2
%%BoundingBox: 0 -1 410 410
%%EndComments
%%BeginProlog
save
50 dict begin
/q { gsave } bind def
/Q { grestore } bind def
/cm { 6 array astore concat } bind def
/w { setlinewidth } bind def
/J { setlinecap } bind def
/j { setlinejoin } bind def
/M { setmiterlimit } bind def
/d { setdash } bind def
/m { moveto } bind def
/l { lineto } bind def
/c { curveto } bind def
/h { closepath } bind def
/re { exch dup neg 3 1 roll 5 3 roll moveto 0 rlineto
      0 exch rlineto 0 rlineto closepath } bind def
/S { stroke } bind def
/f { fill } bind def
/f* { eofill } bind def
/n { newpath } bind def
/W { clip } bind def
/W* { eoclip } bind def
/BT { } bind def
/ET { } bind def
/pdfmark where { pop globaldict /?pdfmark /exec load put }
    { globaldict begin /?pdfmark /pop load def /pdfmark
    /cleartomark load def end } ifelse
/BDC { mark 3 1 roll /BDC pdfmark } bind def
/EMC { mark /EMC pdfmark } bind def
/cairo_store_point { /cairo_point_y exch def /cairo_point_x exch def } def
/Tj { show currentpoint cairo_store_point } bind def
/TJ {
  {
    dup
    type /stringtype eq
    { show } { -0.001 mul 0 cairo_font_matrix dtransform rmoveto } ifelse
  } forall
  currentpoint cairo_store_point
} bind def
/cairo_selectfont { cairo_font_matrix aload pop pop pop 0 0 6 array astore
    cairo_font exch selectfont cairo_point_x cairo_point_y moveto } bind def
/Tf { pop /cairo_font exch def /cairo_font_matrix where
      { pop cairo_selectfont } if } bind def
/Td { matrix translate cairo_font_matrix matrix concatmatrix dup
      /cairo_font_matrix exch def dup 4 get exch 5 get cairo_store_point
      /cairo_font where { pop cairo_selectfont } if } bind def
/Tm { 2 copy 8 2 roll 6 array astore /cairo_font_matrix exch def
      cairo_store_point /cairo_font where { pop cairo_selectfont } if } bind def
/g { setgray } bind def
/rg { setrgbcolor } bind def
/d1 { setcachedevice } bind def
%%EndProlog
%%BeginSetup
%%EndSetup
%%Page: 1 1
%%BeginPageSetup
%%PageBoundingBox: 0 -1 410 410
%%EndPageSetup
q 0 -1 410 411 rectclip q
0.941176 0.627451 0.215686 rg
409.602 204.795 m 409.602 143.065 382.285 87.705 339.082 50.17 c 336.453
 47.877 333.762 45.658 331.016 43.518 c 327.598 40.826 324.09 38.248 320.492
 35.787 c 313.367 30.905 305.914 26.455 298.188 22.483 c 287.801 17.155 
276.902 12.686 265.578 9.178 c 246.375 3.217 225.961 -0.002 204.797 -0.002
 c 183.629 -0.002 163.215 3.217 144.012 9.178 c 132.688 12.686 121.789 17.155
 111.414 22.483 c 106.109 25.209 100.941 28.151 95.922 31.311 c 93.738 32.682
 91.586 34.092 89.465 35.541 c 88.922 35.905 88.391 36.28 87.855 36.651 
c 85.672 38.17 83.523 39.733 81.398 41.338 c 79.215 42.99 77.062 44.682 
74.949 46.42 c 29.195 83.979 0 140.975 0 204.795 c 0 317.908 91.695 409.592
 204.797 409.592 c 317.906 409.592 409.602 317.908 409.602 204.795 c h
409.602 204.795 m f
0.678431 0.658824 0.619608 rg
95.918 327.061 m 95.918 317.662 l 89.469 203.674 l 81.402 61.19 l 63.906
 61.19 l 63.906 327.061 l 63.906 331.483 65.699 335.483 68.602 338.385 c
 69.027 338.811 69.473 339.205 69.949 339.58 c 72.676 341.764 76.133 343.072
 79.91 343.072 c 79.918 343.072 l 87.363 343.072 93.621 337.983 95.41 331.092
 c 95.742 329.803 95.918 328.455 95.918 327.061 c h
95.918 327.061 m f
0.8 0.145098 0.317647 rg
89.465 317.666 m 89.465 35.541 l 88.922 35.905 88.391 36.28 87.855 36.651
 c 85.672 38.17 83.523 39.733 81.398 41.338 c 79.215 42.99 77.066 44.682
 74.949 46.42 c 74.949 317.666 l h
89.465 317.666 m f
0.921569 0.188235 0.356863 rg
95.922 317.666 m 95.922 31.311 l 93.738 32.682 91.59 34.092 89.465 35.541
 c 88.922 35.905 88.391 36.28 87.855 36.651 c 85.672 38.17 83.523 39.733
 81.398 41.338 c 81.398 317.666 l h
95.922 317.666 m f
0.8 0.776471 0.729412 rg
331.016 317.651 m 331.016 43.518 l 327.598 40.826 324.09 38.248 320.492
 35.787 c 313.367 30.905 305.914 26.455 298.188 22.483 c 287.801 17.155 
276.902 12.686 265.578 9.178 c 246.375 3.217 225.961 -0.002 204.797 -0.002
 c 183.629 -0.002 163.215 3.217 144.012 9.178 c 132.688 12.686 121.789 17.155
 111.414 22.483 c 106.109 25.209 100.941 28.151 95.922 31.311 c 93.738 32.682
 91.586 34.092 89.465 35.541 c 88.922 35.905 88.391 36.28 87.855 36.651 
c 87.855 317.651 l h
331.016 317.651 m f
0.913725 0.894118 0.847059 rg
339.078 327.061 m 339.078 304.354 l 95.918 304.354 l 95.918 327.061 l 95.918
 328.455 95.742 329.803 95.41 331.092 c 93.621 337.983 87.363 343.069 79.918
 343.069 c 323.078 343.069 l 327.496 343.069 331.5 341.28 334.395 338.377
 c 336.379 336.393 337.836 333.893 338.57 331.092 c 338.902 329.803 339.078
 328.455 339.078 327.061 c h
339.078 327.061 m f
0.847059 0.823529 0.772549 rg
320.492 35.787 m 313.367 30.905 305.914 26.455 298.188 22.483 c 111.414
 22.483 l 106.109 25.209 100.941 28.151 95.922 31.311 c 95.922 35.787 l 
h
320.492 35.787 m f
0.913725 0.894118 0.847059 rg
95.922 304.354 m 95.922 35.787 l 320.492 35.787 l 324.09 38.248 327.598
 40.826 331.016 43.518 c 333.762 45.658 336.453 47.877 339.082 50.17 c 339.082
 304.354 l h
95.922 304.354 m f
0.117647 0.192157 0.376471 rg
293.105 198.162 m 288.133 198.162 285.535 200.381 283.449 202.162 c 281.715
 203.639 280.57 204.615 277.977 204.615 c 275.387 204.615 274.242 203.639
 272.512 202.162 c 270.422 200.381 267.824 198.162 262.855 198.162 c 257.887
 198.162 255.285 200.381 253.199 202.162 c 251.465 203.639 250.324 204.615
 247.73 204.615 c 245.141 204.615 243.996 203.639 242.266 202.162 c 240.18
 200.381 237.578 198.162 232.609 198.162 c 227.641 198.162 225.043 200.381
 222.957 202.162 c 221.223 203.639 220.078 204.615 217.488 204.615 c 214.898
 204.615 213.754 203.639 212.023 202.162 c 209.934 200.381 207.336 198.162
 202.367 198.162 c 197.398 198.162 194.797 200.381 192.711 202.162 c 190.98
 203.639 189.836 204.615 187.246 204.615 c 184.656 204.615 183.512 203.639
 181.777 202.162 c 179.691 200.381 177.094 198.162 172.125 198.162 c 167.156
 198.162 164.559 200.381 162.469 202.162 c 160.738 203.639 159.594 204.615
 157.004 204.615 c 154.414 204.615 153.27 203.639 151.539 202.162 c 149.453
 200.381 146.855 198.162 141.883 198.162 c 136.914 198.162 134.316 200.381
 132.23 202.162 c 130.5 203.639 129.355 204.615 126.766 204.615 c 126.766
 211.069 l 131.734 211.069 134.332 208.85 136.418 207.069 c 138.152 205.592
 139.293 204.615 141.883 204.615 c 144.473 204.615 145.617 205.592 147.348
 207.069 c 149.438 208.85 152.035 211.069 157.004 211.069 c 161.973 211.069
 164.57 208.854 166.66 207.069 c 168.391 205.592 169.535 204.615 172.125
 204.615 c 174.715 204.615 175.859 205.592 177.59 207.069 c 179.676 208.854
 182.273 211.069 187.246 211.069 c 192.215 211.069 194.812 208.854 196.898
 207.072 c 198.633 205.592 199.773 204.615 202.367 204.615 c 204.957 204.615
 206.102 205.592 207.832 207.072 c 209.918 208.854 212.52 211.069 217.488
 211.069 c 222.457 211.069 225.055 208.854 227.145 207.072 c 228.875 205.592
 230.02 204.615 232.609 204.615 c 235.199 204.615 236.344 205.592 238.074
 207.072 c 240.164 208.854 242.762 211.069 247.73 211.069 c 252.699 211.069
 255.297 208.854 257.387 207.072 c 259.117 205.592 260.262 204.619 262.855
 204.619 c 265.445 204.619 266.59 205.592 268.324 207.072 c 270.41 208.854
 273.008 211.069 277.977 211.069 c 282.949 211.069 285.547 208.854 287.637
 207.072 c 289.367 205.592 290.512 204.619 293.105 204.619 c 295.699 204.619
 296.844 205.592 298.574 207.072 c 300.664 208.854 303.262 211.069 308.23
 211.069 c 308.23 204.619 l 305.641 204.619 304.496 203.643 302.762 202.162
 c 300.676 200.381 298.074 198.162 293.105 198.162 c h
293.105 198.162 m f
293.105 226.389 m 288.133 226.389 285.535 228.608 283.449 230.389 c 281.715
 231.865 280.57 232.842 277.977 232.842 c 275.387 232.842 274.242 231.865
 272.512 230.389 c 270.422 228.608 267.824 226.389 262.855 226.389 c 257.887
 226.389 255.285 228.608 253.199 230.389 c 251.465 231.865 250.324 232.842
 247.73 232.842 c 245.141 232.842 243.996 231.865 242.266 230.389 c 240.18
 228.608 237.578 226.389 232.609 226.389 c 227.641 226.389 225.043 228.608
 222.957 230.389 c 221.223 231.865 220.078 232.842 217.488 232.842 c 214.898
 232.842 213.754 231.865 212.023 230.389 c 209.934 228.608 207.336 226.389
 202.367 226.389 c 197.398 226.389 194.797 228.608 192.711 230.389 c 190.98
 231.865 189.836 232.842 187.246 232.842 c 184.656 232.842 183.512 231.865
 181.777 230.389 c 179.691 228.608 177.094 226.389 172.125 226.389 c 167.156
 226.389 164.559 228.608 162.469 230.389 c 160.738 231.865 159.594 232.842
 157.004 232.842 c 154.414 232.842 153.27 231.865 151.539 230.389 c 149.453
 228.608 146.855 226.389 141.883 226.389 c 136.914 226.389 134.316 228.608
 132.23 230.389 c 130.5 231.865 129.355 232.842 126.766 232.842 c 126.766
 239.295 l 131.734 239.295 134.332 237.08 136.418 235.295 c 138.152 233.819
 139.293 232.842 141.883 232.842 c 144.473 232.842 145.617 233.819 147.348
 235.295 c 149.438 237.08 152.035 239.295 157.004 239.295 c 161.973 239.295
 164.57 237.08 166.66 235.299 c 168.391 233.819 169.535 232.842 172.125 
232.842 c 174.715 232.842 175.859 233.819 177.59 235.299 c 179.676 237.08
 182.273 239.295 187.246 239.295 c 192.215 239.295 194.812 237.08 196.898
 235.299 c 198.633 233.819 199.773 232.846 202.367 232.846 c 204.957 232.846
 206.102 233.819 207.832 235.299 c 209.918 237.08 212.52 239.295 217.488
 239.295 c 222.457 239.295 225.055 237.08 227.145 235.299 c 228.875 233.819
 230.02 232.846 232.609 232.846 c 235.199 232.846 236.344 233.819 238.074
 235.299 c 240.164 237.08 242.762 239.299 247.73 239.299 c 252.699 239.299
 255.297 237.08 257.387 235.299 c 259.117 233.822 260.262 232.846 262.855
 232.846 c 265.445 232.846 266.59 233.822 268.324 235.299 c 270.41 237.08
 273.008 239.299 277.977 239.299 c 282.949 239.299 285.547 237.08 287.637
 235.299 c 289.367 233.822 290.512 232.846 293.105 232.846 c 295.699 232.846
 296.844 233.822 298.574 235.299 c 300.664 237.08 303.262 239.299 308.23
 239.299 c 308.23 232.846 l 305.641 232.846 304.496 231.869 302.762 230.393
 c 300.676 228.608 298.074 226.389 293.105 226.389 c h
293.105 226.389 m f
293.105 254.615 m 288.133 254.615 285.535 256.834 283.449 258.615 c 281.715
 260.092 280.57 261.069 277.977 261.069 c 275.387 261.069 274.242 260.092
 272.512 258.615 c 270.422 256.834 267.824 254.615 262.855 254.615 c 257.887
 254.615 255.285 256.834 253.199 258.615 c 251.465 260.092 250.324 261.069
 247.73 261.069 c 245.141 261.069 243.996 260.092 242.266 258.615 c 240.18
 256.834 237.578 254.615 232.609 254.615 c 227.641 254.615 225.043 256.834
 222.957 258.615 c 221.223 260.092 220.078 261.069 217.488 261.069 c 214.898
 261.069 213.754 260.092 212.023 258.615 c 209.934 256.834 207.336 254.615
 202.367 254.615 c 197.398 254.615 194.797 256.834 192.711 258.615 c 190.98
 260.092 189.836 261.069 187.246 261.069 c 184.656 261.069 183.512 260.092
 181.777 258.615 c 179.691 256.834 177.094 254.615 172.125 254.615 c 167.156
 254.615 164.559 256.834 162.469 258.615 c 160.738 260.092 159.594 261.069
 157.004 261.069 c 154.414 261.069 153.27 260.092 151.539 258.615 c 149.453
 256.834 146.855 254.615 141.883 254.615 c 136.914 254.615 134.316 256.834
 132.23 258.615 c 130.5 260.092 129.355 261.069 126.766 261.069 c 126.766
 267.522 l 131.734 267.522 134.332 265.303 136.418 263.522 c 138.152 262.045
 139.293 261.069 141.883 261.069 c 144.473 261.069 145.617 262.045 147.348
 263.522 c 149.438 265.303 152.035 267.522 157.004 267.522 c 161.973 267.522
 164.57 265.307 166.66 263.526 c 168.391 262.045 169.535 261.069 172.125
 261.069 c 174.715 261.069 175.859 262.045 177.59 263.526 c 179.676 265.307
 182.273 267.522 187.246 267.522 c 192.215 267.522 194.812 265.307 196.898
 263.526 c 198.633 262.045 199.773 261.069 202.367 261.069 c 204.957 261.069
 206.102 262.045 207.832 263.526 c 209.918 265.307 212.52 267.522 217.488
 267.522 c 222.457 267.522 225.055 265.307 227.145 263.526 c 228.875 262.045
 230.02 261.069 232.609 261.069 c 235.199 261.069 236.344 262.045 238.074
 263.526 c 240.164 265.307 242.762 267.526 247.73 267.526 c 252.699 267.526
 255.297 265.307 257.387 263.526 c 259.117 262.049 260.262 261.072 262.855
 261.072 c 265.445 261.072 266.59 262.049 268.324 263.526 c 270.41 265.307
 273.008 267.526 277.977 267.526 c 282.949 267.526 285.547 265.307 287.637
 263.526 c 289.367 262.049 290.512 261.072 293.105 261.072 c 295.699 261.072
 296.844 262.049 298.574 263.526 c 300.664 265.307 303.262 267.526 308.23
 267.526 c 308.23 261.072 l 305.641 261.072 304.496 260.096 302.762 258.619
 c 300.676 256.834 298.074 254.615 293.105 254.615 c h
293.105 254.615 m f
293.105 169.936 m 288.133 169.936 285.535 172.151 283.449 173.932 c 281.715
 175.412 280.57 176.389 277.977 176.389 c 275.387 176.389 274.242 175.412
 272.512 173.932 c 270.422 172.151 267.824 169.936 262.855 169.936 c 257.887
 169.936 255.285 172.151 253.199 173.932 c 251.465 175.412 250.324 176.389
 247.73 176.389 c 245.141 176.389 243.996 175.412 242.266 173.932 c 240.18
 172.151 237.578 169.936 232.609 169.936 c 227.641 169.936 225.043 172.151
 222.957 173.932 c 221.223 175.412 220.078 176.389 217.488 176.389 c 214.898
 176.389 213.754 175.412 212.023 173.932 c 209.934 172.151 207.336 169.936
 202.367 169.936 c 197.398 169.936 194.797 172.151 192.711 173.932 c 190.98
 175.412 189.836 176.389 187.246 176.389 c 184.656 176.389 183.512 175.412
 181.777 173.932 c 179.691 172.151 177.094 169.936 172.125 169.936 c 167.156
 169.936 164.559 172.151 162.469 173.932 c 160.738 175.412 159.594 176.389
 157.004 176.389 c 154.414 176.389 153.27 175.412 151.539 173.932 c 149.453
 172.151 146.855 169.936 141.883 169.936 c 136.914 169.936 134.316 172.151
 132.23 173.932 c 130.5 175.412 129.355 176.389 126.766 176.389 c 126.766
 182.838 l 131.734 182.838 134.332 180.623 136.418 178.842 c 138.152 177.362
 139.293 176.389 141.883 176.389 c 144.473 176.389 145.617 177.362 147.348
 178.842 c 149.438 180.623 152.035 182.842 157.004 182.842 c 161.973 182.842
 164.57 180.623 166.66 178.842 c 168.391 177.365 169.535 176.389 172.125
 176.389 c 174.715 176.389 175.859 177.365 177.59 178.842 c 179.676 180.623
 182.273 182.842 187.246 182.842 c 192.215 182.842 194.812 180.623 196.898
 178.846 c 198.633 177.365 199.773 176.389 202.367 176.389 c 204.957 176.389
 206.102 177.365 207.832 178.846 c 209.918 180.623 212.52 182.842 217.488
 182.842 c 222.457 182.842 225.055 180.627 227.145 178.846 c 228.875 177.365
 230.02 176.389 232.609 176.389 c 235.199 176.389 236.344 177.365 238.074
 178.846 c 240.164 180.627 242.762 182.842 247.73 182.842 c 252.699 182.842
 255.297 180.627 257.387 178.846 c 259.117 177.365 260.262 176.389 262.855
 176.389 c 265.445 176.389 266.59 177.365 268.324 178.846 c 270.41 180.627
 273.008 182.842 277.977 182.842 c 282.949 182.842 285.547 180.627 287.637
 178.846 c 289.367 177.365 290.512 176.389 293.105 176.389 c 295.699 176.389
 296.844 177.365 298.574 178.846 c 300.664 180.627 303.262 182.842 308.23
 182.842 c 308.23 176.393 l 305.641 176.393 304.496 175.416 302.762 173.936
 c 300.676 172.155 298.074 169.936 293.105 169.936 c h
293.105 169.936 m f
293.105 141.709 m 288.133 141.709 285.535 143.924 283.449 145.705 c 281.715
 147.186 280.57 148.162 277.977 148.162 c 275.387 148.162 274.242 147.186
 272.512 145.705 c 270.422 143.924 267.824 141.709 262.855 141.709 c 257.887
 141.709 255.285 143.924 253.199 145.705 c 251.465 147.186 250.324 148.162
 247.73 148.162 c 245.141 148.162 243.996 147.186 242.266 145.705 c 240.18
 143.924 237.578 141.709 232.609 141.709 c 227.641 141.709 225.043 143.924
 222.957 145.705 c 221.223 147.186 220.078 148.162 217.488 148.162 c 214.898
 148.162 213.754 147.186 212.023 145.705 c 209.934 143.924 207.336 141.709
 202.367 141.709 c 197.398 141.709 194.797 143.924 192.711 145.705 c 190.98
 147.186 189.836 148.162 187.246 148.162 c 184.656 148.162 183.512 147.186
 181.777 145.705 c 179.691 143.924 177.094 141.709 172.125 141.709 c 167.156
 141.709 164.559 143.924 162.469 145.705 c 160.738 147.186 159.594 148.162
 157.004 148.162 c 154.414 148.162 153.27 147.186 151.539 145.705 c 149.453
 143.924 146.855 141.709 141.883 141.709 c 136.914 141.709 134.316 143.924
 132.23 145.705 c 130.5 147.186 129.355 148.162 126.766 148.162 c 126.766
 154.615 l 131.734 154.615 134.332 152.397 136.418 150.615 c 138.152 149.135
 139.293 148.162 141.883 148.162 c 144.473 148.162 145.617 149.135 147.348
 150.615 c 149.438 152.397 152.035 154.615 157.004 154.615 c 161.973 154.615
 164.57 152.397 166.66 150.615 c 168.391 149.139 169.535 148.162 172.125
 148.162 c 174.715 148.162 175.859 149.139 177.59 150.615 c 179.676 152.397
 182.273 154.615 187.246 154.615 c 192.215 154.615 194.812 152.397 196.898
 150.615 c 198.633 149.139 199.773 148.162 202.367 148.162 c 204.957 148.162
 206.102 149.139 207.832 150.615 c 209.918 152.397 212.52 154.615 217.488
 154.615 c 222.457 154.615 225.055 152.397 227.145 150.615 c 228.875 149.139
 230.02 148.162 232.609 148.162 c 235.199 148.162 236.344 149.139 238.074
 150.615 c 240.164 152.397 242.762 154.615 247.73 154.615 c 252.699 154.615
 255.297 152.401 257.387 150.619 c 259.117 149.139 260.262 148.162 262.855
 148.162 c 265.445 148.162 266.59 149.139 268.324 150.619 c 270.41 152.397
 273.008 154.615 277.977 154.615 c 282.949 154.615 285.547 152.401 287.637
 150.619 c 289.367 149.139 290.512 148.162 293.105 148.162 c 295.699 148.162
 296.844 149.139 298.574 150.619 c 300.664 152.397 303.262 154.615 308.23
 154.615 c 308.23 148.162 l 305.641 148.162 304.496 147.19 302.762 145.709
 c 300.676 143.924 298.074 141.709 293.105 141.709 c h
293.105 141.709 m f
293.105 113.483 m 288.133 113.483 285.535 115.697 283.449 117.479 c 281.715
 118.959 280.57 119.936 277.977 119.936 c 275.387 119.936 274.242 118.959
 272.512 117.479 c 270.422 115.697 267.824 113.483 262.855 113.483 c 257.887
 113.483 255.285 115.697 253.199 117.479 c 251.465 118.959 250.324 119.936
 247.73 119.936 c 245.141 119.936 243.996 118.959 242.266 117.479 c 240.18
 115.697 237.578 113.483 232.609 113.483 c 227.641 113.483 225.043 115.697
 222.957 117.479 c 221.223 118.959 220.078 119.932 217.488 119.932 c 214.898
 119.932 213.754 118.959 212.023 117.479 c 209.934 115.697 207.336 113.483
 202.367 113.483 c 197.398 113.483 194.797 115.697 192.711 117.479 c 190.98
 118.959 189.836 119.936 187.246 119.936 c 184.656 119.936 183.512 118.959
 181.777 117.479 c 179.691 115.697 177.094 113.483 172.125 113.483 c 167.156
 113.483 164.559 115.697 162.469 117.479 c 160.738 118.959 159.594 119.936
 157.004 119.936 c 154.414 119.936 153.27 118.959 151.539 117.479 c 149.453
 115.697 146.855 113.483 141.883 113.483 c 136.914 113.483 134.316 115.697
 132.23 117.479 c 130.5 118.959 129.355 119.936 126.766 119.936 c 126.766
 126.385 l 131.734 126.385 134.332 124.17 136.418 122.389 c 138.152 120.908
 139.293 119.932 141.883 119.932 c 144.473 119.932 145.617 120.908 147.348
 122.389 c 149.438 124.17 152.035 126.389 157.004 126.389 c 161.973 126.389
 164.57 124.17 166.66 122.389 c 168.391 120.912 169.535 119.936 172.125 
119.936 c 174.715 119.936 175.859 120.912 177.59 122.389 c 179.676 124.17
 182.273 126.389 187.246 126.389 c 192.215 126.389 194.812 124.17 196.898
 122.389 c 198.633 120.912 199.773 119.936 202.367 119.936 c 204.957 119.936
 206.102 120.912 207.832 122.389 c 209.918 124.17 212.52 126.389 217.488
 126.389 c 222.457 126.389 225.055 124.17 227.145 122.389 c 228.875 120.912
 230.02 119.936 232.609 119.936 c 235.199 119.936 236.344 120.912 238.074
 122.389 c 240.164 124.17 242.762 126.389 247.73 126.389 c 252.699 126.389
 255.297 124.17 257.387 122.389 c 259.117 120.912 260.262 119.936 262.855
 119.936 c 265.445 119.936 266.59 120.912 268.324 122.389 c 270.41 124.17
 273.008 126.389 277.977 126.389 c 282.949 126.389 285.547 124.17 287.637
 122.389 c 289.367 120.912 290.512 119.936 293.105 119.936 c 295.699 119.936
 296.844 120.912 298.574 122.389 c 300.664 124.17 303.262 126.389 308.23
 126.389 c 308.23 119.936 l 305.641 119.936 304.496 118.959 302.762 117.483
 c 300.676 115.697 298.074 113.483 293.105 113.483 c h
293.105 113.483 m f
232.609 85.256 m 227.641 85.256 225.043 87.471 222.953 89.252 c 221.223
 90.733 220.078 91.709 217.488 91.709 c 214.895 91.709 213.754 90.733 212.02
 89.252 c 209.934 87.471 207.336 85.256 202.367 85.256 c 197.395 85.256 
194.797 87.471 192.711 89.256 c 190.977 90.733 189.836 91.709 187.242 91.709
 c 184.652 91.709 183.508 90.733 181.777 89.256 c 179.691 87.471 177.094
 85.256 172.125 85.256 c 167.156 85.256 164.559 87.471 162.469 89.256 c 
160.738 90.733 159.594 91.709 157.004 91.709 c 154.414 91.709 153.27 90.733
 151.539 89.256 c 149.449 87.471 146.852 85.256 141.883 85.256 c 136.914
 85.256 134.316 87.471 132.23 89.256 c 130.5 90.733 129.355 91.709 126.766
 91.709 c 126.766 98.162 l 131.734 98.162 134.332 95.944 136.418 94.162 
c 138.148 92.682 139.293 91.709 141.883 91.709 c 144.473 91.709 145.617 
92.686 147.348 94.162 c 149.434 95.944 152.031 98.162 157.004 98.162 c 161.973
 98.162 164.57 95.944 166.656 94.162 c 168.391 92.686 169.531 91.709 172.125
 91.709 c 174.715 91.709 175.859 92.686 177.59 94.162 c 179.676 95.944 182.273
 98.162 187.242 98.162 c 192.215 98.162 194.812 95.947 196.898 94.162 c 
198.629 92.686 199.773 91.709 202.363 91.709 c 204.957 91.709 206.098 92.686
 207.832 94.162 c 209.918 95.944 212.516 98.162 217.488 98.162 c 222.457
 98.162 225.055 95.947 227.141 94.162 c 228.875 92.686 230.02 91.709 232.609
 91.709 c h
232.609 85.256 m f
0.847059 0.823529 0.772549 rg
338.57 331.092 m 95.41 331.092 l 93.621 337.983 87.363 343.069 79.918 343.069
 c 323.078 343.069 l 327.496 343.069 331.5 341.28 334.395 338.377 c 336.375
 336.393 337.836 333.893 338.57 331.092 c h
338.57 331.092 m f
0.196078 0.666667 0.807843 rg
388.668 368.76 m 168.453 148.545 l 133.48 131.967 l 150.055 166.94 l 362.234
 379.115 l 370.273 387.155 l 372.812 389.697 376.145 390.967 379.473 390.967
 c 382.797 390.967 386.129 389.694 388.668 387.155 c 393.75 382.084 393.75
 373.838 388.668 368.76 c h
388.668 368.76 m f
0.152941 0.611765 0.717647 rg
369.895 371.459 m 377.93 379.494 l 380.473 382.037 383.801 383.307 387.133
 383.307 c 388.668 383.307 390.199 383.022 391.656 382.483 c 391.027 384.186
 390.039 385.787 388.668 387.155 c 386.129 389.694 382.797 390.963 379.477
 390.963 c 376.145 390.963 372.812 389.694 370.273 387.155 c 150.059 166.94
 l 133.48 131.967 l 157.715 159.28 l h
369.895 371.459 m f
0.941176 0.627451 0.215686 rg
168.453 148.549 m 155.5 142.408 l 133.48 131.967 l 143.922 154.002 l 150.062
 166.94 l h
168.453 148.549 m f
0.866667 0.560784 0.192157 rg
133.48 131.967 m 150.062 166.94 l 157.719 159.283 l h
133.48 131.967 m f
0.921569 0.188235 0.356863 rg
388.668 368.76 m 380.629 360.721 l 362.234 379.115 l 370.273 387.155 l 
372.812 389.697 376.145 390.967 379.473 390.967 c 382.797 390.967 386.129
 389.694 388.668 387.155 c 393.75 382.084 393.75 373.838 388.668 368.76 
c h
388.668 368.76 m f
0.301961 0.372549 0.509804 rg
155.5 142.405 m 133.48 131.967 l 143.918 153.998 l 148.992 151.592 153.105
 147.487 155.5 142.405 c h
155.5 142.405 m f
0.827451 0.14902 0.329412 rg
362.238 379.115 m 370.277 387.155 l 372.812 389.69 376.145 390.959 379.477
 390.967 c 382.797 390.967 386.129 389.69 388.668 387.155 c 389.039 386.783
 389.371 386.401 389.684 385.998 c 389.816 385.838 389.938 385.682 390.047
 385.522 c 390.188 385.334 390.312 385.143 390.438 384.944 c 390.562 384.74
 390.684 384.549 390.797 384.346 c 391.133 383.744 391.418 383.119 391.656
 382.479 c 390.199 383.022 388.668 383.311 387.133 383.311 c 383.797 383.303
 380.469 382.033 377.934 379.498 c 369.895 371.459 l h
362.238 379.115 m f
0.0980392 0.537255 0.607843 rg
369.316 349.416 m 350.918 367.811 l 355.945 372.834 l 374.34 354.44 l h
369.316 349.416 m f
378.121 358.209 m 359.723 376.604 l 364.746 381.631 l 383.145 363.233 l
 h
378.121 358.209 m f
Q Q
showpage
%%Trailer
end restore
%%EOF
