%!PS-Adobe-3.0 EPSF-3.0
%%Creator: cairo 1.14.2 (http://cairographics.org)
%%CreationDate: Wed Jul 12 12:57:24 2017
%%Pages: 1
%%DocumentData: Clean7Bit
%%LanguageLevel: 2
%%BoundingBox: 0 -1 410 410
%%EndComments
%%BeginProlog
save
50 dict begin
/q { gsave } bind def
/Q { grestore } bind def
/cm { 6 array astore concat } bind def
/w { setlinewidth } bind def
/J { setlinecap } bind def
/j { setlinejoin } bind def
/M { setmiterlimit } bind def
/d { setdash } bind def
/m { moveto } bind def
/l { lineto } bind def
/c { curveto } bind def
/h { closepath } bind def
/re { exch dup neg 3 1 roll 5 3 roll moveto 0 rlineto
      0 exch rlineto 0 rlineto closepath } bind def
/S { stroke } bind def
/f { fill } bind def
/f* { eofill } bind def
/n { newpath } bind def
/W { clip } bind def
/W* { eoclip } bind def
/BT { } bind def
/ET { } bind def
/pdfmark where { pop globaldict /?pdfmark /exec load put }
    { globaldict begin /?pdfmark /pop load def /pdfmark
    /cleartomark load def end } ifelse
/BDC { mark 3 1 roll /BDC pdfmark } bind def
/EMC { mark /EMC pdfmark } bind def
/cairo_store_point { /cairo_point_y exch def /cairo_point_x exch def } def
/Tj { show currentpoint cairo_store_point } bind def
/TJ {
  {
    dup
    type /stringtype eq
    { show } { -0.001 mul 0 cairo_font_matrix dtransform rmoveto } ifelse
  } forall
  currentpoint cairo_store_point
} bind def
/cairo_selectfont { cairo_font_matrix aload pop pop pop 0 0 6 array astore
    cairo_font exch selectfont cairo_point_x cairo_point_y moveto } bind def
/Tf { pop /cairo_font exch def /cairo_font_matrix where
      { pop cairo_selectfont } if } bind def
/Td { matrix translate cairo_font_matrix matrix concatmatrix dup
      /cairo_font_matrix exch def dup 4 get exch 5 get cairo_store_point
      /cairo_font where { pop cairo_selectfont } if } bind def
/Tm { 2 copy 8 2 roll 6 array astore /cairo_font_matrix exch def
      cairo_store_point /cairo_font where { pop cairo_selectfont } if } bind def
/g { setgray } bind def
/rg { setrgbcolor } bind def
/d1 { setcachedevice } bind def
%%EndProlog
%%BeginSetup
%%EndSetup
%%Page: 1 1
%%BeginPageSetup
%%PageBoundingBox: 0 -1 410 410
%%EndPageSetup
q 0 -1 410 411 rectclip q
0.117647 0.192157 0.376471 rg
409.602 204.794 m 409.602 91.684 317.906 0.001 204.805 0.001 c 155.656 
0.001 110.551 17.313 75.262 46.172 c 56.59 61.43 40.664 79.926 28.336 100.797
 c 10.332 131.282 0 166.833 0 204.794 c 0 317.907 91.695 409.59 204.805 
409.59 c 317.906 409.59 409.602 317.907 409.602 204.794 c h
409.602 204.794 m f
0.913725 0.894118 0.847059 rg
324.258 100.797 m 324.258 46.172 l 75.262 46.172 l 56.59 61.43 40.664 79.926
 28.336 100.797 c h
324.258 100.797 m f
0.776471 0.756863 0.709804 rg
301.836 100.794 6.219 -22.465 re f
283.184 100.794 6.219 -13.582 re f
264.531 100.794 6.215 -13.582 re f
245.879 100.794 6.215 -13.582 re f
227.223 100.794 6.219 -22.465 re f
208.57 100.794 6.219 -13.582 re f
189.918 100.794 6.219 -13.582 re f
171.266 100.794 6.215 -13.582 re f
152.609 100.794 6.219 -22.465 re f
133.957 100.794 6.219 -13.582 re f
115.305 100.794 6.219 -13.582 re f
96.652 100.794 6.215 -13.582 re f
77.996 100.794 6.219 -22.465 re f
59.34 100.794 6.219 -13.582 re f
40.688 100.794 6.219 -13.582 re f
0.196078 0.666667 0.807843 rg
36.086 137.43 m 347.516 137.43 l 383.965 150.438 l 347.516 163.446 l 36.086
 163.446 l 32.492 163.446 29.238 161.989 26.883 159.633 c 24.531 157.282
 23.074 154.032 23.074 150.438 c 23.07 143.258 28.898 137.43 36.086 137.43
 c h
36.086 137.43 m f
0.152941 0.611765 0.717647 rg
47.453 152.614 m 36.086 152.614 l 32.492 152.614 29.238 151.157 26.883 
148.801 c 25.797 147.715 24.914 146.434 24.266 145.02 c 23.508 146.672 23.074
 148.501 23.074 150.438 c 23.074 154.032 24.535 157.282 26.883 159.633 c
 29.238 161.989 32.492 163.446 36.086 163.446 c 347.516 163.446 l 383.965
 150.438 l 347.516 152.614 l h
47.453 152.614 m f
0.941176 0.627451 0.215686 rg
347.512 137.434 m 361.012 142.247 l 383.965 150.438 l 361.004 158.637 l
 347.512 163.442 l h
347.512 137.434 m f
0.866667 0.560784 0.192157 rg
383.965 150.438 m 347.512 163.442 l 347.512 152.614 l h
383.965 150.438 m f
0.921569 0.188235 0.356863 rg
36.086 137.43 m 47.453 137.43 l 47.453 163.446 l 36.086 163.446 l 32.492
 163.446 29.238 161.989 26.883 159.633 c 24.531 157.286 23.074 154.032 23.074
 150.438 c 23.07 143.258 28.898 137.43 36.086 137.43 c h
36.086 137.43 m f
0.301961 0.372549 0.509804 rg
361.016 142.247 m 383.965 150.438 l 361.008 158.633 l 359.125 153.344 359.117
 147.536 361.016 142.247 c h
361.016 142.247 m f
0.827451 0.14902 0.329412 rg
47.453 152.614 m 36.082 152.614 l 32.492 152.614 29.242 151.157 26.879 
148.801 c 25.797 147.719 24.914 146.43 24.27 145.02 c 23.984 145.641 23.742
 146.282 23.559 146.946 c 23.496 147.169 23.441 147.391 23.391 147.622 c
 23.336 147.852 23.293 148.075 23.254 148.305 c 23.219 148.501 23.191 148.696
 23.176 148.899 c 23.113 149.407 23.078 149.915 23.078 150.438 c 23.078 
154.028 24.535 157.286 26.879 159.629 c 29.242 161.985 32.492 163.442 36.082
 163.442 c 47.453 163.442 l h
47.453 152.614 m f
0.0980392 0.537255 0.607843 rg
56.34 163.45 7.109 -26.016 re f
43.906 163.45 7.105 -26.016 re f
0.941176 0.627451 0.215686 rg
348.023 251.536 m 348.023 269.922 344.539 287.493 338.207 303.622 c 337.453
 305.559 336.652 307.469 335.809 309.36 c 329.074 324.524 319.766 338.29
 308.441 350.114 c 307.02 351.614 305.543 353.079 304.043 354.512 c 292.273
 365.79 278.57 375.063 263.488 381.79 c 261.594 382.633 259.684 383.442 
257.758 384.204 c 242.48 390.227 225.914 393.692 208.574 394.063 c 207.543
 394.09 206.504 394.098 205.465 394.098 c 204.426 394.098 203.387 394.09
 202.359 394.063 c 185.02 393.692 168.453 390.227 153.176 384.204 c 151.246
 383.438 149.336 382.633 147.445 381.79 c 132.363 375.063 118.656 365.79
 106.887 354.508 c 105.387 353.079 103.91 351.614 102.492 350.114 c 91.164
 338.29 81.855 324.524 75.125 309.36 c 74.281 307.469 73.48 305.559 72.727
 303.622 c 66.391 287.493 62.91 269.922 62.91 251.536 c 36.262 251.536 l
 36.262 196.915 l 373.336 196.915 l 373.336 251.536 l h
114.02 251.536 m 114.02 302.044 154.961 342.981 205.465 342.981 c 255.973
 342.981 296.91 302.04 296.91 251.536 c h
114.02 251.536 m f
0.768627 0.490196 0.152941 rg
52.914 219.376 5.328 -22.465 re f
71.566 210.493 5.328 -13.582 re f
90.219 210.493 5.332 -13.582 re f
108.871 210.493 5.332 -13.582 re f
127.527 219.376 5.328 -22.465 re f
146.18 210.493 5.328 -13.582 re f
164.832 210.493 5.332 -13.582 re f
183.488 210.493 5.328 -13.582 re f
202.141 219.376 5.328 -22.465 re f
220.793 210.493 5.328 -13.582 re f
239.445 210.493 5.332 -13.582 re f
258.102 210.493 5.328 -13.582 re f
276.754 219.376 5.328 -22.465 re f
295.406 210.493 5.328 -13.582 re f
314.059 210.493 5.332 -13.582 re f
332.711 210.493 5.332 -13.582 re f
351.367 219.376 5.328 -22.465 re f
208.574 394.063 m 208.574 375.446 l 202.359 375.446 l 202.359 394.063 l
 203.387 394.09 204.426 394.098 205.465 394.098 c 206.504 394.098 207.543
 394.09 208.574 394.063 c h
208.574 394.063 m f
120.051 341.348 m 115.656 336.95 l 102.492 350.114 l 103.914 351.614 105.387
 353.079 106.887 354.512 c h
120.051 341.348 m f
160.395 367.001 m 154.656 364.59 l 147.445 381.79 l 149.336 382.633 151.246
 383.442 153.176 384.204 c h
160.395 367.001 m f
92.34 302.165 m 89.941 296.426 l 72.727 303.622 l 73.48 305.559 74.281 
307.469 75.125 309.36 c h
92.34 302.165 m f
308.441 350.114 m 295.277 336.95 l 290.879 341.348 l 304.043 354.512 l 
305.547 353.079 307.02 351.614 308.441 350.114 c h
308.441 350.114 m f
263.488 381.79 m 256.273 364.59 l 250.535 367.001 l 257.758 384.204 l 259.684
 383.442 261.594 382.633 263.488 381.79 c h
263.488 381.79 m f
338.207 303.622 m 320.992 296.426 l 318.594 302.165 l 335.809 309.36 l 
336.652 307.469 337.453 305.559 338.207 303.622 c h
338.207 303.622 m f
Q Q
showpage
%%Trailer
end restore
%%EOF
