%!PS-Adobe-3.0 EPSF-3.0
%%Creator: cairo 1.14.2 (http://cairographics.org)
%%CreationDate: Wed Jul 12 12:57:24 2017
%%Pages: 1
%%DocumentData: Clean7Bit
%%LanguageLevel: 2
%%BoundingBox: 0 -1 410 410
%%EndComments
%%BeginProlog
save
50 dict begin
/q { gsave } bind def
/Q { grestore } bind def
/cm { 6 array astore concat } bind def
/w { setlinewidth } bind def
/J { setlinecap } bind def
/j { setlinejoin } bind def
/M { setmiterlimit } bind def
/d { setdash } bind def
/m { moveto } bind def
/l { lineto } bind def
/c { curveto } bind def
/h { closepath } bind def
/re { exch dup neg 3 1 roll 5 3 roll moveto 0 rlineto
      0 exch rlineto 0 rlineto closepath } bind def
/S { stroke } bind def
/f { fill } bind def
/f* { eofill } bind def
/n { newpath } bind def
/W { clip } bind def
/W* { eoclip } bind def
/BT { } bind def
/ET { } bind def
/pdfmark where { pop globaldict /?pdfmark /exec load put }
    { globaldict begin /?pdfmark /pop load def /pdfmark
    /cleartomark load def end } ifelse
/BDC { mark 3 1 roll /BDC pdfmark } bind def
/EMC { mark /EMC pdfmark } bind def
/cairo_store_point { /cairo_point_y exch def /cairo_point_x exch def } def
/Tj { show currentpoint cairo_store_point } bind def
/TJ {
  {
    dup
    type /stringtype eq
    { show } { -0.001 mul 0 cairo_font_matrix dtransform rmoveto } ifelse
  } forall
  currentpoint cairo_store_point
} bind def
/cairo_selectfont { cairo_font_matrix aload pop pop pop 0 0 6 array astore
    cairo_font exch selectfont cairo_point_x cairo_point_y moveto } bind def
/Tf { pop /cairo_font exch def /cairo_font_matrix where
      { pop cairo_selectfont } if } bind def
/Td { matrix translate cairo_font_matrix matrix concatmatrix dup
      /cairo_font_matrix exch def dup 4 get exch 5 get cairo_store_point
      /cairo_font where { pop cairo_selectfont } if } bind def
/Tm { 2 copy 8 2 roll 6 array astore /cairo_font_matrix exch def
      cairo_store_point /cairo_font where { pop cairo_selectfont } if } bind def
/g { setgray } bind def
/rg { setrgbcolor } bind def
/d1 { setcachedevice } bind def
%%EndProlog
%%BeginSetup
%%EndSetup
%%Page: 1 1
%%BeginPageSetup
%%PageBoundingBox: 0 -1 410 410
%%EndPageSetup
q 0 -1 410 411 rectclip q
0.466667 0.843137 0.929412 rg
409.602 204.794 m 409.602 168.939 400.379 135.228 384.188 105.915 c 378.395
 95.427 371.707 85.505 364.238 76.247 c 363.492 75.326 362.734 74.4 361.973
 73.494 c 361.227 72.599 360.473 71.708 359.707 70.829 c 356.562 67.197 
353.293 63.681 349.902 60.279 c 349.145 59.505 348.371 58.747 347.602 58.001
 c 346.82 57.24 346.035 56.486 345.238 55.74 c 336.445 47.451 326.922 39.935
 316.77 33.302 c 304.352 25.173 291 18.361 276.902 13.056 c 272.277 11.318
 267.559 9.736 262.773 8.322 c 244.395 2.904 224.941 0.001 204.805 0.001
 c 184.668 0.001 165.215 2.904 146.836 8.322 c 142.051 9.728 137.332 11.31
 132.695 13.056 c 118.602 18.361 105.25 25.173 92.832 33.302 c 82.68 39.935
 73.156 47.451 64.363 55.74 c 63.562 56.486 62.781 57.24 62 58.001 c 61.227
 58.751 60.457 59.505 59.699 60.279 c 56.309 63.681 53.039 67.197 49.895
 70.829 c 49.129 71.708 48.375 72.599 47.629 73.494 c 46.863 74.4 46.109
 75.326 45.363 76.247 c 37.895 85.501 31.207 95.427 25.414 105.915 c 9.219
 135.228 0 168.939 0 204.794 c 0 317.908 91.695 409.591 204.805 409.591 
c 317.906 409.591 409.602 317.908 409.602 204.794 c h
409.602 204.794 m f
0.301961 g
202.992 387.806 3.625 -59.707 re f
0.941176 0.627451 0.215686 rg
252.84 261.954 m 252.84 302.13 l 156.758 302.13 l 156.758 261.954 l 151.031
 261.954 l 151.031 87.849 l 151.27 87.466 l 204.805 125.244 l 258.332 87.478
 l 258.57 87.857 l 258.57 261.954 l h
252.84 261.954 m f
0.827451 0.803922 0.756863 rg
262.773 14.294 m 262.773 8.326 l 244.395 2.904 224.941 0.001 204.805 0.001
 c 184.668 0.001 165.215 2.904 146.836 8.326 c 146.836 14.294 l h
262.773 14.294 m f
0.866667 0.85098 0.807843 rg
146.836 29.505 115.934 -15.207 re f
0.913725 0.894118 0.847059 rg
146.832 43.751 115.938 -14.246 re f
0.941176 0.627451 0.215686 rg
274.078 266.361 m 269.113 266.361 l 269.113 112.177 l 268.91 111.857 l 
283.043 102.435 l 283.043 85.087 l 269 94.451 l 268.793 94.158 l 268.793
 56.103 l 276.902 56.103 l 276.902 33.302 l 316.77 33.302 l 326.922 39.935
 336.445 47.451 345.238 55.74 c 346.035 56.486 346.82 57.24 347.602 58.005
 c 342.023 58.005 l 342.023 78.896 l 342.023 84.154 346.277 88.419 351.535
 88.419 c 352.457 88.419 l 357.719 88.419 361.973 84.154 361.973 78.896 
c 361.973 73.494 l 362.734 74.4 363.492 75.326 364.234 76.247 c 371.707 
85.505 378.395 95.427 384.188 105.915 c 384.188 220.286 l h
361.973 115.97 m 342.023 115.97 l 342.023 136.861 l 342.023 142.122 346.277
 146.384 351.535 146.384 c 352.457 146.384 l 357.719 146.384 361.973 142.122
 361.973 136.861 c h
361.973 173.947 m 342.023 173.947 l 342.023 194.829 l 342.023 200.087 346.277
 204.353 351.535 204.353 c 352.457 204.353 l 357.719 204.353 361.973 200.087
 361.973 194.829 c h
319.148 58.001 m 299.191 58.001 l 299.191 78.896 l 299.191 84.154 303.461
 88.419 308.711 88.419 c 309.637 88.419 l 314.895 88.419 319.148 84.154 
319.148 78.896 c h
319.148 115.97 m 299.191 115.97 l 299.191 136.861 l 299.191 142.122 303.461
 146.384 308.711 146.384 c 309.637 146.384 l 314.895 146.384 319.148 142.122
 319.148 136.861 c h
319.148 173.947 m 299.191 173.947 l 299.191 194.829 l 299.191 200.087 303.461
 204.353 308.711 204.353 c 309.637 204.353 l 314.895 204.353 319.148 200.087
 319.148 194.829 c h
319.148 173.947 m f
0.878431 0.568627 0.196078 rg
384.188 220.283 m 384.188 210.611 l 263.441 256.669 l 264.152 276.286 l
 h
384.188 220.283 m f
0.921569 0.188235 0.356863 rg
398.281 230.154 m 398.281 214.908 l 384.188 220.283 l 274.078 262.283 l
 274.078 277.517 l h
398.281 230.154 m f
0.988235 0.729412 0.419608 rg
316.77 33.302 m 304.352 25.173 291 18.361 276.902 13.056 c 276.902 33.302
 l h
316.77 33.302 m f
0.301961 g
361.973 78.896 m 361.973 73.494 l 361.227 72.599 360.473 71.708 359.707
 70.829 c 356.562 67.197 353.293 63.681 349.902 60.279 c 349.145 59.505 
348.371 58.747 347.602 58.001 c 342.023 58.001 l 342.023 78.896 l 342.023
 84.154 346.277 88.419 351.535 88.419 c 352.457 88.419 l 357.719 88.415 
361.973 84.154 361.973 78.896 c h
361.973 78.896 m f
361.973 136.865 m 361.973 115.974 l 342.016 115.974 l 342.016 136.865 l
 342.016 142.122 346.277 146.38 351.535 146.38 c 352.457 146.38 l 357.715
 146.38 361.973 142.122 361.973 136.865 c h
361.973 136.865 m f
361.973 194.833 m 361.973 173.943 l 342.016 173.943 l 342.016 194.833 l
 342.016 200.091 346.277 204.353 351.535 204.353 c 352.457 204.353 l 357.715
 204.349 361.973 200.091 361.973 194.833 c h
361.973 194.833 m f
319.152 78.896 m 319.152 58.005 l 299.195 58.005 l 299.195 78.896 l 299.195
 84.154 303.461 88.415 308.711 88.415 c 309.637 88.415 l 314.891 88.415 
319.152 84.154 319.152 78.896 c h
319.152 78.896 m f
319.152 136.865 m 319.152 115.974 l 299.195 115.974 l 299.195 136.865 l
 299.195 142.122 303.461 146.38 308.711 146.38 c 309.637 146.38 l 314.891
 146.38 319.152 142.122 319.152 136.865 c h
319.152 136.865 m f
0.878431 0.568627 0.196078 rg
216.121 302.13 m 216.176 301.712 216.199 301.286 216.199 300.853 c 216.199
 294.552 211.102 289.454 204.805 289.454 c 198.508 289.454 193.398 294.552
 193.398 300.853 c 193.398 301.286 193.426 301.712 193.48 302.13 c 156.762
 302.13 l 156.762 275.244 l 252.844 275.244 l 252.844 302.13 l h
216.121 302.13 m f
0.301961 g
319.152 194.833 m 319.152 173.943 l 299.195 173.943 l 299.195 194.833 l
 299.195 200.091 303.461 204.353 308.711 204.353 c 309.637 204.353 l 314.891
 204.349 319.152 200.091 319.152 194.833 c h
319.152 194.833 m f
0.921569 0.188235 0.356863 rg
206.617 348.462 m 204.805 349.849 l 202.992 348.462 l 121.559 286.115 l
 288.043 286.115 l h
204.805 323.13 m 211.102 323.13 216.199 318.029 216.199 311.732 c 216.199
 307.701 214.113 304.158 210.953 302.13 c 209.184 300.994 207.07 300.326
 204.805 300.326 c 202.539 300.326 200.426 300.994 198.648 302.13 c 195.496
 304.158 193.398 307.701 193.398 311.732 c 193.398 318.029 198.508 323.13
 204.805 323.13 c h
204.805 323.13 m f
0.827451 0.803922 0.756863 rg
276.902 56.103 m 276.902 13.056 l 272.277 11.318 267.559 9.736 262.773 
8.322 c 262.773 56.103 l h
276.902 56.103 m f
274.078 286.119 m 274.078 266.361 l 269.113 266.361 l 269.113 266.369 l
 251.34 266.369 l 251.34 266.361 l 246.383 266.361 l 246.383 286.119 l h
274.078 286.119 m f
0.913725 0.894118 0.847059 rg
269.113 266.361 m 269.113 112.177 l 268.906 111.861 l 251.125 123.716 l
 251.34 124.033 l 251.34 266.361 l h
269.113 266.361 m f
0.988235 0.729412 0.419608 rg
268.996 94.451 m 268.797 94.15 l 268.797 56.103 l 262.77 56.103 l 262.77
 43.751 l 246.609 43.751 l 246.609 87.462 l 162.992 87.462 l 162.992 43.751
 l 146.832 43.751 l 146.832 56.103 l 140.805 56.103 l 140.805 94.15 l 140.609
 94.451 l 204.801 137.247 l h
268.996 94.451 m f
0.921569 0.188235 0.356863 rg
258.766 387.806 m 258.766 366.056 l 240.168 360.833 221.578 371.275 202.988
 366.056 c 202.988 387.806 l 221.578 393.025 240.164 382.583 258.766 387.806
 c h
258.766 387.806 m f
0.301961 g
227.605 87.462 19.004 -43.711 re f
204.805 87.462 22.805 -43.711 re f
214.781 198.54 m 214.781 177.65 l 194.824 177.65 l 194.824 198.54 l 194.824
 203.798 199.082 208.056 204.34 208.056 c 205.266 208.056 l 210.52 208.056
 214.781 203.798 214.781 198.54 c h
214.781 198.54 m f
0.917647 0.658824 0.376471 rg
268.996 94.451 m 268.797 94.15 l 268.797 84.318 l 204.801 126.978 l 140.805
 84.318 l 140.805 94.15 l 140.609 94.451 l 204.801 137.247 l h
268.996 94.451 m f
0.301961 g
214.781 249.947 m 214.781 229.056 l 194.824 229.056 l 194.824 249.947 l
 194.824 255.201 199.082 259.462 204.34 259.462 c 205.266 259.462 l 210.52
 259.462 214.781 255.201 214.781 249.947 c h
214.781 249.947 m f
216.207 311.728 m 216.207 305.431 211.102 300.326 204.805 300.326 c 198.508
 300.326 193.402 305.431 193.402 311.728 c 193.402 318.025 198.508 323.13
 204.805 323.13 c 211.102 323.13 216.207 318.025 216.207 311.728 c h
216.207 311.728 m f
182.004 87.462 22.801 -43.711 re f
162.996 87.462 19.004 -43.711 re f
0.827451 0.803922 0.756863 rg
146.836 56.103 m 146.836 8.322 l 142.047 9.728 137.332 11.31 132.695 13.056
 c 132.695 56.103 l h
146.836 56.103 m f
0.941176 0.627451 0.215686 rg
140.609 94.447 m 126.559 85.087 l 126.559 102.431 l 140.602 111.794 l 140.699
 111.857 l 140.477 112.177 l 140.477 266.361 l 135.52 266.361 l 25.414 220.286
 l 25.414 105.915 l 31.203 95.427 37.895 85.505 45.363 76.247 c 46.109 75.326
 46.863 74.4 47.629 73.494 c 47.629 78.896 l 47.629 84.154 51.891 88.419
 57.141 88.419 c 58.066 88.419 l 63.312 88.419 67.586 84.154 67.586 78.896
 c 67.586 58.001 l 62 58.001 l 62.781 57.24 63.562 56.486 64.363 55.74 c
 73.156 47.451 82.68 39.935 92.832 33.302 c 132.695 33.302 l 132.695 56.103
 l 140.805 56.103 l 140.805 94.154 l h
110.402 58.001 m 90.449 58.001 l 90.449 78.896 l 90.449 84.154 94.715 88.419
 99.965 88.419 c 100.887 88.419 l 106.137 88.419 110.398 84.154 110.398 
78.896 c 110.398 58.001 l h
110.402 115.97 m 90.449 115.97 l 90.449 136.861 l 90.449 142.122 94.715
 146.384 99.965 146.384 c 100.887 146.384 l 106.137 146.384 110.398 142.122
 110.398 136.861 c 110.398 115.97 l h
110.402 173.947 m 90.449 173.947 l 90.449 194.829 l 90.449 200.087 94.715
 204.353 99.965 204.353 c 100.887 204.353 l 106.137 204.353 110.398 200.087
 110.398 194.829 c 110.398 173.947 l h
67.586 115.97 m 47.629 115.97 l 47.629 136.861 l 47.629 142.122 51.891 
146.384 57.141 146.384 c 58.066 146.384 l 63.312 146.384 67.586 142.122 
67.586 136.861 c h
67.586 173.947 m 47.629 173.947 l 47.629 194.829 l 47.629 200.087 51.891
 204.353 57.141 204.353 c 58.066 204.353 l 63.312 204.353 67.586 200.087
 67.586 194.829 c h
67.586 173.947 m f
0.878431 0.568627 0.196078 rg
140.48 266.361 m 146.969 256.97 l 25.414 210.611 l 25.414 220.283 l 135.523
 266.361 l 152.84 268.896 l h
140.48 266.361 m f
0.921569 0.188235 0.356863 rg
135.531 266.361 m 135.531 262.283 l 25.414 220.283 l 11.32 214.908 l 11.32
 230.154 l 135.523 277.517 l 135.523 266.361 l h
135.531 266.361 m f
0.988235 0.729412 0.419608 rg
132.695 33.302 m 132.695 13.056 l 118.598 18.361 105.25 25.173 92.832 33.302
 c h
132.695 33.302 m f
0.301961 g
110.398 78.896 m 110.398 58.005 l 90.453 58.005 l 90.453 78.896 l 90.453
 84.154 94.711 88.415 99.969 88.415 c 100.887 88.415 l 106.141 88.415 110.398
 84.154 110.398 78.896 c h
110.398 78.896 m f
110.398 136.865 m 110.398 115.974 l 90.453 115.974 l 90.453 136.865 l 90.453
 142.122 94.711 146.38 99.969 146.38 c 100.887 146.38 l 106.141 146.38 110.398
 142.122 110.398 136.865 c h
110.398 136.865 m f
0.827451 0.803922 0.756863 rg
163.219 286.119 m 163.219 266.361 l 158.262 266.361 l 158.262 266.369 l
 140.48 266.369 l 140.48 266.361 l 135.531 266.361 l 135.531 277.517 l 135.523
 277.517 l 135.523 286.119 l h
163.219 286.119 m f
0.913725 0.894118 0.847059 rg
158.262 124.021 m 158.473 123.704 l 140.699 111.861 l 140.48 112.177 l 
140.48 266.361 l 158.262 266.361 l h
158.262 124.021 m f
0.827451 0.803922 0.756863 rg
146.129 105.759 m 146.191 105.759 l 140.551 111.861 l 140.48 112.177 l 
140.48 266.361 l 146.129 266.361 l h
146.129 105.759 m f
256.77 105.759 m 256.836 105.759 l 251.191 111.861 l 251.125 112.177 l 
251.125 266.361 l 256.77 266.361 l h
256.77 105.759 m f
0.301961 g
110.398 194.833 m 110.398 173.943 l 90.453 173.943 l 90.453 194.833 l 90.453
 200.091 94.711 204.353 99.969 204.353 c 100.887 204.353 l 106.141 204.349
 110.398 200.091 110.398 194.833 c h
110.398 194.833 m f
67.586 78.896 m 67.586 58.001 l 62 58.001 l 61.227 58.751 60.453 59.505
 59.699 60.279 c 56.305 63.681 53.039 67.197 49.895 70.829 c 49.129 71.708
 48.375 72.599 47.629 73.494 c 47.629 78.896 l 47.629 84.154 51.891 88.419
 57.141 88.419 c 58.066 88.419 l 63.312 88.415 67.586 84.154 67.586 78.896
 c h
67.586 78.896 m f
67.586 136.865 m 67.586 115.974 l 47.629 115.974 l 47.629 136.865 l 47.629
 142.122 51.891 146.38 57.145 146.38 c 58.07 146.38 l 63.316 146.38 67.586
 142.122 67.586 136.865 c h
67.586 136.865 m f
67.586 194.833 m 67.586 173.943 l 47.629 173.943 l 47.629 194.833 l 47.629
 200.091 51.891 204.353 57.145 204.353 c 58.07 204.353 l 63.316 204.349 
67.586 200.091 67.586 194.833 c h
67.586 194.833 m f
0.807843 0.509804 0.156863 rg
205.266 261.724 m 204.344 261.724 l 197.84 261.724 192.555 256.439 192.555
 249.947 c 192.555 226.79 l 217.043 226.79 l 217.043 249.947 l 217.043 256.439
 211.758 261.724 205.266 261.724 c h
212.516 231.318 m 197.086 231.318 l 197.086 249.947 l 197.086 253.943 200.344
 257.193 204.344 257.193 c 205.266 257.193 l 209.262 257.193 212.516 253.943
 212.516 249.947 c h
212.516 231.318 m f
205.266 210.322 m 204.344 210.322 l 197.84 210.322 192.555 205.036 192.555
 198.544 c 192.555 175.384 l 217.043 175.384 l 217.043 198.544 l 217.043
 205.036 211.758 210.322 205.266 210.322 c h
212.516 179.915 m 197.086 179.915 l 197.086 198.544 l 197.086 202.54 200.344
 205.79 204.344 205.79 c 205.266 205.79 l 209.262 205.79 212.516 202.54 
212.516 198.544 c h
212.516 179.915 m f
58.066 206.619 m 57.141 206.619 l 50.648 206.619 45.363 201.333 45.363 
194.829 c 45.363 171.673 l 69.852 171.673 l 69.852 194.829 l 69.852 201.333
 64.566 206.619 58.066 206.619 c h
65.324 176.212 m 49.895 176.212 l 49.895 194.829 l 49.895 198.826 53.145
 202.087 57.141 202.087 c 58.066 202.087 l 62.07 202.087 65.32 198.826 65.32
 194.829 c 65.32 176.212 l h
65.324 176.212 m f
100.887 206.619 m 99.973 206.619 l 93.469 206.619 88.188 201.333 88.188
 194.829 c 88.188 171.673 l 112.664 171.673 l 112.664 194.829 l 112.664 
201.333 107.379 206.619 100.887 206.619 c h
108.137 176.212 m 92.715 176.212 l 92.715 194.829 l 92.715 198.826 95.969
 202.087 99.973 202.087 c 100.887 202.087 l 104.887 202.087 108.137 198.826
 108.137 194.829 c h
108.137 176.212 m f
58.066 148.65 m 57.141 148.65 l 50.648 148.65 45.363 143.365 45.363 136.861
 c 45.363 113.704 l 69.852 113.704 l 69.852 136.861 l 69.852 143.365 64.566
 148.65 58.066 148.65 c h
65.324 118.244 m 49.895 118.244 l 49.895 136.861 l 49.895 140.861 53.145
 144.119 57.141 144.119 c 58.066 144.119 l 62.07 144.119 65.32 140.861 65.32
 136.861 c 65.32 118.244 l h
65.324 118.244 m f
100.887 148.65 m 99.973 148.65 l 93.469 148.65 88.188 143.365 88.188 136.861
 c 88.188 113.704 l 112.664 113.704 l 112.664 136.861 l 112.664 143.365 
107.379 148.65 100.887 148.65 c h
108.137 118.244 m 92.715 118.244 l 92.715 136.861 l 92.715 140.861 95.969
 144.119 99.973 144.119 c 100.887 144.119 l 104.887 144.119 108.137 140.861
 108.137 136.861 c h
108.137 118.244 m f
58.066 90.681 m 57.141 90.681 l 50.648 90.681 45.363 85.396 45.363 78.896
 c 45.363 76.247 l 46.109 75.326 46.863 74.4 47.629 73.494 c 48.375 72.599
 49.129 71.708 49.891 70.829 c 49.891 78.896 l 49.891 82.892 53.145 86.154
 57.141 86.154 c 58.062 86.154 l 62.07 86.154 65.32 82.892 65.32 78.896 
c 65.32 60.279 l 59.699 60.279 l 60.453 59.505 61.227 58.751 62 58.005 c
 62.781 57.24 63.562 56.486 64.363 55.74 c 69.852 55.74 l 69.852 78.896 
l 69.852 85.396 64.566 90.681 58.066 90.681 c h
58.066 90.681 m f
100.887 90.681 m 99.973 90.681 l 93.469 90.681 88.188 85.396 88.188 78.896
 c 88.188 55.74 l 112.664 55.74 l 112.664 78.896 l 112.664 85.396 107.379
 90.681 100.887 90.681 c h
108.137 60.279 m 92.715 60.279 l 92.715 78.896 l 92.715 82.892 95.969 86.154
 99.973 86.154 c 100.887 86.154 l 104.887 86.154 108.137 82.892 108.137 
78.896 c h
108.137 60.279 m f
161.18 89.275 m 161.18 43.751 l 164.805 43.751 l 164.805 85.65 l 180.188
 85.65 l 180.188 43.751 l 183.812 43.751 l 183.812 85.65 l 202.988 85.65
 l 202.988 43.751 l 206.613 43.751 l 206.613 85.65 l 225.793 85.65 l 225.793
 43.751 l 229.418 43.751 l 229.418 85.65 l 244.797 85.65 l 244.797 43.751
 l 248.422 43.751 l 248.422 89.275 l h
161.18 89.275 m f
352.457 206.619 m 351.535 206.619 l 345.043 206.619 339.746 201.333 339.746
 194.829 c 339.746 171.673 l 364.234 171.673 l 364.234 194.829 l 364.238
 201.333 358.953 206.619 352.457 206.619 c h
359.707 176.212 m 344.289 176.212 l 344.289 194.829 l 344.289 198.826 347.539
 202.087 351.535 202.087 c 352.461 202.087 l 356.457 202.087 359.707 198.826
 359.707 194.829 c h
359.707 176.212 m f
309.637 206.619 m 308.711 206.619 l 302.211 206.619 296.926 201.333 296.926
 194.829 c 296.926 171.673 l 321.414 171.673 l 321.414 194.829 l 321.414
 201.333 316.129 206.619 309.637 206.619 c h
316.883 176.212 m 301.465 176.212 l 301.465 194.829 l 301.465 198.826 304.715
 202.087 308.711 202.087 c 309.637 202.087 l 313.633 202.087 316.883 198.826
 316.883 194.829 c h
316.883 176.212 m f
352.457 148.65 m 351.535 148.65 l 345.043 148.65 339.746 143.365 339.746
 136.861 c 339.746 113.704 l 364.234 113.704 l 364.234 136.861 l 364.238
 143.365 358.953 148.65 352.457 148.65 c h
359.707 118.244 m 344.289 118.244 l 344.289 136.861 l 344.289 140.861 347.539
 144.119 351.535 144.119 c 352.461 144.119 l 356.457 144.119 359.707 140.861
 359.707 136.861 c h
359.707 118.244 m f
309.637 148.65 m 308.711 148.65 l 302.211 148.65 296.926 143.365 296.926
 136.861 c 296.926 113.704 l 321.414 113.704 l 321.414 136.861 l 321.414
 143.365 316.129 148.65 309.637 148.65 c h
316.883 118.244 m 301.465 118.244 l 301.465 136.861 l 301.465 140.861 304.715
 144.119 308.711 144.119 c 309.637 144.119 l 313.633 144.119 316.883 140.861
 316.883 136.861 c h
316.883 118.244 m f
352.457 90.681 m 351.535 90.681 l 345.043 90.681 339.746 85.396 339.746
 78.896 c 339.746 55.74 l 345.238 55.74 l 346.035 56.486 346.816 57.24 347.598
 58.001 c 348.371 58.751 349.145 59.505 349.898 60.279 c 344.285 60.279 
l 344.285 78.896 l 344.285 82.892 347.539 86.15 351.535 86.15 c 352.457 
86.15 l 356.457 86.15 359.707 82.892 359.707 78.896 c 359.707 70.829 l 360.469
 71.708 361.227 72.595 361.973 73.494 c 362.734 74.4 363.492 75.322 364.234
 76.247 c 364.234 78.896 l 364.238 85.396 358.953 90.681 352.457 90.681 
c h
352.457 90.681 m f
309.637 90.681 m 308.711 90.681 l 302.211 90.681 296.926 85.396 296.926
 78.896 c 296.926 55.74 l 321.414 55.74 l 321.414 78.896 l 321.414 85.396
 316.129 90.681 309.637 90.681 c h
316.883 60.279 m 301.465 60.279 l 301.465 78.896 l 301.465 82.892 304.715
 86.154 308.711 86.154 c 309.637 86.154 l 313.633 86.154 316.883 82.892 
316.883 78.896 c h
316.883 60.279 m f
0.866667 0.164706 0.34902 rg
204.805 325.396 m 197.262 325.396 191.133 319.267 191.133 311.732 c 191.133
 307.994 192.645 304.599 195.078 302.13 c 197.566 299.619 201.004 298.064
 204.805 298.064 c 208.598 298.064 212.043 299.619 214.523 302.13 c 216.965
 304.599 218.465 307.994 218.465 311.732 c 218.465 319.263 212.336 325.396
 204.805 325.396 c h
195.664 311.732 m 195.664 316.767 199.77 320.865 204.805 320.865 c 209.84
 320.865 213.934 316.767 213.934 311.732 c 213.934 306.697 209.84 302.591
 204.805 302.591 c 199.77 302.591 195.664 306.697 195.664 311.732 c h
195.664 311.732 m f
0.921569 0.188235 0.356863 rg
283.043 102.435 m 283.043 85.087 l 268.996 94.451 l 204.801 137.247 l 140.609
 94.451 l 126.559 85.087 l 126.559 102.435 l 140.699 111.861 l 158.473 123.704
 l 204.801 154.591 l 251.125 123.716 l 268.906 111.861 l h
283.043 102.435 m f
0.776471 0.756863 0.713726 rg
135.52 286.115 m 135.52 279.47 l 163.219 279.47 l 163.219 286.115 l h
246.383 286.115 m 246.383 279.47 l 274.078 279.47 l 274.078 286.115 l h
246.383 286.115 m f
1 g
130.996 342.595 m 128.699 348.388 120.527 352.677 110.793 352.677 c 100.996
 352.677 92.781 348.333 90.547 342.482 c 89.672 342.556 88.773 342.595 87.859
 342.595 c 78.859 342.595 71.566 338.857 71.566 334.244 c 152.605 334.244
 l 152.605 338.826 142.949 342.548 130.996 342.595 c h
130.996 342.595 m f
353.059 288.704 m 350.762 294.501 342.59 298.786 332.855 298.786 c 323.059
 298.786 314.844 294.447 312.613 288.591 c 311.734 288.665 310.836 288.708
 309.922 288.708 c 300.926 288.708 293.629 284.966 293.629 280.353 c 374.668
 280.353 l 374.668 284.939 365.012 288.658 353.059 288.704 c h
353.059 288.704 m f
Q Q
showpage
%%Trailer
end restore
%%EOF
