%!PS-Adobe-3.0 EPSF-3.0
%%Creator: cairo 1.14.2 (http://cairographics.org)
%%CreationDate: Wed Jul 12 12:57:24 2017
%%Pages: 1
%%DocumentData: Clean7Bit
%%LanguageLevel: 2
%%BoundingBox: 0 -1 410 410
%%EndComments
%%BeginProlog
save
50 dict begin
/q { gsave } bind def
/Q { grestore } bind def
/cm { 6 array astore concat } bind def
/w { setlinewidth } bind def
/J { setlinecap } bind def
/j { setlinejoin } bind def
/M { setmiterlimit } bind def
/d { setdash } bind def
/m { moveto } bind def
/l { lineto } bind def
/c { curveto } bind def
/h { closepath } bind def
/re { exch dup neg 3 1 roll 5 3 roll moveto 0 rlineto
      0 exch rlineto 0 rlineto closepath } bind def
/S { stroke } bind def
/f { fill } bind def
/f* { eofill } bind def
/n { newpath } bind def
/W { clip } bind def
/W* { eoclip } bind def
/BT { } bind def
/ET { } bind def
/pdfmark where { pop globaldict /?pdfmark /exec load put }
    { globaldict begin /?pdfmark /pop load def /pdfmark
    /cleartomark load def end } ifelse
/BDC { mark 3 1 roll /BDC pdfmark } bind def
/EMC { mark /EMC pdfmark } bind def
/cairo_store_point { /cairo_point_y exch def /cairo_point_x exch def } def
/Tj { show currentpoint cairo_store_point } bind def
/TJ {
  {
    dup
    type /stringtype eq
    { show } { -0.001 mul 0 cairo_font_matrix dtransform rmoveto } ifelse
  } forall
  currentpoint cairo_store_point
} bind def
/cairo_selectfont { cairo_font_matrix aload pop pop pop 0 0 6 array astore
    cairo_font exch selectfont cairo_point_x cairo_point_y moveto } bind def
/Tf { pop /cairo_font exch def /cairo_font_matrix where
      { pop cairo_selectfont } if } bind def
/Td { matrix translate cairo_font_matrix matrix concatmatrix dup
      /cairo_font_matrix exch def dup 4 get exch 5 get cairo_store_point
      /cairo_font where { pop cairo_selectfont } if } bind def
/Tm { 2 copy 8 2 roll 6 array astore /cairo_font_matrix exch def
      cairo_store_point /cairo_font where { pop cairo_selectfont } if } bind def
/g { setgray } bind def
/rg { setrgbcolor } bind def
/d1 { setcachedevice } bind def
%%EndProlog
%%BeginSetup
%%EndSetup
%%Page: 1 1
%%BeginPageSetup
%%PageBoundingBox: 0 -1 410 410
%%EndPageSetup
q 0 -1 410 411 rectclip q
0.921569 0.188235 0.356863 rg
409.602 204.794 m 409.602 141.426 380.82 84.782 335.617 47.219 c 329.391
 42.04 322.844 37.227 316.023 32.813 c 311.5 29.879 306.863 27.126 302.102
 24.551 c 289.047 17.481 275.129 11.797 260.551 7.684 c 253.676 5.739 246.648
 4.149 239.5 2.93 c 234.656 2.106 229.754 1.45 224.797 0.969 c 218.215 0.329
 211.555 0.001 204.805 0.001 c 178.867 0.001 154.066 4.825 131.23 13.618
 c 123.867 16.45 116.699 19.7 109.777 23.333 c 104.562 26.071 99.484 29.02
 94.555 32.172 c 81.141 40.762 68.793 50.86 57.762 62.251 c 50.914 69.301
 44.57 76.852 38.789 84.836 c 34.082 91.348 29.738 98.153 25.805 105.215
 c 9.363 134.684 0 168.653 0 204.794 c 0 252.102 16.043 295.672 42.992 330.34
 c 47.938 336.719 53.258 342.794 58.926 348.532 c 62.371 352.032 65.941 
355.407 69.629 358.649 c 73.902 362.407 78.336 365.993 82.918 369.379 c 
116.973 394.649 159.148 409.59 204.805 409.59 c 317.906 409.59 409.602 317.907
 409.602 204.794 c h
409.602 204.794 m f
0.941176 0.627451 0.215686 rg
311.023 369.379 m 83.363 369.379 l 109.777 23.333 l 116.699 19.7 123.867
 16.45 131.23 13.618 c 125.902 83.36 l 312.16 83.36 l 316.023 32.813 l 322.844
 37.227 329.391 42.04 335.617 47.219 c h
311.023 369.379 m f
0.756863 0.478431 0.176471 rg
314.289 126.169 m 314.895 118.778 309.059 112.454 301.652 112.454 c 146.137
 112.454 l 153.543 112.454 159.371 118.778 158.773 126.169 c 158.383 130.876
 l 313.91 130.876 l h
314.289 126.169 m f
266.332 83.364 m 260.551 7.684 l 253.676 5.739 246.652 4.149 239.5 2.93
 c 245.637 83.364 l h
266.332 83.364 m f
90.645 83.364 m 59.379 83.364 l 57.762 62.251 l 50.914 69.301 44.574 76.852
 38.789 84.836 c 58.926 348.532 l 60.516 369.372 l 60.516 369.379 l 68.812
 369.379 l 69.629 358.649 l h
90.645 83.364 m f
0.847059 0.552941 0.196078 rg
291.906 348.676 m 308.527 130.876 l 122.27 130.876 l 105.648 348.676 l 
h
292.324 145.93 m 277.996 333.626 l 121.852 333.626 l 136.176 145.93 l h
292.324 145.93 m f
158.773 126.169 m 159.371 118.778 153.543 112.454 146.137 112.454 c 136.551
 112.454 l 135.051 130.876 l 158.387 130.876 l h
158.773 126.169 m f
60.516 369.372 m 58.926 348.532 l 38.789 84.836 l 34.082 91.348 29.738 
98.153 25.805 105.215 c 42.992 330.34 l 45.969 369.372 l h
60.516 369.372 m f
109.777 23.333 m 104.566 26.071 99.484 29.02 94.555 32.172 c 90.645 83.364
 l 69.629 358.649 l 68.812 369.379 l 83.363 369.379 l h
109.777 23.333 m f
245.637 83.364 m 239.5 2.93 l 234.66 2.106 229.758 1.45 224.801 0.969 c
 231.09 83.364 l h
245.637 83.364 m f
316.023 32.813 m 311.5 29.879 306.863 27.126 302.102 24.551 c 297.609 83.364
 l 312.16 83.364 l h
316.023 32.813 m f
0.258824 0.341176 0.498039 rg
277.996 333.626 m 292.324 145.93 l 136.18 145.93 l 121.852 333.626 l h
277.996 333.626 m f
1 g
243.918 291.645 m 243.918 292.872 242.926 293.864 241.695 293.864 c 199.504
 293.864 l 198.406 293.864 197.469 293.059 197.309 291.973 c 187.316 224.758
 l 169.105 265.032 l 168.746 265.829 167.957 266.336 167.086 266.336 c 145.766
 266.336 l 144.539 266.336 143.543 265.344 143.543 264.118 c 143.543 262.891
 144.539 261.895 145.766 261.895 c 165.652 261.895 l 186.379 216.051 l 186.742
 215.247 187.539 214.747 188.402 214.747 c 188.504 214.747 188.605 214.754
 188.707 214.766 c 189.684 214.903 190.453 215.665 190.598 216.641 c 201.422
 289.426 l 241.699 289.426 l 242.926 289.422 243.918 290.419 243.918 291.645
 c h
243.918 291.645 m f
229.008 268.954 m 221.297 268.954 215.02 261.68 215.02 252.743 c 215.02
 243.805 221.297 236.532 229.008 236.532 c 233.152 236.532 236.867 238.641
 239.43 241.965 c 239.422 235.629 238.41 227.797 234.199 222.719 c 231.25
 219.165 227.156 217.434 221.68 217.434 c 220.453 217.434 219.461 216.442
 219.461 215.215 c 219.461 213.989 220.453 212.993 221.68 212.993 c 228.469
 212.993 233.832 215.317 237.621 219.891 c 246.684 230.829 243.363 250.919
 242.988 253.008 c 242.863 261.821 236.645 268.954 229.008 268.954 c h
229.008 240.973 m 223.742 240.973 219.461 246.254 219.461 252.743 c 219.461
 259.231 223.742 264.512 229.008 264.512 c 234.273 264.512 238.559 259.231
 238.559 252.743 c 238.559 246.254 234.273 240.973 229.008 240.973 c h
229.008 240.973 m f
235.004 138.235 35.531 -7.109 re f
Q Q
showpage
%%Trailer
end restore
%%EOF
