%!PS-Adobe-3.0 EPSF-3.0
%%Creator: cairo 1.14.2 (http://cairographics.org)
%%CreationDate: Wed Jul 12 12:57:24 2017
%%Pages: 1
%%DocumentData: Clean7Bit
%%LanguageLevel: 2
%%BoundingBox: 0 -1 410 410
%%EndComments
%%BeginProlog
save
50 dict begin
/q { gsave } bind def
/Q { grestore } bind def
/cm { 6 array astore concat } bind def
/w { setlinewidth } bind def
/J { setlinecap } bind def
/j { setlinejoin } bind def
/M { setmiterlimit } bind def
/d { setdash } bind def
/m { moveto } bind def
/l { lineto } bind def
/c { curveto } bind def
/h { closepath } bind def
/re { exch dup neg 3 1 roll 5 3 roll moveto 0 rlineto
      0 exch rlineto 0 rlineto closepath } bind def
/S { stroke } bind def
/f { fill } bind def
/f* { eofill } bind def
/n { newpath } bind def
/W { clip } bind def
/W* { eoclip } bind def
/BT { } bind def
/ET { } bind def
/pdfmark where { pop globaldict /?pdfmark /exec load put }
    { globaldict begin /?pdfmark /pop load def /pdfmark
    /cleartomark load def end } ifelse
/BDC { mark 3 1 roll /BDC pdfmark } bind def
/EMC { mark /EMC pdfmark } bind def
/cairo_store_point { /cairo_point_y exch def /cairo_point_x exch def } def
/Tj { show currentpoint cairo_store_point } bind def
/TJ {
  {
    dup
    type /stringtype eq
    { show } { -0.001 mul 0 cairo_font_matrix dtransform rmoveto } ifelse
  } forall
  currentpoint cairo_store_point
} bind def
/cairo_selectfont { cairo_font_matrix aload pop pop pop 0 0 6 array astore
    cairo_font exch selectfont cairo_point_x cairo_point_y moveto } bind def
/Tf { pop /cairo_font exch def /cairo_font_matrix where
      { pop cairo_selectfont } if } bind def
/Td { matrix translate cairo_font_matrix matrix concatmatrix dup
      /cairo_font_matrix exch def dup 4 get exch 5 get cairo_store_point
      /cairo_font where { pop cairo_selectfont } if } bind def
/Tm { 2 copy 8 2 roll 6 array astore /cairo_font_matrix exch def
      cairo_store_point /cairo_font where { pop cairo_selectfont } if } bind def
/g { setgray } bind def
/rg { setrgbcolor } bind def
/d1 { setcachedevice } bind def
%%EndProlog
%%BeginSetup
%%EndSetup
%%Page: 1 1
%%BeginPageSetup
%%PageBoundingBox: 0 -1 410 410
%%EndPageSetup
q 0 -1 410 411 rectclip q
0.913725 0.894118 0.847059 rg
409.602 204.797 m 409.602 157.903 393.852 114.719 367.336 80.2 c 364.379
 76.336 361.277 72.579 358.055 68.946 c 356.457 67.145 354.82 65.356 353.152
 63.618 c 319.914 28.692 274.488 5.508 223.68 0.86 c 217.461 0.294 211.164
 0.001 204.805 0.001 c 146.43 0.001 93.754 24.419 56.449 63.618 c 54.777
 65.368 53.145 67.145 51.543 68.946 c 51.18 69.348 50.824 69.754 50.469 
70.165 c 47.629 73.422 44.883 76.762 42.254 80.2 c 15.758 114.711 0 157.915
 0 204.797 c 0 258.028 20.312 306.528 53.605 342.938 c 54.707 344.137 55.809
 345.325 56.945 346.489 c 58.535 348.169 60.172 349.813 61.824 351.419 c
 73.227 362.54 85.93 372.348 99.68 380.59 c 100.523 381.094 101.379 381.602
 102.238 382.09 c 103.305 382.711 104.371 383.317 105.445 383.919 c 115.875
 389.711 126.871 394.633 138.32 398.551 c 140.504 399.305 142.699 400.016
 144.922 400.692 c 146.465 401.169 148.027 401.622 149.602 402.059 c 167.16
 406.969 185.68 409.59 204.805 409.59 c 208.387 409.59 211.938 409.501 215.465
 409.317 c 220.156 409.075 224.793 408.676 229.383 408.126 c 320.742 397.2
 393.621 326.129 407.293 235.645 c 407.797 232.321 408.215 228.965 408.562
 225.579 c 408.688 224.301 408.801 223.012 408.91 221.723 c 409.23 217.907
 409.434 214.059 409.531 210.176 c 409.574 208.395 409.602 206.598 409.602
 204.797 c h
409.602 204.797 m f
0.258824 0.341176 0.498039 rg
358.055 68.946 m 324.453 31.063 277.027 5.739 223.68 0.86 c 217.461 0.294
 211.164 0.001 204.805 0.001 c 143.824 0.001 89.066 26.649 51.543 68.946
 c h
358.055 68.946 m f
0.858824 0.843137 0.8 rg
367.336 80.2 m 364.379 76.336 361.277 72.579 358.055 68.946 c 356.457 67.145
 354.82 65.356 353.152 63.618 c 56.449 63.618 l 54.777 65.368 53.145 67.145
 51.547 68.946 c 51.18 69.348 50.828 69.754 50.473 70.165 c 47.629 73.422
 44.883 76.762 42.254 80.2 c h
367.336 80.2 m f
0.258824 0.341176 0.498039 rg
125.305 242.161 m 125.305 237.254 121.328 233.278 116.422 233.278 c 111.52
 233.278 107.539 237.254 107.539 242.161 c 107.539 247.067 111.52 251.044
 116.422 251.044 c 121.328 251.044 125.305 247.067 125.305 242.161 c h
125.305 242.161 m f
0.2 g
99.398 196.563 m 93.18 196.563 l 93.18 225.532 l 93.18 231.469 96.688 236.852
 102.121 239.247 c 112.324 243.747 l 113.895 244.442 115.73 243.731 116.422
 242.157 c 117.113 240.586 116.402 238.751 114.832 238.059 c 104.629 233.559
 l 101.449 232.157 99.398 229.008 99.398 225.532 c h
99.398 196.563 m f
0.258824 0.341176 0.498039 rg
166.609 242.161 m 166.609 237.254 162.633 233.278 157.727 233.278 c 152.82
 233.278 148.844 237.254 148.844 242.161 c 148.844 247.067 152.82 251.044
 157.727 251.044 c 162.633 251.044 166.609 247.067 166.609 242.161 c h
166.609 242.161 m f
0.2 g
174.754 196.563 m 180.969 196.563 l 180.969 225.532 l 180.969 231.469 177.465
 236.852 172.031 239.247 c 161.828 243.747 l 160.258 244.442 158.422 243.731
 157.727 242.157 c 157.035 240.586 157.746 238.751 159.316 238.059 c 169.52
 233.559 l 172.699 232.157 174.754 229.008 174.754 225.532 c h
174.754 196.563 m f
0.666667 0.313726 0.0745098 rg
223.68 183.239 m 223.68 0.864 l 217.461 0.294 211.164 0.001 204.805 0.001
 c 148.418 0.001 97.352 22.786 60.312 59.665 c 56.91 63.04 53.625 66.547
 50.473 70.165 c 50.473 183.239 l h
223.68 183.239 m f
0.6 0.27451 0.054902 rg
60.312 183.239 m 60.312 59.665 l 56.91 63.04 53.625 66.547 50.469 70.165
 c 50.469 183.239 l h
60.312 183.239 m f
50.469 183.235 173.211 -27.539 re f
0.666667 0.313726 0.0745098 rg
38.48 200.997 197.191 -25.758 re f
408.906 221.727 m 215.465 221.727 l 215.465 409.317 l 220.152 409.075 224.789
 408.676 229.383 408.126 c 320.738 397.2 393.621 326.129 407.289 235.645
 c 407.797 232.321 408.215 228.965 408.562 225.583 c 408.684 224.301 408.801
 223.016 408.906 221.727 c h
408.906 221.727 m f
0.258824 0.341176 0.498039 rg
407.289 235.645 m 229.383 235.645 l 229.383 408.126 l 270.312 403.231 307.531
 386.266 337.375 360.887 c 342.219 356.786 346.855 352.45 351.285 347.911
 c 357.051 342.012 362.461 335.758 367.488 329.204 c 368.27 328.184 369.051
 327.145 369.805 326.102 c 377.328 315.899 383.922 304.973 389.465 293.442
 c 390.023 292.29 390.566 291.133 391.098 289.969 c 398.879 272.977 404.402
 254.751 407.289 235.645 c h
407.289 235.645 m f
0.666667 0.313726 0.0745098 rg
409.527 210.18 m 204.805 210.18 l 204.805 225.583 l 408.562 225.583 l 408.684
 224.301 408.801 223.016 408.906 221.727 c 409.227 217.907 409.43 214.059
 409.527 210.18 c h
409.527 210.18 m f
0.258824 0.341176 0.498039 rg
157.398 373.45 m 157.398 342.305 132.156 317.071 101.02 317.071 c 81.133
 317.071 63.645 327.376 53.605 342.938 c 54.707 344.137 55.809 345.325 56.945
 346.489 c 58.535 348.169 60.168 349.813 61.824 351.419 c 73.227 362.54 
85.93 372.348 99.68 380.59 c 100.523 381.094 101.375 381.602 102.238 382.09
 c 103.305 382.711 104.371 383.317 105.445 383.919 c 115.871 389.711 126.871
 394.633 138.32 398.551 c 140.504 399.305 142.699 400.016 144.918 400.692
 c 146.465 401.169 148.027 401.622 149.602 402.059 c 154.555 393.676 157.398
 383.887 157.398 373.45 c h
157.398 373.45 m f
0.384314 0.470588 0.607843 rg
152.68 373.45 m 152.68 344.919 129.551 321.79 101.02 321.79 c 82.367 321.79
 66.023 331.676 56.945 346.489 c 58.535 348.169 60.168 349.813 61.824 351.419
 c 73.227 362.54 85.93 372.348 99.68 380.59 c 100.523 381.098 101.375 381.602
 102.238 382.09 c 103.305 382.711 104.371 383.317 105.445 383.922 c 115.871
 389.711 126.871 394.633 138.32 398.551 c 140.504 399.305 142.699 400.016
 144.918 400.692 c 149.84 392.786 152.68 383.45 152.68 373.45 c h
152.68 373.45 m f
0.913725 0.894118 0.847059 rg
145.984 373.45 m 145.984 348.614 125.848 328.485 101.02 328.485 c 94.547
 328.485 88.398 329.852 82.84 332.325 c 73.938 336.258 66.566 343.001 61.824
 351.422 c 73.227 362.544 85.93 372.348 99.68 380.59 c 100.523 381.098 101.375
 381.602 102.238 382.09 c 103.305 382.715 104.371 383.317 105.445 383.922
 c 115.871 389.711 126.871 394.633 138.32 398.551 c 143.16 391.383 145.984
 382.739 145.984 373.45 c h
145.984 373.45 m f
0.4 0.764706 0.827451 rg
121.496 339.145 m 117.879 345.411 l 119.484 346.333 l 123.102 340.067 l
 h
121.496 339.145 m f
136.141 353.106 m 129.875 356.723 l 130.801 358.329 l 137.066 354.711 l
 h
136.141 353.106 m f
69.391 353.106 m 68.465 354.711 l 74.73 358.329 l 75.656 356.723 l h
69.391 353.106 m f
130.801 388.563 m 129.875 390.169 l 136.141 393.786 l 137.066 392.18 l 
h
130.801 388.563 m f
84.027 339.145 m 82.426 340.071 l 86.043 346.336 l 87.648 345.411 l h
84.027 339.145 m f
0.372549 0.0901961 0.313726 rg
99.953 375.297 m 117.438 373.446 l 99.953 371.594 l h
99.953 375.297 m f
0.258824 0.341176 0.498039 rg
102.879 374.797 m 99.172 374.797 l 99.367 377.071 l 99.68 380.59 l 100.523
 381.094 101.375 381.602 102.238 382.09 c 102.637 377.497 l 102.672 377.071
 l 102.672 377.063 l 102.859 374.985 l h
102.879 374.797 m f
105.004 373.446 m 105.004 375.645 103.223 377.43 101.02 377.43 c 98.82 
377.43 97.035 375.645 97.035 373.446 c 97.035 371.247 98.82 369.461 101.02
 369.461 c 103.223 369.461 105.004 371.247 105.004 373.446 c h
105.004 373.446 m f
0.160784 0.611765 0.717647 rg
135.547 367.583 m 133.84 367.583 132.344 368.461 131.762 370.063 c 133.156
 370.629 l 133.523 369.516 134.441 368.833 135.516 368.833 c 136.926 368.833
 137.805 369.872 137.805 371.176 c 137.805 372.196 137.242 373.059 136.078
 373.446 c 135.691 373.571 135.25 373.641 134.562 373.641 c 133.98 373.641
 l 133.91 373.833 l 136.855 377.938 l 132.078 377.938 l 132.078 379.313 
l 139.145 379.313 l 139.145 378.887 l 136.027 374.61 l 138.316 374.379 139.406
 372.778 139.406 371.208 c 139.406 369.27 137.945 367.583 135.547 367.583
 c h
135.547 367.583 m f
101.289 340.629 m 100.895 340.629 100.559 340.594 100.246 340.504 c 103.172
 344.836 l 101.27 344.836 l 98.312 340.2 l 97.344 338.711 97.094 337.883
 97.094 336.887 c 97.094 334.661 98.711 333.106 101.004 333.106 c 103.348
 333.106 104.945 334.731 104.945 336.887 c 104.945 339.11 103.188 340.629
 101.289 340.629 c h
101.02 334.356 m 99.555 334.356 98.676 335.465 98.676 336.872 c 98.676 
338.301 99.555 339.411 101.02 339.411 c 102.453 339.411 103.367 338.356 
103.367 336.852 c 103.367 335.52 102.539 334.356 101.02 334.356 c h
101.02 334.356 m f
0.952941 0.941176 0.917647 rg
138.32 398.551 m 126.867 394.633 115.871 389.711 105.445 383.922 c 102.637
 377.497 l 102.672 377.071 l 102.68 377.071 102.68 377.063 102.691 377.063
 c 102.707 377.055 102.734 377.047 102.754 377.028 c 102.84 376.993 102.93
 376.95 103.008 376.895 c 103.043 376.876 103.082 376.86 103.105 376.84 
c 103.133 376.825 103.168 376.805 103.195 376.778 c 103.277 376.723 103.355
 376.672 103.438 376.61 c 103.48 376.583 103.516 376.555 103.551 376.52 
c 103.598 376.485 103.633 376.45 103.668 376.422 c 103.754 376.344 103.844
 376.254 103.934 376.165 c 103.949 376.149 103.961 376.129 103.969 376.122
 c 104.059 376.032 104.137 375.934 104.207 375.836 c 104.289 375.731 104.359
 375.626 104.43 375.508 c 104.617 375.161 l 104.672 375.036 104.723 374.915
 104.77 374.79 c 104.777 374.79 l 117.434 373.446 l 104.777 372.106 l 104.77
 372.086 104.77 372.079 104.758 372.059 c 104.758 372.051 104.75 372.036
 104.742 372.024 c 104.723 371.954 104.695 371.891 104.66 371.821 c 104.609
 371.696 104.547 371.571 104.477 371.458 c 104.441 371.387 104.395 371.317
 104.34 371.247 c 104.297 371.172 104.254 371.102 104.199 371.04 c 104.137
 370.961 104.074 370.891 104.012 370.809 c 103.914 370.696 103.809 370.586
 103.691 370.489 c 103.586 370.391 103.461 370.294 103.336 370.204 c 103.285
 370.169 103.23 370.133 103.176 370.09 c 103.125 370.055 103.07 370.028 
103.008 369.993 c 102.945 369.958 102.895 369.922 102.824 369.895 c 102.75
 369.86 102.68 369.825 102.609 369.797 c 102.539 369.762 102.469 369.735
 102.398 369.708 c 102.246 369.645 102.094 369.602 101.945 369.575 c 101.863
 369.547 101.773 369.532 101.688 369.52 c 101.59 369.497 101.492 369.485
 101.395 369.477 c 101.27 369.469 101.145 369.458 101.02 369.458 c 100.859
 369.458 100.711 369.469 100.559 369.485 c 100.418 369.504 100.266 369.532
 100.125 369.567 c 100.098 369.567 l 100.02 369.583 99.938 369.61 99.859
 369.637 c 99.832 369.645 99.805 369.645 99.777 369.665 c 99.742 369.672
 99.715 369.68 99.699 369.688 c 99.555 369.735 99.422 369.797 99.289 369.86
 c 82.84 332.321 l 88.398 329.852 94.547 328.485 101.02 328.485 c 125.848
 328.485 145.984 348.61 145.984 373.446 c 145.984 382.739 143.16 391.383
 138.32 398.551 c h
101.004 333.102 m 98.711 333.102 97.094 334.657 97.094 336.887 c 97.094
 337.883 97.344 338.708 98.312 340.2 c 101.27 344.836 l 103.172 344.836 
l 100.246 340.504 l 100.559 340.59 100.898 340.626 101.289 340.626 c 103.188
 340.626 104.945 339.11 104.945 336.887 c 104.945 334.731 103.348 333.102
 101.004 333.102 c h
136.141 393.79 m 137.066 392.18 l 130.805 388.567 l 129.871 390.165 l h
121.496 339.145 m 117.879 345.407 l 119.488 346.34 l 123.102 340.067 l 
h
136.141 353.106 m 129.871 356.723 l 130.805 358.329 l 137.066 354.708 l
 h
135.547 367.579 m 133.84 367.579 132.34 368.465 131.762 370.063 c 133.156
 370.626 l 133.523 369.516 134.438 368.829 135.512 368.829 c 136.922 368.829
 137.805 369.868 137.805 371.176 c 137.805 372.196 137.242 373.059 136.078
 373.45 c 135.688 373.571 135.254 373.645 134.562 373.645 c 133.984 373.645
 l 133.91 373.829 l 136.852 377.934 l 132.082 377.934 l 132.082 379.313 
l 139.145 379.313 l 139.145 378.895 l 136.027 374.614 l 138.32 374.379 139.41
 372.774 139.41 371.211 c 139.41 369.274 137.945 367.579 135.547 367.579
 c h
135.547 367.579 m f
0.67451 0.87451 0.905882 rg
119.484 346.333 m 117.879 345.411 l 121.496 339.145 l 123.102 340.067 l
 h
119.484 346.333 m f
130.801 358.329 m 129.875 356.723 l 136.141 353.106 l 137.066 354.711 l
 h
130.801 358.329 m f
136.141 393.786 m 129.875 390.169 l 130.801 388.563 l 137.066 392.18 l 
h
136.141 393.786 m f
0.384314 0.470588 0.607843 rg
104.773 374.79 m 104.926 374.368 105.004 373.919 105.004 373.446 c 105.004
 372.977 104.926 372.524 104.773 372.106 c 117.438 373.45 l h
104.773 374.79 m f
0.658824 0.505882 0.627451 rg
102.637 377.501 m 102.484 377.153 l 102.547 377.129 102.609 377.102 102.676
 377.071 c h
102.637 377.501 m f
0.384314 0.470588 0.607843 rg
102.484 377.153 m 99.289 369.86 l 99.812 369.602 100.398 369.461 101.02
 369.461 c 102.75 369.461 104.223 370.567 104.773 372.106 c 104.926 372.524
 105.004 372.977 105.004 373.446 c 105.004 373.915 104.922 374.368 104.773
 374.786 c 104.41 375.801 103.645 376.629 102.672 377.071 c 102.609 377.102
 102.547 377.129 102.484 377.153 c h
102.484 377.153 m f
0.545098 0.788235 0.847059 rg
139.145 379.313 m 132.078 379.313 l 132.078 377.938 l 136.852 377.938 l
 133.91 373.833 l 133.98 373.641 l 134.562 373.641 l 135.25 373.641 135.691
 373.571 136.078 373.446 c 137.238 373.059 137.805 372.196 137.805 371.176
 c 137.805 369.872 136.922 368.833 135.516 368.833 c 134.441 368.833 133.523
 369.52 133.152 370.629 c 131.762 370.063 l 132.344 368.461 133.84 367.583
 135.547 367.583 c 137.945 367.583 139.406 369.27 139.406 371.211 c 139.406
 372.778 138.312 374.379 136.023 374.61 c 139.141 378.891 l 139.141 379.313
 l h
139.145 379.313 m f
0.952941 0.941176 0.917647 rg
101.023 339.411 m 99.559 339.411 98.68 338.301 98.68 336.872 c 98.68 335.465
 99.559 334.356 101.023 334.356 c 102.535 334.356 103.363 335.516 103.363
 336.856 c 103.363 338.356 102.445 339.411 101.023 339.411 c h
101.023 339.411 m f
0.545098 0.788235 0.847059 rg
101.289 340.629 m 100.895 340.629 100.559 340.594 100.246 340.504 c 103.172
 344.836 l 101.27 344.836 l 98.312 340.2 l 97.344 338.711 97.094 337.883
 97.094 336.887 c 97.094 334.661 98.711 333.106 101.004 333.106 c 103.348
 333.106 104.945 334.731 104.945 336.887 c 104.945 339.11 103.188 340.629
 101.289 340.629 c h
101.02 334.356 m 99.555 334.356 98.676 335.465 98.676 336.872 c 98.676 
338.301 99.555 339.411 101.02 339.411 c 102.453 339.411 103.367 338.356 
103.367 336.852 c 103.367 335.52 102.539 334.356 101.02 334.356 c h
101.02 334.356 m f
0.858824 0.843137 0.8 rg
354.625 232.626 m 354.625 232.028 354.555 231.461 354.414 230.911 c 353.648
 227.844 350.879 225.583 347.582 225.583 c 323.77 225.583 l 321.824 225.583
 320.062 226.372 318.785 227.641 c 317.516 228.922 316.723 230.68 316.723
 232.626 c 316.723 238.036 320.613 242.528 325.758 243.461 c 326.406 243.579
 327.062 243.637 327.738 243.637 c 343.602 243.637 l 346.641 243.637 349.402
 242.403 351.391 240.415 c 353.391 238.415 354.625 235.661 354.625 232.626
 c h
354.625 232.626 m f
0.913725 0.894118 0.847059 rg
354.625 232.626 m 354.625 232.028 354.555 231.461 354.414 230.911 c 331.32
 230.911 l 329.375 230.911 327.613 231.7 326.336 232.969 c 325.066 234.251
 324.273 236.008 324.273 237.954 c 324.273 239.961 324.816 241.836 325.758
 243.461 c 326.406 243.579 327.062 243.637 327.738 243.637 c 343.602 243.637
 l 346.641 243.637 349.402 242.403 351.395 240.415 c 353.391 238.415 354.625
 235.661 354.625 232.626 c h
354.625 232.626 m f
351.285 347.911 m 349.289 348.231 347.414 349.297 346.117 350.993 c 342.598
 355.594 l 341.363 357.219 339.125 357.754 337.289 356.856 c 320.277 348.614
 l 316.82 346.942 312.609 347.938 310.285 350.993 c 306.773 355.594 l 305.531
 357.219 303.293 357.754 301.453 356.856 c 284.445 348.614 l 280.988 346.942
 276.789 347.938 274.453 350.993 c 267.859 359.637 l 270.879 361.938 l 277.473
 353.301 l 278.715 351.676 280.953 351.145 282.793 352.044 c 299.801 360.286
 l 303.258 361.954 307.461 360.961 309.797 357.903 c 313.305 353.301 l 314.547
 351.676 316.777 351.145 318.617 352.044 c 335.625 360.286 l 336.195 360.559
 336.781 360.754 337.375 360.887 c 342.219 356.786 346.855 352.45 351.285
 347.911 c h
351.285 347.911 m f
369.805 326.106 m 356.109 319.469 l 352.645 317.79 348.445 318.786 346.117
 321.84 c 342.598 326.442 l 341.363 328.067 339.125 328.602 337.289 327.711
 c 320.277 319.469 l 316.82 317.79 312.609 318.794 310.285 321.852 c 306.773
 326.442 l 305.531 328.067 303.293 328.602 301.453 327.711 c 284.445 319.469
 l 280.988 317.79 276.789 318.786 274.453 321.84 c 267.859 330.485 l 270.879
 332.786 l 277.473 324.153 l 278.715 322.524 280.953 321.993 282.793 322.891
 c 299.801 331.133 l 303.258 332.813 307.461 331.809 309.797 328.751 c 313.305
 324.153 l 314.547 322.524 316.777 321.993 318.617 322.891 c 335.625 331.133
 l 339.09 332.813 343.293 331.809 345.629 328.751 c 349.137 324.153 l 350.379
 322.524 352.609 321.993 354.449 322.891 c 367.488 329.204 l 368.27 328.184
 369.051 327.145 369.805 326.106 c h
369.805 326.106 m f
391.098 289.969 m 387.828 288.805 384.098 289.883 381.949 292.688 c 378.43
 297.29 l 377.195 298.915 374.957 299.45 373.121 298.559 c 356.109 290.317
 l 352.645 288.637 348.441 289.641 346.117 292.696 c 342.598 297.29 l 341.363
 298.915 339.125 299.45 337.285 298.559 c 320.277 290.317 l 316.82 288.637
 312.609 289.641 310.281 292.696 c 306.773 297.29 l 305.531 298.915 303.293
 299.45 301.453 298.559 c 284.441 290.317 l 280.988 288.637 276.785 289.641
 274.449 292.696 c 267.859 301.333 l 270.879 303.641 l 277.469 294.997 l
 278.715 293.372 280.953 292.848 282.793 293.735 c 299.801 301.981 l 303.258
 303.657 307.457 302.657 309.793 299.598 c 313.305 294.997 l 314.547 293.372
 316.777 292.84 318.613 293.735 c 335.625 301.981 l 339.09 303.657 343.293
 302.657 345.629 299.598 c 349.137 294.997 l 350.379 293.372 352.609 292.848
 354.449 293.735 c 371.457 301.981 l 374.922 303.657 379.125 302.657 381.461
 299.598 c 384.969 294.997 l 386.035 293.602 387.82 293.028 389.465 293.446
 c 390.023 292.29 390.566 291.133 391.098 289.969 c h
391.098 289.969 m f
Q Q
showpage
%%Trailer
end restore
%%EOF
