%!PS-Adobe-3.0 EPSF-3.0
%%Creator: cairo 1.14.2 (http://cairographics.org)
%%CreationDate: Wed Jul 12 12:57:24 2017
%%Pages: 1
%%DocumentData: Clean7Bit
%%LanguageLevel: 2
%%BoundingBox: 0 -1 410 410
%%EndComments
%%BeginProlog
save
50 dict begin
/q { gsave } bind def
/Q { grestore } bind def
/cm { 6 array astore concat } bind def
/w { setlinewidth } bind def
/J { setlinecap } bind def
/j { setlinejoin } bind def
/M { setmiterlimit } bind def
/d { setdash } bind def
/m { moveto } bind def
/l { lineto } bind def
/c { curveto } bind def
/h { closepath } bind def
/re { exch dup neg 3 1 roll 5 3 roll moveto 0 rlineto
      0 exch rlineto 0 rlineto closepath } bind def
/S { stroke } bind def
/f { fill } bind def
/f* { eofill } bind def
/n { newpath } bind def
/W { clip } bind def
/W* { eoclip } bind def
/BT { } bind def
/ET { } bind def
/pdfmark where { pop globaldict /?pdfmark /exec load put }
    { globaldict begin /?pdfmark /pop load def /pdfmark
    /cleartomark load def end } ifelse
/BDC { mark 3 1 roll /BDC pdfmark } bind def
/EMC { mark /EMC pdfmark } bind def
/cairo_store_point { /cairo_point_y exch def /cairo_point_x exch def } def
/Tj { show currentpoint cairo_store_point } bind def
/TJ {
  {
    dup
    type /stringtype eq
    { show } { -0.001 mul 0 cairo_font_matrix dtransform rmoveto } ifelse
  } forall
  currentpoint cairo_store_point
} bind def
/cairo_selectfont { cairo_font_matrix aload pop pop pop 0 0 6 array astore
    cairo_font exch selectfont cairo_point_x cairo_point_y moveto } bind def
/Tf { pop /cairo_font exch def /cairo_font_matrix where
      { pop cairo_selectfont } if } bind def
/Td { matrix translate cairo_font_matrix matrix concatmatrix dup
      /cairo_font_matrix exch def dup 4 get exch 5 get cairo_store_point
      /cairo_font where { pop cairo_selectfont } if } bind def
/Tm { 2 copy 8 2 roll 6 array astore /cairo_font_matrix exch def
      cairo_store_point /cairo_font where { pop cairo_selectfont } if } bind def
/g { setgray } bind def
/rg { setrgbcolor } bind def
/d1 { setcachedevice } bind def
%%EndProlog
%%BeginSetup
%%EndSetup
%%Page: 1 1
%%BeginPageSetup
%%PageBoundingBox: 0 -1 410 410
%%EndPageSetup
q 0 -1 410 411 rectclip q
0.941176 0.627451 0.215686 rg
409.602 204.795 m 409.602 111.248 346.871 32.35 261.18 7.862 c 255.719 
6.299 250.16 4.959 244.508 3.858 c 239.5 2.862 234.418 2.061 229.273 1.447
 c 221.254 0.49 213.082 0.002 204.805 0.002 c 181.203 0.002 158.535 3.99
 137.438 11.346 c 135.945 11.858 134.465 12.393 132.988 12.951 c 129.996
 14.072 127.039 15.26 124.105 16.514 c 119.789 18.369 115.543 20.362 111.387
 22.49 c 111.242 22.572 111.102 22.643 110.961 22.721 c 105.789 25.389 100.754
 28.264 95.859 31.358 c 38.266 67.588 0 131.721 0 204.795 c 0 317.908 91.695
 409.592 204.805 409.592 c 317.906 409.592 409.602 317.908 409.602 204.795
 c h
409.602 204.795 m f
0.921569 0.188235 0.356863 rg
261.18 120.28 m 261.18 7.862 l 255.719 6.299 250.16 4.955 244.508 3.854
 c 239.5 2.862 234.418 2.061 229.273 1.447 c 221.254 0.49 213.082 -0.002
 204.805 -0.002 c 181.203 -0.002 158.535 3.987 137.438 11.342 c 135.945 
11.858 134.465 12.393 132.988 12.951 c 129.996 14.069 127.039 15.26 124.105
 16.514 c 119.789 18.369 115.543 20.358 111.387 22.49 c 111.242 22.569 111.102
 22.643 110.961 22.721 c 105.789 25.385 100.754 28.264 95.859 31.354 c 95.859
 120.28 l h
261.18 120.28 m f
0.847059 0.168627 0.34902 rg
110.961 120.28 m 110.961 22.721 l 105.793 25.389 100.754 28.264 95.859 
31.358 c 95.859 120.28 l h
110.961 120.28 m f
0.913725 0.894118 0.847059 rg
306.094 217.44 m 306.094 146.987 248.977 89.869 178.52 89.869 c 108.066
 89.869 50.949 146.987 50.949 217.44 c 50.949 287.897 108.066 345.014 178.52
 345.014 c 248.977 345.014 306.094 287.897 306.094 217.44 c h
306.094 217.44 m f
0.847059 0.819608 0.764706 rg
84.711 217.444 m 84.711 282.178 132.926 335.639 195.402 343.897 c 189.879
 344.627 184.246 345.01 178.523 345.01 c 108.07 345.01 50.957 287.897 50.957
 217.444 c 50.957 146.99 108.07 89.877 178.523 89.877 c 184.246 89.877 189.879
 90.26 195.402 90.99 c 132.926 99.252 84.711 152.713 84.711 217.444 c h
84.711 217.444 m f
1 g
286.543 235.197 m 284.477 235.197 282.629 236.647 282.195 238.748 c 272.148
 287.725 228.547 323.272 178.523 323.272 c 174.523 323.272 170.496 323.045
 166.551 322.596 c 164.113 322.322 161.914 324.072 161.637 326.51 c 161.363
 328.947 163.113 331.147 165.551 331.424 c 169.828 331.905 174.191 332.155
 178.523 332.155 c 232.746 332.155 280.004 293.623 290.898 240.533 c 291.391
 238.131 289.84 235.783 287.438 235.287 c 287.137 235.229 286.836 235.197
 286.543 235.197 c h
286.543 235.197 m f
0.529412 0.509804 0.466667 rg
204.113 217.44 m 204.113 203.307 192.656 191.85 178.52 191.85 c 164.387
 191.85 152.93 203.307 152.93 217.44 c 152.93 231.576 164.387 243.033 178.52
 243.033 c 192.656 243.033 204.113 231.576 204.113 217.44 c h
204.113 217.44 m f
0.913725 0.894118 0.847059 rg
172.469 206.959 m 166.414 217.444 l 172.469 227.932 l 184.578 227.932 l
 190.633 217.444 l 184.578 206.959 l h
172.469 206.959 m f
232.348 33.389 m 187.773 33.389 l 185.32 33.389 183.332 35.377 183.332 
37.83 c 183.332 40.283 185.32 42.272 187.773 42.272 c 232.348 42.272 l 234.801
 42.272 236.789 40.283 236.789 37.83 c 236.789 35.377 234.801 33.389 232.348
 33.389 c h
232.348 33.389 m f
0.301961 g
200.496 64.319 m 200.496 11.346 l 137.441 11.346 l 135.949 11.862 134.465
 12.393 132.988 12.951 c 129.996 14.072 127.039 15.264 124.105 16.514 c 
119.789 18.369 115.543 20.362 111.387 22.49 c 111.387 64.319 l h
200.496 64.319 m f
0.2 g
200.496 25.342 m 200.496 11.346 l 137.441 11.346 l 135.949 11.858 134.465
 12.393 132.988 12.951 c 129.996 14.072 127.039 15.26 124.105 16.514 c 119.789
 18.369 115.543 20.362 111.387 22.49 c 111.387 25.342 l h
200.496 25.342 m f
0.913725 0.894118 0.847059 rg
132.988 64.319 m 132.988 12.951 l 129.996 14.072 127.039 15.26 124.105 
16.514 c 124.105 64.319 l 124.105 66.772 126.098 68.76 128.547 68.76 c 131
 68.76 132.988 66.772 132.988 64.319 c h
132.988 64.319 m f
183.332 6.901 m 180.879 6.901 178.891 8.889 178.891 11.342 c 178.891 64.322
 l 178.891 66.776 180.879 68.764 183.332 68.764 c 185.785 68.764 187.773
 66.776 187.773 64.322 c 187.773 11.342 l 187.773 8.889 185.785 6.901 183.332
 6.901 c h
183.332 6.901 m f
0.847059 0.819608 0.764706 rg
132.988 26.569 m 132.988 12.951 l 129.996 14.072 127.039 15.26 124.105 
16.514 c 124.105 26.569 l 124.105 26.143 124.168 25.733 124.285 25.342 c
 124.809 23.487 126.523 22.127 128.547 22.127 c 130.574 22.127 132.289 23.487
 132.812 25.342 c 132.926 25.733 132.988 26.143 132.988 26.569 c h
132.988 26.569 m f
187.777 26.565 m 187.777 11.338 l 187.777 8.889 185.789 6.897 183.336 6.897
 c 180.875 6.897 178.895 8.889 178.895 11.338 c 178.895 26.565 l 178.895
 24.115 180.875 22.123 183.336 22.123 c 185.789 22.123 187.777 24.115 187.777
 26.565 c h
187.777 26.565 m f
0.529412 0.509804 0.466667 rg
218.527 19.405 m 216.074 19.405 214.086 21.393 214.086 23.846 c 214.086
 37.315 l 214.086 55.19 224.648 71.522 240.992 78.924 c 290.066 101.147 
324.035 148.084 329.645 201.428 c 329.902 203.865 332.094 205.631 334.527
 205.381 c 336.965 205.123 338.734 202.936 338.477 200.498 c 332.539 144.033
 296.59 94.35 244.656 70.834 c 231.484 64.865 222.969 51.709 222.973 37.315
 c 222.973 23.846 l 222.969 21.393 220.98 19.405 218.527 19.405 c h
218.527 19.405 m f
0.913725 0.894118 0.847059 rg
95.859 41.362 15.523 -8.883 re f
0.301961 g
244.578 4.924 m 244.578 4.557 244.555 4.201 244.508 3.858 c 239.5 2.862
 234.418 2.061 229.273 1.451 c 228.77 2.506 228.484 3.678 228.484 4.924 
c 228.484 9.373 232.09 12.971 236.531 12.971 c 240.984 12.971 244.578 9.373
 244.578 4.924 c h
244.578 4.924 m f
0.529412 0.509804 0.466667 rg
351.426 217.44 m 351.426 208.326 344.039 200.94 334.926 200.94 c 325.812
 200.94 318.426 208.326 318.426 217.44 c 318.426 226.553 325.812 233.94 
334.926 233.94 c 344.039 233.94 351.426 226.553 351.426 217.44 c h
351.426 217.44 m f
0.447059 0.423529 0.372549 rg
329.672 217.444 m 329.672 224.58 334.207 230.639 340.547 232.94 c 338.789
 233.58 336.902 233.947 334.922 233.947 c 325.809 233.947 318.422 226.561
 318.422 217.447 c 318.422 208.33 325.809 200.944 334.922 200.944 c 336.902
 200.944 338.789 201.311 340.547 201.951 c 334.207 204.252 329.672 210.311
 329.672 217.444 c h
329.672 217.444 m f
Q Q
showpage
%%Trailer
end restore
%%EOF
