%!PS-Adobe-3.0 EPSF-3.0
%%Creator: cairo 1.14.2 (http://cairographics.org)
%%CreationDate: Wed Jul 12 12:57:24 2017
%%Pages: 1
%%DocumentData: Clean7Bit
%%LanguageLevel: 2
%%BoundingBox: 0 -1 410 410
%%EndComments
%%BeginProlog
save
50 dict begin
/q { gsave } bind def
/Q { grestore } bind def
/cm { 6 array astore concat } bind def
/w { setlinewidth } bind def
/J { setlinecap } bind def
/j { setlinejoin } bind def
/M { setmiterlimit } bind def
/d { setdash } bind def
/m { moveto } bind def
/l { lineto } bind def
/c { curveto } bind def
/h { closepath } bind def
/re { exch dup neg 3 1 roll 5 3 roll moveto 0 rlineto
      0 exch rlineto 0 rlineto closepath } bind def
/S { stroke } bind def
/f { fill } bind def
/f* { eofill } bind def
/n { newpath } bind def
/W { clip } bind def
/W* { eoclip } bind def
/BT { } bind def
/ET { } bind def
/pdfmark where { pop globaldict /?pdfmark /exec load put }
    { globaldict begin /?pdfmark /pop load def /pdfmark
    /cleartomark load def end } ifelse
/BDC { mark 3 1 roll /BDC pdfmark } bind def
/EMC { mark /EMC pdfmark } bind def
/cairo_store_point { /cairo_point_y exch def /cairo_point_x exch def } def
/Tj { show currentpoint cairo_store_point } bind def
/TJ {
  {
    dup
    type /stringtype eq
    { show } { -0.001 mul 0 cairo_font_matrix dtransform rmoveto } ifelse
  } forall
  currentpoint cairo_store_point
} bind def
/cairo_selectfont { cairo_font_matrix aload pop pop pop 0 0 6 array astore
    cairo_font exch selectfont cairo_point_x cairo_point_y moveto } bind def
/Tf { pop /cairo_font exch def /cairo_font_matrix where
      { pop cairo_selectfont } if } bind def
/Td { matrix translate cairo_font_matrix matrix concatmatrix dup
      /cairo_font_matrix exch def dup 4 get exch 5 get cairo_store_point
      /cairo_font where { pop cairo_selectfont } if } bind def
/Tm { 2 copy 8 2 roll 6 array astore /cairo_font_matrix exch def
      cairo_store_point /cairo_font where { pop cairo_selectfont } if } bind def
/g { setgray } bind def
/rg { setrgbcolor } bind def
/d1 { setcachedevice } bind def
%%EndProlog
%%BeginSetup
%%EndSetup
%%Page: 1 1
%%BeginPageSetup
%%PageBoundingBox: 0 -1 410 410
%%EndPageSetup
q 0 -1 410 411 rectclip q
0.196078 0.666667 0.807843 rg
409.602 204.794 m 409.602 174.603 403.062 145.931 391.328 120.126 c 385.875
 108.126 379.293 96.747 371.727 86.119 c 370.082 83.818 368.395 81.544 366.66
 79.314 c 361.305 72.411 355.523 65.865 349.34 59.708 c 323.965 34.427 291.996
 15.767 256.242 6.521 c 248.871 4.611 241.34 3.099 233.664 2.025 c 224.238
 0.685 214.602 0.001 204.805 0.001 c 195.008 0.001 185.379 0.685 175.945
 2.025 c 168.281 3.099 160.738 4.611 153.367 6.521 c 117.605 15.767 85.637
 34.427 60.262 59.708 c 54.078 65.865 48.297 72.411 42.938 79.314 c 41.207
 81.544 39.52 83.806 37.887 86.107 c 30.316 96.732 23.734 108.111 18.281
 120.103 c 6.539 145.915 0 174.595 0 204.794 c 0 234.997 6.539 263.677 18.281
 289.49 c 23.938 301.935 30.805 313.704 38.738 324.665 c 75.938 376.115 
136.461 409.591 204.805 409.591 c 273.148 409.591 333.672 376.115 370.863
 324.665 c 378.805 313.697 385.672 301.919 391.328 289.462 c 403.062 263.661
 409.602 234.99 409.602 204.794 c h
409.602 204.794 m f
0.666667 0.313726 0.0745098 rg
391.328 324.665 m 391.328 120.126 l 385.875 108.126 379.293 96.747 371.727
 86.119 c 370.082 83.818 368.395 81.544 366.66 79.314 c 361.305 72.411 355.523
 65.865 349.34 59.708 c 60.258 59.708 l 54.078 65.865 48.293 72.411 42.938
 79.314 c 41.207 81.544 39.52 83.806 37.883 86.107 c 30.316 96.732 23.734
 108.111 18.281 120.103 c 18.281 324.665 l h
391.328 324.665 m f
0.913725 0.894118 0.847059 rg
42.324 300.615 324.957 -216.867 re f
0.6 0.27451 0.054902 rg
37.883 305.06 m 37.883 86.107 l 39.52 83.806 41.207 81.544 42.938 79.314
 c 366.664 79.314 l 368.395 81.544 370.082 83.818 371.727 86.119 c 371.727
 305.064 l h
362.844 88.197 m 46.766 88.197 l 46.766 296.181 l 362.844 296.181 l h
362.844 88.197 m f
0.666667 0.313726 0.0745098 rg
188.852 59.708 m 186.078 47.333 l 181.09 25.033 l 177.055 7.001 l 175.945
 2.025 l 168.277 3.099 160.738 4.611 153.367 6.521 c 162.496 47.333 l 165.27
 59.708 l h
188.852 59.708 m f
256.242 6.521 m 248.871 4.611 241.34 3.099 233.664 2.025 c 232.555 7.001
 l 228.52 25.033 l 223.527 47.333 l 220.758 59.708 l 244.34 59.708 l 247.113
 47.333 l h
256.242 6.521 m f
0.529412 0.509804 0.466667 rg
88.969 99.658 m 86.52 99.658 84.527 101.646 84.527 104.099 c 84.527 265.845
 l 84.527 268.298 86.52 270.286 88.969 270.286 c 91.422 270.286 93.41 268.298
 93.41 265.845 c 93.41 104.099 l 93.41 101.646 91.422 99.658 88.969 99.658
 c h
88.969 99.658 m f
0.6 0.27451 0.054902 rg
165.27 59.708 m 188.852 59.708 l 186.078 47.333 l 162.496 47.333 l h
165.27 59.708 m f
247.113 47.333 m 223.527 47.333 l 220.758 59.708 l 244.34 59.708 l h
247.113 47.333 m f
0.529412 0.509804 0.466667 rg
318.023 120.466 m 66.773 120.466 l 64.324 120.466 62.332 122.454 62.332
 124.908 c 62.332 127.361 64.324 129.349 66.773 129.349 c 318.023 129.349
 l 320.477 129.349 322.465 127.361 322.465 124.908 c 322.465 122.454 320.477
 120.466 318.023 120.466 c h
318.023 120.466 m f
0.109804 0.552941 0.627451 rg
206.883 145.435 m 157.777 145.435 117.824 195.033 117.824 255.997 c 117.824
 258.451 119.812 260.439 122.266 260.439 c 124.719 260.439 126.707 258.451
 126.707 255.997 c 126.707 199.931 162.676 154.318 206.883 154.318 c 251.094
 154.318 287.059 199.931 287.059 255.997 c 287.059 258.451 289.047 260.439
 291.5 260.439 c 293.953 260.439 295.941 258.451 295.941 255.997 c 295.941
 195.033 255.992 145.435 206.883 145.435 c h
206.883 145.435 m f
0.666667 0.313726 0.0745098 rg
239.445 6.997 m 170.16 6.997 l 175.195 25.029 l 234.41 25.029 l h
239.445 6.997 m f
0.529412 0.509804 0.466667 rg
75.906 257.88 m 88.969 277.497 l 102.035 257.88 l h
75.906 257.88 m f
311.691 137.97 m 331.309 124.908 l 311.691 111.841 l h
311.691 137.97 m f
108.871 126.837 5.332 -15.098 re f
125.625 126.837 5.332 -15.098 re f
142.387 126.837 5.328 -15.098 re f
159.141 126.837 5.328 -15.098 re f
175.902 126.837 5.328 -15.098 re f
192.652 126.837 5.328 -15.098 re f
209.406 126.837 5.328 -15.098 re f
226.168 126.837 5.328 -15.098 re f
242.918 126.837 5.332 -15.098 re f
259.672 126.837 5.328 -15.098 re f
276.434 126.837 5.328 -15.098 re f
293.188 126.837 5.328 -15.098 re f
Q Q
showpage
%%Trailer
end restore
%%EOF
