%!PS-Adobe-3.0 EPSF-3.0
%%Creator: cairo 1.14.2 (http://cairographics.org)
%%CreationDate: Wed Jul 12 12:57:24 2017
%%Pages: 1
%%DocumentData: Clean7Bit
%%LanguageLevel: 2
%%BoundingBox: 0 -1 410 410
%%EndComments
%%BeginProlog
save
50 dict begin
/q { gsave } bind def
/Q { grestore } bind def
/cm { 6 array astore concat } bind def
/w { setlinewidth } bind def
/J { setlinecap } bind def
/j { setlinejoin } bind def
/M { setmiterlimit } bind def
/d { setdash } bind def
/m { moveto } bind def
/l { lineto } bind def
/c { curveto } bind def
/h { closepath } bind def
/re { exch dup neg 3 1 roll 5 3 roll moveto 0 rlineto
      0 exch rlineto 0 rlineto closepath } bind def
/S { stroke } bind def
/f { fill } bind def
/f* { eofill } bind def
/n { newpath } bind def
/W { clip } bind def
/W* { eoclip } bind def
/BT { } bind def
/ET { } bind def
/pdfmark where { pop globaldict /?pdfmark /exec load put }
    { globaldict begin /?pdfmark /pop load def /pdfmark
    /cleartomark load def end } ifelse
/BDC { mark 3 1 roll /BDC pdfmark } bind def
/EMC { mark /EMC pdfmark } bind def
/cairo_store_point { /cairo_point_y exch def /cairo_point_x exch def } def
/Tj { show currentpoint cairo_store_point } bind def
/TJ {
  {
    dup
    type /stringtype eq
    { show } { -0.001 mul 0 cairo_font_matrix dtransform rmoveto } ifelse
  } forall
  currentpoint cairo_store_point
} bind def
/cairo_selectfont { cairo_font_matrix aload pop pop pop 0 0 6 array astore
    cairo_font exch selectfont cairo_point_x cairo_point_y moveto } bind def
/Tf { pop /cairo_font exch def /cairo_font_matrix where
      { pop cairo_selectfont } if } bind def
/Td { matrix translate cairo_font_matrix matrix concatmatrix dup
      /cairo_font_matrix exch def dup 4 get exch 5 get cairo_store_point
      /cairo_font where { pop cairo_selectfont } if } bind def
/Tm { 2 copy 8 2 roll 6 array astore /cairo_font_matrix exch def
      cairo_store_point /cairo_font where { pop cairo_selectfont } if } bind def
/g { setgray } bind def
/rg { setrgbcolor } bind def
/d1 { setcachedevice } bind def
%%EndProlog
%%BeginSetup
%%EndSetup
%%Page: 1 1
%%BeginPageSetup
%%PageBoundingBox: 0 -1 410 410
%%EndPageSetup
q 0 -1 410 411 rectclip q
0.117647 0.192157 0.376471 rg
409.602 204.794 m 409.602 177.134 404.121 150.755 394.172 126.685 c 381.672
 96.404 362.113 69.771 337.555 48.845 c 322.996 36.447 306.676 26.044 289.027
 18.068 c 264.094 6.806 236.516 0.392 207.469 0.017 c 206.582 0.009 205.691
 0.001 204.805 0.001 c 203.914 0.001 203.027 0.009 202.141 0.017 c 173.094
 0.392 145.504 6.806 120.57 18.068 c 102.922 26.044 86.605 36.447 72.047
 48.845 c 59.664 59.396 48.551 71.4 38.984 84.579 c 29.562 97.548 21.629
 111.661 15.43 126.673 c 5.488 150.747 0 177.126 0 204.794 c 0 317.908 91.695
 409.591 204.805 409.591 c 317.906 409.591 409.602 317.908 409.602 204.794
 c h
409.602 204.794 m f
0.698039 0.666667 0.619608 rg
229.613 359.939 m 231.789 357.548 238.027 349.396 233.23 338.736 c 227.66
 326.38 216.176 298.169 215.465 296.419 c 213.484 295.931 211.441 295.595
 209.336 295.415 c 204.805 295.044 l 200.273 295.415 l 198.168 295.595 196.117
 295.931 194.137 296.419 c 193.426 298.169 181.941 326.38 176.379 338.736
 c 171.602 349.369 177.773 357.505 179.977 359.919 c 184.188 362.958 188.969
 365.224 194.094 366.564 c 197.609 367.482 201.207 367.943 204.805 367.943
 c 208.402 367.943 212 367.482 215.516 366.564 c 220.641 365.224 225.41 
362.958 229.613 359.939 c h
229.613 359.939 m f
0.788235 0.764706 0.721569 rg
176.379 338.736 m 181.941 326.38 193.426 298.169 194.137 296.419 c 174.914
 301.119 161.785 319.755 164.609 340.017 c 166.848 344.482 l 169.586 349.954
 173.43 354.708 178.086 358.474 c 178.707 358.97 179.336 359.458 179.977
 359.919 c 177.773 357.505 171.602 349.369 176.379 338.736 c h
176.379 338.736 m f
0.913725 0.894118 0.847059 rg
244.988 340.013 m 245.246 338.165 245.371 336.337 245.371 334.525 c 245.371
 316.474 232.934 300.693 215.465 296.419 c 216.172 298.169 227.66 326.38
 233.227 338.736 c 238.023 349.392 231.789 357.548 229.613 359.935 c 235.109
 355.958 239.652 350.689 242.758 344.482 c h
244.988 340.013 m f
204.805 18.521 m 204.805 0.001 l 203.918 0.001 203.027 0.009 202.141 0.017
 c 173.094 0.392 145.504 6.806 120.57 18.068 c 121.559 25.22 l 152.762 17.829
 191.723 18.193 202.141 18.439 c 203.863 18.486 204.805 18.521 204.805 18.521
 c h
204.805 18.521 m f
289.027 18.068 m 264.094 6.802 236.516 0.392 207.469 0.017 c 206.582 0.009
 205.691 0.001 204.805 0.001 c 204.805 18.521 l 204.805 18.521 205.746 18.486
 207.469 18.439 c 217.891 18.193 256.84 17.826 288.043 25.216 c h
289.027 18.068 m f
281.016 149.919 m 307.184 74.447 l 307.078 72.857 306.961 71.283 306.828
 69.747 c 295.941 65.978 l 268.352 145.533 l h
281.016 149.919 m f
141.25 145.533 m 113.66 65.982 l 102.781 69.747 l 102.77 69.747 l 102.637
 71.29 102.523 72.857 102.414 74.447 c 102.426 74.447 l 128.594 149.919 
l h
141.25 145.533 m f
150.637 261.849 m 162.523 261.849 172.16 252.212 172.16 240.326 c 172.16
 228.431 162.523 218.794 150.637 218.794 c 138.746 218.794 129.105 228.431
 129.105 240.326 c 129.105 252.212 138.746 261.849 150.637 261.849 c h
150.637 261.849 m f
394.172 126.685 m 381.672 96.404 362.113 69.771 337.555 48.845 c 330.68
 90.658 318.625 147.798 299.527 200.318 c 338.754 300.783 l 346.758 282.036
 l 368.117 231.986 383.992 179.888 394.172 126.685 c h
394.172 126.685 m f
110.07 200.318 m 90.973 147.798 78.922 90.654 72.047 48.845 c 59.664 59.396
 48.551 71.4 38.984 84.579 c 29.562 97.548 21.629 111.661 15.43 126.673 
c 25.609 179.888 41.48 231.978 62.844 282.036 c 70.848 300.783 l 85.539 
263.161 l h
110.07 200.318 m f
0.921569 0.188235 0.356863 rg
200.273 295.415 m 198.168 295.591 196.117 295.931 194.137 296.419 c 193.719
 296.525 193.301 296.63 192.895 296.747 c 192.492 296.853 192.102 296.97
 191.711 297.095 c 191.438 297.185 191.16 297.271 190.887 297.361 c 190.371
 297.536 189.863 297.716 189.359 297.919 c 189.055 298.025 188.754 298.15
 188.461 298.275 c 188.258 298.365 188.051 298.443 187.855 298.533 c 187.547
 298.665 187.234 298.81 186.934 298.951 c 186.551 299.126 186.176 299.306
 185.805 299.501 c 185.742 299.536 185.672 299.564 185.609 299.599 c 185.273
 299.767 184.953 299.947 184.625 300.122 c 184.234 300.333 183.852 300.556
 183.469 300.779 c 183.16 300.966 182.848 301.154 182.547 301.349 c 182.199
 301.572 181.852 301.794 181.508 302.033 c 181.168 302.263 180.824 302.501
 180.492 302.744 c 180.137 302.994 179.793 303.259 179.453 303.517 c 179.145
 303.763 178.84 304.005 178.539 304.255 c 177.898 304.786 177.285 305.329
 176.684 305.888 c 176.379 306.173 176.086 306.458 175.793 306.751 c 175.43
 307.115 175.074 307.486 174.719 307.861 c 174.516 308.083 174.312 308.314
 174.105 308.544 c 173.887 308.802 173.656 309.052 173.434 309.318 c 173.387
 309.361 173.352 309.415 173.309 309.458 c 173.254 309.529 173.191 309.603
 173.129 309.681 c 172.934 309.931 172.73 310.181 172.535 310.435 c 172.074
 311.033 171.629 311.634 171.203 312.247 c 170.902 312.693 170.609 313.138
 170.316 313.591 c 170.297 313.626 170.281 313.661 170.254 313.697 c 170.086
 313.962 169.914 314.24 169.754 314.505 c 169.551 314.853 169.355 315.189
 169.16 315.536 c 169.141 315.579 169.113 315.615 169.09 315.658 c 168.91
 315.99 168.734 316.326 168.555 316.673 c 168.371 317.036 168.184 317.411
 168.004 317.783 c 167.828 318.154 167.66 318.529 167.492 318.911 c 167.16
 319.665 166.859 320.439 166.574 321.212 c 166.441 321.583 166.309 321.958
 166.184 322.329 c 166.184 322.349 166.176 322.376 166.168 322.392 c 165.848
 323.353 165.57 324.329 165.332 325.326 c 165.324 325.369 165.305 325.411
 165.297 325.466 c 165.191 325.911 165.094 326.365 165.004 326.818 c 164.898
 327.314 164.809 327.822 164.727 328.326 c 164.691 328.576 164.648 328.833
 164.613 329.091 c 164.578 329.341 164.543 329.599 164.516 329.857 c 164.461
 330.29 164.418 330.724 164.371 331.169 c 164.371 331.204 164.363 331.259
 164.363 331.302 c 164.363 331.349 164.355 331.392 164.355 331.435 c 164.348
 331.517 164.336 331.595 164.336 331.677 c 164.328 331.783 164.32 331.888
 164.312 332.005 c 164.312 332.068 164.301 332.13 164.301 332.201 c 164.285
 332.451 164.277 332.697 164.266 332.954 c 164.242 333.482 164.23 334.005
 164.23 334.529 c 164.23 336.341 164.355 338.169 164.613 340.017 c 70.848
 300.783 l 85.539 263.161 l 110.074 200.318 l 110.074 200.318 99.023 126.329
 102.414 74.447 c 102.426 74.447 l 128.594 149.919 l 141.25 145.533 l 113.66
 65.982 l 102.781 69.747 l 102.773 69.747 l 104.797 46.064 110.18 27.911
 121.559 25.22 c 152.762 17.829 191.723 18.193 202.141 18.439 c 203.863 
18.486 204.805 18.521 204.805 18.521 c 204.805 295.044 l h
150.637 218.794 m 138.746 218.794 129.105 228.431 129.105 240.326 c 129.105
 252.212 138.746 261.849 150.637 261.849 c 162.523 261.849 172.16 252.212
 172.16 240.326 c 172.16 228.431 162.523 218.794 150.637 218.794 c h
150.637 218.794 m f
215.465 296.419 m 232.934 300.693 245.371 316.478 245.371 334.525 c 245.371
 336.337 245.246 338.165 244.988 340.017 c 338.754 300.783 l 299.527 200.318
 l 299.527 200.318 310.586 126.329 307.184 74.447 c 281.016 149.919 l 268.352
 145.533 l 295.938 65.982 l 306.828 69.747 l 304.805 46.064 299.422 27.911
 288.043 25.22 c 251.688 16.611 204.805 18.521 204.805 18.521 c 204.805 
295.044 l 209.336 295.415 l 211.441 295.595 213.48 295.931 215.465 296.419
 c h
215.465 296.419 m f
0.913725 0.894118 0.847059 rg
220.75 277.216 m 214.77 277.216 211.832 284.884 216.324 288.857 c 218.473
 290.759 221.703 291.079 224.172 289.591 c 226.551 288.158 227.828 285.314
 227.277 282.579 c 226.66 279.505 223.898 277.216 220.75 277.216 c h
220.75 277.216 m f
220.75 215.818 m 214.734 215.818 211.879 223.478 216.324 227.458 c 218.551
 229.451 221.961 229.677 224.441 228.025 c 226.559 226.615 227.719 224.021
 227.336 221.505 c 226.844 218.286 224.02 215.818 220.75 215.818 c h
220.75 215.818 m f
220.75 154.423 m 217.973 154.423 215.402 156.228 214.477 158.845 c 213.535
 161.513 214.398 164.56 216.625 166.318 c 221.324 170.029 228.34 165.818
 227.305 159.951 c 226.75 156.802 223.957 154.423 220.75 154.423 c h
220.75 154.423 m f
220.75 93.029 m 214.77 93.029 211.836 100.697 216.324 104.669 c 218.473
 106.572 221.703 106.892 224.172 105.404 c 226.551 103.97 227.828 101.122
 227.277 98.392 c 226.66 95.318 223.898 93.029 220.75 93.029 c h
220.75 93.029 m f
220.75 31.63 m 214.82 31.63 211.871 39.177 216.227 43.189 c 218.371 45.165
 221.664 45.505 224.172 44.009 c 226.453 42.646 227.734 39.947 227.336 37.318
 c 226.844 34.099 224.02 31.63 220.75 31.63 c h
220.75 31.63 m f
0.788235 0.764706 0.721569 rg
150.637 266.29 m 136.32 266.29 124.664 254.646 124.664 240.326 c 124.664
 226.005 136.32 214.353 150.637 214.353 c 164.957 214.353 176.602 226.005
 176.602 240.326 c 176.602 254.646 164.957 266.29 150.637 266.29 c h
150.637 223.236 m 141.215 223.236 133.547 230.9 133.547 240.326 c 133.547
 249.74 141.215 257.408 150.637 257.408 c 160.055 257.408 167.719 249.74
 167.719 240.326 c 167.719 230.9 160.055 223.236 150.637 223.236 c h
150.637 223.236 m f
207.469 295.044 m 207.469 0.017 l 206.582 0.009 205.691 0.001 204.805 0.001
 c 203.914 0.001 203.027 0.009 202.141 0.017 c 202.141 295.044 l h
207.469 295.044 m f
0.847059 0.168627 0.34902 rg
166.164 322.392 m 152.184 319.853 102.504 307.861 85.777 263.775 c 85.699
 263.572 85.617 263.369 85.539 263.161 c 70.848 300.783 l 164.609 340.017
 l 163.758 333.876 164.363 327.892 166.164 322.392 c h
166.164 322.392 m f
0.788235 0.764706 0.721569 rg
85.539 263.161 m 51.145 215.056 41.258 139.279 38.984 84.579 c 29.562 97.548
 21.629 111.661 15.43 126.673 c 25.609 179.888 41.48 231.978 62.844 282.036
 c 70.848 300.783 l h
85.539 263.161 m f
Q Q
showpage
%%Trailer
end restore
%%EOF
