%!PS-Adobe-3.0 EPSF-3.0
%%Creator: cairo 1.14.2 (http://cairographics.org)
%%CreationDate: Wed Jul 12 12:57:24 2017
%%Pages: 1
%%DocumentData: Clean7Bit
%%LanguageLevel: 2
%%BoundingBox: 0 -1 410 410
%%EndComments
%%BeginProlog
save
50 dict begin
/q { gsave } bind def
/Q { grestore } bind def
/cm { 6 array astore concat } bind def
/w { setlinewidth } bind def
/J { setlinecap } bind def
/j { setlinejoin } bind def
/M { setmiterlimit } bind def
/d { setdash } bind def
/m { moveto } bind def
/l { lineto } bind def
/c { curveto } bind def
/h { closepath } bind def
/re { exch dup neg 3 1 roll 5 3 roll moveto 0 rlineto
      0 exch rlineto 0 rlineto closepath } bind def
/S { stroke } bind def
/f { fill } bind def
/f* { eofill } bind def
/n { newpath } bind def
/W { clip } bind def
/W* { eoclip } bind def
/BT { } bind def
/ET { } bind def
/pdfmark where { pop globaldict /?pdfmark /exec load put }
    { globaldict begin /?pdfmark /pop load def /pdfmark
    /cleartomark load def end } ifelse
/BDC { mark 3 1 roll /BDC pdfmark } bind def
/EMC { mark /EMC pdfmark } bind def
/cairo_store_point { /cairo_point_y exch def /cairo_point_x exch def } def
/Tj { show currentpoint cairo_store_point } bind def
/TJ {
  {
    dup
    type /stringtype eq
    { show } { -0.001 mul 0 cairo_font_matrix dtransform rmoveto } ifelse
  } forall
  currentpoint cairo_store_point
} bind def
/cairo_selectfont { cairo_font_matrix aload pop pop pop 0 0 6 array astore
    cairo_font exch selectfont cairo_point_x cairo_point_y moveto } bind def
/Tf { pop /cairo_font exch def /cairo_font_matrix where
      { pop cairo_selectfont } if } bind def
/Td { matrix translate cairo_font_matrix matrix concatmatrix dup
      /cairo_font_matrix exch def dup 4 get exch 5 get cairo_store_point
      /cairo_font where { pop cairo_selectfont } if } bind def
/Tm { 2 copy 8 2 roll 6 array astore /cairo_font_matrix exch def
      cairo_store_point /cairo_font where { pop cairo_selectfont } if } bind def
/g { setgray } bind def
/rg { setrgbcolor } bind def
/d1 { setcachedevice } bind def
%%EndProlog
%%BeginSetup
%%EndSetup
%%Page: 1 1
%%BeginPageSetup
%%PageBoundingBox: 0 -1 410 410
%%EndPageSetup
q 0 -1 410 411 rectclip q
0.333333 0.776471 0.631373 rg
409.602 204.794 m 409.602 142.634 381.902 86.943 338.184 49.388 c 302.352
 18.611 255.746 0.001 204.805 0.001 c 153.855 0.001 107.246 18.611 71.414
 49.388 c 27.695 86.943 0 142.634 0 204.794 c 0 317.908 91.695 409.591 204.805
 409.591 c 317.906 409.591 409.602 317.908 409.602 204.794 c h
409.602 204.794 m f
0.301961 g
338.184 309.564 m 338.184 49.388 l 302.352 18.611 255.746 0.001 204.805
 0.001 c 153.855 0.001 107.246 18.611 71.414 49.388 c 71.414 309.564 l 71.414
 324.615 83.613 336.798 98.66 336.798 c 310.949 336.798 l 325.988 336.798
 338.184 324.615 338.184 309.564 c h
338.184 309.564 m f
0.913725 0.894118 0.847059 rg
98.652 52.962 m 90.492 52.962 83.852 59.603 83.852 67.763 c 83.852 309.564
 l 83.852 317.728 90.492 324.365 98.652 324.365 c 310.949 324.365 l 319.109
 324.365 325.75 317.724 325.75 309.564 c 325.75 67.763 l 325.75 59.603 319.109
 52.962 310.949 52.962 c h
98.652 52.962 m f
0.301961 g
102.656 311.15 31.977 -14.211 re f
107.539 307.74 30.867 -7.402 re f
101.324 278.579 206.961 -11.844 re f
101.324 246.15 206.961 -11.844 re f
101.324 213.728 206.961 -11.844 re f
101.324 181.298 206.961 -11.844 re f
101.324 148.876 206.961 -11.844 re f
101.324 116.447 206.961 -11.844 re f
101.324 84.025 206.961 -11.844 re f
0.913725 0.894118 0.847059 rg
224.953 35.197 m 184.645 35.197 l 182.531 35.197 180.816 33.482 180.816
 31.369 c 180.816 13.56 l 180.816 11.447 182.531 9.732 184.645 9.732 c 224.953
 9.732 l 227.07 9.732 228.781 11.447 228.781 13.56 c 228.781 31.369 l 228.781
 33.482 227.07 35.197 224.953 35.197 c h
224.953 35.197 m f
Q Q
showpage
%%Trailer
end restore
%%EOF
