%!PS-Adobe-3.0 EPSF-3.0
%%Creator: cairo 1.14.2 (http://cairographics.org)
%%CreationDate: Wed Jul 12 12:57:24 2017
%%Pages: 1
%%DocumentData: Clean7Bit
%%LanguageLevel: 2
%%BoundingBox: 0 -1 410 410
%%EndComments
%%BeginProlog
save
50 dict begin
/q { gsave } bind def
/Q { grestore } bind def
/cm { 6 array astore concat } bind def
/w { setlinewidth } bind def
/J { setlinecap } bind def
/j { setlinejoin } bind def
/M { setmiterlimit } bind def
/d { setdash } bind def
/m { moveto } bind def
/l { lineto } bind def
/c { curveto } bind def
/h { closepath } bind def
/re { exch dup neg 3 1 roll 5 3 roll moveto 0 rlineto
      0 exch rlineto 0 rlineto closepath } bind def
/S { stroke } bind def
/f { fill } bind def
/f* { eofill } bind def
/n { newpath } bind def
/W { clip } bind def
/W* { eoclip } bind def
/BT { } bind def
/ET { } bind def
/pdfmark where { pop globaldict /?pdfmark /exec load put }
    { globaldict begin /?pdfmark /pop load def /pdfmark
    /cleartomark load def end } ifelse
/BDC { mark 3 1 roll /BDC pdfmark } bind def
/EMC { mark /EMC pdfmark } bind def
/cairo_store_point { /cairo_point_y exch def /cairo_point_x exch def } def
/Tj { show currentpoint cairo_store_point } bind def
/TJ {
  {
    dup
    type /stringtype eq
    { show } { -0.001 mul 0 cairo_font_matrix dtransform rmoveto } ifelse
  } forall
  currentpoint cairo_store_point
} bind def
/cairo_selectfont { cairo_font_matrix aload pop pop pop 0 0 6 array astore
    cairo_font exch selectfont cairo_point_x cairo_point_y moveto } bind def
/Tf { pop /cairo_font exch def /cairo_font_matrix where
      { pop cairo_selectfont } if } bind def
/Td { matrix translate cairo_font_matrix matrix concatmatrix dup
      /cairo_font_matrix exch def dup 4 get exch 5 get cairo_store_point
      /cairo_font where { pop cairo_selectfont } if } bind def
/Tm { 2 copy 8 2 roll 6 array astore /cairo_font_matrix exch def
      cairo_store_point /cairo_font where { pop cairo_selectfont } if } bind def
/g { setgray } bind def
/rg { setrgbcolor } bind def
/d1 { setcachedevice } bind def
%%EndProlog
%%BeginSetup
%%EndSetup
%%Page: 1 1
%%BeginPageSetup
%%PageBoundingBox: 0 -1 410 410
%%EndPageSetup
q 0 -1 410 411 rectclip q
0.258824 0.341176 0.498039 rg
409.602 204.794 m 409.602 154.611 391.543 108.634 361.582 73.025 c 353.766
 63.732 345.148 55.15 335.82 47.396 c 300.309 17.798 254.637 0.001 204.805
 0.001 c 154.973 0.001 109.301 17.802 73.785 47.388 c 64.461 55.142 55.844
 63.724 48.027 73.013 c 18.059 108.622 0 154.599 0 204.794 c 0 304.119 70.715
 386.931 164.539 405.63 c 169.984 406.72 175.52 407.591 181.105 408.24 c
 188.887 409.126 196.793 409.591 204.805 409.591 c 227.578 409.591 249.492
 405.869 269.957 399.001 c 275.59 397.119 281.113 394.986 286.523 392.634
 c 358.961 361.083 409.602 288.849 409.602 204.794 c h
409.602 204.794 m f
0.666667 0.313726 0.0745098 rg
62.09 153.626 290.168 -47.965 re f
0.6 0.27451 0.054902 rg
62.09 153.626 290.168 -31.125 re f
0.666667 0.313726 0.0745098 rg
73.789 151.259 m 73.789 47.388 l 64.461 55.142 55.844 63.724 48.027 73.013
 c 48.027 151.259 l h
73.789 151.259 m f
361.582 151.259 m 361.582 73.021 l 353.766 63.732 345.148 55.15 335.82 
47.396 c 335.82 151.259 l h
361.582 151.259 m f
0.941176 0.627451 0.215686 rg
84.016 186.494 m 84.016 178.048 l 64.254 178.048 l 64.254 182.704 l h
84.016 186.494 m f
0.466667 0.556863 0.698039 rg
69.156 299.536 m 49.969 280.349 39.191 254.326 39.191 227.193 c 39.191 
178.884 l 35.953 180.931 32.852 173.122 29.898 175.54 c 29.898 231.04 l 
29.898 258.173 40.68 284.197 59.867 303.384 c 62.59 306.103 l h
69.156 299.536 m f
0.333333 0.776471 0.631373 rg
105.117 319.349 m 77.23 291.462 l 69.156 299.536 l 62.586 306.103 l 62.52
 306.173 l 58.668 310.025 56.742 315.068 56.742 320.115 c 56.742 325.165
 58.668 330.212 62.52 334.06 c 70.223 341.767 82.707 341.767 90.41 334.06
 c h
105.117 319.349 m f
0.254902 0.666667 0.517647 rg
76.293 306.673 m 69.723 313.24 l 69.656 313.31 l 65.805 317.161 63.879 
322.204 63.879 327.251 c 63.879 330.685 64.77 334.115 66.551 337.165 c 65.109
 336.329 63.754 335.294 62.52 334.06 c 58.668 330.208 56.742 325.165 56.742
 320.115 c 56.742 315.068 58.668 310.025 62.52 306.173 c 62.586 306.103 
l 69.156 299.536 l 77.23 291.462 l 84.367 298.599 l h
76.293 306.673 m f
0.333333 0.776471 0.631373 rg
142.234 313.431 m 83.145 254.345 l 75.363 265.279 73.391 279.076 77.23 
291.462 c 105.117 319.349 l 117.504 323.189 131.305 321.22 142.234 313.431
 c h
142.234 313.431 m f
0.941176 0.627451 0.215686 rg
125.625 292.654 m 131.617 286.661 131.617 276.943 125.625 270.951 c 119.637
 264.962 109.922 264.962 103.93 270.951 c h
125.625 292.654 m f
0.254902 0.666667 0.517647 rg
93.418 264.619 m 85.633 275.548 83.664 289.349 87.5 301.736 c 77.23 291.462
 l 73.391 279.076 75.359 265.279 83.141 254.345 c h
93.418 264.619 m f
147.656 308.849 m 128.543 289.732 l 106.848 268.033 l 87.734 248.919 l 
86.027 250.626 84.496 252.447 83.145 254.345 c 142.234 313.431 l 144.137
 312.083 145.953 310.552 147.656 308.849 c h
147.656 308.849 m f
0.333333 0.776471 0.631373 rg
26.949 182.708 69.281 -21.113 re f
0.6 0.27451 0.054902 rg
48.027 151.255 25.762 -23.98 re f
335.82 151.255 25.762 -23.98 re f
0.913725 0.894118 0.847059 rg
298.516 173.466 m 245.219 173.466 l 246.996 182.349 l 249.312 193.896 l
 294.422 193.896 l 296.738 182.349 l h
298.516 173.466 m f
308.062 168.134 m 235.672 168.134 l 235.672 171.079 238.059 173.466 241
 173.466 c 302.734 173.466 l 305.676 173.466 308.062 171.079 308.062 168.134
 c h
308.062 168.134 m f
0.847059 0.827451 0.780392 rg
296.738 182.349 m 246.996 182.349 l 249.312 193.896 l 294.422 193.896 l
 h
296.738 182.349 m f
0.913725 0.894118 0.847059 rg
358.789 308.036 m 184.949 308.036 l 182.426 308.036 180.379 305.99 180.379
 303.462 c 180.379 195.357 l 180.379 192.829 182.426 190.786 184.949 190.786
 c 358.789 190.786 l 361.312 190.786 363.359 192.829 363.359 195.357 c 363.359
 303.462 l 363.359 305.99 361.312 308.036 358.789 308.036 c h
358.789 308.036 m f
0.301961 g
189.262 299.158 165.215 -91.043 re f
0.913725 0.894118 0.847059 rg
363.43 179.685 m 345.52 179.685 l 341.145 179.685 337.598 176.138 337.598
 171.763 c 337.598 169.759 339.223 168.134 341.227 168.134 c 367.727 168.134
 l 369.727 168.134 371.352 169.759 371.352 171.763 c 371.352 176.138 367.805
 179.685 363.43 179.685 c h
363.43 179.685 m f
80.875 190.119 68.219 -21.984 re f
0.941176 0.627451 0.215686 rg
89.215 212.9 68.219 -21.98 re f
0.776471 0.509804 0.188235 rg
106.402 207.322 33.836 -10.816 re f
99.109 212.9 2.914 -21.98 re f
144.625 212.9 2.914 -21.98 re f
0.847059 0.823529 0.772549 rg
80.875 183.181 68.219 -1.168 re f
80.875 187.818 68.219 -1.168 re f
80.875 185.497 68.219 -1.164 re f
80.875 180.869 68.219 -1.164 re f
80.875 176.232 68.219 -1.164 re f
80.875 178.552 68.219 -1.164 re f
80.875 173.923 68.219 -1.164 re f
80.875 171.607 68.219 -1.168 re f
0.921569 0.188235 0.356863 rg
78.504 169.81 73.379 -1.672 re f
78.504 190.915 73.379 -1.672 re f
0.913725 0.894118 0.847059 rg
154.832 223.204 m 154.832 222.826 154.82 222.439 154.797 222.052 c 154.777
 221.665 154.75 221.275 154.703 220.884 c 154.668 220.501 154.617 220.119
 154.551 219.736 c 154.488 219.349 154.414 218.958 154.324 218.572 c 154.238
 218.189 154.133 217.798 154.016 217.419 c 153.902 217.025 153.762 216.638
 153.613 216.255 c 153.41 215.736 153.18 215.232 152.91 214.728 c 87.297
 214.064 l 87.719 214.775 88.09 215.509 88.414 216.255 c 88.598 216.638 
88.754 217.029 88.898 217.419 c 89.043 217.798 89.172 218.189 89.297 218.572
 c 89.418 218.958 89.527 219.349 89.621 219.736 c 89.719 220.115 89.809 
220.501 89.883 220.884 c 89.961 221.271 90.023 221.661 90.074 222.052 c 
90.129 222.435 90.172 222.818 90.203 223.204 c 90.238 223.587 90.262 223.978
 90.273 224.369 c 90.285 224.751 90.285 225.13 90.281 225.517 c 90.273 225.904
 90.258 226.298 90.223 226.681 c 90.199 227.064 90.156 227.451 90.105 227.833
 c 90.059 228.224 90 228.615 89.926 228.997 c 89.855 229.388 89.773 229.771
 89.68 230.15 c 89.59 230.54 89.484 230.931 89.367 231.318 c 89.258 231.701
 89.129 232.083 88.988 232.462 c 88.848 232.853 88.699 233.244 88.527 233.63
 c 88.172 234.454 87.766 235.263 87.305 236.052 c 150.148 236.052 l 150.148
 236.052 152.012 235.923 152.996 233.63 c 153.055 233.49 153.109 233.337
 153.164 233.181 c 153.234 232.978 153.309 232.736 153.398 232.462 c 153.496
 232.13 153.605 231.744 153.723 231.318 c 153.816 230.954 153.914 230.564
 154.008 230.15 c 154.094 229.79 154.176 229.4 154.254 228.997 c 154.328
 228.626 154.398 228.236 154.461 227.833 c 154.52 227.462 154.578 227.076
 154.625 226.681 c 154.672 226.302 154.711 225.911 154.742 225.517 c 154.77
 225.142 154.801 224.759 154.812 224.369 c 154.824 223.986 154.836 223.599
 154.832 223.204 c h
154.832 223.204 m f
0.847059 0.823529 0.772549 rg
154.457 227.833 m 90.102 227.833 l 90.055 228.224 89.996 228.615 89.922
 228.997 c 154.25 228.997 l 154.324 228.626 154.395 228.236 154.457 227.833
 c h
154.457 227.833 m f
153.391 232.462 m 88.984 232.462 l 88.844 232.853 88.691 233.244 88.523
 233.626 c 152.992 233.626 l 153.047 233.49 153.105 233.337 153.16 233.181
 c 153.23 232.978 153.305 232.736 153.391 232.462 c h
153.391 232.462 m f
154.004 230.15 m 89.676 230.15 l 89.582 230.54 89.477 230.931 89.363 231.318
 c 153.719 231.318 l 153.812 230.954 153.91 230.564 154.004 230.15 c h
154.004 230.15 m f
154.738 225.517 m 90.277 225.517 l 90.27 225.904 90.254 226.294 90.219 
226.681 c 154.621 226.681 l 154.668 226.302 154.707 225.911 154.738 225.517
 c h
154.738 225.517 m f
154.797 222.052 m 90.074 222.052 l 90.02 221.661 89.957 221.271 89.883 
220.884 c 154.703 220.884 l h
154.797 222.052 m f
154.809 224.369 m 90.27 224.369 l 90.262 223.978 90.238 223.587 90.199 
223.204 c 154.832 223.204 l h
154.809 224.369 m f
154.551 219.74 m 154.488 219.349 154.41 218.958 154.324 218.572 c 89.293
 218.572 l 89.414 218.958 89.523 219.349 89.617 219.74 c h
154.551 219.74 m f
154.016 217.419 m 153.898 217.025 153.758 216.638 153.613 216.255 c 88.414
 216.255 l 88.594 216.638 88.75 217.029 88.895 217.419 c h
154.016 217.419 m f
0.333333 0.776471 0.631373 rg
152.129 212.904 m 152.105 212.904 152.086 212.904 152.062 212.904 c 83.91
 212.904 l 83.91 215.232 l 151.453 215.232 l 154.793 221.353 154.793 228.767
 151.457 234.888 c 83.91 234.888 l 83.91 237.216 l 152.129 237.216 l 152.191
 237.216 152.25 237.212 152.309 237.201 c 152.656 237.146 152.961 236.943
 153.141 236.638 c 157.336 229.497 157.336 220.619 153.133 213.478 c 152.922
 213.115 152.535 212.904 152.129 212.904 c h
152.129 212.904 m f
0.666667 0.313726 0.0745098 rg
269.957 399.001 m 249.492 405.869 227.578 409.591 204.805 409.591 c 196.793
 409.591 188.887 409.13 181.105 408.24 c 175.52 407.591 169.984 406.72 164.539
 405.63 c 164.539 342.529 l 286.523 342.529 l 286.523 392.634 l 281.113 
394.99 275.59 397.119 269.957 399.001 c h
269.957 399.001 m f
0.913725 0.894118 0.847059 rg
269.957 399.001 m 269.957 358.052 l 181.105 358.052 l 181.105 408.24 l 
188.887 409.13 196.793 409.591 204.805 409.591 c 227.578 409.591 249.492
 405.869 269.957 399.001 c h
269.957 399.001 m f
0.4 g
354.477 299.154 m 354.477 208.107 l 258.652 208.107 l 290.273 299.154 l
 h
354.477 299.154 m f
0.666667 0.313726 0.0745098 rg
11.164 168.134 387.277 -23.098 re f
Q Q
showpage
%%Trailer
end restore
%%EOF
