%!PS-Adobe-3.0 EPSF-3.0
%%Creator: cairo 1.14.2 (http://cairographics.org)
%%CreationDate: Wed Jul 12 12:57:24 2017
%%Pages: 1
%%DocumentData: Clean7Bit
%%LanguageLevel: 2
%%BoundingBox: 0 -1 410 410
%%EndComments
%%BeginProlog
save
50 dict begin
/q { gsave } bind def
/Q { grestore } bind def
/cm { 6 array astore concat } bind def
/w { setlinewidth } bind def
/J { setlinecap } bind def
/j { setlinejoin } bind def
/M { setmiterlimit } bind def
/d { setdash } bind def
/m { moveto } bind def
/l { lineto } bind def
/c { curveto } bind def
/h { closepath } bind def
/re { exch dup neg 3 1 roll 5 3 roll moveto 0 rlineto
      0 exch rlineto 0 rlineto closepath } bind def
/S { stroke } bind def
/f { fill } bind def
/f* { eofill } bind def
/n { newpath } bind def
/W { clip } bind def
/W* { eoclip } bind def
/BT { } bind def
/ET { } bind def
/pdfmark where { pop globaldict /?pdfmark /exec load put }
    { globaldict begin /?pdfmark /pop load def /pdfmark
    /cleartomark load def end } ifelse
/BDC { mark 3 1 roll /BDC pdfmark } bind def
/EMC { mark /EMC pdfmark } bind def
/cairo_store_point { /cairo_point_y exch def /cairo_point_x exch def } def
/Tj { show currentpoint cairo_store_point } bind def
/TJ {
  {
    dup
    type /stringtype eq
    { show } { -0.001 mul 0 cairo_font_matrix dtransform rmoveto } ifelse
  } forall
  currentpoint cairo_store_point
} bind def
/cairo_selectfont { cairo_font_matrix aload pop pop pop 0 0 6 array astore
    cairo_font exch selectfont cairo_point_x cairo_point_y moveto } bind def
/Tf { pop /cairo_font exch def /cairo_font_matrix where
      { pop cairo_selectfont } if } bind def
/Td { matrix translate cairo_font_matrix matrix concatmatrix dup
      /cairo_font_matrix exch def dup 4 get exch 5 get cairo_store_point
      /cairo_font where { pop cairo_selectfont } if } bind def
/Tm { 2 copy 8 2 roll 6 array astore /cairo_font_matrix exch def
      cairo_store_point /cairo_font where { pop cairo_selectfont } if } bind def
/g { setgray } bind def
/rg { setrgbcolor } bind def
/d1 { setcachedevice } bind def
%%EndProlog
%%BeginSetup
%%EndSetup
%%Page: 1 1
%%BeginPageSetup
%%PageBoundingBox: 0 -1 410 410
%%EndPageSetup
q 0 -1 410 411 rectclip q
0.913725 0.894118 0.847059 rg
409.594 204.798 m 409.594 91.693 317.902 0.001 204.797 0.001 c 91.691 0.001
 0 91.693 0 204.798 c 0 317.904 91.691 409.595 204.797 409.595 c 317.902
 409.595 409.594 317.904 409.594 204.798 c h
409.594 204.798 m f
0.47451 0.568627 0.717647 rg
174.094 189.22 m 171.039 197.564 l 246.129 225.048 l 237.891 212.572 l 
h
174.094 189.22 m f
241.832 189.22 m 244.887 197.564 l 166.824 226.134 l 178.035 212.572 l 
h
241.832 189.22 m f
142.629 268.744 129.543 -8.883 re f
184.879 169.552 m 167.543 182.935 l 172.973 189.966 l 190.305 176.583 l
 h
184.879 169.552 m f
37.188 104.724 m 36.758 104.724 36.32 104.787 35.883 104.923 c 33.539 105.642
 32.223 108.126 32.941 110.47 c 44.223 147.232 l 44.941 149.58 47.426 150.896
 49.773 150.177 c 52.117 149.458 53.434 146.97 52.715 144.626 c 41.434 107.865
 l 40.844 105.955 39.09 104.724 37.188 104.724 c h
37.188 104.724 m f
0.258824 0.341176 0.498039 rg
179.738 204.505 m 179.738 158.611 142.535 121.408 96.641 121.408 c 50.75
 121.408 13.547 158.611 13.547 204.505 c 13.547 250.396 50.75 287.603 96.641
 287.603 c 142.535 287.603 179.738 250.396 179.738 204.505 c h
179.738 204.505 m f
0.47451 0.568627 0.717647 rg
242.297 236.376 m 231.551 241.615 219.988 244.267 207.93 244.267 c 195.871
 244.267 184.309 241.615 173.566 236.376 c 169.676 244.365 l 181.641 250.193
 194.512 253.15 207.93 253.15 c 221.348 253.15 234.219 250.193 246.188 244.365
 c h
242.297 236.376 m f
0.941176 0.627451 0.215686 rg
182.945 155.615 m 182.445 155.615 181.941 155.701 181.445 155.876 c 179.137
 156.705 177.934 159.248 178.762 161.556 c 188.102 187.642 l 188.93 189.951
 191.473 191.154 193.781 190.326 c 196.09 189.501 197.293 186.958 196.465
 184.65 c 187.125 158.56 l 186.477 156.748 184.766 155.615 182.945 155.615
 c h
182.945 155.615 m f
0.258824 0.341176 0.498039 rg
17.848 230.97 m 13.188 239.052 l 10.344 243.994 14.801 249.935 20.336 248.587
 c 25.43 247.345 l f
0.47451 0.568627 0.717647 rg
225.609 176.583 m 242.941 189.966 l 248.371 182.935 l 231.039 169.552 l
 h
225.609 176.583 m f
378.738 104.724 m 379.168 104.724 379.605 104.787 380.039 104.923 c 382.387
 105.642 383.703 108.126 382.984 110.47 c 371.699 147.232 l 370.98 149.58
 368.496 150.896 366.152 150.177 c 363.809 149.458 362.488 146.97 363.211
 144.626 c 374.492 107.865 l 375.078 105.955 376.836 104.724 378.738 104.724
 c h
378.738 104.724 m f
0.258824 0.341176 0.498039 rg
402.383 204.505 m 402.383 158.611 365.18 121.408 319.285 121.408 c 273.391
 121.408 236.188 158.611 236.188 204.505 c 236.188 250.396 273.391 287.603
 319.285 287.603 c 365.18 287.603 402.383 250.396 402.383 204.505 c h
402.383 204.505 m f
0.941176 0.627451 0.215686 rg
232.98 155.615 m 233.477 155.615 233.98 155.701 234.477 155.876 c 236.789
 156.705 237.988 159.248 237.164 161.556 c 227.824 187.642 l 226.996 189.951
 224.453 191.154 222.145 190.326 c 219.836 189.501 218.633 186.958 219.461
 184.65 c 228.801 158.56 l 229.449 156.748 231.16 155.615 232.98 155.615
 c h
232.98 155.615 m f
0.258824 0.341176 0.498039 rg
398.078 230.97 m 402.738 239.052 l 405.582 243.994 401.125 249.935 395.59
 248.587 c 390.496 247.345 l f
0.756863 0.929412 0.956863 rg
165.238 204.501 m 165.238 201.349 165.027 198.251 164.609 195.212 c 164.137
 191.697 163.391 188.267 162.398 184.943 c 153.961 156.619 127.676 135.904
 96.641 135.904 c 82.793 135.904 69.875 140.033 59.086 147.123 c 56.145 
149.048 53.371 151.189 50.77 153.537 c 36.824 166.095 28.039 184.294 28.039
 204.501 c 28.039 242.333 58.809 273.103 96.641 273.103 c 134.469 273.103
 165.238 242.333 165.238 204.501 c f
0.643137 0.847059 0.866667 rg
164.609 195.212 m 164.137 191.693 163.391 188.263 162.398 184.943 c 59.086
 147.123 l 56.145 149.048 53.375 151.189 50.77 153.533 c 164.609 195.212
 l f
0.756863 0.929412 0.956863 rg
387.883 204.501 m 387.883 184.294 379.098 166.095 365.152 153.537 c 362.551
 151.189 359.777 149.048 356.84 147.123 c 346.047 140.033 333.129 135.904
 319.281 135.904 c 311.207 135.904 303.453 137.306 296.258 139.884 c 275.773
 147.193 259.77 163.99 253.523 184.943 c 252.527 188.267 251.785 191.693
 251.312 195.212 c 250.895 198.251 250.684 201.349 250.684 204.501 c 250.684
 242.333 281.453 273.103 319.281 273.103 c 330.715 273.103 341.488 270.294
 350.973 265.33 c 372.898 253.873 387.883 230.912 387.883 204.501 c f
0.643137 0.847059 0.866667 rg
251.316 195.212 m 251.789 191.693 252.531 188.263 253.527 184.943 c 356.84
 147.123 l 359.781 149.048 362.551 151.189 365.156 153.533 c 251.316 195.212
 l f
0.858824 0.956863 0.976471 rg
307.324 165.248 m 296.258 139.88 l 303.453 137.306 311.207 135.9 319.281
 135.9 c 333.129 135.9 346.047 140.033 356.84 147.119 c 356.84 147.123 l
 307.324 165.248 l 350.977 265.33 m 310.879 173.404 l 365.156 153.533 l 
379.098 166.095 387.883 184.294 387.883 204.501 c 387.883 230.912 372.898
 253.873 350.977 265.33 c f
0.788235 0.909804 0.921569 rg
310.879 173.404 m 307.324 165.248 l 356.84 147.119 l 359.777 149.048 362.547
 151.189 365.152 153.533 c 310.879 173.404 l f
1 g
96.812 135.904 m 96.641 135.904 l 96.695 135.9 96.754 135.904 96.812 135.904
 c 96.402 135.904 m 96.465 135.904 l 96.402 135.904 l 96.984 135.904 m 96.871
 135.904 l 96.984 135.904 l 96.215 135.904 m 96.289 135.904 l 96.215 135.904
 l 97.156 135.904 m 97.121 135.904 97.09 135.904 97.059 135.904 c 97.09 
135.904 97.121 135.904 97.156 135.904 c 96.039 135.904 m 96.109 135.904 
l 96.039 135.904 l 97.328 135.904 m 97.297 135.904 97.266 135.904 97.23 
135.904 c 97.266 135.904 97.297 135.904 97.328 135.904 c 95.859 135.908 
m 95.883 135.908 95.902 135.908 95.926 135.908 c 95.902 135.908 95.879 135.908
 95.859 135.908 c 97.5 135.908 m 97.469 135.908 97.441 135.908 97.41 135.908
 c 97.438 135.908 97.469 135.908 97.5 135.908 c 95.684 135.908 m 95.703 
135.908 95.719 135.908 95.738 135.908 c 95.719 135.908 95.703 135.908 95.684
 135.908 c 97.668 135.908 m 97.637 135.908 97.609 135.908 97.582 135.908
 c 97.609 135.908 97.637 135.908 97.668 135.908 c 95.496 135.912 m 95.523
 135.912 l 95.496 135.912 l 97.832 135.912 m 97.805 135.912 97.781 135.912
 97.758 135.912 c 97.781 135.912 97.805 135.912 97.832 135.912 c 97.977 
135.916 m 97.961 135.916 97.945 135.916 97.93 135.916 c 97.945 135.916 97.961
 135.916 97.977 135.916 c 95.27 135.916 m 95.289 135.916 95.309 135.916 
95.328 135.916 c 95.309 135.916 95.289 135.916 95.27 135.916 c 95.078 135.919
 m 95.105 135.919 95.133 135.919 95.16 135.919 c 95.133 135.919 95.105 135.919
 95.078 135.919 c 94.902 135.923 m 94.93 135.923 94.953 135.923 94.977 135.923
 c 94.953 135.923 94.93 135.923 94.902 135.923 c 98.422 135.923 m 98.414
 135.923 l 98.422 135.923 l 94.73 135.927 m 94.754 135.927 94.777 135.927
 94.801 135.927 c 94.777 135.927 94.754 135.927 94.73 135.927 c 98.59 135.931
 m 98.578 135.931 98.566 135.931 98.559 135.927 c 98.57 135.931 98.578 135.931
 98.59 135.931 c 94.551 135.935 m 94.57 135.931 94.59 135.931 94.613 135.931
 c 94.594 135.931 94.57 135.931 94.551 135.935 c 98.746 135.935 m 98.734
 135.935 l 98.746 135.935 l 98.906 135.939 m 98.898 135.939 l 98.906 135.939
 l 94.348 135.939 m 94.418 135.939 l 94.348 135.939 l 94.148 135.947 m 94.168
 135.947 94.184 135.947 94.203 135.947 c 94.184 135.947 94.168 135.947 94.148
 135.947 c 93.961 135.955 m 93.98 135.955 94.004 135.955 94.023 135.951 
c 94.004 135.951 93.98 135.955 93.961 135.955 c 93.781 135.962 m 93.805 
135.962 93.824 135.958 93.848 135.958 c 93.824 135.958 93.805 135.958 93.781
 135.962 c 93.598 135.97 m 93.672 135.966 l 93.648 135.966 93.621 135.966
 93.598 135.97 c 93.426 135.974 m 93.449 135.974 93.469 135.974 93.488 135.974
 c 93.469 135.974 93.449 135.974 93.426 135.974 c 93.242 135.986 m 93.254
 135.986 93.266 135.986 93.277 135.986 c 93.266 135.986 93.254 135.986 93.242
 135.986 c 93.02 135.998 m 93.039 135.998 93.059 135.994 93.078 135.994 
c 93.059 135.994 93.039 135.998 93.02 135.998 c 92.84 136.005 m 92.859 136.005
 92.879 136.005 92.902 136.001 c 92.879 136.005 92.859 136.005 92.84 136.005
 c 92.66 136.017 m 92.68 136.017 92.703 136.013 92.723 136.013 c 92.703 
136.013 92.68 136.017 92.66 136.017 c 92.48 136.029 m 92.504 136.025 92.527
 136.025 92.547 136.025 c 92.523 136.025 92.504 136.025 92.48 136.029 c 
92.305 136.037 m 92.324 136.037 92.344 136.037 92.363 136.033 c 92.344 136.037
 92.324 136.037 92.305 136.037 c 92.133 136.048 m 92.133 136.048 l 91.914
 136.064 m 91.93 136.064 91.941 136.06 91.957 136.06 c 91.941 136.06 91.926
 136.064 91.914 136.064 c 91.73 136.076 m 91.746 136.076 91.762 136.076 
91.777 136.072 c 91.762 136.076 91.746 136.076 91.73 136.076 c 91.551 136.087
 m 91.566 136.087 91.582 136.087 91.598 136.087 c 91.582 136.087 91.566 
136.087 91.551 136.087 c 91.371 136.103 m 91.387 136.103 91.402 136.099 
91.418 136.099 c 91.402 136.099 91.387 136.103 91.371 136.103 c 91.199 136.119
 m 91.207 136.115 91.215 136.115 91.223 136.115 c 91.215 136.115 91.207 
136.115 91.199 136.119 c 90.824 136.146 m 90.828 136.146 90.832 136.146 
90.836 136.146 c 90.832 136.146 90.828 136.146 90.824 136.146 c 90.625 136.166
 m 90.637 136.162 90.648 136.162 90.66 136.162 c 90.648 136.162 90.637 136.162
 90.625 136.166 c 90.445 136.181 m 90.457 136.181 90.469 136.177 90.477 
136.177 c 90.469 136.177 90.457 136.181 90.445 136.181 c 90.273 136.197 
m 90.277 136.197 90.281 136.197 90.289 136.197 c 90.281 136.193 90.277 136.197
 90.273 136.197 c 162.906 186.732 m 162.742 186.13 162.574 185.537 162.395
 184.943 c 158.012 170.224 148.812 157.564 136.633 148.794 c 138.676 150.267
 140.637 151.845 142.508 153.533 c 152.215 162.275 159.422 173.751 162.906
 186.732 c 165.141 200.802 m 165.039 198.919 164.863 197.052 164.609 195.208
 c 164.516 194.509 164.41 193.818 164.297 193.126 c 164.719 195.642 165.004
 198.205 165.141 200.802 c 165.152 201.005 m 165.145 200.912 l 165.148 200.943
 165.148 200.974 165.152 201.005 c 165.164 201.228 m 165.16 201.212 165.16
 201.193 165.16 201.173 c 165.16 201.193 165.16 201.212 165.164 201.228 
c 165.172 201.447 m 165.172 201.443 165.172 201.439 165.172 201.435 c 165.172
 201.439 165.172 201.443 165.172 201.447 c 165.18 201.677 m 165.18 201.669
 l 165.18 201.677 l 165.191 201.908 m 165.191 201.908 l 165.227 203.095 
m 165.227 203.08 l 165.227 203.095 l 165.234 203.568 m 165.234 203.541 l
 165.234 203.568 l 165.234 203.806 m 165.234 203.787 l 165.234 203.806 l
 165.238 204.041 m 165.238 204.009 l 165.238 204.041 l 165.238 204.294 m
 165.238 204.248 l 165.238 204.294 l 165.238 204.701 m 165.238 204.501 l
 165.238 204.701 l 165.238 204.919 m 165.238 204.865 165.238 204.81 165.238
 204.751 c 165.238 204.81 165.238 204.865 165.238 204.919 c 165.234 205.154
 m 165.238 205.087 165.238 205.021 165.238 204.955 c 165.238 205.021 165.238
 205.083 165.234 205.154 c 165.234 205.357 m 165.234 205.302 165.234 205.251
 165.234 205.197 c 165.234 205.251 165.234 205.302 165.234 205.357 c 165.23
 205.603 m 165.234 205.404 l 165.234 205.47 165.23 205.537 165.23 205.603
 c 165.227 205.806 m 165.227 205.744 165.23 205.689 165.23 205.626 c 165.23
 205.685 165.227 205.748 165.227 205.806 c 165.219 206.251 m 165.223 206.119
 165.223 205.982 165.227 205.849 c 165.223 205.982 165.223 206.115 165.219
 206.251 c 165.203 206.701 m 165.211 206.564 165.211 206.431 165.215 206.291
 c 165.211 206.431 165.211 206.564 165.203 206.701 c 165.188 207.15 m 165.195
 207.005 165.199 206.869 165.203 206.724 c 165.199 206.865 165.195 207.009
 165.188 207.15 c 165.18 207.361 m 165.184 207.291 165.188 207.224 165.188
 207.154 c 165.188 207.22 165.184 207.294 165.18 207.361 c 165.16 207.806
 m 165.168 207.662 165.176 207.521 165.18 207.376 c 165.172 207.521 165.168
 207.662 165.16 207.806 c 141.363 256.482 m 155.195 244.564 164.234 227.236
 165.16 207.814 c 164.234 227.24 155.195 244.568 141.363 256.482 c 141.215
 256.611 m 141.258 256.572 141.305 256.533 141.348 256.498 c 141.305 256.533
 141.258 256.572 141.215 256.611 c 141.082 256.724 m 141.105 256.705 141.125
 256.685 141.148 256.669 c 141.125 256.685 141.105 256.705 141.082 256.724
 c 140.98 256.81 m 140.98 256.81 140.988 256.806 140.988 256.802 c 140.984
 256.806 140.984 256.806 140.98 256.81 c f
0.858824 0.956863 0.976471 rg
162.906 186.732 m 162.742 186.13 162.574 185.537 162.395 184.943 c 80.133
 154.826 l 73.613 139.884 l 78.898 137.99 84.48 136.732 90.27 136.197 c 
90.277 136.197 90.281 136.197 90.285 136.197 c 90.34 136.189 90.391 136.185
 90.445 136.181 c 90.457 136.181 90.469 136.177 90.477 136.177 c 90.527 
136.173 90.574 136.169 90.625 136.166 c 90.633 136.162 90.648 136.162 90.66
 136.162 c 90.715 136.158 90.77 136.154 90.824 136.146 c 90.828 136.146 
90.832 136.146 90.832 136.146 c 90.953 136.134 91.074 136.126 91.195 136.115
 c 91.203 136.115 91.211 136.115 91.223 136.115 c 91.27 136.111 91.32 136.107
 91.371 136.103 c 91.387 136.103 91.398 136.099 91.414 136.099 c 91.461 
136.095 91.504 136.091 91.551 136.091 c 91.566 136.091 91.582 136.087 91.598
 136.087 c 91.641 136.083 91.684 136.08 91.727 136.08 c 91.742 136.076 91.762
 136.076 91.777 136.076 c 91.82 136.072 91.867 136.068 91.91 136.064 c 91.926
 136.064 91.941 136.064 91.957 136.064 c 92.012 136.06 92.074 136.056 92.133
 136.052 c 92.191 136.048 92.246 136.044 92.305 136.041 c 92.324 136.041
 92.344 136.041 92.363 136.037 c 92.402 136.037 92.441 136.033 92.48 136.033
 c 92.504 136.029 92.523 136.029 92.547 136.029 c 92.582 136.025 92.621 
136.025 92.656 136.021 c 92.68 136.021 92.699 136.021 92.723 136.017 c 92.762
 136.017 92.797 136.013 92.836 136.013 c 92.855 136.009 92.879 136.009 92.898
 136.009 c 92.938 136.005 92.98 136.005 93.02 136.001 c 93.074 136.001 l
 93.133 135.998 93.188 135.994 93.242 135.994 c 93.254 135.994 93.266 135.99
 93.273 135.99 c 93.324 135.99 93.375 135.986 93.426 135.982 c 93.445 135.982
 93.465 135.982 93.488 135.982 c 93.523 135.978 93.562 135.978 93.598 135.974
 c 93.621 135.974 93.648 135.974 93.672 135.974 c 93.707 135.97 93.742 135.97
 93.781 135.97 c 93.801 135.966 93.824 135.966 93.844 135.966 c 93.883 135.966
 93.922 135.962 93.961 135.962 c 93.98 135.962 94 135.958 94.023 135.958
 c 94.062 135.958 94.105 135.958 94.145 135.955 c 94.164 135.955 94.18 135.955
 94.199 135.955 c 94.344 135.947 l 94.367 135.947 94.391 135.947 94.414 
135.947 c 94.461 135.943 94.504 135.943 94.551 135.943 c 94.57 135.943 94.59
 135.943 94.613 135.939 c 94.652 135.939 94.691 135.939 94.727 135.939 c
 94.75 135.935 94.773 135.935 94.797 135.935 c 94.832 135.935 94.867 135.935
 94.902 135.935 c 94.93 135.935 94.953 135.931 94.977 135.931 c 95.012 135.931
 95.043 135.931 95.078 135.931 c 95.105 135.931 95.133 135.931 95.16 135.927
 c 95.195 135.927 95.234 135.927 95.27 135.927 c 95.289 135.927 95.309 135.927
 95.328 135.927 c 95.496 135.923 l 95.523 135.923 l 95.574 135.923 95.629
 135.923 95.684 135.923 c 95.703 135.923 95.719 135.923 95.738 135.923 c
 95.777 135.923 95.82 135.919 95.859 135.919 c 95.883 135.919 95.906 135.919
 95.926 135.919 c 95.965 135.919 96 135.919 96.039 135.919 c 96.109 135.919
 l 96.145 135.919 96.18 135.919 96.215 135.919 c 97.059 135.919 l 97.09 
135.919 97.125 135.919 97.156 135.919 c 97.23 135.919 l 97.262 135.919 97.297
 135.919 97.328 135.919 c 97.355 135.919 97.383 135.919 97.41 135.919 c 
97.441 135.919 97.469 135.923 97.5 135.923 c 97.527 135.923 97.555 135.923
 97.582 135.923 c 97.609 135.923 97.637 135.923 97.668 135.923 c 97.699 
135.923 97.727 135.923 97.758 135.923 c 97.781 135.923 97.809 135.923 97.832
 135.923 c 97.863 135.923 97.898 135.927 97.93 135.927 c 97.945 135.927 
97.961 135.927 97.977 135.927 c 98.125 135.931 98.27 135.935 98.414 135.935
 c 98.422 135.935 l 98.465 135.939 98.512 135.939 98.559 135.939 c 98.566
 135.939 98.578 135.939 98.59 135.939 c 98.637 135.943 98.688 135.943 98.734
 135.947 c 98.746 135.947 l 98.797 135.947 98.848 135.947 98.902 135.951
 c 98.906 135.951 l 111.895 136.376 123.996 140.431 134.195 147.13 c 135.02
 147.673 135.832 148.232 136.633 148.806 c 148.812 157.576 158.016 170.236
 162.398 184.955 c 162.574 185.537 162.742 186.13 162.906 186.732 c 128.332
 265.33 m 85.043 166.083 l 164.609 195.212 l 164.516 194.513 164.41 193.818
 164.297 193.126 c 164.41 193.818 164.516 194.513 164.609 195.212 c 164.863
 197.052 165.039 198.919 165.141 200.806 c 165.141 200.841 165.145 200.876
 165.145 200.912 c 165.152 201.005 l 165.152 201.06 165.156 201.119 165.16
 201.173 c 165.16 201.193 165.16 201.212 165.16 201.228 c 165.164 201.298
 165.168 201.369 165.172 201.439 c 165.172 201.439 165.172 201.443 165.172
 201.447 c 165.176 201.521 165.18 201.595 165.18 201.669 c 165.18 201.677
 l 165.184 201.755 165.188 201.833 165.191 201.912 c 165.203 202.298 165.215
 202.689 165.223 203.08 c 165.223 203.095 l 165.227 203.244 165.23 203.392
 165.23 203.541 c 165.23 203.572 l 165.234 203.791 l 165.234 203.806 l 165.234
 203.873 165.234 203.943 165.234 204.009 c 165.234 204.041 l 165.238 204.111
 165.238 204.181 165.238 204.248 c 165.238 204.755 l 165.238 204.81 165.234
 204.869 165.234 204.923 c 165.234 204.958 l 165.234 205.025 165.234 205.087
 165.234 205.154 c 165.234 205.197 l 165.234 205.251 165.234 205.306 165.234
 205.361 c 165.234 205.376 165.234 205.392 165.23 205.404 c 165.23 205.626
 l 165.23 205.689 165.227 205.748 165.227 205.81 c 165.227 205.826 165.227
 205.837 165.227 205.849 c 165.223 205.986 165.219 206.119 165.219 206.251
 c 165.219 206.267 165.215 206.283 165.215 206.294 c 165.211 206.431 165.207
 206.568 165.203 206.705 c 165.203 206.712 165.203 206.72 165.203 206.728
 c 165.199 206.869 165.195 207.009 165.188 207.154 c 165.188 207.228 165.184
 207.294 165.18 207.365 c 165.18 207.369 165.18 207.373 165.18 207.376 c
 165.172 207.521 165.168 207.662 165.16 207.806 c 165.16 207.814 l 164.234
 227.24 155.195 244.568 141.363 256.482 c 141.359 256.49 141.355 256.494
 141.348 256.498 c 141.305 256.537 141.258 256.572 141.219 256.611 c 141.191
 256.63 141.172 256.65 141.148 256.669 c 141.129 256.689 141.105 256.705
 141.086 256.724 c 141.055 256.751 141.02 256.779 140.988 256.806 c 140.988
 256.806 140.984 256.81 140.98 256.81 c 137.109 260.095 132.871 262.958 
128.332 265.33 c f
0.788235 0.909804 0.921569 rg
164.609 195.212 m 85.043 166.083 l 80.137 154.826 l 162.398 184.943 l 162.574
 185.537 162.746 186.13 162.906 186.732 c 163.469 188.826 163.934 190.958
 164.297 193.126 c 164.41 193.818 164.516 194.513 164.609 195.212 c f
Q Q
showpage
%%Trailer
end restore
%%EOF
