%!PS-Adobe-3.0 EPSF-3.0
%%Creator: cairo 1.14.2 (http://cairographics.org)
%%CreationDate: Wed Jul 12 12:57:24 2017
%%Pages: 1
%%DocumentData: Clean7Bit
%%LanguageLevel: 2
%%BoundingBox: 0 -1 410 410
%%EndComments
%%BeginProlog
save
50 dict begin
/q { gsave } bind def
/Q { grestore } bind def
/cm { 6 array astore concat } bind def
/w { setlinewidth } bind def
/J { setlinecap } bind def
/j { setlinejoin } bind def
/M { setmiterlimit } bind def
/d { setdash } bind def
/m { moveto } bind def
/l { lineto } bind def
/c { curveto } bind def
/h { closepath } bind def
/re { exch dup neg 3 1 roll 5 3 roll moveto 0 rlineto
      0 exch rlineto 0 rlineto closepath } bind def
/S { stroke } bind def
/f { fill } bind def
/f* { eofill } bind def
/n { newpath } bind def
/W { clip } bind def
/W* { eoclip } bind def
/BT { } bind def
/ET { } bind def
/pdfmark where { pop globaldict /?pdfmark /exec load put }
    { globaldict begin /?pdfmark /pop load def /pdfmark
    /cleartomark load def end } ifelse
/BDC { mark 3 1 roll /BDC pdfmark } bind def
/EMC { mark /EMC pdfmark } bind def
/cairo_store_point { /cairo_point_y exch def /cairo_point_x exch def } def
/Tj { show currentpoint cairo_store_point } bind def
/TJ {
  {
    dup
    type /stringtype eq
    { show } { -0.001 mul 0 cairo_font_matrix dtransform rmoveto } ifelse
  } forall
  currentpoint cairo_store_point
} bind def
/cairo_selectfont { cairo_font_matrix aload pop pop pop 0 0 6 array astore
    cairo_font exch selectfont cairo_point_x cairo_point_y moveto } bind def
/Tf { pop /cairo_font exch def /cairo_font_matrix where
      { pop cairo_selectfont } if } bind def
/Td { matrix translate cairo_font_matrix matrix concatmatrix dup
      /cairo_font_matrix exch def dup 4 get exch 5 get cairo_store_point
      /cairo_font where { pop cairo_selectfont } if } bind def
/Tm { 2 copy 8 2 roll 6 array astore /cairo_font_matrix exch def
      cairo_store_point /cairo_font where { pop cairo_selectfont } if } bind def
/g { setgray } bind def
/rg { setrgbcolor } bind def
/d1 { setcachedevice } bind def
%%EndProlog
%%BeginSetup
%%EndSetup
%%Page: 1 1
%%BeginPageSetup
%%PageBoundingBox: 0 -1 410 410
%%EndPageSetup
q 0 -1 410 411 rectclip q
0.913725 0.894118 0.847059 rg
409.602 204.795 m 409.602 176.979 404.059 150.455 394.004 126.276 c 394.004
 126.256 393.992 126.24 393.984 126.221 c 377.082 85.557 347.441 51.53 310.055
 29.092 c 304.875 25.975 299.535 23.088 294.066 20.432 c 286.746 16.877 
279.176 13.752 271.398 11.084 c 265.898 9.186 260.285 7.514 254.582 6.104
 c 238.648 2.115 221.973 -0.002 204.805 -0.002 c 187.637 -0.002 170.953 
2.115 155.02 6.104 c 149.316 7.526 143.703 9.186 138.203 11.084 c 130.422
 13.752 122.855 16.877 115.535 20.432 c 110.062 23.088 104.727 25.971 99.547
 29.092 c 62.16 51.53 32.52 85.557 15.613 126.221 c 15.605 126.24 15.598
 126.256 15.598 126.276 c 5.543 150.455 0 176.979 0 204.795 c 0 317.908 
91.695 409.592 204.805 409.592 c 317.906 409.592 409.602 317.908 409.602
 204.795 c h
409.602 204.795 m f
0.666667 0.313726 0.0745098 rg
115.535 107.666 m 115.535 20.432 l 110.062 23.088 104.727 25.975 99.547
 29.092 c 62.16 51.53 32.52 85.557 15.613 126.221 c 15.605 126.24 15.598
 126.256 15.598 126.276 c 96.926 126.276 l 107.203 126.276 115.535 117.944
 115.535 107.666 c h
115.535 107.666 m f
0.768627 0.745098 0.694118 rg
16.902 126.276 m 16.469 126.276 16.043 126.256 15.613 126.221 c 15.605 
126.24 15.598 126.256 15.598 126.276 c h
16.902 126.276 m f
0.196078 0.666667 0.807843 rg
271.414 107.666 m 271.414 11.655 l 271.414 11.467 271.414 11.272 271.398
 11.088 c 265.898 9.186 260.285 7.518 254.582 6.104 c 238.648 2.115 221.973
 0.002 204.805 0.002 c 187.637 0.002 170.953 2.115 155.02 6.104 c 149.316
 7.526 143.703 9.186 138.203 11.088 c 138.188 11.272 138.188 11.467 138.188
 11.655 c 138.188 107.666 l 138.188 117.944 146.52 126.276 156.797 126.276
 c 252.805 126.276 l 263.082 126.276 271.414 117.944 271.414 107.666 c h
271.414 107.666 m f
0.152941 0.619608 0.729412 rg
154.176 107.666 m 154.176 11.655 l 154.176 9.721 154.469 7.854 155.02 6.104
 c 149.316 7.526 143.703 9.186 138.203 11.088 c 138.188 11.272 138.188 11.467
 138.188 11.655 c 138.188 107.666 l 138.188 117.944 146.52 126.276 156.797
 126.276 c 172.785 126.276 l 162.504 126.276 154.176 117.944 154.176 107.666
 c h
154.176 107.666 m f
0.921569 0.188235 0.356863 rg
394.004 126.276 m 394.004 126.256 393.992 126.24 393.984 126.221 c 377.082
 85.557 347.441 51.53 310.055 29.092 c 304.875 25.975 299.535 23.088 294.066
 20.432 c 294.066 107.666 l 294.066 117.944 302.398 126.276 312.672 126.276
 c h
394.004 126.276 m f
0.847059 0.168627 0.34902 rg
328.664 126.276 m 318.387 126.276 310.055 117.944 310.055 107.666 c 310.055
 29.092 l 304.875 25.975 299.535 23.088 294.066 20.432 c 294.066 107.666
 l 294.066 117.944 302.398 126.276 312.672 126.276 c h
328.664 126.276 m f
0.94902 0.27451 0.454902 rg
394.004 126.276 m 394.004 126.256 393.992 126.24 393.984 126.221 c 393.559
 126.256 393.133 126.276 392.707 126.276 c h
394.004 126.276 m f
0.247059 0.733333 0.847059 rg
271.414 107.666 m 271.414 11.655 l 271.414 11.467 271.414 11.272 271.398
 11.088 c 265.898 9.186 260.285 7.518 254.582 6.104 c 255.133 7.854 255.426
 9.717 255.426 11.655 c 255.426 107.666 l 255.426 117.944 247.094 126.276
 236.816 126.276 c 252.805 126.276 l 263.082 126.276 271.414 117.944 271.414
 107.666 c h
271.414 107.666 m f
0.729412 0.384314 0.152941 rg
115.535 107.666 m 115.535 20.432 l 110.062 23.088 104.727 25.975 99.547
 29.092 c 99.547 107.666 l 99.547 117.944 91.215 126.276 80.938 126.276 
c 96.926 126.276 l 107.203 126.276 115.535 117.944 115.535 107.666 c h
115.535 107.666 m f
0.941176 0.627451 0.215686 rg
174.867 259.51 m 78.855 259.51 l 68.578 259.51 60.246 251.178 60.246 240.901
 c 60.246 144.889 l 60.246 134.612 68.578 126.28 78.855 126.28 c 174.867
 126.28 l 185.145 126.28 193.477 134.612 193.477 144.889 c 193.477 240.901
 l 193.477 251.178 185.145 259.51 174.867 259.51 c h
174.867 259.51 m f
0.333333 0.776471 0.631373 rg
330.75 259.51 m 234.734 259.51 l 224.457 259.51 216.125 251.178 216.125
 240.901 c 216.125 144.889 l 216.125 134.612 224.457 126.28 234.734 126.28
 c 330.75 126.28 l 341.027 126.28 349.359 134.612 349.359 144.889 c 349.359
 240.901 l 349.359 251.178 341.027 259.51 330.75 259.51 c h
330.75 259.51 m f
0.921569 0.188235 0.356863 rg
252.809 392.74 m 156.793 392.74 l 146.52 392.74 138.188 384.412 138.188
 374.135 c 138.188 278.119 l 138.188 267.842 146.52 259.51 156.793 259.51
 c 252.809 259.51 l 263.086 259.51 271.418 267.842 271.418 278.119 c 271.418
 374.135 l 271.418 384.412 263.086 392.74 252.809 392.74 c h
252.809 392.74 m f
0.282353 0.686275 0.541176 rg
232.113 144.889 m 232.113 240.901 l 232.113 251.178 240.445 259.51 250.723
 259.51 c 234.734 259.51 l 224.457 259.51 216.125 251.178 216.125 240.901
 c 216.125 144.889 l 216.125 134.612 224.457 126.28 234.734 126.28 c 250.723
 126.28 l 240.445 126.28 232.113 134.612 232.113 144.889 c h
232.113 144.889 m f
0.878431 0.568627 0.196078 rg
76.234 144.889 m 76.234 240.901 l 76.234 251.178 84.566 259.51 94.84 259.51
 c 78.855 259.51 l 68.578 259.51 60.246 251.178 60.246 240.901 c 60.246 
144.889 l 60.246 134.612 68.578 126.28 78.855 126.28 c 94.84 126.28 l 84.562
 126.28 76.234 134.612 76.234 144.889 c h
76.234 144.889 m f
0.847059 0.168627 0.34902 rg
154.176 278.119 m 154.176 374.135 l 154.176 384.412 162.504 392.74 172.781
 392.74 c 156.793 392.74 l 146.52 392.74 138.188 384.412 138.188 374.135
 c 138.188 278.119 l 138.188 267.842 146.52 259.51 156.793 259.51 c 172.781
 259.51 l 162.504 259.51 154.176 267.842 154.176 278.119 c h
154.176 278.119 m f
0.458824 0.847059 0.705882 rg
333.371 144.889 m 333.371 240.901 l 333.371 251.178 325.039 259.51 314.762
 259.51 c 330.75 259.51 l 341.027 259.51 349.359 251.178 349.359 240.901
 c 349.359 144.889 l 349.359 134.612 341.027 126.28 330.75 126.28 c 314.762
 126.28 l 325.039 126.28 333.371 134.612 333.371 144.889 c h
333.371 144.889 m f
0.94902 0.27451 0.454902 rg
255.43 278.119 m 255.43 374.135 l 255.43 384.412 247.098 392.74 236.82 
392.74 c 252.809 392.74 l 263.086 392.74 271.418 384.412 271.418 374.135
 c 271.418 278.119 l 271.418 267.842 263.086 259.51 252.809 259.51 c 236.82
 259.51 l 247.098 259.51 255.43 267.842 255.43 278.119 c h
255.43 278.119 m f
0.988235 0.705882 0.368627 rg
177.488 144.889 m 177.488 240.901 l 177.488 251.178 169.156 259.51 158.879
 259.51 c 174.867 259.51 l 185.145 259.51 193.477 251.178 193.477 240.901
 c 193.477 144.889 l 193.477 134.612 185.145 126.28 174.867 126.28 c 158.879
 126.28 l 169.156 126.28 177.488 134.612 177.488 144.889 c h
177.488 144.889 m f
0.215686 0.6 0.45098 rg
294.629 177.092 m 269.875 177.092 l 264 160.975 l 250.645 160.975 l 274.773
 224.815 l 290.801 224.815 l 314.84 160.975 l 300.594 160.975 l h
273.617 187.506 m 291.066 187.506 l 282.43 211.815 l h
273.617 187.506 m f
0.74902 0.105882 0.305882 rg
218.066 327.061 m 226.082 324.033 229.555 317.799 229.555 311.924 c 229.555
 306.225 226.438 300.44 220.738 297.143 c 217.621 295.365 213.793 294.205
 207.293 294.205 c 180.051 294.205 l 180.051 358.045 l 206.758 358.045 l
 212.812 358.045 216.195 357.244 218.957 355.819 c 224.832 352.791 227.949
 347.182 227.949 341.307 c 227.949 335.963 224.836 330.088 218.066 327.061
 c h
211.836 345.936 m 210.41 347.182 208.363 347.983 204.625 347.983 c 193.406
 347.983 l 193.406 331.065 l 204.355 331.065 l 208.453 331.065 210.68 332.135
 212.191 333.737 c 213.707 335.428 214.418 337.565 214.418 339.791 c 214.418
 342.018 213.703 344.334 211.836 345.936 c h
212.457 319.76 m 210.855 321.096 208.543 321.807 204.801 321.807 c 193.406
 321.807 l 193.406 304.268 l 204.711 304.268 l 208.719 304.268 210.945 305.069
 212.547 306.315 c 214.684 308.006 215.574 310.498 215.574 312.994 c 215.574
 315.662 214.504 318.158 212.457 319.76 c h
212.457 319.76 m f
0.109804 0.552941 0.627451 rg
206 30.24 m 187.039 30.24 174.215 43.951 174.215 63.092 c 174.215 82.772
 188.461 96.037 206 96.037 c 220.781 96.037 232.801 87.846 235.383 73.42
 c 221.762 73.42 l 219.18 80.365 213.391 84.639 206.27 84.639 c 197.188 
84.639 188.641 78.319 188.641 63.182 c 188.641 48.76 197.277 41.815 206.09
 41.815 c 214.191 41.815 219.98 46.178 221.762 53.565 c 235.383 53.565 l
 232.98 39.143 220.691 30.24 206 30.24 c h
206 30.24 m f
0.819608 0.509804 0.172549 rg
141.105 166.229 m 136.211 163.022 130.066 160.975 122.055 160.975 c 98.727
 160.975 l 98.727 224.815 l 121.52 224.815 l 129.801 224.815 136.301 222.854
 141.109 219.916 c 150.723 213.951 154.996 203.178 154.996 192.94 c 154.996
 182.432 150.188 172.194 141.105 166.229 c h
133.805 210.569 m 130.512 213.24 126.238 214.397 121.609 214.397 c 112.082
 214.397 l 112.082 171.393 l 121.609 171.393 l 126.418 171.393 130.867 172.819
 134.164 175.666 c 138.348 179.315 140.93 185.369 140.93 192.94 c 140.93
 201.041 138.168 207.096 133.805 210.569 c h
133.805 210.569 m f
Q Q
showpage
%%Trailer
end restore
%%EOF
