%!PS-Adobe-3.0 EPSF-3.0
%%Creator: cairo 1.14.2 (http://cairographics.org)
%%CreationDate: Wed Jul 12 12:57:24 2017
%%Pages: 1
%%DocumentData: Clean7Bit
%%LanguageLevel: 2
%%BoundingBox: 0 -1 410 410
%%EndComments
%%BeginProlog
save
50 dict begin
/q { gsave } bind def
/Q { grestore } bind def
/cm { 6 array astore concat } bind def
/w { setlinewidth } bind def
/J { setlinecap } bind def
/j { setlinejoin } bind def
/M { setmiterlimit } bind def
/d { setdash } bind def
/m { moveto } bind def
/l { lineto } bind def
/c { curveto } bind def
/h { closepath } bind def
/re { exch dup neg 3 1 roll 5 3 roll moveto 0 rlineto
      0 exch rlineto 0 rlineto closepath } bind def
/S { stroke } bind def
/f { fill } bind def
/f* { eofill } bind def
/n { newpath } bind def
/W { clip } bind def
/W* { eoclip } bind def
/BT { } bind def
/ET { } bind def
/pdfmark where { pop globaldict /?pdfmark /exec load put }
    { globaldict begin /?pdfmark /pop load def /pdfmark
    /cleartomark load def end } ifelse
/BDC { mark 3 1 roll /BDC pdfmark } bind def
/EMC { mark /EMC pdfmark } bind def
/cairo_store_point { /cairo_point_y exch def /cairo_point_x exch def } def
/Tj { show currentpoint cairo_store_point } bind def
/TJ {
  {
    dup
    type /stringtype eq
    { show } { -0.001 mul 0 cairo_font_matrix dtransform rmoveto } ifelse
  } forall
  currentpoint cairo_store_point
} bind def
/cairo_selectfont { cairo_font_matrix aload pop pop pop 0 0 6 array astore
    cairo_font exch selectfont cairo_point_x cairo_point_y moveto } bind def
/Tf { pop /cairo_font exch def /cairo_font_matrix where
      { pop cairo_selectfont } if } bind def
/Td { matrix translate cairo_font_matrix matrix concatmatrix dup
      /cairo_font_matrix exch def dup 4 get exch 5 get cairo_store_point
      /cairo_font where { pop cairo_selectfont } if } bind def
/Tm { 2 copy 8 2 roll 6 array astore /cairo_font_matrix exch def
      cairo_store_point /cairo_font where { pop cairo_selectfont } if } bind def
/g { setgray } bind def
/rg { setrgbcolor } bind def
/d1 { setcachedevice } bind def
%%EndProlog
%%BeginSetup
%%EndSetup
%%Page: 1 1
%%BeginPageSetup
%%PageBoundingBox: 0 -1 410 410
%%EndPageSetup
q 0 -1 410 411 rectclip q
0.941176 0.627451 0.215686 rg
409.602 204.796 m 409.602 91.687 317.906 0.003 204.805 0.003 c 142.316 
0.003 86.363 27.983 48.801 72.101 c 42.691 79.269 37.074 86.874 31.988 94.851
 c 31.391 95.792 30.797 96.733 30.219 97.683 c 29.391 99.015 28.586 100.355
 27.801 101.714 c 20.375 114.425 14.293 128.015 9.727 142.292 c 3.402 161.991
 0 182.991 0 204.796 c 0 270.706 31.133 329.339 79.5 366.788 c 83.203 369.663
 87.012 372.409 90.914 375.022 c 98.953 380.421 107.398 385.253 116.191 
389.472 c 143.008 402.37 173.059 409.593 204.805 409.593 c 283.887 409.593
 352.504 364.772 386.621 299.14 c 401.305 270.901 409.602 238.815 409.602
 204.796 c h
409.602 204.796 m f
0.913725 0.894118 0.847059 rg
409.602 204.796 m 409.602 157.46 393.539 113.886 366.574 79.206 c 365.508
 77.831 364.422 76.46 363.312 75.112 c 361.082 72.394 358.793 69.73 356.422
 67.136 c 355.406 66.007 354.375 64.897 353.32 63.796 c 321.246 30.007 277.758
 7.159 229.027 1.421 c 227.453 1.233 225.863 1.065 224.273 0.917 c 217.871
 0.312 211.367 -0.001 204.805 -0.001 c 183.496 -0.001 162.949 3.253 143.629
 9.292 c 141.57 9.929 139.52 10.605 137.484 11.315 c 102.699 23.413 72.188
 44.636 48.801 72.101 c 42.691 79.269 37.074 86.87 31.988 94.847 c 31.391
 95.788 30.797 96.73 30.219 97.683 c 29.391 99.015 28.586 100.355 27.801
 101.714 c 20.375 114.425 14.293 128.015 9.727 142.288 c 126.672 190.956
 l 133.664 193.87 l 296.543 261.651 l 301.199 263.589 l 386.621 299.136 
l 401.305 270.901 409.602 238.815 409.602 204.796 c h
409.602 204.796 m f
0.6 g
394.773 154.202 m 394.773 174.933 382.32 194.351 359.707 208.882 c 346.648
 217.269 331.098 223.425 314.133 227.108 c 301.199 263.589 l 296.543 261.655
 l 287.973 230.745 l 284.117 230.983 280.219 231.108 276.293 231.108 c 244.812
 231.108 215.188 223.21 192.875 208.882 c 178.922 199.921 168.84 189.093
 163.164 177.245 c 162.516 177.671 161.875 178.105 161.207 178.522 c 154.922
 182.565 148.23 186.261 141.195 189.581 c 133.664 193.87 l 126.676 190.96
 l 131.078 189.253 135.344 187.413 139.473 185.46 c 161.336 173.015 l 159.008
 166.94 157.809 160.632 157.809 154.202 c 157.809 133.472 170.262 114.054
 192.875 99.522 c 197.477 96.573 202.398 93.909 207.566 91.519 c 204.078
 58.53 177.219 29.562 137.484 11.319 c 139.52 10.608 141.57 9.933 143.633
 9.292 c 149.777 12.296 155.648 15.601 161.211 19.171 c 190.84 38.206 208.508
 62.944 211.824 89.628 c 222.402 85.167 233.965 81.862 246.145 79.812 c 
224.277 0.917 l 225.867 1.069 227.457 1.237 229.027 1.425 c 250.566 79.128
 l 258.918 77.937 267.535 77.296 276.293 77.296 c 291.535 77.296 306.332
 79.163 320.082 82.706 c 353.32 63.796 l 354.379 64.897 355.41 66.007 356.422
 67.136 c 326.125 84.378 l 336.754 87.565 346.668 91.792 355.559 96.991 
c 363.312 75.112 l 364.426 76.464 365.508 77.831 366.574 79.206 c 359.434
 99.362 l 359.523 99.417 359.621 99.468 359.707 99.522 c 382.32 114.054 
394.773 133.472 394.773 154.202 c h
299.402 255.355 m 309.059 228.132 l 303.648 229.136 298.113 229.89 292.484
 230.386 c h
276.293 226.667 m 279.816 226.667 283.309 226.558 286.766 226.355 c 258.137
 123.058 l 167 174.905 l 181.055 204.804 224.727 226.667 276.293 226.667
 c h
207.914 96.245 m 180.199 109.48 162.25 130.53 162.25 154.202 c 162.25 159.796
 163.254 165.241 165.145 170.476 c 191.766 151.413 207.969 126.319 207.969
 98.847 c 207.965 97.976 207.949 97.112 207.914 96.245 c h
247.332 84.108 m 234.648 86.226 222.816 89.698 212.258 94.272 c 212.344
 95.792 212.406 97.319 212.406 98.847 c 212.406 120.749 202.824 141.651 
184.953 159.585 c 256.91 118.644 l h
276.293 81.737 m 267.871 81.737 259.664 82.323 251.758 83.437 c 260.891
 116.382 l 314.434 85.913 l 302.504 83.214 289.668 81.737 276.293 81.737
 c h
320.703 87.46 m 262.113 120.796 l 291.277 226.042 l 297.984 225.476 304.492
 224.542 310.781 223.272 c 354.051 101.245 l 344.348 95.499 333.086 90.8
 320.703 87.46 c h
357.914 103.651 m 315.891 222.163 l 359.316 211.913 390.336 185.315 390.336
 154.202 c 390.332 134.554 377.961 116.718 357.914 103.651 c h
357.914 103.651 m f
0.635294 0.670588 0.737255 rg
92.281 366.046 13.324 -90.203 re f
0.4 g
105.605 330.894 m 103.418 331.132 101.191 331.257 98.941 331.257 c 96.695
 331.257 94.473 331.132 92.281 330.894 c 61.652 327.569 37.734 301.546 37.734
 270.046 c 37.734 249.741 47.664 231.718 62.934 220.589 c 68.895 216.23 
75.672 212.925 82.98 210.952 c 88.07 209.573 93.426 208.839 98.941 208.839
 c 104.469 208.839 109.812 209.573 114.902 210.952 c 122.223 212.925 128.992
 216.23 134.953 220.589 c 150.223 231.718 160.152 249.753 160.152 270.046
 c 160.152 301.546 136.23 327.569 105.605 330.894 c h
131.426 234.909 m 125.902 229.784 119.176 225.956 111.723 223.894 c 107.656
 222.765 103.367 222.163 98.941 222.163 c 94.52 222.163 90.23 222.765 86.16
 223.894 c 78.707 225.956 71.984 229.784 66.461 234.909 c 56.992 243.651
 51.059 256.163 51.059 270.05 c 51.059 296.448 72.535 317.933 98.941 317.933
 c 125.34 317.933 146.828 296.448 146.828 270.05 c 146.828 256.163 140.895
 243.647 131.426 234.909 c h
131.426 234.909 m f
0.635294 0.670588 0.737255 rg
57.309 161.562 83.383 -13.324 re f
0.117647 0.192157 0.376471 rg
168.176 65.784 m 159.758 22.675 l 154.863 66.323 l 154.113 73.022 l 169.469
 72.397 l h
168.176 65.784 m f
0.635294 0.670588 0.737255 rg
98.941 275.839 m 86.16 223.894 l 82.98 210.952 l 70.82 161.565 l 67.543
 148.241 l 61.023 121.737 l 53.668 91.862 l 48.801 72.101 l 42.691 79.269
 37.074 86.87 31.988 94.847 c 32.156 95.53 l 40.266 128.46 l 40.266 128.476
 l 62.934 220.589 l 66.461 234.905 l 72.605 259.901 l 75.477 271.577 87.27
 278.706 98.941 275.839 c h
98.941 275.839 m f
0.117647 0.192157 0.376471 rg
65.18 109.679 m 65.18 98.886 56.43 90.136 45.637 90.136 c 34.848 90.136
 26.098 98.886 26.098 109.679 c 26.098 120.472 34.848 129.222 45.637 129.222
 c 56.43 129.222 65.18 120.472 65.18 109.679 c h
65.18 109.679 m f
0.635294 0.670588 0.737255 rg
157.617 128.464 m 125.273 259.901 l 122.402 271.577 110.613 278.71 98.938
 275.843 c 136.859 121.733 l 144.211 91.862 l 156.141 43.386 l 172.07 69.722
 l 165.723 95.53 l h
157.617 128.464 m f
0.117647 0.192157 0.376471 rg
171.777 109.679 m 171.777 98.886 163.031 90.136 152.238 90.136 c 141.445
 90.136 132.695 98.886 132.695 109.679 c 132.695 120.472 141.445 129.222
 152.238 129.222 c 163.031 129.222 171.777 120.472 171.777 109.679 c h
171.777 109.679 m f
0.729412 0.776471 0.8 rg
158.934 109.679 m 158.934 105.98 155.938 102.983 152.238 102.983 c 148.539
 102.983 145.543 105.98 145.543 109.679 c 145.543 113.378 148.539 116.374
 152.238 116.374 c 155.938 116.374 158.934 113.378 158.934 109.679 c h
158.934 109.679 m f
52.336 109.679 m 52.336 105.98 49.336 102.983 45.637 102.983 c 41.941 102.983
 38.941 105.98 38.941 109.679 c 38.941 113.378 41.941 116.374 45.637 116.374
 c 49.336 116.374 52.336 113.378 52.336 109.679 c h
52.336 109.679 m f
0.117647 0.192157 0.376471 rg
99 131.585 m 95.32 131.585 92.34 134.565 92.34 138.245 c 92.34 171.554 
l 92.34 175.233 95.32 178.214 99 178.214 c 102.68 178.214 105.66 175.233
 105.66 171.554 c 105.66 138.245 l 105.664 134.565 102.68 131.585 99 131.585
 c h
99 131.585 m f
115.195 399.745 m 82.684 399.745 l 77.18 342.897 l 120.703 342.897 l h
115.195 399.745 m f
0.0784314 0.145098 0.278431 rg
82.684 399.745 m 77.18 342.897 l 90.059 342.897 l 91.566 399.745 l h
82.684 399.745 m f
115.039 270.054 m 115.039 261.163 107.832 253.956 98.941 253.956 c 90.055
 253.956 82.848 261.163 82.848 270.054 c 82.848 278.94 90.055 286.147 98.941
 286.147 c 107.832 286.147 115.039 278.94 115.039 270.054 c h
115.039 270.054 m f
Q Q
showpage
%%Trailer
end restore
%%EOF
