%!PS-Adobe-3.0 EPSF-3.0
%%Creator: cairo 1.14.2 (http://cairographics.org)
%%CreationDate: Wed Jul 12 12:57:24 2017
%%Pages: 1
%%DocumentData: Clean7Bit
%%LanguageLevel: 2
%%BoundingBox: 0 -1 410 410
%%EndComments
%%BeginProlog
save
50 dict begin
/q { gsave } bind def
/Q { grestore } bind def
/cm { 6 array astore concat } bind def
/w { setlinewidth } bind def
/J { setlinecap } bind def
/j { setlinejoin } bind def
/M { setmiterlimit } bind def
/d { setdash } bind def
/m { moveto } bind def
/l { lineto } bind def
/c { curveto } bind def
/h { closepath } bind def
/re { exch dup neg 3 1 roll 5 3 roll moveto 0 rlineto
      0 exch rlineto 0 rlineto closepath } bind def
/S { stroke } bind def
/f { fill } bind def
/f* { eofill } bind def
/n { newpath } bind def
/W { clip } bind def
/W* { eoclip } bind def
/BT { } bind def
/ET { } bind def
/pdfmark where { pop globaldict /?pdfmark /exec load put }
    { globaldict begin /?pdfmark /pop load def /pdfmark
    /cleartomark load def end } ifelse
/BDC { mark 3 1 roll /BDC pdfmark } bind def
/EMC { mark /EMC pdfmark } bind def
/cairo_store_point { /cairo_point_y exch def /cairo_point_x exch def } def
/Tj { show currentpoint cairo_store_point } bind def
/TJ {
  {
    dup
    type /stringtype eq
    { show } { -0.001 mul 0 cairo_font_matrix dtransform rmoveto } ifelse
  } forall
  currentpoint cairo_store_point
} bind def
/cairo_selectfont { cairo_font_matrix aload pop pop pop 0 0 6 array astore
    cairo_font exch selectfont cairo_point_x cairo_point_y moveto } bind def
/Tf { pop /cairo_font exch def /cairo_font_matrix where
      { pop cairo_selectfont } if } bind def
/Td { matrix translate cairo_font_matrix matrix concatmatrix dup
      /cairo_font_matrix exch def dup 4 get exch 5 get cairo_store_point
      /cairo_font where { pop cairo_selectfont } if } bind def
/Tm { 2 copy 8 2 roll 6 array astore /cairo_font_matrix exch def
      cairo_store_point /cairo_font where { pop cairo_selectfont } if } bind def
/g { setgray } bind def
/rg { setrgbcolor } bind def
/d1 { setcachedevice } bind def
%%EndProlog
%%BeginSetup
%%EndSetup
%%Page: 1 1
%%BeginPageSetup
%%PageBoundingBox: 0 -1 410 410
%%EndPageSetup
q 0 -1 410 411 rectclip q
0.913725 0.894118 0.847059 rg
409.602 204.794 m 409.602 91.684 317.906 0.001 204.805 0.001 c 119.605 
0.001 46.555 52.016 15.695 126.036 c 13.227 131.95 11.023 138.008 9.125 
144.2 c 8.422 146.454 7.754 148.719 7.141 151.012 c 2.488 168.157 0 186.188
 0 204.794 c 0 317.907 91.695 409.59 204.805 409.59 c 258.137 409.59 306.715
 389.196 343.16 355.79 c 345.77 353.399 348.32 350.938 350.797 348.407 c
 351.961 347.235 353.109 346.044 354.234 344.836 c 359.637 339.083 364.707
 333.004 369.414 326.645 c 394.668 292.598 409.602 250.442 409.602 204.794
 c h
409.602 204.794 m f
0.258824 0.341176 0.498039 rg
208.52 204.395 m 103.746 98.329 l 103.738 98.329 l 15.695 126.032 l 13.227
 131.95 11.023 138.008 9.121 144.2 c h
208.52 204.395 m f
0.0941176 0.486275 0.54902 rg
182.844 73.438 m 143.684 25.469 l 150.062 83.754 l h
182.844 73.438 m f
0.184314 0.258824 0.376471 rg
223.77 178.004 m 150.062 83.754 l 143.684 25.469 l 102.766 97.34 l 103.738
 98.329 l 103.746 98.329 l 208.52 204.395 l 223.363 178.321 l h
223.77 178.004 m f
0.0941176 0.486275 0.54902 rg
380.68 378.657 m 238.75 197.161 l 223.77 178.004 l 223.363 178.321 l 208.52
 204.395 l h
380.68 378.657 m f
0.258824 0.341176 0.498039 rg
238.75 197.161 m 306.059 34.661 l 182.844 73.438 l 150.062 83.754 l 223.77
 178.004 l h
238.75 197.161 m f
0.196078 0.666667 0.807843 rg
380.707 378.676 m 306.059 34.661 l 238.75 197.161 l 380.68 378.657 l 380.684
 378.665 l h
380.707 378.676 m f
380.68 378.653 m 350.797 348.407 l 208.52 204.395 l 9.121 144.2 l 8.422
 146.454 7.754 148.719 7.141 151.012 c 343.16 355.79 l h
380.68 378.653 m f
Q Q
showpage
%%Trailer
end restore
%%EOF
