%!PS-Adobe-3.0 EPSF-3.0
%%Creator: cairo 1.14.2 (http://cairographics.org)
%%CreationDate: Wed Jul 12 12:57:24 2017
%%Pages: 1
%%DocumentData: Clean7Bit
%%LanguageLevel: 2
%%BoundingBox: 0 -1 410 410
%%EndComments
%%BeginProlog
save
50 dict begin
/q { gsave } bind def
/Q { grestore } bind def
/cm { 6 array astore concat } bind def
/w { setlinewidth } bind def
/J { setlinecap } bind def
/j { setlinejoin } bind def
/M { setmiterlimit } bind def
/d { setdash } bind def
/m { moveto } bind def
/l { lineto } bind def
/c { curveto } bind def
/h { closepath } bind def
/re { exch dup neg 3 1 roll 5 3 roll moveto 0 rlineto
      0 exch rlineto 0 rlineto closepath } bind def
/S { stroke } bind def
/f { fill } bind def
/f* { eofill } bind def
/n { newpath } bind def
/W { clip } bind def
/W* { eoclip } bind def
/BT { } bind def
/ET { } bind def
/pdfmark where { pop globaldict /?pdfmark /exec load put }
    { globaldict begin /?pdfmark /pop load def /pdfmark
    /cleartomark load def end } ifelse
/BDC { mark 3 1 roll /BDC pdfmark } bind def
/EMC { mark /EMC pdfmark } bind def
/cairo_store_point { /cairo_point_y exch def /cairo_point_x exch def } def
/Tj { show currentpoint cairo_store_point } bind def
/TJ {
  {
    dup
    type /stringtype eq
    { show } { -0.001 mul 0 cairo_font_matrix dtransform rmoveto } ifelse
  } forall
  currentpoint cairo_store_point
} bind def
/cairo_selectfont { cairo_font_matrix aload pop pop pop 0 0 6 array astore
    cairo_font exch selectfont cairo_point_x cairo_point_y moveto } bind def
/Tf { pop /cairo_font exch def /cairo_font_matrix where
      { pop cairo_selectfont } if } bind def
/Td { matrix translate cairo_font_matrix matrix concatmatrix dup
      /cairo_font_matrix exch def dup 4 get exch 5 get cairo_store_point
      /cairo_font where { pop cairo_selectfont } if } bind def
/Tm { 2 copy 8 2 roll 6 array astore /cairo_font_matrix exch def
      cairo_store_point /cairo_font where { pop cairo_selectfont } if } bind def
/g { setgray } bind def
/rg { setrgbcolor } bind def
/d1 { setcachedevice } bind def
%%EndProlog
%%BeginSetup
%%EndSetup
%%Page: 1 1
%%BeginPageSetup
%%PageBoundingBox: 0 -1 410 410
%%EndPageSetup
q 0 -1 410 411 rectclip q
0.913725 0.894118 0.847059 rg
409.594 204.798 m 409.594 91.693 317.902 0.001 204.797 0.001 c 91.691 0.001
 0 91.693 0 204.798 c 0 317.904 91.691 409.595 204.797 409.595 c 317.902
 409.595 409.594 317.904 409.594 204.798 c h
409.594 204.798 m f
0.819608 0.505882 0.164706 rg
126.824 84.529 m 118.363 73.634 104.203 69.751 91.805 73.833 c 88.438 74.935
 85.203 76.626 82.246 78.927 c 68.387 89.689 65.879 109.65 76.641 123.505
 c 87.406 137.365 107.363 139.873 121.223 129.111 c 124.18 126.81 126.621
 124.095 128.523 121.107 c 135.547 110.107 135.289 95.427 126.824 84.529
 c h
126.824 84.529 m f
0.858824 0.552941 0.180392 rg
126.824 84.529 m 118.363 73.634 104.203 69.751 91.805 73.833 c 84.781 84.833
 85.039 99.513 93.504 110.412 c 101.965 121.31 116.125 125.189 128.523 121.107
 c 135.547 110.107 135.289 95.427 126.824 84.529 c h
126.824 84.529 m f
0.666667 0.313726 0.0745098 rg
348.125 336.904 m 370.707 365.982 379.594 396.865 367.977 405.884 c 356.363
 414.908 328.641 398.654 306.059 369.576 c 296.066 356.712 288.762 343.498
 284.723 331.978 c 281.551 322.935 275.641 315.322 267.66 310.009 c 257.5
 303.248 246.504 292.896 236.512 280.033 c 213.93 250.958 205.043 220.076
 216.656 211.052 c 228.273 202.033 255.996 218.287 278.578 247.361 c 288.57
 260.228 295.875 273.439 299.914 284.962 c 303.086 294.005 308.996 301.619
 316.977 306.927 c 327.137 313.693 338.133 324.041 348.125 336.904 c h
348.125 336.904 m f
0.568627 0.258824 0.0470588 rg
248.688 270.576 m 258.68 283.439 269.676 293.791 279.836 300.552 c 287.816
 305.861 293.73 313.474 296.898 322.521 c 300.938 334.041 308.242 347.255
 318.234 360.119 c 336.699 383.892 358.598 399.087 372.32 398.908 c 371.523
 401.861 370.094 404.24 367.977 405.884 c 356.363 414.908 328.641 398.65
 306.059 369.576 c 296.066 356.712 288.762 343.498 284.723 331.978 c 281.551
 322.931 275.641 315.318 267.66 310.009 c 257.496 303.248 246.5 292.896 
236.512 280.033 c 213.93 250.958 205.039 220.076 216.656 211.052 c 218.773
 209.408 221.434 208.615 224.492 208.572 c 220.922 221.826 230.227 246.802
 248.688 270.576 c h
248.688 270.576 m f
0.941176 0.627451 0.215686 rg
24.25 168.271 m 222.828 14.041 l 236.328 31.423 l 240.617 36.947 242.234
 44.033 240.996 50.912 c 237.113 72.474 242.309 95.197 256.301 113.208 c
 278.602 141.919 l 309.539 181.755 302.328 239.126 262.492 270.064 c 222.66
 301.001 165.289 293.791 134.348 253.955 c 112.051 225.248 l 98.059 207.228
 77.332 196.572 55.477 194.998 c 48.504 194.494 42.039 191.173 37.75 185.654
 c h
24.25 168.271 m f
0.858824 0.552941 0.180392 rg
195.09 288.552 m 218.273 291.458 242.574 285.533 262.488 270.064 c 249.941
 279.806 232.309 280.556 213.961 273.892 c 195.598 267.228 176.512 253.15
 161.039 233.228 c 138.742 204.521 l 124.75 186.501 106.895 173.607 89.809
 168.337 c 84.348 166.662 78.781 162.634 74.492 157.115 c 60.996 139.736
 l 24.25 168.275 l 37.746 185.654 l 42.035 191.173 48.504 194.501 55.48 
195.001 c 77.324 196.572 98.059 207.232 112.055 225.251 c 134.348 253.958
 l 149.824 273.876 171.898 285.634 195.09 288.552 c h
195.09 288.552 m f
0.941176 0.627451 0.215686 rg
286.293 241.583 m 229.008 286.072 l 241.859 302.615 l 299.141 258.126 l
 h
286.293 241.583 m f
0.858824 0.552941 0.180392 rg
251.836 268.337 m 229.008 286.064 l 241.859 302.611 l 264.684 284.88 l 
h
251.836 268.337 m f
0.968627 0.709804 0.4 rg
273.176 197.197 m 279.383 192.376 275.945 177.564 265.496 164.111 c 255.051
 150.662 241.551 143.666 235.344 148.486 c 229.137 153.306 232.574 168.119
 243.02 181.568 c 253.465 195.021 266.969 202.017 273.176 197.197 c h
273.176 197.197 m f
Q Q
showpage
%%Trailer
end restore
%%EOF
