%!PS-Adobe-3.0 EPSF-3.0
%%Creator: cairo 1.14.2 (http://cairographics.org)
%%CreationDate: Wed Jul 12 12:57:24 2017
%%Pages: 1
%%DocumentData: Clean7Bit
%%LanguageLevel: 2
%%BoundingBox: 0 -1 410 410
%%EndComments
%%BeginProlog
save
50 dict begin
/q { gsave } bind def
/Q { grestore } bind def
/cm { 6 array astore concat } bind def
/w { setlinewidth } bind def
/J { setlinecap } bind def
/j { setlinejoin } bind def
/M { setmiterlimit } bind def
/d { setdash } bind def
/m { moveto } bind def
/l { lineto } bind def
/c { curveto } bind def
/h { closepath } bind def
/re { exch dup neg 3 1 roll 5 3 roll moveto 0 rlineto
      0 exch rlineto 0 rlineto closepath } bind def
/S { stroke } bind def
/f { fill } bind def
/f* { eofill } bind def
/n { newpath } bind def
/W { clip } bind def
/W* { eoclip } bind def
/BT { } bind def
/ET { } bind def
/pdfmark where { pop globaldict /?pdfmark /exec load put }
    { globaldict begin /?pdfmark /pop load def /pdfmark
    /cleartomark load def end } ifelse
/BDC { mark 3 1 roll /BDC pdfmark } bind def
/EMC { mark /EMC pdfmark } bind def
/cairo_store_point { /cairo_point_y exch def /cairo_point_x exch def } def
/Tj { show currentpoint cairo_store_point } bind def
/TJ {
  {
    dup
    type /stringtype eq
    { show } { -0.001 mul 0 cairo_font_matrix dtransform rmoveto } ifelse
  } forall
  currentpoint cairo_store_point
} bind def
/cairo_selectfont { cairo_font_matrix aload pop pop pop 0 0 6 array astore
    cairo_font exch selectfont cairo_point_x cairo_point_y moveto } bind def
/Tf { pop /cairo_font exch def /cairo_font_matrix where
      { pop cairo_selectfont } if } bind def
/Td { matrix translate cairo_font_matrix matrix concatmatrix dup
      /cairo_font_matrix exch def dup 4 get exch 5 get cairo_store_point
      /cairo_font where { pop cairo_selectfont } if } bind def
/Tm { 2 copy 8 2 roll 6 array astore /cairo_font_matrix exch def
      cairo_store_point /cairo_font where { pop cairo_selectfont } if } bind def
/g { setgray } bind def
/rg { setrgbcolor } bind def
/d1 { setcachedevice } bind def
%%EndProlog
%%BeginSetup
%%EndSetup
%%Page: 1 1
%%BeginPageSetup
%%PageBoundingBox: 0 -1 410 410
%%EndPageSetup
q 0 -1 410 411 rectclip q
0.54902 0.631373 0.74902 rg
409.602 204.794 m 409.602 162.896 397.023 123.947 375.43 91.497 c 366.172
 77.579 355.246 64.853 342.953 53.622 c 342.402 53.119 341.852 52.611 341.293
 52.122 c 305.062 19.712 257.23 0.001 204.805 0.001 c 152.371 0.001 104.539
 19.712 68.309 52.122 c 59.574 59.923 51.52 68.466 44.246 77.65 c 40.699
 82.119 37.344 86.728 34.18 91.49 c 12.586 123.939 0 162.896 0 204.794 c
 0 246.693 12.586 285.654 34.18 318.099 c 37.344 322.861 40.699 327.47 44.242
 331.939 c 53.809 344.001 64.699 354.962 76.711 364.599 c 76.719 364.599
 l 84.676 370.997 93.133 376.806 102.008 381.958 c 132.219 399.529 167.34
 409.591 204.805 409.591 c 242.262 409.591 277.383 399.529 307.594 381.958
 c 311.617 379.622 315.551 377.154 319.391 374.548 c 324.035 371.415 328.539
 368.091 332.891 364.599 c 336.336 361.829 339.695 358.951 342.957 355.966
 c 355.258 344.732 366.176 332.013 375.43 318.083 c 397.023 285.646 409.602
 246.685 409.602 204.794 c h
409.602 204.794 m f
0.941176 0.627451 0.215686 rg
76.711 381.962 256.172 -42.531 re f
0.858824 0.552941 0.180392 rg
319.391 381.962 13.5 -42.531 re f
0.913725 0.894118 0.847059 rg
64.812 109.517 279.977 -7.105 re f
0.341176 0.427451 0.568627 rg
97.605 133.107 m 109.66 133.107 l 114.109 133.107 117.715 129.501 117.715
 125.052 c 117.715 88.701 l 117.715 84.251 114.109 80.646 109.66 80.646 
c 97.605 80.646 l 93.156 80.646 89.551 84.251 89.551 88.701 c 89.551 125.052
 l 89.551 129.497 93.16 133.107 97.605 133.107 c h
97.605 133.107 m f
0.258824 0.341176 0.498039 rg
98.434 88.697 m 98.434 125.048 l 98.434 129.497 102.039 133.103 106.488
 133.103 c 97.605 133.103 l 93.156 133.103 89.551 129.497 89.551 125.048
 c 89.551 88.697 l 89.551 84.247 93.16 80.642 97.605 80.642 c 106.488 80.642
 l 102.039 80.642 98.434 84.251 98.434 88.697 c h
98.434 88.697 m f
0.341176 0.427451 0.568627 rg
125.773 133.107 m 137.824 133.107 l 142.273 133.107 145.879 129.501 145.879
 125.052 c 145.879 88.701 l 145.879 84.251 142.273 80.646 137.824 80.646
 c 125.773 80.646 l 121.324 80.646 117.719 84.251 117.719 88.701 c 117.719
 125.052 l 117.719 129.497 121.324 133.107 125.773 133.107 c h
125.773 133.107 m f
0.258824 0.341176 0.498039 rg
126.598 88.697 m 126.598 125.048 l 126.598 129.497 130.207 133.103 134.656
 133.103 c 125.773 133.103 l 121.324 133.103 117.719 129.497 117.719 125.048
 c 117.719 88.697 l 117.719 84.247 121.324 80.642 125.773 80.642 c 134.656
 80.642 l 130.207 80.642 126.598 84.251 126.598 88.697 c h
126.598 88.697 m f
0.341176 0.427451 0.568627 rg
153.938 133.107 m 165.988 133.107 l 170.438 133.107 174.043 129.501 174.043
 125.052 c 174.043 88.701 l 174.043 84.251 170.438 80.646 165.988 80.646
 c 153.938 80.646 l 149.488 80.646 145.883 84.251 145.883 88.701 c 145.883
 125.052 l 145.883 129.497 149.488 133.107 153.938 133.107 c h
153.938 133.107 m f
0.258824 0.341176 0.498039 rg
154.766 88.697 m 154.766 125.048 l 154.766 129.497 158.371 133.103 162.82
 133.103 c 153.938 133.103 l 149.488 133.103 145.883 129.497 145.883 125.048
 c 145.883 88.697 l 145.883 84.247 149.488 80.642 153.938 80.642 c 162.82
 80.642 l 158.371 80.642 154.766 84.251 154.766 88.697 c h
154.766 88.697 m f
0.341176 0.427451 0.568627 rg
182.102 133.107 m 194.156 133.107 l 198.605 133.107 202.211 129.501 202.211
 125.052 c 202.211 88.701 l 202.211 84.251 198.602 80.646 194.156 80.646
 c 182.102 80.646 l 177.652 80.646 174.047 84.251 174.047 88.701 c 174.047
 125.052 l 174.047 129.497 177.652 133.107 182.102 133.107 c h
182.102 133.107 m f
0.258824 0.341176 0.498039 rg
182.93 88.697 m 182.93 125.048 l 182.93 129.497 186.535 133.103 190.984
 133.103 c 182.102 133.103 l 177.652 133.103 174.047 129.497 174.047 125.048
 c 174.047 88.697 l 174.047 84.247 177.652 80.642 182.102 80.642 c 190.984
 80.642 l 186.535 80.642 182.93 84.251 182.93 88.697 c h
182.93 88.697 m f
0.913725 0.894118 0.847059 rg
64.812 190.329 279.977 -7.105 re f
0.333333 0.776471 0.631373 rg
97.605 213.923 m 109.66 213.923 l 114.109 213.923 117.715 210.318 117.715
 205.869 c 117.715 169.517 l 117.715 165.068 114.109 161.462 109.66 161.462
 c 97.605 161.462 l 93.156 161.462 89.551 165.068 89.551 169.517 c 89.551
 205.869 l 89.551 210.318 93.16 213.923 97.605 213.923 c h
97.605 213.923 m f
0.282353 0.686275 0.541176 rg
98.434 169.517 m 98.434 205.869 l 98.434 210.318 102.039 213.923 106.488
 213.923 c 97.605 213.923 l 93.156 213.923 89.551 210.314 89.551 205.869
 c 89.551 169.517 l 89.551 165.064 93.16 161.458 97.605 161.458 c 106.488
 161.458 l 102.039 161.458 98.434 165.068 98.434 169.517 c h
98.434 169.517 m f
0.333333 0.776471 0.631373 rg
243.062 213.923 m 255.113 213.923 l 259.562 213.923 263.168 210.318 263.168
 205.869 c 263.168 169.517 l 263.168 165.068 259.562 161.462 255.113 161.462
 c 243.062 161.462 l 238.609 161.462 235.004 165.068 235.004 169.517 c 235.004
 205.869 l 235.004 210.318 238.609 213.923 243.062 213.923 c h
243.062 213.923 m f
0.282353 0.686275 0.541176 rg
243.887 169.517 m 243.887 205.869 l 243.887 210.318 247.492 213.923 251.941
 213.923 c 243.059 213.923 l 238.609 213.923 235.004 210.314 235.004 205.869
 c 235.004 169.517 l 235.004 165.064 238.609 161.458 243.059 161.458 c 251.941
 161.458 l 247.492 161.458 243.887 165.068 243.887 169.517 c h
243.887 169.517 m f
0.333333 0.776471 0.631373 rg
271.227 213.923 m 283.277 213.923 l 287.727 213.923 291.332 210.318 291.332
 205.869 c 291.332 169.517 l 291.332 165.068 287.727 161.462 283.277 161.462
 c 271.227 161.462 l 266.777 161.462 263.172 165.068 263.172 169.517 c 263.172
 205.869 l 263.168 210.318 266.777 213.923 271.227 213.923 c h
271.227 213.923 m f
0.282353 0.686275 0.541176 rg
272.051 169.517 m 272.051 205.869 l 272.051 210.318 275.66 213.923 280.105
 213.923 c 271.227 213.923 l 266.773 213.923 263.168 210.314 263.168 205.869
 c 263.168 169.517 l 263.168 165.064 266.777 161.458 271.227 161.458 c 280.105
 161.458 l 275.66 161.458 272.051 165.068 272.051 169.517 c h
272.051 169.517 m f
0.333333 0.776471 0.631373 rg
299.391 213.923 m 311.441 213.923 l 315.895 213.923 319.5 210.318 319.5
 205.869 c 319.5 169.517 l 319.5 165.068 315.891 161.462 311.441 161.462
 c 299.391 161.462 l 294.941 161.462 291.336 165.068 291.336 169.517 c 291.336
 205.869 l 291.336 210.318 294.941 213.923 299.391 213.923 c h
299.391 213.923 m f
0.282353 0.686275 0.541176 rg
300.219 169.517 m 300.219 205.869 l 300.219 210.318 303.824 213.923 308.273
 213.923 c 299.391 213.923 l 294.941 213.923 291.336 210.314 291.336 205.869
 c 291.336 169.517 l 291.336 165.064 294.941 161.458 299.391 161.458 c 308.273
 161.458 l 303.824 161.458 300.219 165.068 300.219 169.517 c h
300.219 169.517 m f
0.913725 0.894118 0.847059 rg
64.812 271.142 279.977 -7.105 re f
0.8 0.776471 0.729412 rg
322.941 109.517 21.852 -7.105 re f
322.941 190.329 21.852 -7.105 re f
322.941 271.142 21.852 -7.105 re f
0.921569 0.188235 0.356863 rg
97.605 294.744 m 109.66 294.744 l 114.109 294.744 117.715 291.134 117.715
 286.685 c 117.715 250.333 l 117.715 245.884 114.109 242.279 109.66 242.279
 c 97.605 242.279 l 93.156 242.279 89.551 245.884 89.551 250.333 c 89.551
 286.685 l 89.551 291.134 93.16 294.744 97.605 294.744 c h
97.605 294.744 m f
0.847059 0.168627 0.34902 rg
98.434 250.333 m 98.434 286.685 l 98.434 291.134 102.039 294.74 106.488
 294.74 c 97.605 294.74 l 93.156 294.74 89.551 291.134 89.551 286.685 c 
89.551 250.333 l 89.551 245.884 93.16 242.279 97.605 242.279 c 106.488 242.279
 l 102.039 242.279 98.434 245.884 98.434 250.333 c h
98.434 250.333 m f
0.921569 0.188235 0.356863 rg
125.773 294.744 m 137.824 294.744 l 142.273 294.744 145.879 291.134 145.879
 286.685 c 145.879 250.333 l 145.879 245.884 142.273 242.279 137.824 242.279
 c 125.773 242.279 l 121.324 242.279 117.719 245.884 117.719 250.333 c 117.719
 286.685 l 117.719 291.134 121.324 294.744 125.773 294.744 c h
125.773 294.744 m f
0.847059 0.168627 0.34902 rg
126.598 250.333 m 126.598 286.685 l 126.598 291.134 130.207 294.74 134.656
 294.74 c 125.773 294.74 l 121.324 294.74 117.719 291.134 117.719 286.685
 c 117.719 250.333 l 117.719 245.884 121.324 242.279 125.773 242.279 c 134.656
 242.279 l 130.207 242.279 126.598 245.884 126.598 250.333 c h
126.598 250.333 m f
0.921569 0.188235 0.356863 rg
271.227 294.744 m 283.277 294.744 l 287.727 294.744 291.332 291.134 291.332
 286.685 c 291.332 250.333 l 291.332 245.884 287.727 242.279 283.277 242.279
 c 271.227 242.279 l 266.777 242.279 263.172 245.884 263.172 250.333 c 263.172
 286.685 l 263.168 291.134 266.777 294.744 271.227 294.744 c h
271.227 294.744 m f
0.847059 0.168627 0.34902 rg
272.051 250.333 m 272.051 286.685 l 272.051 291.134 275.66 294.74 280.105
 294.74 c 271.227 294.74 l 266.773 294.74 263.168 291.134 263.168 286.685
 c 263.168 250.333 l 263.168 245.884 266.777 242.279 271.227 242.279 c 280.105
 242.279 l 275.66 242.279 272.051 245.884 272.051 250.333 c h
272.051 250.333 m f
0.921569 0.188235 0.356863 rg
299.391 294.744 m 311.441 294.744 l 315.895 294.744 319.5 291.134 319.5
 286.685 c 319.5 250.333 l 319.5 245.884 315.891 242.279 311.441 242.279
 c 299.391 242.279 l 294.941 242.279 291.336 245.884 291.336 250.333 c 291.336
 286.685 l 291.336 291.134 294.941 294.744 299.391 294.744 c h
299.391 294.744 m f
0.847059 0.168627 0.34902 rg
300.219 250.333 m 300.219 286.685 l 300.219 291.134 303.824 294.74 308.273
 294.74 c 299.391 294.74 l 294.941 294.74 291.336 291.134 291.336 286.685
 c 291.336 250.333 l 291.336 245.884 294.941 242.279 299.391 242.279 c 308.273
 242.279 l 303.824 242.279 300.219 245.884 300.219 250.333 c h
300.219 250.333 m f
0.941176 0.627451 0.215686 rg
341.293 52.122 m 305.062 19.712 257.23 0.001 204.805 0.001 c 152.371 0.001
 104.539 19.712 68.309 52.122 c h
341.293 52.122 m f
76.719 397.974 m 76.719 52.122 l 68.305 52.122 l 59.574 59.923 51.52 68.466
 44.242 77.65 c 40.699 82.119 37.344 86.728 34.18 91.49 c 34.18 397.974 
l 34.18 402.185 37.59 405.595 41.801 405.595 c 69.09 405.595 l 73.297 405.595
 76.719 402.181 76.719 397.974 c h
76.719 397.974 m f
0.858824 0.552941 0.180392 rg
51.863 405.595 m 47.656 405.595 44.242 402.181 44.242 397.97 c 44.242 77.65
 l 40.699 82.119 37.34 86.728 34.18 91.49 c 34.18 397.974 l 34.18 402.185
 37.59 405.595 41.801 405.595 c h
51.863 405.595 m f
0.941176 0.627451 0.215686 rg
375.43 397.974 m 375.43 91.497 l 366.172 77.579 355.246 64.853 342.953 
53.622 c 342.402 53.119 341.852 52.611 341.293 52.122 c 332.891 52.122 l
 332.891 397.974 l 332.891 402.185 336.301 405.595 340.512 405.595 c 367.797
 405.595 l 372.008 405.595 375.43 402.181 375.43 397.974 c h
375.43 397.974 m f
0.858824 0.552941 0.180392 rg
350.574 405.595 m 346.363 405.595 342.953 402.181 342.953 397.97 c 342.953
 53.622 l 342.402 53.119 341.852 52.611 341.293 52.122 c 332.891 52.122 
l 332.891 397.974 l 332.891 402.185 336.301 405.595 340.512 405.595 c h
350.574 405.595 m f
Q Q
showpage
%%Trailer
end restore
%%EOF
