%!PS-Adobe-3.0 EPSF-3.0
%%Creator: cairo 1.14.2 (http://cairographics.org)
%%CreationDate: Wed Jul 12 12:57:24 2017
%%Pages: 1
%%DocumentData: Clean7Bit
%%LanguageLevel: 2
%%BoundingBox: 0 -1 410 410
%%EndComments
%%BeginProlog
save
50 dict begin
/q { gsave } bind def
/Q { grestore } bind def
/cm { 6 array astore concat } bind def
/w { setlinewidth } bind def
/J { setlinecap } bind def
/j { setlinejoin } bind def
/M { setmiterlimit } bind def
/d { setdash } bind def
/m { moveto } bind def
/l { lineto } bind def
/c { curveto } bind def
/h { closepath } bind def
/re { exch dup neg 3 1 roll 5 3 roll moveto 0 rlineto
      0 exch rlineto 0 rlineto closepath } bind def
/S { stroke } bind def
/f { fill } bind def
/f* { eofill } bind def
/n { newpath } bind def
/W { clip } bind def
/W* { eoclip } bind def
/BT { } bind def
/ET { } bind def
/pdfmark where { pop globaldict /?pdfmark /exec load put }
    { globaldict begin /?pdfmark /pop load def /pdfmark
    /cleartomark load def end } ifelse
/BDC { mark 3 1 roll /BDC pdfmark } bind def
/EMC { mark /EMC pdfmark } bind def
/cairo_store_point { /cairo_point_y exch def /cairo_point_x exch def } def
/Tj { show currentpoint cairo_store_point } bind def
/TJ {
  {
    dup
    type /stringtype eq
    { show } { -0.001 mul 0 cairo_font_matrix dtransform rmoveto } ifelse
  } forall
  currentpoint cairo_store_point
} bind def
/cairo_selectfont { cairo_font_matrix aload pop pop pop 0 0 6 array astore
    cairo_font exch selectfont cairo_point_x cairo_point_y moveto } bind def
/Tf { pop /cairo_font exch def /cairo_font_matrix where
      { pop cairo_selectfont } if } bind def
/Td { matrix translate cairo_font_matrix matrix concatmatrix dup
      /cairo_font_matrix exch def dup 4 get exch 5 get cairo_store_point
      /cairo_font where { pop cairo_selectfont } if } bind def
/Tm { 2 copy 8 2 roll 6 array astore /cairo_font_matrix exch def
      cairo_store_point /cairo_font where { pop cairo_selectfont } if } bind def
/g { setgray } bind def
/rg { setrgbcolor } bind def
/d1 { setcachedevice } bind def
%%EndProlog
%%BeginSetup
%%EndSetup
%%Page: 1 1
%%BeginPageSetup
%%PageBoundingBox: 0 -1 410 410
%%EndPageSetup
q 0 -1 410 411 rectclip q
0.54902 0.631373 0.74902 rg
409.602 204.794 m 409.602 188.986 407.805 173.599 404.422 158.822 c 389.891
 95.486 345.992 43.357 287.828 17.533 c 262.453 6.263 234.355 0.001 204.805
 0.001 c 175.242 0.001 147.148 6.263 121.77 17.533 c 110.332 22.615 99.434
 28.716 89.207 35.716 c 57.363 57.525 31.988 88.095 16.574 123.974 c 15.668
 126.068 14.797 128.193 13.965 130.326 c 13.555 131.372 13.156 132.439 12.758
 133.497 c 12.746 133.513 12.746 133.533 12.738 133.548 c 5.941 151.865 
1.688 171.408 0.41 191.755 c 0.133 196.072 0 200.415 0 204.794 c 0 234.099
 6.156 261.962 17.242 287.165 c 48.941 359.255 120.996 409.591 204.805 409.591
 c 275.02 409.591 336.984 374.255 373.883 320.392 c 381.027 309.966 387.227
 298.853 392.367 287.161 c 397.469 275.544 401.527 263.384 404.422 250.763
 c 407.805 235.99 409.602 220.599 409.602 204.794 c h
409.602 204.794 m f
0.913725 0.894118 0.847059 rg
409.602 204.794 m 409.602 188.986 407.805 173.599 404.422 158.822 c 389.891
 95.486 345.992 43.357 287.828 17.533 c 262.453 6.263 234.355 0.001 204.805
 0.001 c 175.242 0.001 147.148 6.263 121.77 17.533 c 110.332 22.615 99.434
 28.716 89.207 35.716 c 57.363 57.525 31.988 88.095 16.574 123.974 c 15.668
 126.068 14.797 128.193 13.965 130.326 c 13.555 131.372 13.156 132.439 12.758
 133.497 c 12.746 133.513 12.746 133.533 12.738 133.548 c 5.941 151.865 
1.688 171.408 0.41 191.755 c 0.133 196.072 0 200.415 0 204.794 c 0 234.099
 6.156 261.962 17.242 287.165 c 392.367 287.165 l 397.465 275.544 401.527
 263.384 404.422 250.763 c 407.805 235.99 409.602 220.599 409.602 204.794
 c h
409.602 204.794 m f
0.847059 0.168627 0.34902 rg
137.066 133.497 m 137.066 123.974 l 16.574 123.974 l 15.668 126.068 14.797
 128.193 13.965 130.326 c 13.555 131.372 13.156 132.439 12.754 133.497 c
 h
137.066 133.497 m f
0.258824 0.341176 0.498039 rg
279.531 191.755 m 279.531 202.29 278.246 212.533 275.812 222.322 c 262.141
 277.404 212.363 318.228 153.062 318.228 c 83.211 318.228 26.586 261.599
 26.586 191.755 c 0.41 191.755 l 1.688 171.408 5.941 151.865 12.738 133.548
 c 13.137 132.474 13.547 131.392 13.965 130.326 c 309.645 130.326 l 309.645
 191.755 l h
81.996 191.755 m 81.996 231.009 113.812 262.826 153.062 262.826 c 192.305
 262.826 224.125 231.009 224.125 191.755 c h
81.996 191.755 m f
0.392157 0.470588 0.6 rg
20.766 149.794 m 20.766 130.326 l 13.965 130.326 l 13.547 131.392 13.137
 132.474 12.738 133.548 c 12.738 149.794 l h
20.766 149.794 m f
39.758 149.79 8.027 -19.465 re f
66.777 149.79 8.031 -19.465 re f
93.801 149.79 8.027 -19.465 re f
120.82 149.79 8.027 -19.465 re f
147.84 149.79 8.031 -19.465 re f
174.863 149.79 8.027 -19.465 re f
201.883 149.79 8.027 -19.465 re f
228.902 149.79 8.031 -19.465 re f
255.922 149.79 8.031 -19.465 re f
282.945 149.79 8.027 -19.465 re f
0.941176 0.627451 0.215686 rg
373.883 320.392 m 360.07 306.583 l 353.793 300.302 l 305.844 252.353 l 
288.148 234.65 l 281.871 228.372 l 275.812 222.322 l 216.219 162.728 l 209.938
 156.451 l 203.285 149.794 l 201.883 148.392 l 192.246 138.747 l 185.957
 132.466 l 168.262 114.771 l 161.98 108.494 l 144.289 90.798 l 120.316 66.826
 l 114.035 60.536 l 89.207 35.72 l 99.434 28.72 110.332 22.619 121.773 17.536
 c 287.832 17.536 l 345.992 43.357 389.891 95.49 404.422 158.822 c 404.422
 350.931 l h
347.59 74.365 m 208.223 74.365 l 283.656 149.794 l 309.645 175.786 l 347.59
 213.732 l h
347.59 74.365 m f
0.878431 0.568627 0.196078 rg
129.25 45.322 m 114.023 60.544 l 120.305 66.826 l 135.531 51.603 l h
129.25 45.322 m f
153.223 69.294 m 138 84.521 l 144.281 90.802 l 159.504 75.576 l h
153.223 69.294 m f
177.203 93.267 m 161.977 108.49 l 168.258 114.771 l 183.484 99.548 l h
177.203 93.267 m f
201.184 117.247 m 185.957 132.474 l 192.238 138.751 l 207.465 123.529 l
 h
201.184 117.247 m f
225.156 141.22 m 209.934 156.447 l 216.215 162.728 l 231.438 147.501 l 
h
225.156 141.22 m f
249.129 165.204 m 233.906 180.427 l 240.188 186.708 l 255.41 171.486 l 
h
249.129 165.204 m f
273.109 189.169 m 257.887 204.396 l 264.168 210.677 l 279.391 195.451 l
 h
273.109 189.169 m f
297.098 213.15 m 281.875 228.376 l 288.156 234.658 l 303.379 219.431 l 
h
297.098 213.15 m f
321.074 237.134 m 305.848 252.361 l 312.129 258.642 l 327.355 243.415 l
 h
321.074 237.134 m f
345.043 261.103 m 329.82 276.326 l 336.102 282.607 l 351.324 267.384 l 
h
345.043 261.103 m f
369.016 285.076 m 353.793 300.302 l 360.074 306.583 l 375.297 291.357 l
 h
369.016 285.076 m f
0.333333 0.776471 0.631373 rg
272.781 334.22 m 169.203 148.701 l 137.301 128.091 l 139.074 166.029 l 
242.652 351.548 l h
272.781 334.22 m f
0.458824 0.847059 0.705882 rg
272.781 334.22 m 169.203 148.701 l 160.785 153.54 l 264.363 339.06 l h
272.781 334.22 m f
0.701961 g
264.363 339.06 m 251.066 346.708 l 242.652 351.548 l 248.301 361.372 l 
278.434 344.044 l 272.781 334.22 l h
264.363 339.06 m f
284.09 353.892 m 278.438 344.068 l 248.309 361.4 l 253.961 371.224 l h
284.09 353.892 m f
0.921569 0.188235 0.356863 rg
293.195 369.712 m 284.082 353.869 l 253.953 371.197 l 263.066 387.044 l
 265.73 391.681 271.652 393.271 276.281 390.607 c 289.629 382.931 l 294.262
 380.267 295.863 374.353 293.195 369.712 c h
293.195 369.712 m f
0.847059 0.168627 0.34902 rg
284.797 385.712 m 276.281 390.611 l 271.652 393.271 265.734 391.681 263.066
 387.044 c 253.953 371.197 l 262.465 366.302 l 271.578 382.146 l 274.246
 386.783 280.164 388.372 284.797 385.712 c h
284.797 385.712 m f
0.282353 0.686275 0.541176 rg
251.066 346.708 m 147.488 161.189 l 139.074 166.029 l 242.652 351.548 l
 h
251.066 346.708 m f
0.6 g
271.086 331.271 m 240.957 348.599 l 239.328 349.536 238.766 351.615 239.703
 353.244 c 240.637 354.869 242.719 355.431 244.344 354.494 c 274.477 337.165
 l 276.105 336.232 276.664 334.154 275.73 332.525 c 274.793 330.896 272.711
 330.333 271.086 331.271 c h
271.086 331.271 m f
276.734 341.095 m 246.605 358.427 l 244.977 359.361 244.418 361.439 245.352
 363.068 c 246.289 364.697 248.367 365.259 249.996 364.322 c 280.125 346.994
 l 281.754 346.056 282.316 343.978 281.379 342.349 c 280.441 340.72 278.363
 340.161 276.734 341.095 c h
276.734 341.095 m f
282.387 350.923 m 252.258 368.251 l 250.629 369.185 250.066 371.263 251.004
 372.892 c 251.941 374.521 254.02 375.083 255.648 374.146 c 285.777 356.818
 l 287.406 355.88 287.965 353.802 287.031 352.173 c 286.094 350.544 284.016
 349.986 282.387 350.923 c h
282.387 350.923 m f
0.913725 0.894118 0.847059 rg
169.207 148.697 m 154.938 139.486 l 137.301 128.095 l 138.281 149.064 l
 139.07 166.029 l h
169.207 148.697 m f
0.921569 0.188235 0.356863 rg
154.938 139.486 m 137.297 128.095 l 138.281 149.064 l 141.523 148.911 144.77
 148.013 147.762 146.29 c 150.77 144.56 153.191 142.201 154.938 139.486 
c h
154.938 139.486 m f
0.8 0.776471 0.729412 rg
137.301 128.095 m 150.262 159.591 l 139.07 166.029 l h
137.301 128.095 m f
0.847059 0.168627 0.34902 rg
138.285 149.06 m 137.305 128.095 l 145.293 147.501 l 143.02 148.439 140.652
 148.951 138.285 149.06 c h
138.285 149.06 m f
Q Q
showpage
%%Trailer
end restore
%%EOF
