%!PS-Adobe-3.0 EPSF-3.0
%%Creator: cairo 1.14.2 (http://cairographics.org)
%%CreationDate: Wed Jul 12 12:57:24 2017
%%Pages: 1
%%DocumentData: Clean7Bit
%%LanguageLevel: 2
%%BoundingBox: 0 -1 410 410
%%EndComments
%%BeginProlog
save
50 dict begin
/q { gsave } bind def
/Q { grestore } bind def
/cm { 6 array astore concat } bind def
/w { setlinewidth } bind def
/J { setlinecap } bind def
/j { setlinejoin } bind def
/M { setmiterlimit } bind def
/d { setdash } bind def
/m { moveto } bind def
/l { lineto } bind def
/c { curveto } bind def
/h { closepath } bind def
/re { exch dup neg 3 1 roll 5 3 roll moveto 0 rlineto
      0 exch rlineto 0 rlineto closepath } bind def
/S { stroke } bind def
/f { fill } bind def
/f* { eofill } bind def
/n { newpath } bind def
/W { clip } bind def
/W* { eoclip } bind def
/BT { } bind def
/ET { } bind def
/pdfmark where { pop globaldict /?pdfmark /exec load put }
    { globaldict begin /?pdfmark /pop load def /pdfmark
    /cleartomark load def end } ifelse
/BDC { mark 3 1 roll /BDC pdfmark } bind def
/EMC { mark /EMC pdfmark } bind def
/cairo_store_point { /cairo_point_y exch def /cairo_point_x exch def } def
/Tj { show currentpoint cairo_store_point } bind def
/TJ {
  {
    dup
    type /stringtype eq
    { show } { -0.001 mul 0 cairo_font_matrix dtransform rmoveto } ifelse
  } forall
  currentpoint cairo_store_point
} bind def
/cairo_selectfont { cairo_font_matrix aload pop pop pop 0 0 6 array astore
    cairo_font exch selectfont cairo_point_x cairo_point_y moveto } bind def
/Tf { pop /cairo_font exch def /cairo_font_matrix where
      { pop cairo_selectfont } if } bind def
/Td { matrix translate cairo_font_matrix matrix concatmatrix dup
      /cairo_font_matrix exch def dup 4 get exch 5 get cairo_store_point
      /cairo_font where { pop cairo_selectfont } if } bind def
/Tm { 2 copy 8 2 roll 6 array astore /cairo_font_matrix exch def
      cairo_store_point /cairo_font where { pop cairo_selectfont } if } bind def
/g { setgray } bind def
/rg { setrgbcolor } bind def
/d1 { setcachedevice } bind def
%%EndProlog
%%BeginSetup
%%EndSetup
%%Page: 1 1
%%BeginPageSetup
%%PageBoundingBox: 0 -1 410 410
%%EndPageSetup
q 0 -1 410 411 rectclip q
0.258824 0.341176 0.498039 rg
409.602 204.794 m 409.602 166.759 399.234 131.15 381.168 100.63 c 375.633
 91.279 369.371 82.404 362.469 74.091 c 355.141 65.251 347.074 57.044 338.379
 49.556 c 302.523 18.669 255.844 0.001 204.805 0.001 c 153.766 0.001 107.078
 18.669 71.223 49.556 c 62.523 57.044 54.469 65.251 47.141 74.079 c 40.23
 82.404 33.969 91.279 28.434 100.63 c 10.367 131.15 0 166.759 0 204.794 
c 0 254.494 17.703 300.052 47.141 335.513 c 51.34 340.583 55.789 345.443
 60.465 350.079 c 67.801 357.372 75.68 364.103 84.047 370.216 c 86.07 371.708
 88.133 373.146 90.219 374.56 c 91.375 375.349 92.547 376.122 93.73 376.876
 c 97.336 379.212 101.012 381.435 104.77 383.536 c 134.348 400.13 168.477
 409.591 204.805 409.591 c 241.133 409.591 275.254 400.13 304.832 383.536
 c 312.016 379.505 318.938 375.056 325.555 370.216 c 333.922 364.103 341.809
 357.361 349.145 350.068 c 353.82 345.431 358.27 340.572 362.469 335.501
 c 391.906 300.044 409.602 254.486 409.602 204.794 c h
409.602 204.794 m f
0.411765 0.501961 0.517647 rg
90.219 376.876 7.109 -177.57 re f
146.297 376.876 7.105 -177.57 re f
202.371 376.876 7.105 -177.57 re f
258.445 376.876 7.105 -177.57 re f
0.152941 0.611765 0.717647 rg
349.59 238.771 m 349.145 240.54 l 349.145 219.595 l 350.609 220.494 352.184
 221.247 353.844 221.861 c h
333.609 383.54 m 75.992 383.54 l 60.082 383.54 47.141 370.599 47.141 354.681
 c 47.141 74.079 l 54.469 65.251 62.523 57.044 71.223 49.556 c 338.379 49.556
 l 347.078 57.044 355.141 65.251 362.469 74.091 c 362.469 354.681 l 362.469
 370.599 349.52 383.54 333.609 383.54 c h
349.145 62.88 m 60.465 62.88 l 60.465 354.681 l 60.465 363.251 67.426 370.216
 75.988 370.216 c 333.609 370.216 l 342.172 370.216 349.145 363.251 349.145
 354.681 c h
349.145 62.88 m f
0.913725 0.894118 0.847059 rg
121.809 189.958 m 121.809 174.474 109.258 161.919 93.773 161.919 c 78.289
 161.919 65.734 174.474 65.734 189.958 c 65.734 205.443 78.289 217.994 93.773
 217.994 c 109.258 217.994 121.809 205.443 121.809 189.958 c h
121.809 189.958 m f
0.858824 0.843137 0.8 rg
83.387 189.958 m 83.387 202.357 91.441 212.869 102.598 216.568 c 99.824
 217.49 96.859 217.994 93.773 217.994 c 78.289 217.994 65.734 205.443 65.734
 189.958 c 65.734 174.474 78.289 161.919 93.773 161.919 c 96.859 161.919
 99.824 162.427 102.598 163.345 c 91.441 167.044 83.387 177.556 83.387 189.958
 c h
83.387 189.958 m f
0.913725 0.894118 0.847059 rg
177.887 189.958 m 177.887 174.474 165.332 161.919 149.848 161.919 c 134.363
 161.919 121.809 174.474 121.809 189.958 c 121.809 205.443 134.363 217.994
 149.848 217.994 c 165.332 217.994 177.887 205.443 177.887 189.958 c h
177.887 189.958 m f
0.858824 0.843137 0.8 rg
139.465 189.958 m 139.465 202.357 147.52 212.869 158.676 216.568 c 155.898
 217.49 152.934 217.994 149.848 217.994 c 134.363 217.994 121.812 205.443
 121.812 189.958 c 121.812 174.474 134.363 161.919 149.848 161.919 c 152.934
 161.919 155.898 162.427 158.676 163.345 c 147.516 167.044 139.465 177.556
 139.465 189.958 c h
139.465 189.958 m f
0.913725 0.894118 0.847059 rg
233.961 189.958 m 233.961 174.474 221.41 161.919 205.926 161.919 c 190.438
 161.919 177.887 174.474 177.887 189.958 c 177.887 205.443 190.438 217.994
 205.926 217.994 c 221.41 217.994 233.961 205.443 233.961 189.958 c h
233.961 189.958 m f
0.858824 0.843137 0.8 rg
195.539 189.958 m 195.539 202.357 203.594 212.869 214.75 216.568 c 211.973
 217.49 209.008 217.994 205.926 217.994 c 190.441 217.994 177.887 205.443
 177.887 189.958 c 177.887 174.474 190.441 161.919 205.926 161.919 c 209.008
 161.919 211.977 162.427 214.75 163.345 c 203.594 167.044 195.539 177.556
 195.539 189.958 c h
195.539 189.958 m f
0.913725 0.894118 0.847059 rg
290.035 189.958 m 290.035 174.474 277.484 161.919 262 161.919 c 246.516
 161.919 233.961 174.474 233.961 189.958 c 233.961 205.443 246.516 217.994
 262 217.994 c 277.484 217.994 290.035 205.443 290.035 189.958 c h
290.035 189.958 m f
0.858824 0.843137 0.8 rg
251.613 189.958 m 251.613 202.357 259.668 212.869 270.828 216.568 c 268.051
 217.49 265.086 217.994 262 217.994 c 246.516 217.994 233.961 205.443 233.961
 189.958 c 233.961 174.474 246.516 161.919 262 161.919 c 265.086 161.919
 268.051 162.427 270.828 163.345 c 259.668 167.044 251.613 177.556 251.613
 189.958 c h
251.613 189.958 m f
0.152941 0.611765 0.717647 rg
362.469 220.224 m 362.281 220.97 l 361.625 223.564 l 350.477 267.908 l 
350.477 238.771 l 354.652 222.154 l 356.66 214.193 l 359.219 204.017 l 359.273
 203.802 l 362.469 204.603 l 363.801 204.939 l 363.801 214.931 l h
362.469 220.224 m f
0.411765 0.501961 0.517647 rg
365.277 205.533 m 362.914 204.939 l 358.383 203.802 l 349.59 238.771 l 
316.539 370.216 l 323.855 370.216 l 349.59 267.908 l 362.914 214.931 l h
365.277 205.533 m f
0.913725 0.894118 0.847059 rg
391.695 195.599 m 391.695 180.115 379.145 167.56 363.66 167.56 c 348.176
 167.56 335.621 180.115 335.621 195.599 c 335.621 211.083 348.176 223.634
 363.66 223.634 c 379.145 223.634 391.695 211.083 391.695 195.599 c h
391.695 195.599 m f
0.858824 0.843137 0.8 rg
353.59 193.068 m 350.566 205.095 355.809 217.255 365.73 223.564 c 362.812
 223.779 359.812 223.548 356.824 222.794 c 341.805 219.017 332.691 203.783
 336.469 188.763 c 340.246 173.747 355.48 164.634 370.496 168.411 c 373.488
 169.161 376.242 170.376 378.711 171.947 c 366.988 172.814 356.613 181.044
 353.59 193.068 c h
353.59 193.068 m f
0.941176 0.627451 0.215686 rg
381.168 100.63 m 375.633 91.279 369.371 82.404 362.469 74.091 c 355.141
 65.251 347.074 57.044 338.379 49.556 c 302.523 18.669 255.844 0.001 204.805
 0.001 c 153.766 0.001 107.078 18.669 71.223 49.556 c 62.523 57.044 54.469
 65.251 47.141 74.079 c 40.23 82.404 33.969 91.279 28.434 100.63 c h
381.168 100.63 m f
Q Q
showpage
%%Trailer
end restore
%%EOF
