%!PS-Adobe-3.0 EPSF-3.0
%%Creator: cairo 1.14.2 (http://cairographics.org)
%%CreationDate: Wed Jul 12 12:57:24 2017
%%Pages: 1
%%DocumentData: Clean7Bit
%%LanguageLevel: 2
%%BoundingBox: 0 -1 410 410
%%EndComments
%%BeginProlog
save
50 dict begin
/q { gsave } bind def
/Q { grestore } bind def
/cm { 6 array astore concat } bind def
/w { setlinewidth } bind def
/J { setlinecap } bind def
/j { setlinejoin } bind def
/M { setmiterlimit } bind def
/d { setdash } bind def
/m { moveto } bind def
/l { lineto } bind def
/c { curveto } bind def
/h { closepath } bind def
/re { exch dup neg 3 1 roll 5 3 roll moveto 0 rlineto
      0 exch rlineto 0 rlineto closepath } bind def
/S { stroke } bind def
/f { fill } bind def
/f* { eofill } bind def
/n { newpath } bind def
/W { clip } bind def
/W* { eoclip } bind def
/BT { } bind def
/ET { } bind def
/pdfmark where { pop globaldict /?pdfmark /exec load put }
    { globaldict begin /?pdfmark /pop load def /pdfmark
    /cleartomark load def end } ifelse
/BDC { mark 3 1 roll /BDC pdfmark } bind def
/EMC { mark /EMC pdfmark } bind def
/cairo_store_point { /cairo_point_y exch def /cairo_point_x exch def } def
/Tj { show currentpoint cairo_store_point } bind def
/TJ {
  {
    dup
    type /stringtype eq
    { show } { -0.001 mul 0 cairo_font_matrix dtransform rmoveto } ifelse
  } forall
  currentpoint cairo_store_point
} bind def
/cairo_selectfont { cairo_font_matrix aload pop pop pop 0 0 6 array astore
    cairo_font exch selectfont cairo_point_x cairo_point_y moveto } bind def
/Tf { pop /cairo_font exch def /cairo_font_matrix where
      { pop cairo_selectfont } if } bind def
/Td { matrix translate cairo_font_matrix matrix concatmatrix dup
      /cairo_font_matrix exch def dup 4 get exch 5 get cairo_store_point
      /cairo_font where { pop cairo_selectfont } if } bind def
/Tm { 2 copy 8 2 roll 6 array astore /cairo_font_matrix exch def
      cairo_store_point /cairo_font where { pop cairo_selectfont } if } bind def
/g { setgray } bind def
/rg { setrgbcolor } bind def
/d1 { setcachedevice } bind def
%%EndProlog
%%BeginSetup
%%EndSetup
%%Page: 1 1
%%BeginPageSetup
%%PageBoundingBox: 0 -1 410 410
%%EndPageSetup
q 0 -1 410 411 rectclip q
0.639216 0.345098 0.584314 rg
409.602 204.795 m 409.602 165.819 398.711 129.385 379.809 98.365 c 364.363
 73.014 343.551 51.287 318.961 34.756 c 318.91 34.713 318.848 34.67 318.793
 34.643 c 309.379 28.319 299.41 22.756 288.977 18.049 c 286.418 16.885 283.832
 15.783 281.223 14.737 c 279.676 14.115 278.113 13.51 276.539 12.924 c 272.391
 11.369 268.172 9.94 263.898 8.662 c 260.23 7.553 256.52 6.549 252.77 5.658
 c 252.336 5.553 251.898 5.447 251.465 5.35 c 249.84 4.955 248.203 4.6 246.555
 4.264 c 243.914 3.713 241.25 3.217 238.566 2.772 c 236.508 2.424 234.438
 2.115 232.348 1.838 c 229.711 1.483 227.047 1.174 224.371 0.924 c 222.312
 0.729 220.234 0.561 218.156 0.436 c 214.781 0.213 211.387 0.08 207.977 
0.026 c 206.918 0.01 205.863 -0.002 204.805 -0.002 c 195.043 -0.002 185.441
 0.686 176.043 2.006 c 124.621 9.229 79.32 35.549 47.559 73.572 c 17.871
 109.104 0 154.865 0 204.795 c 0 254.725 17.871 300.487 47.559 336.018 c
 59.754 350.619 73.945 363.49 89.715 374.213 c 122.516 396.545 162.133 409.592
 204.805 409.592 c 317.906 409.592 409.602 317.905 409.602 204.795 c h
409.602 204.795 m f
0.858824 0.552941 0.180392 rg
281.223 359.815 m 281.223 14.737 l 279.676 14.115 278.113 13.51 276.539
 12.924 c 272.391 11.369 268.172 9.94 263.898 8.662 c 260.23 7.549 256.52
 6.545 252.77 5.658 c 252.336 5.553 251.898 5.447 251.465 5.346 c 249.84
 4.955 248.203 4.6 246.555 4.264 c 243.914 3.713 241.25 3.217 238.566 2.772
 c 236.508 2.424 234.438 2.115 232.348 1.838 c 229.711 1.483 227.047 1.17
 224.371 0.924 c 222.312 0.729 220.234 0.561 218.156 0.436 c 214.781 0.213
 211.387 0.08 207.977 0.026 c 204.238 43.744 l 176.887 363.901 l 176.008
 374.213 l 266.824 374.213 l 274.773 374.213 281.223 367.764 281.223 359.815
 c h
281.223 359.815 m f
0.913725 0.894118 0.847059 rg
263.898 343.576 m 263.898 8.662 l 260.23 7.549 256.52 6.545 252.77 5.658
 c 252.336 5.553 251.898 5.447 251.465 5.346 c 249.84 4.955 248.203 4.6 
246.555 4.264 c 243.914 3.713 241.25 3.217 238.566 2.772 c 236.508 2.424
 234.438 2.115 232.348 1.838 c 229.711 1.483 227.047 1.17 224.371 0.924 
c 222.312 0.729 220.234 0.561 218.156 0.436 c 214.781 0.213 211.387 0.08
 207.977 0.026 c 207.977 343.576 l h
263.898 343.576 m f
0.941176 0.627451 0.215686 rg
207.977 360.533 m 207.977 0.002 l 204.805 0.002 l 195.043 0.002 185.441
 0.686 176.043 2.006 c 124.621 9.229 79.32 35.549 47.559 73.572 c 47.559
 374.213 l 194.297 374.213 l 201.852 374.213 207.977 368.088 207.977 360.533
 c h
207.977 360.533 m f
0.8 0.776471 0.729412 rg
238.566 343.576 m 238.566 2.772 l 236.508 2.424 234.438 2.115 232.348 1.838
 c 232.348 343.576 l h
238.566 343.576 m f
252.77 343.576 m 252.77 5.658 l 252.336 5.553 251.898 5.447 251.465 5.35
 c 249.84 4.955 248.203 4.6 246.555 4.264 c 246.555 343.576 l h
252.77 343.576 m f
224.371 343.576 m 224.371 0.924 l 222.312 0.729 220.234 0.561 218.156 0.436
 c 218.156 343.576 l h
224.371 343.576 m f
0.117647 0.192157 0.376471 rg
176.004 374.213 m 176.004 349.881 190.32 330.158 207.98 330.158 c 207.98
 362.526 l 207.98 368.983 202.746 374.213 196.293 374.213 c h
176.004 374.213 m f
207.977 44.049 m 207.977 -0.002 l 204.805 -0.002 l 195.043 -0.002 185.441
 0.686 176.043 2.006 c 176.797 25.405 190.805 44.049 207.977 44.049 c h
207.977 44.049 m f
0.858824 0.552941 0.180392 rg
90.281 280.053 72.777 -114.461 re f
0.913725 0.894118 0.847059 rg
94.695 273.123 63.953 -100.586 re f
379.809 192.264 m 379.809 98.365 l 364.363 73.014 343.551 51.287 318.961
 34.756 c 318.961 34.643 l 318.793 34.643 l 309.379 28.319 299.41 22.756
 288.977 18.049 c 286.418 16.885 283.832 15.783 281.223 14.737 c 279.676
 14.115 278.113 13.51 276.539 12.924 c 272.391 11.369 268.172 9.94 263.898
 8.662 c 263.898 231.826 l 340.238 231.826 l h
379.809 192.264 m f
0.866667 0.847059 0.8 rg
379.809 192.26 m 340.234 192.26 l 340.234 231.822 l h
379.809 192.26 m f
0.117647 0.192157 0.376471 rg
336.738 149.213 8.883 -66.613 re f
107.355 225.424 38.637 -8.879 re f
107.355 200.998 38.637 -8.883 re f
107.355 249.854 38.637 -8.883 re f
310.078 197.17 8.883 -162.531 re f
0.8 0.776471 0.729412 rg
276.539 231.826 m 276.539 12.924 l 272.391 11.369 268.172 9.94 263.898 
8.662 c 260.23 7.553 256.52 6.549 252.77 5.658 c 252.336 5.553 251.898 5.447
 251.465 5.35 c 251.465 231.826 l h
276.539 231.826 m f
0.117647 0.192157 0.376471 rg
288.977 197.178 8.883 -162.539 re f
267.871 197.178 8.883 -162.539 re f
Q Q
showpage
%%Trailer
end restore
%%EOF
