%!PS-Adobe-3.0 EPSF-3.0
%%Creator: cairo 1.14.2 (http://cairographics.org)
%%CreationDate: Wed Jul 12 12:57:24 2017
%%Pages: 1
%%DocumentData: Clean7Bit
%%LanguageLevel: 2
%%BoundingBox: 0 -1 410 410
%%EndComments
%%BeginProlog
save
50 dict begin
/q { gsave } bind def
/Q { grestore } bind def
/cm { 6 array astore concat } bind def
/w { setlinewidth } bind def
/J { setlinecap } bind def
/j { setlinejoin } bind def
/M { setmiterlimit } bind def
/d { setdash } bind def
/m { moveto } bind def
/l { lineto } bind def
/c { curveto } bind def
/h { closepath } bind def
/re { exch dup neg 3 1 roll 5 3 roll moveto 0 rlineto
      0 exch rlineto 0 rlineto closepath } bind def
/S { stroke } bind def
/f { fill } bind def
/f* { eofill } bind def
/n { newpath } bind def
/W { clip } bind def
/W* { eoclip } bind def
/BT { } bind def
/ET { } bind def
/pdfmark where { pop globaldict /?pdfmark /exec load put }
    { globaldict begin /?pdfmark /pop load def /pdfmark
    /cleartomark load def end } ifelse
/BDC { mark 3 1 roll /BDC pdfmark } bind def
/EMC { mark /EMC pdfmark } bind def
/cairo_store_point { /cairo_point_y exch def /cairo_point_x exch def } def
/Tj { show currentpoint cairo_store_point } bind def
/TJ {
  {
    dup
    type /stringtype eq
    { show } { -0.001 mul 0 cairo_font_matrix dtransform rmoveto } ifelse
  } forall
  currentpoint cairo_store_point
} bind def
/cairo_selectfont { cairo_font_matrix aload pop pop pop 0 0 6 array astore
    cairo_font exch selectfont cairo_point_x cairo_point_y moveto } bind def
/Tf { pop /cairo_font exch def /cairo_font_matrix where
      { pop cairo_selectfont } if } bind def
/Td { matrix translate cairo_font_matrix matrix concatmatrix dup
      /cairo_font_matrix exch def dup 4 get exch 5 get cairo_store_point
      /cairo_font where { pop cairo_selectfont } if } bind def
/Tm { 2 copy 8 2 roll 6 array astore /cairo_font_matrix exch def
      cairo_store_point /cairo_font where { pop cairo_selectfont } if } bind def
/g { setgray } bind def
/rg { setrgbcolor } bind def
/d1 { setcachedevice } bind def
%%EndProlog
%%BeginSetup
%%EndSetup
%%Page: 1 1
%%BeginPageSetup
%%PageBoundingBox: 0 -1 410 410
%%EndPageSetup
q 0 -1 410 411 rectclip q
0.921569 0.188235 0.356863 rg
409.602 204.794 m 409.602 125.634 364.691 56.974 298.961 22.88 c 270.766
 8.259 238.754 0.001 204.805 0.001 c 158.082 0.001 115.02 15.642 80.566 
41.978 c 31.594 79.392 0 138.408 0 204.794 c 0 271.283 31.684 330.369 80.777
 367.771 c 91.926 376.283 103.977 383.654 116.762 389.747 c 143.426 402.466
 173.289 409.591 204.805 409.591 c 317.906 409.591 409.602 317.908 409.602
 204.794 c h
409.602 204.794 m f
0.756863 0.737255 0.705882 rg
134.457 356.591 m 134.457 335.283 l 134.457 327.845 128.426 321.806 120.98
 321.806 c 117.27 321.806 113.902 323.318 111.457 325.759 c 109.023 328.193
 107.516 331.568 107.516 335.283 c 107.516 356.591 l h
134.457 356.591 m f
0.913725 0.894118 0.847059 rg
352.848 364.431 m 352.848 335.279 l 352.848 331.568 351.34 328.193 348.906
 325.759 c 346.465 323.314 343.098 321.806 339.375 321.806 c 120.98 321.806
 l 128.422 321.806 134.453 327.845 134.453 335.279 c 134.453 364.431 l 134.453
 369.658 132.973 374.525 130.395 378.654 c 129.312 380.411 128.023 382.029
 126.566 383.486 c 122.793 387.259 117.898 389.927 112.426 390.919 c 110.836
 391.224 109.191 391.372 107.516 391.372 c 325.91 391.372 l 335.562 391.372
 344.039 386.29 348.789 378.654 c 351.367 374.525 352.848 369.646 352.848
 364.431 c h
352.848 364.431 m f
298.961 321.806 m 298.961 22.88 l 270.766 8.259 238.754 0.001 204.805 0.001
 c 158.082 0.001 115.02 15.642 80.566 41.978 c 80.566 364.431 l 80.566 365.56
 80.637 366.681 80.777 367.771 c 82.41 381.079 93.754 391.372 107.516 391.372
 c 110.766 391.372 113.883 390.794 116.762 389.747 c 120.48 388.388 123.824
 386.232 126.566 383.486 c 131.445 378.611 134.457 371.876 134.457 364.431
 c 134.457 356.591 l 107.516 356.591 l 107.516 335.283 l 107.516 331.568
 109.023 328.193 111.457 325.759 c 113.902 323.318 117.266 321.806 120.98
 321.806 c h
298.961 321.806 m f
0.117647 0.192157 0.376471 rg
110.465 289.458 158.598 -9.77 re f
110.465 263.462 158.598 -9.773 re f
110.465 237.47 158.598 -9.77 re f
110.465 211.482 158.598 -9.773 re f
110.465 185.482 158.598 -9.77 re f
110.465 159.49 158.598 -9.77 re f
110.465 133.501 110.578 -9.77 re f
0.941176 0.627451 0.215686 rg
272.887 78.517 m 272.887 65.529 262.355 55.001 249.367 55.001 c 236.379
 55.001 225.852 65.529 225.852 78.517 c 225.852 91.505 236.379 102.036 249.367
 102.036 c 262.355 102.036 272.887 91.505 272.887 78.517 c h
272.887 78.517 m f
0.866667 0.847059 0.8 rg
298.961 321.806 m 298.961 311.146 l 80.566 311.146 l 80.566 364.431 l 80.566
 379.31 92.629 391.372 107.516 391.372 c 114.957 391.372 121.691 388.361
 126.566 383.486 c 131.441 378.611 134.457 371.876 134.457 364.431 c 134.457
 356.591 l 107.516 356.591 l 107.516 335.283 l 107.516 331.568 109.023 328.193
 111.457 325.759 c 113.902 323.318 117.266 321.806 120.98 321.806 c h
298.961 321.806 m f
348.789 378.654 m 130.395 378.654 l 129.312 380.411 128.023 382.029 126.566
 383.486 c 122.793 387.259 117.898 389.927 112.426 390.919 c 112.426 391.372
 l 325.91 391.372 l 335.562 391.372 344.039 386.294 348.789 378.654 c h
348.789 378.654 m f
Q Q
showpage
%%Trailer
end restore
%%EOF
