%!PS-Adobe-3.0 EPSF-3.0
%%Creator: cairo 1.14.2 (http://cairographics.org)
%%CreationDate: Wed Jul 12 12:57:24 2017
%%Pages: 1
%%DocumentData: Clean7Bit
%%LanguageLevel: 2
%%BoundingBox: 0 -1 410 410
%%EndComments
%%BeginProlog
save
50 dict begin
/q { gsave } bind def
/Q { grestore } bind def
/cm { 6 array astore concat } bind def
/w { setlinewidth } bind def
/J { setlinecap } bind def
/j { setlinejoin } bind def
/M { setmiterlimit } bind def
/d { setdash } bind def
/m { moveto } bind def
/l { lineto } bind def
/c { curveto } bind def
/h { closepath } bind def
/re { exch dup neg 3 1 roll 5 3 roll moveto 0 rlineto
      0 exch rlineto 0 rlineto closepath } bind def
/S { stroke } bind def
/f { fill } bind def
/f* { eofill } bind def
/n { newpath } bind def
/W { clip } bind def
/W* { eoclip } bind def
/BT { } bind def
/ET { } bind def
/pdfmark where { pop globaldict /?pdfmark /exec load put }
    { globaldict begin /?pdfmark /pop load def /pdfmark
    /cleartomark load def end } ifelse
/BDC { mark 3 1 roll /BDC pdfmark } bind def
/EMC { mark /EMC pdfmark } bind def
/cairo_store_point { /cairo_point_y exch def /cairo_point_x exch def } def
/Tj { show currentpoint cairo_store_point } bind def
/TJ {
  {
    dup
    type /stringtype eq
    { show } { -0.001 mul 0 cairo_font_matrix dtransform rmoveto } ifelse
  } forall
  currentpoint cairo_store_point
} bind def
/cairo_selectfont { cairo_font_matrix aload pop pop pop 0 0 6 array astore
    cairo_font exch selectfont cairo_point_x cairo_point_y moveto } bind def
/Tf { pop /cairo_font exch def /cairo_font_matrix where
      { pop cairo_selectfont } if } bind def
/Td { matrix translate cairo_font_matrix matrix concatmatrix dup
      /cairo_font_matrix exch def dup 4 get exch 5 get cairo_store_point
      /cairo_font where { pop cairo_selectfont } if } bind def
/Tm { 2 copy 8 2 roll 6 array astore /cairo_font_matrix exch def
      cairo_store_point /cairo_font where { pop cairo_selectfont } if } bind def
/g { setgray } bind def
/rg { setrgbcolor } bind def
/d1 { setcachedevice } bind def
%%EndProlog
%%BeginSetup
%%EndSetup
%%Page: 1 1
%%BeginPageSetup
%%PageBoundingBox: 0 -1 410 410
%%EndPageSetup
q 0 -1 410 411 rectclip q
0.258824 0.341176 0.498039 rg
409.602 204.794 m 409.602 113.961 350.469 36.95 268.609 10.133 c 259.422
 7.122 249.945 4.751 240.238 3.055 c 228.727 1.047 216.887 0.001 204.805
 0.001 c 192.715 0.001 180.875 1.047 169.371 3.055 c 159.664 4.751 150.188
 7.122 141 10.133 c 59.133 36.95 0 113.961 0 204.794 c 0 295.629 59.133 
372.637 141 399.458 c 150.188 402.465 159.664 404.84 169.371 406.536 c 180.875
 408.544 192.715 409.59 204.805 409.59 c 216.887 409.59 228.727 408.544 
240.238 406.536 c 249.945 404.836 259.426 402.465 268.609 399.458 c 350.469
 372.637 409.602 295.629 409.602 204.794 c h
409.602 204.794 m f
0.901961 g
157.363 198.715 94.883 -5.934 re f
159.422 180.622 90.754 -5.934 re f
163.855 162.528 81.898 -5.934 re f
171.176 144.442 67.258 -5.93 re f
181.809 126.348 45.996 -5.934 re f
171.176 16.598 67.258 -5.934 re f
181.809 34.247 45.996 -5.934 re f
157.363 216.809 94.883 -5.934 re f
159.422 234.895 90.754 -5.934 re f
163.855 252.989 81.898 -5.934 re f
171.176 271.083 67.258 -5.934 re f
181.809 289.176 45.996 -5.934 re f
171.176 398.919 67.258 -5.934 re f
181.809 381.27 45.996 -5.934 re f
0.921569 0.188235 0.356863 rg
278.664 204.794 m 278.664 173.661 271.992 146.586 258.277 122.028 c 248.691
 104.876 236.746 90.665 224.586 77.333 c 221.539 73.981 218.473 70.696 215.438
 67.426 c 211.832 63.547 208.27 59.715 204.805 55.879 c 198.445 48.852 192.387
 41.774 186.891 34.251 c 185.469 32.305 184.09 30.333 182.75 28.317 c 180.625
 25.129 178.609 21.852 176.711 18.458 c 176.363 17.844 176.027 17.223 175.695
 16.602 c 174.641 14.637 173.637 12.665 172.688 10.669 c 171.496 8.161 170.395
 5.629 169.371 3.055 c 159.664 4.751 150.188 7.122 141.004 10.133 c 143.836
 17.879 147.273 25.368 151.332 32.633 c 160.906 49.786 172.855 63.997 185.016
 77.329 c 188.062 80.68 191.125 83.965 194.164 87.235 c 197.77 91.106 201.332
 94.934 204.805 98.774 c 211.164 105.809 217.223 112.887 222.723 120.419
 c 224.145 122.364 225.52 124.336 226.859 126.344 c 228.984 129.524 231 
132.801 232.902 136.196 c 233.328 136.958 233.746 137.731 234.152 138.504
 c 235.211 140.465 236.195 142.45 237.129 144.438 c 239.004 148.419 240.656
 152.458 242.086 156.598 c 242.77 158.551 243.402 160.532 243.988 162.532
 c 245.152 166.485 246.121 170.536 246.91 174.692 c 247.293 176.645 247.621
 178.618 247.914 180.626 c 248.5 184.567 248.926 188.618 249.203 192.786
 c 249.336 194.731 249.434 196.711 249.496 198.711 c 249.559 200.708 249.594
 202.743 249.594 204.794 c 249.594 206.848 249.559 208.872 249.496 210.872
 c 249.434 212.879 249.336 214.848 249.203 216.805 c 248.926 220.969 248.5
 225.02 247.914 228.965 c 247.621 230.969 247.293 232.942 246.91 234.899
 c 246.121 239.055 245.152 243.106 243.988 247.059 c 243.402 249.055 242.77
 251.036 242.086 252.993 c 240.656 257.129 239.004 261.172 237.129 265.153
 c 236.195 267.141 235.211 269.122 234.152 271.075 c 233.746 271.848 233.328
 272.622 232.902 273.387 c 231.008 276.778 228.992 280.055 226.871 283.235
 c 225.527 285.251 224.141 287.223 222.723 289.169 c 217.223 296.7 211.164
 303.782 204.805 310.817 c 201.332 314.653 197.77 318.481 194.164 322.356
 c 191.125 325.622 188.062 328.911 185.016 332.258 c 172.855 345.59 160.906
 359.801 151.332 376.954 c 147.273 384.219 143.836 391.708 141.004 399.454
 c 150.188 402.465 159.664 404.836 169.371 406.532 c 170.395 403.965 171.496
 401.426 172.688 398.922 c 173.629 396.93 174.633 394.95 175.688 392.989
 c 176.027 392.368 176.363 391.747 176.711 391.122 c 178.609 387.731 180.625
 384.454 182.75 381.27 c 184.09 379.254 185.469 377.286 186.891 375.336 
c 192.387 367.817 198.445 360.735 204.805 353.7 c 208.27 349.864 211.832
 346.036 215.438 342.161 c 218.473 338.895 221.539 335.606 224.586 332.258
 c 236.746 318.926 248.691 304.715 258.277 287.563 c 271.992 263.001 278.664
 235.93 278.664 204.794 c h
278.664 204.794 m f
0.196078 0.666667 0.807843 rg
258.277 32.633 m 262.336 25.368 265.773 17.879 268.609 10.133 c 259.422
 7.126 249.945 4.751 240.238 3.055 c 239.215 5.633 238.113 8.165 236.926
 10.669 c 235.973 12.665 234.969 14.637 233.914 16.602 c 233.586 17.223 
233.246 17.844 232.898 18.458 c 231 21.852 228.98 25.129 226.859 28.317 
c 225.52 30.333 224.133 32.305 222.711 34.251 c 217.215 41.774 211.164 48.856
 204.805 55.879 c 201.332 59.719 197.77 63.547 194.164 67.426 c 191.125 
70.696 188.062 73.985 185.016 77.333 c 172.855 90.665 160.906 104.876 151.332
 122.028 c 137.609 146.59 130.945 173.665 130.945 204.797 c 130.945 235.93
 137.609 263.004 151.332 287.563 c 160.906 304.715 172.855 318.926 185.016
 332.258 c 188.062 335.61 191.125 338.895 194.164 342.165 c 197.77 346.036
 201.332 349.864 204.805 353.704 c 211.164 360.739 217.223 367.817 222.711
 375.34 c 224.141 377.286 225.52 379.258 226.859 381.274 c 228.984 384.454
 231 387.731 232.898 391.126 c 233.246 391.747 233.586 392.368 233.922 392.989
 c 234.977 394.954 235.98 396.934 236.926 398.922 c 238.113 401.426 239.215
 403.969 240.238 406.536 c 249.945 404.836 259.422 402.465 268.609 399.458
 c 265.773 391.711 262.336 384.223 258.277 376.958 c 248.695 359.805 236.746
 345.594 224.586 332.258 c 221.539 328.911 218.477 325.626 215.438 322.356
 c 211.832 318.485 208.27 314.657 204.805 310.817 c 198.438 303.782 192.387
 296.704 186.879 289.172 c 185.469 287.227 184.082 285.254 182.742 283.239
 c 180.617 280.059 178.602 276.782 176.711 273.387 c 176.285 272.622 175.867
 271.852 175.457 271.079 c 174.402 269.122 173.414 267.141 172.48 265.153
 c 170.605 261.172 168.957 257.133 167.523 252.993 c 166.84 251.04 166.203
 249.059 165.625 247.059 c 164.461 243.106 163.484 239.055 162.691 234.899
 c 162.312 232.946 161.98 230.973 161.688 228.965 c 161.102 225.02 160.676
 220.969 160.402 216.805 c 160.266 214.852 160.168 212.879 160.109 210.872
 c 160.047 208.872 160.012 206.848 160.012 204.797 c 160.012 202.743 160.047
 200.711 160.109 198.711 c 160.172 196.711 160.27 194.731 160.402 192.786
 c 160.676 188.622 161.102 184.571 161.688 180.626 c 161.98 178.618 162.309
 176.649 162.691 174.692 c 163.484 170.536 164.461 166.485 165.625 162.532
 c 166.203 160.536 166.84 158.555 167.523 156.598 c 168.957 152.461 170.605
 148.419 172.48 144.438 c 173.414 142.45 174.398 140.469 175.457 138.504
 c 175.867 137.731 176.285 136.961 176.711 136.196 c 178.609 132.801 180.629
 129.524 182.75 126.344 c 184.082 124.336 185.469 122.368 186.879 120.422
 c 192.379 112.887 198.438 105.809 204.805 98.774 c 208.27 94.938 211.832
 91.11 215.438 87.235 c 218.477 83.965 221.539 80.68 224.586 77.333 c 236.746
 63.997 248.691 49.786 258.277 32.633 c h
258.277 32.633 m f
Q Q
showpage
%%Trailer
end restore
%%EOF
