%!PS-Adobe-3.0 EPSF-3.0
%%Creator: cairo 1.14.2 (http://cairographics.org)
%%CreationDate: Wed Jul 12 12:57:24 2017
%%Pages: 1
%%DocumentData: Clean7Bit
%%LanguageLevel: 2
%%BoundingBox: 0 -1 410 410
%%EndComments
%%BeginProlog
save
50 dict begin
/q { gsave } bind def
/Q { grestore } bind def
/cm { 6 array astore concat } bind def
/w { setlinewidth } bind def
/J { setlinecap } bind def
/j { setlinejoin } bind def
/M { setmiterlimit } bind def
/d { setdash } bind def
/m { moveto } bind def
/l { lineto } bind def
/c { curveto } bind def
/h { closepath } bind def
/re { exch dup neg 3 1 roll 5 3 roll moveto 0 rlineto
      0 exch rlineto 0 rlineto closepath } bind def
/S { stroke } bind def
/f { fill } bind def
/f* { eofill } bind def
/n { newpath } bind def
/W { clip } bind def
/W* { eoclip } bind def
/BT { } bind def
/ET { } bind def
/pdfmark where { pop globaldict /?pdfmark /exec load put }
    { globaldict begin /?pdfmark /pop load def /pdfmark
    /cleartomark load def end } ifelse
/BDC { mark 3 1 roll /BDC pdfmark } bind def
/EMC { mark /EMC pdfmark } bind def
/cairo_store_point { /cairo_point_y exch def /cairo_point_x exch def } def
/Tj { show currentpoint cairo_store_point } bind def
/TJ {
  {
    dup
    type /stringtype eq
    { show } { -0.001 mul 0 cairo_font_matrix dtransform rmoveto } ifelse
  } forall
  currentpoint cairo_store_point
} bind def
/cairo_selectfont { cairo_font_matrix aload pop pop pop 0 0 6 array astore
    cairo_font exch selectfont cairo_point_x cairo_point_y moveto } bind def
/Tf { pop /cairo_font exch def /cairo_font_matrix where
      { pop cairo_selectfont } if } bind def
/Td { matrix translate cairo_font_matrix matrix concatmatrix dup
      /cairo_font_matrix exch def dup 4 get exch 5 get cairo_store_point
      /cairo_font where { pop cairo_selectfont } if } bind def
/Tm { 2 copy 8 2 roll 6 array astore /cairo_font_matrix exch def
      cairo_store_point /cairo_font where { pop cairo_selectfont } if } bind def
/g { setgray } bind def
/rg { setrgbcolor } bind def
/d1 { setcachedevice } bind def
%%EndProlog
%%BeginSetup
%%EndSetup
%%Page: 1 1
%%BeginPageSetup
%%PageBoundingBox: 0 -1 410 410
%%EndPageSetup
q 0 -1 410 411 rectclip q
0.913725 0.894118 0.847059 rg
409.602 204.794 m 409.602 147.442 386.016 95.586 348.027 58.419 c 339.117
 49.696 329.41 41.782 319.035 34.801 c 286.398 12.825 247.094 0.001 204.805
 0.001 c 162.504 0.001 123.199 12.825 90.566 34.801 c 80.18 41.782 70.48
 49.696 61.574 58.419 c 23.582 95.586 0 147.442 0 204.794 c 0 317.907 91.695
 409.59 204.805 409.59 c 317.906 409.59 409.602 317.907 409.602 204.794 
c h
409.602 204.794 m f
0.941176 0.627451 0.215686 rg
228.059 345.938 m 183.922 345.938 l 168.094 345.938 155.215 333.059 155.215
 317.219 c 155.215 284.055 l 256.766 284.055 l 256.766 317.219 l 256.766
 333.059 243.887 345.938 228.059 345.938 c h
241.668 299.153 m 170.312 299.153 l 170.312 317.223 l 170.312 324.727 176.414
 330.836 183.922 330.836 c 228.059 330.836 l 235.566 330.836 241.668 324.727
 241.668 317.223 c h
241.668 299.153 m f
0.921569 0.188235 0.356863 rg
315.965 353.782 m 283.723 353.782 l 280.527 353.782 277.934 351.188 277.934
 347.993 c 277.934 229.887 l 277.934 226.688 280.527 224.098 283.723 224.098
 c 315.965 224.098 l 319.164 224.098 321.754 226.688 321.754 229.887 c 321.754
 347.993 l 321.754 351.188 319.164 353.782 315.965 353.782 c h
315.965 353.782 m f
125.879 353.782 m 93.637 353.782 l 90.441 353.782 87.848 351.188 87.848
 347.993 c 87.848 229.887 l 87.848 226.688 90.441 224.098 93.637 224.098
 c 125.879 224.098 l 129.074 224.098 131.668 226.688 131.668 229.887 c 131.668
 347.993 l 131.668 351.188 129.078 353.782 125.879 353.782 c h
125.879 353.782 m f
0.196078 0.666667 0.807843 rg
348.027 167.313 m 348.027 58.419 l 339.117 49.696 329.41 41.782 319.035
 34.801 c 286.398 12.825 247.094 0.001 204.805 0.001 c 162.504 0.001 123.199
 12.825 90.566 34.801 c 80.18 41.782 70.48 49.696 61.574 58.419 c 61.574
 167.313 l 61.574 198.118 71.301 226.645 87.848 250.008 c 99.438 266.368
 114.379 280.192 131.664 290.465 c 139.098 294.899 146.977 298.676 155.211
 301.711 c 160.125 303.524 165.16 305.079 170.312 306.348 c 181.363 309.086
 192.91 310.532 204.805 310.532 c 217.551 310.532 229.906 308.872 241.664
 305.735 c 246.816 304.379 251.863 302.727 256.766 300.809 c 264.137 297.946
 271.219 294.473 277.934 290.477 c 295.219 280.192 310.16 266.368 321.75
 250.008 c 338.301 226.645 348.027 198.114 348.027 167.313 c h
348.027 167.313 m f
0.164706 0.631373 0.737255 rg
213.324 310.274 m 204.465 309.751 195.84 308.419 187.492 306.348 c 182.34
 305.079 177.305 303.524 172.391 301.711 c 164.156 298.676 156.277 294.899
 148.844 290.465 c 131.559 280.188 116.621 266.368 105.027 250.004 c 88.48
 226.645 78.754 198.114 78.754 167.309 c 78.754 43.383 l 72.746 48.071 67.012
 53.09 61.574 58.419 c 61.574 167.313 l 61.574 198.118 71.301 226.645 87.848
 250.008 c 99.441 266.368 114.379 280.192 131.664 290.465 c 139.102 294.899
 146.98 298.676 155.211 301.711 c 160.125 303.524 165.16 305.079 170.312
 306.348 c 181.363 309.086 192.91 310.532 204.805 310.532 c 207.664 310.532
 210.508 310.454 213.324 310.274 c h
213.324 310.274 m f
0.941176 0.627451 0.215686 rg
319.035 162.993 m 319.035 34.801 l 286.398 12.825 247.094 0.001 204.805
 0.001 c 162.504 0.001 123.199 12.825 90.566 34.801 c 90.566 162.993 l 90.566
 185.465 97.051 206.43 108.258 224.098 c 114.645 234.153 122.551 243.149
 131.664 250.754 c 151.473 267.286 176.973 277.223 204.805 277.223 c 232.625
 277.223 258.125 267.286 277.934 250.754 c 287.047 243.153 294.953 234.153
 301.328 224.098 c 312.539 206.43 319.035 185.465 319.035 162.993 c h
319.035 162.993 m f
0.878431 0.568627 0.196078 rg
211.023 277.055 m 185.629 275.688 162.426 266.04 144.102 250.754 c 134.988
 243.149 127.082 234.153 120.695 224.098 c 109.488 206.43 103.004 185.465
 103.004 162.993 c 103.004 27.055 l 98.758 29.489 94.609 32.075 90.566 34.801
 c 90.566 162.993 l 90.566 185.465 97.051 206.43 108.262 224.098 c 114.648
 234.153 122.555 243.149 131.668 250.754 c 151.473 267.286 176.977 277.223
 204.805 277.223 c 206.891 277.223 208.961 277.161 211.023 277.055 c h
211.023 277.055 m f
0.921569 0.188235 0.356863 rg
286.738 128.004 m 286.738 79.419 l 286.738 56.954 268.527 38.747 246.062
 38.747 c 163.543 38.747 l 141.07 38.747 122.863 56.954 122.863 79.419 c
 122.863 128.004 l h
286.738 128.004 m f
0.858824 0.164706 0.345098 rg
286.738 128.004 m 285.484 119.122 l 281.016 101.508 265.062 88.477 246.062
 88.477 c 163.543 88.477 l 144.535 88.477 128.582 101.508 124.113 119.122
 c 124.113 128.004 l f
0.921569 0.188235 0.356863 rg
285.484 128.004 m 281.016 110.391 265.062 97.36 246.062 97.36 c 163.543
 97.36 l 144.535 97.36 128.582 110.391 124.113 128.004 c h
285.484 128.004 m f
0.301961 g
213.676 110.993 m 213.676 106.086 209.699 102.11 204.797 102.11 c 199.891
 102.11 195.914 106.086 195.914 110.993 c 195.914 115.895 199.891 119.872
 204.797 119.872 c 209.699 119.872 213.676 115.895 213.676 110.993 c h
213.676 110.993 m f
0.858824 0.164706 0.345098 rg
229.352 197.133 m 211.445 215.044 l 207.773 218.711 201.828 218.711 198.16
 215.044 c 180.25 197.133 l 176.582 193.465 176.582 187.516 180.25 183.848
 c 198.16 165.942 l 201.828 162.27 207.777 162.27 211.445 165.942 c 229.352
 183.848 l 233.023 187.516 233.023 193.465 229.352 197.133 c h
229.352 197.133 m f
0.941176 0.627451 0.215686 rg
197.102 202.926 m 194.977 202.926 193.254 201.204 193.254 199.079 c 193.254
 181.907 l 193.254 179.782 194.977 178.055 197.102 178.055 c 199.227 178.055
 200.953 179.782 200.953 181.907 c 200.953 199.079 l 200.953 201.204 199.227
 202.926 197.102 202.926 c h
197.102 202.926 m f
212.5 202.926 m 210.375 202.926 208.652 201.204 208.652 199.079 c 208.652
 181.907 l 208.652 179.782 210.375 178.055 212.5 178.055 c 214.625 178.055
 216.348 179.782 216.348 181.907 c 216.348 199.079 l 216.348 201.204 214.625
 202.926 212.5 202.926 c h
212.5 202.926 m f
Q Q
showpage
%%Trailer
end restore
%%EOF
