%!PS-Adobe-3.0 EPSF-3.0
%%Creator: cairo 1.14.2 (http://cairographics.org)
%%CreationDate: Wed Jul 12 12:57:24 2017
%%Pages: 1
%%DocumentData: Clean7Bit
%%LanguageLevel: 2
%%BoundingBox: 0 -1 410 410
%%EndComments
%%BeginProlog
save
50 dict begin
/q { gsave } bind def
/Q { grestore } bind def
/cm { 6 array astore concat } bind def
/w { setlinewidth } bind def
/J { setlinecap } bind def
/j { setlinejoin } bind def
/M { setmiterlimit } bind def
/d { setdash } bind def
/m { moveto } bind def
/l { lineto } bind def
/c { curveto } bind def
/h { closepath } bind def
/re { exch dup neg 3 1 roll 5 3 roll moveto 0 rlineto
      0 exch rlineto 0 rlineto closepath } bind def
/S { stroke } bind def
/f { fill } bind def
/f* { eofill } bind def
/n { newpath } bind def
/W { clip } bind def
/W* { eoclip } bind def
/BT { } bind def
/ET { } bind def
/pdfmark where { pop globaldict /?pdfmark /exec load put }
    { globaldict begin /?pdfmark /pop load def /pdfmark
    /cleartomark load def end } ifelse
/BDC { mark 3 1 roll /BDC pdfmark } bind def
/EMC { mark /EMC pdfmark } bind def
/cairo_store_point { /cairo_point_y exch def /cairo_point_x exch def } def
/Tj { show currentpoint cairo_store_point } bind def
/TJ {
  {
    dup
    type /stringtype eq
    { show } { -0.001 mul 0 cairo_font_matrix dtransform rmoveto } ifelse
  } forall
  currentpoint cairo_store_point
} bind def
/cairo_selectfont { cairo_font_matrix aload pop pop pop 0 0 6 array astore
    cairo_font exch selectfont cairo_point_x cairo_point_y moveto } bind def
/Tf { pop /cairo_font exch def /cairo_font_matrix where
      { pop cairo_selectfont } if } bind def
/Td { matrix translate cairo_font_matrix matrix concatmatrix dup
      /cairo_font_matrix exch def dup 4 get exch 5 get cairo_store_point
      /cairo_font where { pop cairo_selectfont } if } bind def
/Tm { 2 copy 8 2 roll 6 array astore /cairo_font_matrix exch def
      cairo_store_point /cairo_font where { pop cairo_selectfont } if } bind def
/g { setgray } bind def
/rg { setrgbcolor } bind def
/d1 { setcachedevice } bind def
%%EndProlog
%%BeginSetup
%%EndSetup
%%Page: 1 1
%%BeginPageSetup
%%PageBoundingBox: 0 -1 410 410
%%EndPageSetup
q 0 -1 410 411 rectclip q
0.921569 0.188235 0.356863 rg
409.602 204.794 m 409.602 139.055 378.625 80.547 330.465 43.079 c 326.645
 40.102 322.711 37.254 318.668 34.563 c 313.73 31.239 308.633 28.137 303.402
 25.262 c 299.27 22.977 295.051 20.848 290.742 18.856 c 275.758 11.911 259.789
 6.731 243.098 3.579 c 230.699 1.227 217.891 0.001 204.805 0.001 c 191.723
 0.001 178.922 1.227 166.512 3.579 c 149.82 6.735 133.852 11.911 118.859
 18.856 c 89.688 32.36 64.23 52.524 44.449 77.395 c 40.258 82.661 36.312
 88.141 32.652 93.817 c 26.852 102.79 21.734 112.239 17.383 122.11 c 6.207
 147.395 0 175.368 0 204.794 c 0 234.223 6.207 262.196 17.383 287.481 c 
21.734 297.352 26.852 306.801 32.652 315.774 c 38.914 325.465 45.969 334.594
 53.738 343.071 c 60.879 350.879 68.625 358.126 76.895 364.743 c 87.688 
373.387 99.379 380.961 111.797 387.305 c 124.348 393.708 137.633 398.86 
151.508 402.583 c 168.5 407.157 186.371 409.59 204.805 409.59 c 223.234 
409.59 241.098 407.157 258.09 402.583 c 271.965 398.86 285.262 393.708 297.805
 387.305 c 299.688 386.344 301.555 385.352 303.398 384.329 c 308.375 381.594
 313.223 378.653 317.941 375.516 c 318.18 375.368 318.43 375.208 318.668
 375.028 c 322.711 372.336 326.645 369.485 330.465 366.512 c 378.625 329.044
 409.602 270.536 409.602 204.794 c h
409.602 204.794 m f
0.756863 0.737255 0.705882 rg
330.465 375.516 m 330.465 43.079 l 326.645 40.102 322.711 37.254 318.668
 34.563 c 313.73 31.239 308.633 28.137 303.402 25.262 c 299.27 22.977 295.051
 20.848 290.742 18.856 c 275.758 11.911 259.789 6.731 243.098 3.579 c 230.699
 1.227 217.891 0.001 204.805 0.001 c 191.723 0.001 178.922 1.227 166.512
 3.579 c 149.82 6.735 133.852 11.911 118.859 18.856 c 89.688 32.36 64.23
 52.524 44.449 77.395 c 44.449 316.004 l 71.512 343.071 l 76.898 348.454
 l 103.961 375.516 l h
330.465 375.516 m f
0.827451 0.807843 0.760784 rg
318.668 387.305 m 318.668 34.563 l 313.73 31.239 308.633 28.137 303.402
 25.262 c 299.27 22.977 295.051 20.848 290.742 18.856 c 275.758 11.911 259.789
 6.731 243.098 3.579 c 166.512 3.579 l 149.82 6.735 133.852 11.911 118.859
 18.856 c 89.688 32.36 64.23 52.524 44.449 77.395 c 40.258 82.661 36.312
 88.141 32.652 93.817 c 32.652 327.79 l 92.164 387.305 l 92.164 387.305 
318.668 387.305 318.668 387.305 c h
318.668 387.305 m f
0.913725 0.894118 0.847059 rg
303.402 402.583 m 303.402 25.262 l 299.27 22.977 295.051 20.848 290.742
 18.856 c 118.855 18.856 l 89.688 32.36 64.23 52.524 44.449 77.395 c 40.254
 82.661 36.312 88.141 32.652 93.817 c 26.852 102.79 21.734 112.239 17.383
 122.11 c 17.383 343.071 l 76.895 402.583 l h
303.402 402.583 m f
0.827451 0.807843 0.760784 rg
76.895 343.067 m 76.895 402.579 l 17.383 343.067 l h
76.895 343.067 m f
0.117647 0.192157 0.376471 rg
118.688 332.973 84.242 -8.883 re f
68.883 309.266 183.852 -8.883 re f
68.883 285.567 183.852 -8.879 re f
68.883 261.868 183.852 -8.879 re f
68.883 238.172 183.852 -8.883 re f
68.883 214.473 183.852 -8.883 re f
68.883 190.774 183.852 -8.883 re f
68.883 167.075 183.852 -8.883 re f
68.883 143.368 183.852 -8.883 re f
68.883 119.669 105.73 -8.883 re f
0.847059 0.168627 0.34902 rg
267.363 100.301 m 260.293 100.301 l 244.848 54.856 l 250.922 54.856 l 255.641
 69.149 l 271.754 69.149 l 276.602 54.856 l 282.875 54.856 l h
256.848 73.735 m 261.297 86.879 l 262.176 89.653 262.922 92.415 263.59 
95.106 c 263.73 95.106 l 264.398 92.477 265.074 89.786 266.086 86.817 c 
270.535 73.735 l h
256.848 73.735 m f
196.598 58.778 m 202.461 65.344 208.449 71.794 214.367 78.309 c 223.332
 87.997 l 232.359 97.618 l 235.375 100.821 238.309 104.106 241.27 107.364
 c 244.238 110.614 247.336 113.731 250.574 116.711 c 253.812 119.692 257.129
 122.59 260.543 125.391 c 263.973 128.18 267.461 130.911 271.203 133.387
 c 271.352 133.481 271.547 133.442 271.645 133.297 c 271.719 133.188 271.711
 133.047 271.645 132.946 c 269.168 129.204 266.441 125.715 263.652 122.286
 c 260.848 118.872 257.949 115.551 254.969 112.317 c 251.988 109.079 248.871
 105.981 245.621 103.012 c 242.363 100.051 239.078 97.118 235.879 94.102
 c 226.254 85.075 l 216.566 76.11 l 210.051 70.188 203.602 64.204 197.035
 58.336 c 196.906 58.223 196.707 58.235 196.594 58.364 c 196.488 58.481 
196.492 58.661 196.598 58.778 c h
196.598 58.778 m f
Q Q
showpage
%%Trailer
end restore
%%EOF
