%!PS-Adobe-3.0 EPSF-3.0
%%Creator: cairo 1.14.2 (http://cairographics.org)
%%CreationDate: Wed Jul 12 12:57:24 2017
%%Pages: 1
%%DocumentData: Clean7Bit
%%LanguageLevel: 2
%%BoundingBox: 0 -1 410 410
%%EndComments
%%BeginProlog
save
50 dict begin
/q { gsave } bind def
/Q { grestore } bind def
/cm { 6 array astore concat } bind def
/w { setlinewidth } bind def
/J { setlinecap } bind def
/j { setlinejoin } bind def
/M { setmiterlimit } bind def
/d { setdash } bind def
/m { moveto } bind def
/l { lineto } bind def
/c { curveto } bind def
/h { closepath } bind def
/re { exch dup neg 3 1 roll 5 3 roll moveto 0 rlineto
      0 exch rlineto 0 rlineto closepath } bind def
/S { stroke } bind def
/f { fill } bind def
/f* { eofill } bind def
/n { newpath } bind def
/W { clip } bind def
/W* { eoclip } bind def
/BT { } bind def
/ET { } bind def
/pdfmark where { pop globaldict /?pdfmark /exec load put }
    { globaldict begin /?pdfmark /pop load def /pdfmark
    /cleartomark load def end } ifelse
/BDC { mark 3 1 roll /BDC pdfmark } bind def
/EMC { mark /EMC pdfmark } bind def
/cairo_store_point { /cairo_point_y exch def /cairo_point_x exch def } def
/Tj { show currentpoint cairo_store_point } bind def
/TJ {
  {
    dup
    type /stringtype eq
    { show } { -0.001 mul 0 cairo_font_matrix dtransform rmoveto } ifelse
  } forall
  currentpoint cairo_store_point
} bind def
/cairo_selectfont { cairo_font_matrix aload pop pop pop 0 0 6 array astore
    cairo_font exch selectfont cairo_point_x cairo_point_y moveto } bind def
/Tf { pop /cairo_font exch def /cairo_font_matrix where
      { pop cairo_selectfont } if } bind def
/Td { matrix translate cairo_font_matrix matrix concatmatrix dup
      /cairo_font_matrix exch def dup 4 get exch 5 get cairo_store_point
      /cairo_font where { pop cairo_selectfont } if } bind def
/Tm { 2 copy 8 2 roll 6 array astore /cairo_font_matrix exch def
      cairo_store_point /cairo_font where { pop cairo_selectfont } if } bind def
/g { setgray } bind def
/rg { setrgbcolor } bind def
/d1 { setcachedevice } bind def
%%EndProlog
%%BeginSetup
%%EndSetup
%%Page: 1 1
%%BeginPageSetup
%%PageBoundingBox: 0 -1 410 410
%%EndPageSetup
q 0 -1 410 411 rectclip q
0.258824 0.341176 0.498039 rg
409.602 204.794 m 409.602 94.857 322.977 5.161 214.266 0.224 c 213.527 
0.189 212.789 0.161 212.043 0.134 c 209.645 0.044 207.23 0.001 204.805 0.001
 c 202.023 0.001 199.254 0.052 196.5 0.169 c 195.762 0.197 195.016 0.232
 194.277 0.267 c 86.062 5.74 0 95.212 0 204.794 c 0 317.908 91.695 409.591
 204.805 409.591 c 317.906 409.591 409.602 317.908 409.602 204.794 c h
409.602 204.794 m f
0.913725 0.894118 0.847059 rg
214.266 39.341 m 214.266 0.224 l 213.527 0.189 212.789 0.161 212.043 0.134
 c 209.645 0.044 207.23 0.001 204.805 0.001 c 202.023 0.001 199.254 0.052
 196.5 0.169 c 196.5 39.341 l h
214.266 39.341 m f
0.941176 0.627451 0.215686 rg
303.469 293.322 m 292.793 304.001 l 317.445 328.642 l 328.121 317.958 l
 h
303.469 293.322 m f
90.383 80.22 m 79.707 90.896 l 107.375 118.564 l 118.051 107.888 l h
90.383 80.22 m f
0.807843 0.784314 0.729412 rg
214.266 32.556 m 214.266 14.771 l 211.324 14.622 208.355 14.548 205.383
 14.548 c 202.406 14.548 199.449 14.622 196.5 14.771 c 196.5 32.564 l 199.449
 32.396 202.406 32.314 205.383 32.314 c 208.367 32.314 211.324 32.396 214.266
 32.556 c h
214.266 32.556 m f
0.196078 0.666667 0.807843 rg
342.547 169.673 m 341.703 166.423 340.727 163.208 339.641 160.021 c 333.352
 141.579 323.164 124.189 309.066 109.115 c 307.965 107.931 306.836 106.759
 305.684 105.603 c 304.734 104.654 303.781 103.732 302.812 102.806 c 287.848
 88.65 270.543 78.372 252.184 71.966 c 249.012 70.865 245.816 69.88 242.582
 69.009 c 205.098 58.857 164.254 64.337 130.387 85.47 c 124.223 89.314 118.277
 93.685 112.641 98.572 c 110.055 100.81 107.531 103.154 105.078 105.607 
c 102.629 108.056 100.281 110.579 98.043 113.165 c 93.16 118.806 88.789 
124.747 84.941 130.911 c 63.812 164.783 58.324 205.622 68.477 243.115 c 
69.344 246.341 70.332 249.548 71.434 252.72 c 77.836 271.068 88.125 288.372
 102.281 303.349 c 103.207 304.318 104.129 305.267 105.078 306.216 c 106.234
 307.372 107.406 308.501 108.59 309.603 c 123.66 323.697 141.055 333.876
 159.484 340.165 c 162.672 341.251 165.898 342.228 169.148 343.072 c 207.227
 353.099 248.664 347.033 282.676 324.88 c 288.262 321.255 293.637 317.189
 298.77 312.685 c 301.125 310.622 303.434 308.466 305.68 306.216 c 307.938
 303.962 310.098 301.654 312.164 299.29 c 316.66 294.154 320.727 288.783
 324.352 283.212 c 346.508 249.193 352.574 207.755 342.547 169.673 c h
342.547 169.673 m f
0.160784 0.611765 0.717647 rg
316.117 118.763 m 315.129 117.701 314.109 116.646 313.07 115.607 c 312.219
 114.751 311.359 113.919 310.488 113.087 c 297.012 100.341 281.438 91.087
 264.906 85.322 c 262.051 84.329 259.172 83.443 256.262 82.658 c 222.516
 73.521 185.746 78.454 155.254 97.478 c 149.703 100.939 144.352 104.872 
139.273 109.271 c 136.949 111.286 134.676 113.4 132.469 115.607 c 130.266
 117.814 128.152 120.083 126.137 122.411 c 121.738 127.49 117.805 132.837
 114.34 138.388 c 95.316 168.88 90.375 205.65 99.516 239.404 c 100.297 242.31
 101.188 245.193 102.18 248.048 c 107.945 264.572 117.203 280.15 129.953
 293.63 c 130.781 294.501 131.613 295.361 132.469 296.216 c 133.508 297.255
 134.566 298.271 135.629 299.263 c 149.199 311.954 164.859 321.119 181.453
 326.779 c 184.324 327.755 187.227 328.634 190.152 329.392 c 224.434 338.423
 261.738 332.958 292.359 313.017 c 297.391 309.755 302.23 306.091 306.852
 302.036 c 308.969 300.181 311.047 298.236 313.07 296.216 c 315.102 294.185
 317.047 292.103 318.91 289.978 c 320.633 288.005 322.273 285.99 323.859
 283.943 c 320.355 289.251 316.465 294.38 312.168 299.286 c 310.098 301.65
 307.941 303.958 305.684 306.216 c 303.438 308.462 301.129 310.619 298.773
 312.681 c 293.641 317.185 288.266 321.251 282.68 324.876 c 248.668 347.029
 207.23 353.095 169.152 343.068 c 165.898 342.224 162.676 341.247 159.488
 340.161 c 141.055 333.872 123.664 323.697 108.59 309.599 c 107.41 308.497
 106.238 307.369 105.082 306.216 c 104.133 305.263 103.207 304.314 102.285
 303.345 c 88.125 288.369 77.84 271.068 71.434 252.716 c 70.332 249.544 
69.348 246.337 68.477 243.115 c 58.324 205.619 63.812 164.779 84.945 130.908
 c 88.793 124.744 93.16 118.802 98.047 113.161 c 100.285 110.576 102.629
 108.056 105.082 105.603 c 107.535 103.15 110.059 100.806 112.641 98.568
 c 118.281 93.681 124.227 89.31 130.391 85.466 c 164.258 64.333 205.102 
58.853 242.586 69.005 c 245.816 69.876 249.016 70.865 252.188 71.962 c 270.547
 78.369 287.848 88.646 302.816 102.802 c 303.785 103.728 304.734 104.65 
305.688 105.603 c 306.84 106.755 307.969 107.927 309.07 109.111 c 314.598
 115.025 319.52 121.298 323.848 127.849 c 321.43 124.736 318.863 121.697
 316.117 118.763 c h
316.117 118.763 m f
0.113725 0.52549 0.619608 rg
315.035 197.185 m 320.004 207.966 323.715 218.9 326.051 229.755 c 330.324
 249.654 329.676 267.861 324.355 283.212 c 322.898 285.451 321.359 287.661
 319.754 289.837 c 319.281 290.486 318.805 291.126 318.312 291.763 c 317.824
 292.404 317.328 293.044 316.832 293.673 c 315.34 295.576 313.785 297.451
 312.168 299.286 c 310.098 301.65 307.941 303.958 305.684 306.216 c 303.438
 308.462 301.129 310.622 298.773 312.681 c 293.641 317.185 288.266 321.255
 282.68 324.88 c 274.391 327.755 265.262 329.267 255.48 329.372 c 247.164
 329.462 238.379 328.536 229.242 326.576 c 218.379 324.24 207.441 320.525
 196.66 315.56 c 184.465 327.755 l 169.152 343.072 l 165.898 342.228 162.676
 341.251 159.488 340.165 c 175.191 324.462 l 188.238 311.411 l 171.684 302.744
 155.648 291.161 141.012 277.181 c 108.59 309.599 l 107.406 308.497 106.234
 307.372 105.078 306.216 c 104.129 305.267 103.207 304.318 102.281 303.349
 c 134.703 270.927 l 120.652 256.411 108.953 240.486 100.133 224.017 c 71.434
 252.716 l 70.332 249.548 69.344 246.341 68.477 243.115 c 95.477 216.111
 l 95.93 215.658 l 95.734 215.244 95.539 214.826 95.344 214.408 c 90.289
 203.525 86.535 192.474 84.172 181.505 c 82.297 172.775 81.363 164.361 81.363
 156.376 c 81.363 147.29 82.562 138.755 84.941 130.911 c 88.789 124.747 
93.16 118.802 98.043 113.161 c 100.281 110.579 102.629 108.056 105.078 105.603
 c 107.531 103.154 110.055 100.806 112.641 98.568 c 118.281 93.685 124.223
 89.314 130.387 85.466 c 138.23 83.087 146.766 81.888 155.852 81.888 c 163.84
 81.888 172.25 82.81 180.992 84.693 c 181.293 84.755 181.594 84.829 181.898
 84.9 c 192.98 87.349 204.156 91.24 215.145 96.447 c 242.582 69.005 l 245.816
 69.876 249.012 70.865 252.184 71.966 c 244.145 80.001 l 223.504 100.646
 l 239.973 109.466 255.891 121.165 270.402 135.228 c 300.816 104.802 l 302.816
 102.806 l 303.781 103.728 304.734 104.654 305.684 105.603 c 306.84 106.759
 307.969 107.931 309.066 109.111 c 276.645 141.533 l 290.637 156.173 302.219
 172.204 310.898 188.763 c 339.641 160.017 l 340.727 163.208 341.703 166.423
 342.547 169.673 c h
189.66 228.529 m 204.148 242.779 218.77 255.818 232.703 266.954 c 266.434
 233.228 l 255.293 219.283 242.262 204.661 228.008 190.177 c h
221.734 183.888 m 207.309 169.622 192.734 156.556 178.805 145.345 c 144.82
 179.329 l 156.039 193.259 169.105 207.833 183.371 222.259 c h
239.746 272.47 m 247.672 278.529 255.32 283.923 262.531 288.505 c 281.344
 300.451 292.387 303.826 297.98 303.826 c 300.105 303.826 301.445 303.349
 302.141 302.654 c 302.184 302.611 302.227 302.564 302.262 302.521 c 304.625
 299.767 304.18 288.556 287.98 263.056 c 283.398 255.833 278.004 248.197
 271.945 240.271 c h
254.172 320.525 m 267.648 320.525 279.996 317.638 290.352 311.669 c 281.816
 309.591 270.926 304.361 257.77 296.001 c 250.07 291.107 241.891 285.326
 233.426 278.794 c 203.367 308.853 l 220.91 316.529 238.32 320.525 254.172
 320.525 c h
194.828 304.822 m 226.391 273.271 l 212.418 262.064 197.824 249.033 183.379
 234.81 c 147.293 270.892 l 162.273 285.173 178.504 296.572 194.828 304.822
 c h
140.992 264.638 m 177.09 228.54 l 162.859 214.15 149.785 199.599 138.504
 185.646 c 106.707 217.447 l 115.234 233.986 126.852 250.033 140.992 264.638
 c h
99.066 120.396 m 90.105 135.966 87.875 156.458 92.859 179.642 c 93.695 
183.513 94.707 187.396 95.906 191.286 c 97.734 197.193 99.98 203.099 102.621
 208.97 c 132.953 178.638 l 126.027 169.701 119.895 161.076 114.746 152.974
 c 113.109 150.408 111.602 147.919 110.215 145.521 c 104.457 135.654 100.746
 127.259 99.066 120.396 c h
108.215 108.482 m 108.172 108.517 108.129 108.564 108.082 108.607 c 108.039
 108.65 107.992 108.697 107.957 108.74 c 105.988 111.04 105.969 119.22 115.43
 136.693 c 117.312 140.158 119.559 143.994 122.242 148.216 c 127.082 155.826
 132.812 163.911 139.289 172.302 c 171.777 139.814 l 163.395 133.337 155.301
 127.599 147.691 122.767 c 142.359 119.384 137.66 116.681 133.531 114.56
 c 117.871 106.494 110.402 106.611 108.215 108.482 c h
179.117 93.372 m 174.754 92.431 170.48 91.755 166.324 91.329 c 148.398 
89.474 132.52 92.318 119.879 99.591 c 125.688 101.013 132.57 103.88 140.531
 108.208 c 144.27 110.244 148.25 112.595 152.449 115.267 c 160.559 120.419
 169.184 126.548 178.113 133.478 c 208.453 103.134 l 198.719 98.755 188.879
 95.47 179.117 93.372 c h
216.93 107.22 m 185.121 139.029 l 199.074 150.31 213.633 163.384 228.016
 177.615 c 264.113 141.509 l 249.512 127.376 233.469 115.759 216.93 107.22
 c h
270.367 147.814 m 234.285 183.904 l 248.508 198.349 261.535 212.939 272.746
 226.915 c 304.309 195.353 l 295.93 178.724 284.426 162.552 270.367 147.814
 c h
308.32 203.9 m 278.281 233.939 l 284.801 242.404 290.582 250.587 295.477
 258.286 c 303.836 271.451 309.066 282.333 311.156 290.869 c 320.117 275.298
 322.348 254.806 317.363 231.622 c 315.383 222.392 312.344 213.099 308.32
 203.9 c h
308.32 203.9 m f
0.913725 0.894118 0.847059 rg
205.379 28.759 m 148.414 28.759 95.562 55.802 62.215 101.552 c 59.234 105.638
 60.336 111.404 64.574 114.169 c 68.555 116.767 73.84 115.751 76.645 111.915
 c 106.66 70.814 154.172 46.525 205.379 46.525 c 293.266 46.525 364.766 
118.025 364.766 205.911 c 364.766 233.857 357.43 261.349 343.555 285.415
 c 331.496 306.318 314.75 324.31 294.816 337.857 c 290.887 340.525 289.691
 345.771 292.145 349.833 c 294.762 354.169 300.492 355.47 304.684 352.63
 c 326.879 337.572 345.523 317.556 358.941 294.286 c 374.375 267.529 382.531
 236.97 382.531 205.908 c 382.531 108.228 303.062 28.759 205.379 28.759 
c h
205.379 28.759 m f
Q Q
showpage
%%Trailer
end restore
%%EOF
