%!PS-Adobe-3.0 EPSF-3.0
%%Creator: cairo 1.14.2 (http://cairographics.org)
%%CreationDate: Wed Jul 12 12:57:24 2017
%%Pages: 1
%%DocumentData: Clean7Bit
%%LanguageLevel: 2
%%BoundingBox: 0 -1 409 410
%%EndComments
%%BeginProlog
save
50 dict begin
/q { gsave } bind def
/Q { grestore } bind def
/cm { 6 array astore concat } bind def
/w { setlinewidth } bind def
/J { setlinecap } bind def
/j { setlinejoin } bind def
/M { setmiterlimit } bind def
/d { setdash } bind def
/m { moveto } bind def
/l { lineto } bind def
/c { curveto } bind def
/h { closepath } bind def
/re { exch dup neg 3 1 roll 5 3 roll moveto 0 rlineto
      0 exch rlineto 0 rlineto closepath } bind def
/S { stroke } bind def
/f { fill } bind def
/f* { eofill } bind def
/n { newpath } bind def
/W { clip } bind def
/W* { eoclip } bind def
/BT { } bind def
/ET { } bind def
/pdfmark where { pop globaldict /?pdfmark /exec load put }
    { globaldict begin /?pdfmark /pop load def /pdfmark
    /cleartomark load def end } ifelse
/BDC { mark 3 1 roll /BDC pdfmark } bind def
/EMC { mark /EMC pdfmark } bind def
/cairo_store_point { /cairo_point_y exch def /cairo_point_x exch def } def
/Tj { show currentpoint cairo_store_point } bind def
/TJ {
  {
    dup
    type /stringtype eq
    { show } { -0.001 mul 0 cairo_font_matrix dtransform rmoveto } ifelse
  } forall
  currentpoint cairo_store_point
} bind def
/cairo_selectfont { cairo_font_matrix aload pop pop pop 0 0 6 array astore
    cairo_font exch selectfont cairo_point_x cairo_point_y moveto } bind def
/Tf { pop /cairo_font exch def /cairo_font_matrix where
      { pop cairo_selectfont } if } bind def
/Td { matrix translate cairo_font_matrix matrix concatmatrix dup
      /cairo_font_matrix exch def dup 4 get exch 5 get cairo_store_point
      /cairo_font where { pop cairo_selectfont } if } bind def
/Tm { 2 copy 8 2 roll 6 array astore /cairo_font_matrix exch def
      cairo_store_point /cairo_font where { pop cairo_selectfont } if } bind def
/g { setgray } bind def
/rg { setrgbcolor } bind def
/d1 { setcachedevice } bind def
%%EndProlog
%%BeginSetup
%%EndSetup
%%Page: 1 1
%%BeginPageSetup
%%PageBoundingBox: 0 -1 409 410
%%EndPageSetup
q 0 -1 409 411 rectclip q
0.913725 0.894118 0.847059 rg
408.082 204.038 m 408.082 138.011 376.719 79.312 328.07 42.034 c 326.957
 41.179 325.832 40.327 324.699 39.495 c 295 17.671 259.195 3.706 220.32 
0.636 c 219.062 0.538 217.805 0.452 216.539 0.37 c 215.875 0.335 215.223
 0.3 214.559 0.265 c 213.797 0.222 213.035 0.187 212.266 0.159 c 211.629
 0.14 211 0.116 210.371 0.097 c 208.266 0.034 206.16 -0.001 204.047 -0.001
 c 200.734 -0.001 197.434 0.081 194.16 0.23 c 171.914 1.3 150.594 5.921 
130.77 13.558 c 130.105 13.816 129.445 14.07 128.789 14.335 c 112.336 20.859
 96.93 29.468 82.914 39.839 c 81.77 40.683 80.637 41.538 79.523 42.405 c
 31.16 79.691 0 138.222 0 204.038 c 0 274.425 35.637 336.48 89.859 373.152
 c 93.699 375.753 97.648 378.234 101.672 380.57 c 110.684 385.808 120.125
 390.374 129.938 394.198 c 152.91 403.152 177.902 408.073 204.047 408.073
 c 227.602 408.073 250.23 404.081 271.285 396.73 c 274.551 395.597 277.77
 394.374 280.957 393.073 c 286.02 391.011 290.977 388.757 295.824 386.304
 c 362.418 352.718 408.082 283.71 408.082 204.038 c h
408.082 204.038 m f
0.8 g
337.168 140.663 m 337.047 139.327 l 337.047 139.312 l 328.07 42.038 l 326.957
 41.179 325.832 40.327 324.699 39.495 c 295 17.675 259.195 3.71 220.32 0.64
 c 219.062 0.542 217.805 0.452 216.539 0.374 c 215.875 0.339 215.223 0.3
 214.559 0.265 c 213.797 0.222 213.035 0.187 212.266 0.159 c 211.629 0.144
 211 0.116 210.371 0.097 c 208.266 0.038 206.16 -0.001 204.047 -0.001 c 
200.734 -0.001 197.434 0.081 194.16 0.23 c 171.914 1.304 150.594 5.921 130.77
 13.558 c 130.105 13.816 129.445 14.073 128.789 14.335 c 112.336 20.859 
96.93 29.468 82.914 39.843 c 81.77 40.683 80.637 41.542 79.523 42.409 c 
71.027 139.347 l 71.027 139.39 l 70.922 140.663 l h
337.168 140.663 m f
0.701961 g
128.789 14.335 m 112.336 20.859 96.93 29.468 82.91 39.843 c 81.77 40.683
 80.637 41.542 79.523 42.409 c 71.027 139.347 l 71.027 139.39 l 70.922 140.663
 l 123.16 140.663 l 124.273 115.566 l 124.273 115.558 l h
128.789 14.335 m f
0.6 g
337.172 140.663 m 337.172 123.347 277.57 109.312 204.047 109.312 c 130.523
 109.312 70.922 123.347 70.922 140.663 c 70.922 157.976 130.523 172.011 
204.047 172.011 c 277.57 172.011 337.172 157.976 337.172 140.663 c h
337.172 140.663 m f
0.956863 0.796078 0.466667 rg
271.285 409.601 24.535 -43.414 re f
0.878431 0.717647 0.431373 rg
271.285 409.601 9.672 -43.414 re f
0.956863 0.796078 0.466667 rg
318.992 219.675 m 316.957 219.675 315.105 221.054 314.59 223.12 c 309.031
 245.339 307.398 268.159 309.73 290.941 c 315.797 350.206 l 316.262 354.757
 314.832 359.136 311.766 362.53 c 308.699 365.929 304.488 367.8 299.914 
367.8 c 297.402 367.8 295.371 369.831 295.371 372.343 c 295.371 374.851 
297.402 376.886 299.914 376.886 c 306.988 376.886 313.77 373.87 318.508 
368.62 c 323.254 363.366 325.559 356.32 324.836 349.277 c 318.77 290.015
 l 316.547 268.284 318.105 246.519 323.402 225.32 c 324.012 222.886 322.531
 220.421 320.098 219.812 c 319.727 219.722 319.359 219.675 318.992 219.675
 c h
318.992 219.675 m f
0.941176 0.627451 0.215686 rg
304.457 379.609 m 304.457 120.089 l 300.785 119.089 296.848 118.144 292.68
 117.28 c 287.227 116.128 281.375 115.081 275.176 114.163 c 271.145 113.554
 266.961 112.999 262.656 112.499 c 262.656 379.609 l h
304.457 379.609 m f
0.858824 0.552941 0.180392 rg
275.176 379.609 m 275.176 114.163 l 271.145 113.554 266.961 112.999 262.656
 112.499 c 262.656 379.609 l h
275.176 379.609 m f
0.956863 0.796078 0.466667 rg
304.457 126.37 m 304.457 120.089 l 300.785 119.089 296.848 118.144 292.68
 117.28 c 262.656 117.28 l 262.656 126.37 l h
304.457 126.37 m f
0.54902 0.631373 0.74902 rg
162.57 312.39 m 165.078 312.39 167.113 314.425 167.113 316.933 c 167.113
 351.261 l 167.113 353.769 165.078 355.804 162.57 355.804 c 160.059 355.804
 158.027 353.769 158.027 351.261 c 158.027 316.937 l 158.027 314.425 160.059
 312.39 162.57 312.39 c h
162.57 312.39 m f
0.639216 0.345098 0.584314 rg
183.469 298.12 m 183.469 109.687 l 173.281 110.058 163.477 110.702 154.199
 111.585 c 149.898 111.991 145.719 112.456 141.668 112.956 c 141.668 298.12
 l 141.668 313.593 147.566 328.405 158.023 339.601 c 159.449 341.136 160.969
 342.601 162.566 343.991 c 163.941 342.757 l 164.184 342.538 164.422 342.312
 164.656 342.073 c 165.004 341.757 165.34 341.429 165.668 341.093 c 165.867
 340.882 l 166.293 340.476 166.703 340.038 167.109 339.601 c 177.57 328.405
 183.469 313.593 183.469 298.12 c h
183.469 298.12 m f
0.568627 0.313726 0.533333 rg
168.828 337.655 m 168.238 336.964 167.664 336.273 167.109 335.558 c 163.266
 330.632 160.195 325.159 158.023 319.335 c 155.523 312.62 154.199 305.441
 154.199 298.116 c 154.199 111.581 l 149.898 111.991 145.719 112.456 141.668
 112.956 c 141.668 298.12 l 141.668 313.593 147.562 328.405 158.023 339.601
 c 159.449 341.136 160.969 342.601 162.566 343.991 c 163.938 342.757 l 164.184
 342.538 164.422 342.312 164.656 342.073 c 165 341.757 165.34 341.429 165.664
 341.093 c 165.867 340.882 l 166.293 340.456 166.711 340.019 167.109 339.573
 c 167.703 338.945 168.273 338.312 168.828 337.655 c h
168.828 337.655 m f
141.668 254.937 41.797 -9.09 re f
141.668 240.167 41.797 -9.09 re f
141.668 225.405 41.797 -9.086 re f
141.668 210.636 41.797 -9.09 re f
141.668 195.866 41.797 -9.09 re f
0.956863 0.345098 0.505882 rg
244.48 326.554 m 244.48 110.784 l 240.664 110.495 236.766 110.249 232.805
 110.05 c 232.805 326.554 l h
244.48 326.554 m f
0.701961 g
232.805 326.554 m 202.68 326.554 l 202.68 340.187 l 244.48 340.187 l 244.48
 326.554 l h
232.805 326.554 m f
202.676 353.812 41.797 -13.629 re f
0.54902 0.631373 0.74902 rg
244.48 375.796 m 244.48 353.816 l 202.68 353.816 l 202.68 375.796 l 202.68
 382.23 207.895 387.437 214.32 387.437 c 232.84 387.437 l 239.266 387.437
 244.48 382.23 244.48 375.796 c h
244.48 375.796 m f
0.447059 0.537255 0.639216 rg
226.133 387.437 m 214.32 387.437 l 207.895 387.437 202.68 382.23 202.68
 375.796 c 202.68 353.816 l 214.492 353.816 l 214.492 375.796 l 214.492 
382.23 219.707 387.437 226.133 387.437 c h
226.133 387.437 m f
0.921569 0.188235 0.356863 rg
232.805 326.554 m 232.805 110.046 l 226.797 109.73 220.637 109.523 214.355
 109.402 c 214.355 326.554 l h
232.805 326.554 m f
0.847059 0.168627 0.34902 rg
214.355 326.554 m 214.355 109.402 l 210.957 109.339 207.512 109.312 204.043
 109.312 c 202.68 109.312 l 202.68 326.554 l h
214.355 326.554 m f
0.6 g
244.48 322.464 m 202.68 322.464 l 200.422 322.464 198.59 324.296 198.59
 326.554 c 198.59 328.812 200.422 330.644 202.68 330.644 c 244.48 330.644
 l 246.738 330.644 248.57 328.812 248.57 326.554 c 248.57 324.296 246.738
 322.464 244.48 322.464 c h
244.48 322.464 m f
244.48 336.097 m 202.68 336.097 l 200.422 336.097 198.59 337.925 198.59
 340.187 c 198.59 342.445 200.422 344.273 202.68 344.273 c 244.48 344.273
 l 246.738 344.273 248.57 342.445 248.57 340.187 c 248.57 337.925 246.738
 336.097 244.48 336.097 c h
244.48 336.097 m f
244.48 349.726 m 202.68 349.726 l 200.422 349.726 198.59 351.558 198.59
 353.816 c 198.59 356.073 200.422 357.905 202.68 357.905 c 244.48 357.905
 l 246.738 357.905 248.57 356.073 248.57 353.816 c 248.57 351.558 246.738
 349.726 244.48 349.726 c h
244.48 349.726 m f
0.458824 0.847059 0.705882 rg
131.664 338.863 m 131.664 114.355 l 127.609 114.964 123.711 115.636 119.984
 116.355 c 119.984 338.863 l h
131.664 338.863 m f
0.701961 g
119.984 338.863 m 89.859 338.863 l 89.859 352.491 l 131.664 352.491 l 131.664
 338.863 l h
119.984 338.863 m f
89.859 366.124 41.797 -13.633 re f
0.921569 0.188235 0.356863 rg
131.664 388.105 m 131.664 366.124 l 89.859 366.124 l 89.859 388.105 l 89.859
 394.538 95.078 399.745 101.5 399.745 c 120.02 399.745 l 126.445 399.745
 131.664 394.538 131.664 388.105 c h
131.664 388.105 m f
0.847059 0.168627 0.34902 rg
113.312 399.745 m 101.5 399.745 l 95.074 399.745 89.859 394.538 89.859 
388.105 c 89.859 366.124 l 101.672 366.124 l 101.672 388.105 l 101.672 394.538
 106.891 399.745 113.312 399.745 c h
113.312 399.745 m f
0.333333 0.776471 0.631373 rg
119.984 338.863 m 119.984 116.355 l 113.262 117.644 107.082 119.089 101.539
 120.663 c 101.539 338.863 l h
119.984 338.863 m f
0.282353 0.686275 0.541176 rg
101.539 338.863 m 101.539 120.663 l 97.246 121.878 93.34 123.171 89.859
 124.534 c 89.859 338.863 l h
101.539 338.863 m f
0.6 g
131.664 334.773 m 89.859 334.773 l 87.602 334.773 85.77 336.605 85.77 338.863
 c 85.77 341.12 87.602 342.952 89.859 342.952 c 131.66 342.952 l 133.922
 342.952 135.75 341.12 135.75 338.863 c 135.75 336.605 133.922 334.773 131.664
 334.773 c h
131.664 334.773 m f
131.664 348.402 m 89.859 348.402 l 87.602 348.402 85.77 350.234 85.77 352.491
 c 85.77 354.753 87.602 356.581 89.859 356.581 c 131.66 356.581 l 133.922
 356.581 135.75 354.753 135.75 352.491 c 135.75 350.234 133.922 348.402 
131.664 348.402 c h
131.664 348.402 m f
131.664 362.034 m 89.859 362.034 l 87.602 362.034 85.77 363.866 85.77 366.124
 c 85.77 368.382 87.602 370.214 89.859 370.214 c 131.66 370.214 l 133.922
 370.214 135.75 368.382 135.75 366.124 c 135.75 363.866 133.922 362.034 
131.664 362.034 c h
131.664 362.034 m f
Q Q
showpage
%%Trailer
end restore
%%EOF
