%!PS-Adobe-3.0 EPSF-3.0
%%Creator: cairo 1.14.2 (http://cairographics.org)
%%CreationDate: Wed Jul 12 12:57:24 2017
%%Pages: 1
%%DocumentData: Clean7Bit
%%LanguageLevel: 2
%%BoundingBox: 0 -1 410 410
%%EndComments
%%BeginProlog
save
50 dict begin
/q { gsave } bind def
/Q { grestore } bind def
/cm { 6 array astore concat } bind def
/w { setlinewidth } bind def
/J { setlinecap } bind def
/j { setlinejoin } bind def
/M { setmiterlimit } bind def
/d { setdash } bind def
/m { moveto } bind def
/l { lineto } bind def
/c { curveto } bind def
/h { closepath } bind def
/re { exch dup neg 3 1 roll 5 3 roll moveto 0 rlineto
      0 exch rlineto 0 rlineto closepath } bind def
/S { stroke } bind def
/f { fill } bind def
/f* { eofill } bind def
/n { newpath } bind def
/W { clip } bind def
/W* { eoclip } bind def
/BT { } bind def
/ET { } bind def
/pdfmark where { pop globaldict /?pdfmark /exec load put }
    { globaldict begin /?pdfmark /pop load def /pdfmark
    /cleartomark load def end } ifelse
/BDC { mark 3 1 roll /BDC pdfmark } bind def
/EMC { mark /EMC pdfmark } bind def
/cairo_store_point { /cairo_point_y exch def /cairo_point_x exch def } def
/Tj { show currentpoint cairo_store_point } bind def
/TJ {
  {
    dup
    type /stringtype eq
    { show } { -0.001 mul 0 cairo_font_matrix dtransform rmoveto } ifelse
  } forall
  currentpoint cairo_store_point
} bind def
/cairo_selectfont { cairo_font_matrix aload pop pop pop 0 0 6 array astore
    cairo_font exch selectfont cairo_point_x cairo_point_y moveto } bind def
/Tf { pop /cairo_font exch def /cairo_font_matrix where
      { pop cairo_selectfont } if } bind def
/Td { matrix translate cairo_font_matrix matrix concatmatrix dup
      /cairo_font_matrix exch def dup 4 get exch 5 get cairo_store_point
      /cairo_font where { pop cairo_selectfont } if } bind def
/Tm { 2 copy 8 2 roll 6 array astore /cairo_font_matrix exch def
      cairo_store_point /cairo_font where { pop cairo_selectfont } if } bind def
/g { setgray } bind def
/rg { setrgbcolor } bind def
/d1 { setcachedevice } bind def
%%EndProlog
%%BeginSetup
%%EndSetup
%%Page: 1 1
%%BeginPageSetup
%%PageBoundingBox: 0 -1 410 410
%%EndPageSetup
q 0 -1 410 411 rectclip q
0.54902 0.631373 0.74902 rg
409.602 204.794 m 409.602 202.408 409.555 200.025 409.477 197.661 c 409.191
 189.259 408.391 180.982 407.121 172.872 c 406.59 169.443 405.969 166.04
 405.266 162.677 c 403.543 154.423 401.32 146.357 398.629 138.505 c 397.484
 135.158 396.258 131.845 394.945 128.576 c 391.621 120.298 387.777 112.286
 383.449 104.591 c 381.523 101.161 379.496 97.798 377.383 94.494 c 371.707
 85.619 365.355 77.216 358.422 69.357 c 358.145 69.044 357.871 68.724 357.586
 68.415 c 355.152 65.685 352.637 63.021 350.055 60.427 c 349.98 60.349 349.902
 60.267 349.812 60.189 c 348.438 58.802 347.043 57.435 345.621 56.103 c 
343.434 54.025 341.207 51.997 338.922 50.025 c 335.566 47.115 332.109 44.306
 328.566 41.622 c 320.082 35.173 311.086 29.372 301.641 24.302 c 289.855
 17.958 277.383 12.747 264.355 8.802 c 259.211 7.232 253.98 5.872 248.676
 4.716 c 246.445 4.228 244.199 3.775 241.934 3.357 c 229.891 1.154 217.48
 0.001 204.805 0.001 c 192.699 0.001 180.832 1.048 169.301 3.064 c 158.137
 5.021 147.293 7.869 136.828 11.556 c 133.629 12.677 130.477 13.876 127.359
 15.154 c 119.438 18.388 111.77 22.111 104.391 26.267 c 101.75 27.759 99.148
 29.294 96.582 30.896 c 94.281 32.333 92.016 33.81 89.777 35.337 c 86.82
 37.345 83.914 39.431 81.07 41.599 c 78.133 43.829 75.246 46.138 72.43 48.525
 c 28.121 86.091 0 142.158 0 204.794 c 0 317.908 91.695 409.591 204.805 
409.591 c 211.43 409.591 217.977 409.279 224.434 408.658 c 283.094 403.079
 334.543 372.763 368.219 328.244 c 379.285 313.634 388.426 297.486 395.281
 280.181 c 399.84 268.677 403.383 256.654 405.797 244.236 c 406.5 240.689
 407.094 237.111 407.602 233.513 c 408.773 225.189 409.441 216.708 409.574
 208.099 c 409.59 206.997 409.602 205.896 409.602 204.794 c h
409.602 204.794 m f
0.878431 0.568627 0.196078 rg
241.934 3.357 m 229.891 1.154 217.48 0.001 204.805 0.001 c 192.699 0.001
 180.832 1.048 169.301 3.064 c 158.137 5.021 147.289 7.872 136.828 11.556
 c 133.629 12.677 130.477 13.876 127.359 15.154 c 119.434 18.388 111.77 
22.111 104.387 26.267 c 101.75 27.759 99.148 29.294 96.578 30.896 c 94.277
 32.333 92.016 33.81 89.777 35.337 c 86.82 37.345 83.914 39.431 81.07 41.599
 c 77.766 49.548 74.871 57.728 72.43 66.087 c 72.43 222.126 l 89.777 222.126
 l 130.582 163.466 l 130.59 163.458 l 137.191 153.954 l 137.199 153.943 
l 153.09 131.099 l 159.699 121.595 l 175.59 98.759 l 175.59 98.747 l 182.207
 89.244 l 196.031 69.357 l 198.102 66.4 l 198.102 66.392 l 202.246 60.431
 l 204.719 56.888 l 204.719 56.876 l 218.789 36.654 l 220.98 33.497 l 220.988
 33.49 l 228.035 23.353 l 228.035 23.345 l h
241.934 3.357 m f
338.922 50.029 m 335.562 47.115 332.109 44.306 328.566 41.622 c 320.082
 35.177 311.086 29.376 301.641 24.302 c 289.855 17.962 277.383 12.747 264.352
 8.802 c 264.352 67.154 l 264.352 67.294 264.352 67.447 264.371 67.587 c
 264.398 68.201 264.496 68.794 264.664 69.357 c 265.621 72.775 268.758 75.271
 272.473 75.271 c 330.793 75.271 l 334.508 75.271 337.66 72.775 338.609 
69.357 c 338.777 68.794 338.875 68.201 338.902 67.587 c 338.922 67.447 338.922
 67.294 338.922 67.154 c h
338.922 50.029 m f
0.941176 0.627451 0.215686 rg
248.676 4.716 m 246.445 4.228 244.199 3.775 241.934 3.357 c 229.891 1.154
 217.48 0.001 204.805 0.001 c 192.699 0.001 180.832 1.048 169.301 3.064 
c 158.137 5.021 147.289 7.869 136.828 11.556 c 133.629 12.677 130.477 13.876
 127.359 15.154 c 119.434 18.388 111.77 22.111 104.387 26.267 c 101.75 27.759
 99.148 29.294 96.578 30.896 c 94.277 32.333 92.016 33.81 89.777 35.337 
c 86.82 37.345 83.914 39.431 81.07 41.599 c 78.133 43.829 75.242 46.138 
72.43 48.525 c 72.43 233.177 l 89.777 233.177 l 137.574 164.47 l 137.582
 164.462 l 144.18 154.958 l 144.191 154.947 l 160.07 132.103 l 166.691 122.599
 l 182.57 99.763 l 182.578 99.751 l 189.188 90.247 l 189.188 90.24 l 203.711
 69.357 l 205.078 67.392 l 209.93 60.431 l 211.715 57.861 l 211.715 57.853
 l 224 40.185 l 228.512 33.701 l 235.805 23.212 l 235.812 23.204 l h
248.676 4.716 m f
338.922 50.029 m 335.562 47.115 332.109 44.306 328.566 41.622 c 320.082
 35.177 311.086 29.376 301.641 24.302 c 289.855 17.962 277.383 12.747 264.352
 8.802 c 264.352 78.193 l 264.352 82.689 267.996 86.322 272.473 86.322 c
 330.793 86.322 l 335.27 86.322 338.922 82.689 338.922 78.193 c h
338.922 50.029 m f
0.878431 0.568627 0.196078 rg
349.812 60.189 m 348.434 58.802 347.039 57.435 345.621 56.103 c 343.434
 54.025 341.203 51.997 338.922 50.029 c 335.562 47.115 332.109 44.306 328.566
 41.622 c 320.082 35.177 311.086 29.376 301.641 24.302 c 289.855 17.962 
277.383 12.747 264.352 8.802 c 259.211 7.232 253.977 5.872 248.676 4.716
 c 246.445 4.228 244.199 3.775 241.934 3.357 c 229.891 1.154 217.48 0.001
 204.805 0.001 c 192.699 0.001 180.832 1.048 169.301 3.064 c 193.871 19.74
 l 213.219 32.865 l 218.785 36.65 l 224 40.185 l 249.52 57.505 l 253.82 
60.427 l 261.77 65.829 l 264.355 67.579 l 264.371 67.587 l 266.973 69.357
 l 275.688 75.271 l 291.977 86.322 l 301.641 92.876 l 311.297 86.322 l 327.586
 75.271 l 328.562 74.607 l 336.301 69.357 l 338.902 67.587 l 338.922 67.579
 l 341.504 65.829 l 349.457 60.427 l h
349.812 60.189 m f
0.756863 0.737255 0.705882 rg
350.051 60.427 m 349.98 60.349 349.898 60.267 349.812 60.189 c 348.434 
58.802 347.039 57.435 345.617 56.103 c 343.434 54.025 341.203 51.997 338.922
 50.025 c 335.562 47.115 332.109 44.306 328.562 41.622 c 320.082 35.173 
311.082 29.372 301.641 24.302 c 289.855 17.958 277.383 12.747 264.352 8.802
 c 259.207 7.232 253.977 5.872 248.676 4.716 c 246.445 4.228 244.199 3.775
 241.934 3.357 c 229.887 1.154 217.48 0.001 204.805 0.001 c 192.695 0.001
 180.832 1.048 169.301 3.064 c 158.137 5.021 147.289 7.869 136.828 11.556
 c 133.629 12.677 130.477 13.876 127.359 15.154 c 119.434 18.388 111.77 
22.111 104.387 26.267 c 104.387 60.427 l h
350.051 60.427 m f
0.827451 0.807843 0.760784 rg
358.418 69.357 m 358.145 69.044 357.867 68.724 357.586 68.415 c 355.152
 65.685 352.637 63.021 350.051 60.427 c 349.98 60.349 349.902 60.267 349.812
 60.189 c 348.434 58.802 347.039 57.435 345.621 56.103 c 343.434 54.025 
341.203 51.997 338.922 50.025 c 335.562 47.115 332.109 44.306 328.566 41.622
 c 320.082 35.173 311.086 29.372 301.641 24.302 c 289.855 17.958 277.383
 12.747 264.352 8.802 c 259.211 7.232 253.977 5.872 248.676 4.716 c 246.445
 4.228 244.199 3.775 241.934 3.357 c 229.891 1.154 217.48 0.001 204.805 
0.001 c 192.699 0.001 180.832 1.048 169.301 3.064 c 158.137 5.021 147.289
 7.869 136.828 11.556 c 133.629 12.677 130.477 13.876 127.359 15.154 c 119.434
 18.388 111.77 22.111 104.387 26.267 c 101.75 27.759 99.148 29.294 96.578
 30.896 c 96.578 69.357 l h
358.418 69.357 m f
0.913725 0.894118 0.847059 rg
409.602 204.794 m 409.602 202.408 409.555 200.025 409.477 197.661 c 409.191
 189.259 408.391 180.982 407.121 172.872 c 406.59 169.443 405.969 166.04
 405.266 162.677 c 403.543 154.423 401.32 146.357 398.629 138.505 c 397.484
 135.158 396.258 131.845 394.945 128.576 c 391.621 120.298 387.777 112.286
 383.449 104.591 c 381.523 101.161 379.496 97.798 377.383 94.494 c 371.707
 85.619 365.355 77.216 358.422 69.357 c 358.145 69.044 357.871 68.724 357.586
 68.415 c 355.152 65.685 352.637 63.021 350.055 60.427 c 349.98 60.349 349.902
 60.267 349.812 60.189 c 348.438 58.802 347.043 57.435 345.621 56.103 c 
343.434 54.025 341.207 51.997 338.922 50.025 c 335.566 47.115 332.109 44.306
 328.566 41.622 c 320.082 35.173 311.086 29.372 301.641 24.302 c 289.855
 17.958 277.383 12.747 264.355 8.802 c 259.211 7.232 253.98 5.872 248.676
 4.716 c 246.445 4.228 244.199 3.775 241.934 3.357 c 229.891 1.154 217.48
 0.001 204.805 0.001 c 192.699 0.001 180.832 1.048 169.301 3.064 c 158.137
 5.021 147.293 7.869 136.828 11.556 c 133.629 12.677 130.477 13.876 127.359
 15.154 c 119.438 18.388 111.77 22.111 104.391 26.267 c 101.75 27.759 99.148
 29.294 96.582 30.896 c 94.281 32.333 92.016 33.81 89.777 35.337 c 89.777
 263.189 l 102.523 265.029 l 208.562 280.263 l 240.621 284.861 273.301 278.869
 301.645 263.189 c 310.258 267.966 319.273 271.841 328.566 274.783 c 349.797
 281.533 372.402 283.47 394.707 280.263 c 395.281 280.181 l 399.84 268.681
 403.383 256.654 405.801 244.236 c 406.5 240.693 407.098 237.111 407.602
 233.513 c 408.777 225.189 409.441 216.708 409.574 208.099 c 409.59 206.997
 409.602 205.896 409.602 204.794 c h
409.602 204.794 m f
0.886275 0.870588 0.827451 rg
328.566 274.783 m 328.566 41.622 l 320.082 35.177 311.086 29.376 301.641
 24.302 c 301.641 263.189 l 310.258 267.97 319.273 271.841 328.566 274.783
 c h
328.566 274.783 m f
0.839216 0.823529 0.784314 rg
161.91 177.954 m 161.91 177.954 112.098 160.24 89.773 120.501 c 89.773 
214.318 l 128.414 238.904 l h
161.91 177.954 m f
0.117647 0.192157 0.376471 rg
265.34 242.947 m 265.34 232.267 l 253.574 235.333 241.469 236.876 229.301
 236.876 c 222.477 236.876 215.609 236.38 208.91 235.415 c 127.355 223.704
 l 127.355 234.161 l 207.43 245.669 l 214.613 246.704 221.977 247.232 229.301
 247.232 c 241.445 247.232 253.555 245.783 265.34 242.947 c h
265.34 242.947 m f
265.34 207.353 m 265.34 196.673 l 253.574 199.74 241.469 201.283 229.301
 201.283 c 222.477 201.283 215.609 200.794 208.91 199.833 c 127.355 188.119
 l 127.355 198.579 l 207.43 210.076 l 214.613 211.122 221.977 211.638 229.301
 211.638 c 241.445 211.638 253.555 210.201 265.34 207.353 c h
265.34 207.353 m f
265.34 171.767 m 265.34 161.091 l 253.574 164.158 241.469 165.701 229.301
 165.701 c 222.477 165.701 215.609 165.212 208.91 164.24 c 127.355 152.536
 l 127.355 162.997 l 207.43 174.494 l 214.613 175.529 221.977 176.056 229.301
 176.056 c 241.445 176.056 253.555 174.619 265.34 171.767 c h
265.34 171.767 m f
265.34 136.185 m 265.34 125.509 l 253.574 128.576 241.469 130.119 229.301
 130.119 c 222.477 130.119 215.609 129.619 208.91 128.658 c 127.355 116.954
 l 127.355 127.404 l 207.43 138.911 l 214.613 139.947 221.977 140.474 229.301
 140.474 c 241.445 140.474 253.555 139.025 265.34 136.185 c h
265.34 136.185 m f
265.34 100.591 m 265.34 89.927 l 253.574 92.982 241.469 94.533 229.301 
94.533 c 222.477 94.533 215.609 94.036 208.91 93.072 c 127.355 81.361 l 
127.355 91.822 l 207.43 103.326 l 214.613 104.361 221.977 104.888 229.301
 104.888 c 241.445 104.888 253.555 103.439 265.34 100.591 c h
265.34 100.591 m f
265.34 65.009 m 265.34 54.333 l 253.574 57.4 241.469 58.939 229.301 58.939
 c 222.477 58.939 215.609 58.454 208.91 57.482 c 127.355 45.779 l 127.355
 56.24 l 207.43 67.732 l 214.613 68.771 221.977 69.298 229.301 69.298 c 
241.445 69.298 253.555 67.857 265.34 65.009 c h
265.34 65.009 m f
265.34 29.427 m 265.34 18.751 l 265.012 18.841 264.68 18.919 264.355 19.001
 c 255 21.372 245.441 22.775 235.805 23.212 c 233.637 23.318 231.469 23.361
 229.301 23.361 c 228.875 23.361 228.457 23.361 228.031 23.353 c 221.621
 23.298 215.188 22.81 208.906 21.896 c 193.871 19.736 l 136.828 11.556 l
 133.629 12.677 130.477 13.876 127.359 15.154 c 127.359 20.654 l 207.426
 32.146 l 209.344 32.423 211.27 32.661 213.215 32.865 c 215.793 33.142 218.387
 33.345 220.988 33.486 c 223.492 33.622 225.996 33.693 228.512 33.701 c 
228.777 33.708 229.035 33.708 229.301 33.708 c 241.105 33.708 252.875 32.349
 264.352 29.658 c 264.68 29.587 265.012 29.509 265.34 29.427 c h
265.34 29.427 m f
407.602 233.513 m 394.359 235.415 l 387.66 236.384 380.793 236.88 373.965
 236.88 c 361.793 236.88 349.688 235.333 337.926 232.271 c 337.926 242.947
 l 349.715 245.779 361.82 247.236 373.965 247.236 c 381.293 247.236 388.645
 246.704 395.84 245.665 c 405.797 244.236 l 406.5 240.689 407.094 237.111
 407.602 233.513 c h
407.602 233.513 m f
409.602 204.794 m 409.602 202.408 409.555 200.025 409.477 197.661 c 394.359
 199.829 l 387.66 200.798 380.793 201.286 373.965 201.286 c 361.793 201.286
 349.688 199.744 337.926 196.677 c 337.926 207.353 l 349.715 210.197 361.82
 211.634 373.965 211.634 c 381.293 211.634 388.645 211.119 395.84 210.072
 c 409.574 208.099 l 409.59 206.997 409.602 205.896 409.602 204.794 c h
409.602 204.794 m f
407.121 172.872 m 406.59 169.443 405.969 166.04 405.266 162.677 c 394.355
 164.24 l 387.66 165.216 380.793 165.704 373.961 165.704 c 361.793 165.704
 349.688 164.158 337.926 161.095 c 337.926 171.771 l 349.711 174.615 361.82
 176.052 373.961 176.052 c 381.289 176.052 388.645 175.529 395.84 174.49
 c h
407.121 172.872 m f
395.84 138.904 m 398.629 138.505 l 397.484 135.158 396.258 131.845 394.941
 128.576 c 394.355 128.654 l 387.66 129.622 380.793 130.122 373.961 130.122
 c 361.793 130.122 349.688 128.576 337.926 125.509 c 337.926 136.189 l 349.711
 139.021 361.82 140.478 373.961 140.478 c 381.293 140.478 388.645 139.947
 395.84 138.904 c h
395.84 138.904 m f
373.965 104.896 m 377.125 104.896 380.297 104.798 383.449 104.591 c 381.523
 101.161 379.496 97.798 377.383 94.494 c 376.238 94.521 375.102 94.536 373.965
 94.536 c 361.793 94.536 349.688 92.982 337.926 89.927 c 337.926 100.595
 l 349.715 103.439 361.82 104.896 373.965 104.896 c h
373.965 104.896 m f
357.586 68.415 m 355.152 65.685 352.637 63.021 350.051 60.427 c 349.98 
60.349 349.902 60.267 349.812 60.189 c 348.434 58.802 347.039 57.435 345.621
 56.103 c 343.371 55.658 341.141 55.154 338.922 54.583 c 338.586 54.501 
338.254 54.423 337.926 54.333 c 337.926 65.013 l 338.254 65.091 338.594 
65.173 338.922 65.244 c 339.781 65.447 340.645 65.642 341.508 65.829 c 346.82
 66.974 352.191 67.845 357.586 68.415 c h
357.586 68.415 m f
0.921569 0.188235 0.356863 rg
43.777 221.286 m 67.535 185.568 l 74.625 174.908 85.562 167.892 97.605 
165.579 c 104.039 164.345 110.625 164.9 116.73 167.013 c 119.773 168.064
 122.691 169.501 125.426 171.286 c 129.113 173.701 133.152 175.447 137.367
 176.478 c 139.363 176.966 141.402 177.298 143.453 177.462 c 145.738 177.638
 148.047 177.622 150.355 177.392 c 160.117 176.411 169.969 179.091 177.664
 185.189 c 180.961 187.806 183.887 190.845 186.359 194.236 c 186.363 194.236
 l 189.102 197.982 191.293 202.142 192.824 206.599 c 193.945 209.857 194.715
 213.283 195.094 216.81 c 199.656 259.462 l 204.672 306.404 161.578 344.087
 115.727 332.857 c 84.289 325.158 l 38.438 313.927 17.637 260.591 43.777
 221.286 c h
43.777 221.286 m f
0.847059 0.168627 0.34902 rg
138.496 176.732 m 138.121 176.654 137.738 176.568 137.367 176.478 c 133.156
 175.447 129.109 173.701 125.43 171.286 c 122.691 169.501 119.777 168.064
 116.734 167.017 c 110.625 164.904 104.043 164.345 97.602 165.583 c 85.562
 167.896 74.629 174.908 67.539 185.564 c 43.777 221.283 l 17.637 260.595
 38.438 313.927 84.289 325.158 c 115.723 332.857 l 117.738 333.349 119.746
 333.747 121.746 334.052 c 80.043 319.888 62.129 269.49 87.121 231.9 c 110.883
 196.181 l 117.484 186.251 127.434 179.486 138.496 176.732 c h
138.496 176.732 m f
0.333333 0.776471 0.631373 rg
99.176 332.392 m 84.289 328.747 l 57.129 322.095 29.719 338.72 23.066 365.88
 c 19.422 380.767 l 34.309 384.415 l 61.469 391.068 88.879 374.443 95.531
 347.283 c h
99.176 332.392 m f
0.235294 0.588235 0.462745 rg
97.188 329.115 m 19.422 380.767 l 101.168 335.673 l 103.023 334.65 103.695
 332.314 102.672 330.458 c 101.648 328.599 99.312 327.927 97.457 328.951
 c 97.367 329.001 97.273 329.06 97.188 329.115 c h
97.188 329.115 m f
76.664 357.29 m 75.957 358.935 75.191 360.56 74.305 362.161 c 73.41 363.759
 72.453 365.341 71.227 366.857 c 70.836 364.947 70.719 363.099 70.664 361.271
 c 70.617 359.443 70.688 357.646 70.824 355.861 c 71.004 353.552 71.332 
351.279 71.758 349.029 c 69.566 348.372 67.395 347.615 65.262 346.704 c 
63.617 346.001 61.992 345.232 60.391 344.345 c 58.797 343.447 57.211 342.49
 55.699 341.255 c 57.609 340.865 59.457 340.744 61.289 340.685 c 63.113 
340.638 64.914 340.708 66.695 340.845 c 70.262 341.122 73.746 341.728 77.172
 342.568 c 77.18 342.572 l 77.191 342.572 l 79.242 343.079 80.492 345.154
 79.984 347.204 c 79.137 350.63 78.066 354.001 76.664 357.29 c h
76.664 357.29 m f
54.848 356.119 m 54.859 356.122 l 56.906 356.63 58.16 358.704 57.652 360.751
 c 56.801 364.177 55.73 367.548 54.328 370.837 c 53.621 372.482 52.855 374.107
 51.969 375.708 c 51.074 377.306 50.117 378.888 48.891 380.404 c 48.5 378.49
 48.383 376.646 48.328 374.818 c 48.281 372.99 48.352 371.189 48.488 369.408
 c 48.668 367.095 48.996 364.826 49.422 362.576 c 47.23 361.919 45.059 361.158
 42.926 360.251 c 41.281 359.548 39.656 358.779 38.055 357.892 c 36.461 
356.994 34.875 356.036 33.363 354.802 c 35.273 354.411 37.121 354.29 38.953
 354.232 c 40.777 354.185 42.578 354.255 44.359 354.392 c 47.926 354.669
 51.41 355.279 54.836 356.115 c h
54.848 356.119 m f
0.666667 0.313726 0.0745098 rg
104.664 324.65 m 97.891 322.994 l 97.062 326.38 l 92.543 344.822 103.875
 363.501 122.316 368.017 c 125.703 368.849 l 127.363 362.076 l 123.977 361.247
 l 109.266 357.642 100.23 342.744 103.832 328.036 c h
104.664 324.65 m f
Q Q
showpage
%%Trailer
end restore
%%EOF
