%!PS-Adobe-3.0 EPSF-3.0
%%Creator: cairo 1.14.2 (http://cairographics.org)
%%CreationDate: Wed Jul 12 12:57:24 2017
%%Pages: 1
%%DocumentData: Clean7Bit
%%LanguageLevel: 2
%%BoundingBox: 0 -1 410 410
%%EndComments
%%BeginProlog
save
50 dict begin
/q { gsave } bind def
/Q { grestore } bind def
/cm { 6 array astore concat } bind def
/w { setlinewidth } bind def
/J { setlinecap } bind def
/j { setlinejoin } bind def
/M { setmiterlimit } bind def
/d { setdash } bind def
/m { moveto } bind def
/l { lineto } bind def
/c { curveto } bind def
/h { closepath } bind def
/re { exch dup neg 3 1 roll 5 3 roll moveto 0 rlineto
      0 exch rlineto 0 rlineto closepath } bind def
/S { stroke } bind def
/f { fill } bind def
/f* { eofill } bind def
/n { newpath } bind def
/W { clip } bind def
/W* { eoclip } bind def
/BT { } bind def
/ET { } bind def
/pdfmark where { pop globaldict /?pdfmark /exec load put }
    { globaldict begin /?pdfmark /pop load def /pdfmark
    /cleartomark load def end } ifelse
/BDC { mark 3 1 roll /BDC pdfmark } bind def
/EMC { mark /EMC pdfmark } bind def
/cairo_store_point { /cairo_point_y exch def /cairo_point_x exch def } def
/Tj { show currentpoint cairo_store_point } bind def
/TJ {
  {
    dup
    type /stringtype eq
    { show } { -0.001 mul 0 cairo_font_matrix dtransform rmoveto } ifelse
  } forall
  currentpoint cairo_store_point
} bind def
/cairo_selectfont { cairo_font_matrix aload pop pop pop 0 0 6 array astore
    cairo_font exch selectfont cairo_point_x cairo_point_y moveto } bind def
/Tf { pop /cairo_font exch def /cairo_font_matrix where
      { pop cairo_selectfont } if } bind def
/Td { matrix translate cairo_font_matrix matrix concatmatrix dup
      /cairo_font_matrix exch def dup 4 get exch 5 get cairo_store_point
      /cairo_font where { pop cairo_selectfont } if } bind def
/Tm { 2 copy 8 2 roll 6 array astore /cairo_font_matrix exch def
      cairo_store_point /cairo_font where { pop cairo_selectfont } if } bind def
/g { setgray } bind def
/rg { setrgbcolor } bind def
/d1 { setcachedevice } bind def
%%EndProlog
%%BeginSetup
%%EndSetup
%%Page: 1 1
%%BeginPageSetup
%%PageBoundingBox: 0 -1 410 410
%%EndPageSetup
q 0 -1 410 411 rectclip q
0.639216 0.345098 0.584314 rg
409.602 204.794 m 409.602 91.684 317.906 0.001 204.805 0.001 c 91.695 0.001
 0 91.684 0 204.794 c 0 211.547 0.328 218.215 0.969 224.797 c 11.023 328.52
 98.445 409.59 204.805 409.59 c 311.156 409.59 398.578 328.52 408.633 224.797
 c 409.27 218.215 409.602 211.547 409.602 204.794 c h
409.602 204.794 m f
0.956863 0.796078 0.466667 rg
409.602 204.794 m 409.602 91.684 317.906 0.001 204.805 0.001 c 198.773 
0.001 192.797 0.258 186.898 0.774 c 129.383 5.754 78.672 34.508 44.637 77.153
 c 16.699 112.161 0 156.528 0 204.794 c 0 211.547 0.328 218.215 0.969 224.797
 c 408.633 224.797 l 409.27 218.215 409.602 211.547 409.602 204.794 c h
409.602 204.794 m f
0.913725 0.894118 0.847059 rg
186.898 0.774 m 129.383 5.754 78.672 34.508 44.637 77.153 c 136.781 106.938
 l h
186.898 0.774 m f
0.54902 0.631373 0.74902 rg
109.363 309.196 100.363 -67.082 re f
0.490196 0.580392 0.686275 rg
109.363 309.204 29.309 -67.09 re f
0.54902 0.631373 0.74902 rg
256.973 220.786 m 256.98 220.774 l 245.742 210.907 235.297 201.481 226.105
 193.016 c 60.207 193.016 l 60.207 207.231 l 60.207 234.383 82.219 256.387
 109.363 256.387 c 209.727 256.387 l 232.172 256.383 251.09 241.336 256.973
 220.786 c h
256.973 220.786 m f
0.258824 0.341176 0.498039 rg
109.363 129.641 m 82.219 129.641 60.207 151.661 60.207 178.797 c 60.207
 193.016 l 226.105 193.016 l 211.574 179.657 200.16 168.696 193.613 162.149
 c 184.02 152.559 178.254 141.118 174.914 129.641 c h
109.363 129.641 m f
0.490196 0.580392 0.686275 rg
138.676 256.383 m 111.531 256.383 89.52 234.383 89.52 207.227 c 89.52 193.016
 l 60.207 193.016 l 60.207 207.227 l 60.207 234.383 82.219 256.383 109.363
 256.383 c h
138.676 256.383 m f
109.363 309.196 100.363 -28.922 re f
0.203922 0.282353 0.407843 rg
138.676 129.641 m 109.363 129.641 l 82.219 129.641 60.207 151.661 60.207
 178.797 c 60.207 193.016 l 89.52 193.016 l 89.52 178.797 l 89.52 151.661
 111.527 129.641 138.676 129.641 c h
138.676 129.641 m f
0.54902 0.631373 0.74902 rg
233.281 318.493 m 233.281 309.93 l 233.281 301.649 226.566 294.934 218.289
 294.934 c 100.789 294.934 l 92.512 294.934 85.797 301.649 85.797 309.93
 c 85.797 318.493 l 85.797 326.77 92.512 333.485 100.789 333.485 c 218.289
 333.485 l 226.566 333.485 233.281 326.77 233.281 318.493 c h
233.281 318.493 m f
0.490196 0.580392 0.686275 rg
116.031 309.93 m 116.031 318.493 l 116.031 326.77 122.746 333.485 131.027
 333.485 c 100.789 333.485 l 92.512 333.485 85.797 326.77 85.797 318.493
 c 85.797 309.93 l 85.797 301.649 92.512 294.934 100.789 294.934 c 131.027
 294.934 l 122.746 294.934 116.031 301.649 116.031 309.93 c h
116.031 309.93 m f
0.901961 g
262.75 100.372 m 238.504 58.981 179.812 57.985 179.812 57.985 c 179.812
 57.985 165.496 84.555 166.336 114.86 c 166.664 126.809 169.348 139.336 
176.203 151.044 c 180.883 159.032 189.156 172.524 199.836 189.122 c 206.59
 199.637 214.312 211.395 222.688 223.786 c 269.648 293.313 337.211 382.911
 371.508 385.321 c 392.926 339.934 286.984 141.758 262.75 100.372 c h
262.75 100.372 m f
0.8 g
262.75 100.372 m 238.504 58.981 179.812 57.985 179.812 57.985 c 371.508
 385.317 l 392.926 339.934 286.984 141.758 262.75 100.372 c h
262.75 100.372 m f
0.258824 0.341176 0.498039 rg
338.621 329.157 m 325.496 301.286 311.227 274.086 296.609 247.09 c 281.949
 220.122 266.836 193.415 251.34 166.934 c 235.844 140.454 219.945 114.211
 203.598 88.227 c 187.207 62.27 170.465 36.52 152.566 11.446 c 165.672 39.325
 179.938 66.528 194.559 93.52 c 209.219 120.489 224.332 147.196 239.844 
173.669 c 255.355 200.137 271.254 226.383 287.602 252.368 c 303.996 278.325
 320.734 304.075 338.621 329.157 c h
338.621 329.157 m f
Q Q
showpage
%%Trailer
end restore
%%EOF
