%!PS-Adobe-3.0 EPSF-3.0
%%Creator: cairo 1.14.2 (http://cairographics.org)
%%CreationDate: Wed Jul 12 12:57:24 2017
%%Pages: 1
%%DocumentData: Clean7Bit
%%LanguageLevel: 2
%%BoundingBox: 0 -1 410 410
%%EndComments
%%BeginProlog
save
50 dict begin
/q { gsave } bind def
/Q { grestore } bind def
/cm { 6 array astore concat } bind def
/w { setlinewidth } bind def
/J { setlinecap } bind def
/j { setlinejoin } bind def
/M { setmiterlimit } bind def
/d { setdash } bind def
/m { moveto } bind def
/l { lineto } bind def
/c { curveto } bind def
/h { closepath } bind def
/re { exch dup neg 3 1 roll 5 3 roll moveto 0 rlineto
      0 exch rlineto 0 rlineto closepath } bind def
/S { stroke } bind def
/f { fill } bind def
/f* { eofill } bind def
/n { newpath } bind def
/W { clip } bind def
/W* { eoclip } bind def
/BT { } bind def
/ET { } bind def
/pdfmark where { pop globaldict /?pdfmark /exec load put }
    { globaldict begin /?pdfmark /pop load def /pdfmark
    /cleartomark load def end } ifelse
/BDC { mark 3 1 roll /BDC pdfmark } bind def
/EMC { mark /EMC pdfmark } bind def
/cairo_store_point { /cairo_point_y exch def /cairo_point_x exch def } def
/Tj { show currentpoint cairo_store_point } bind def
/TJ {
  {
    dup
    type /stringtype eq
    { show } { -0.001 mul 0 cairo_font_matrix dtransform rmoveto } ifelse
  } forall
  currentpoint cairo_store_point
} bind def
/cairo_selectfont { cairo_font_matrix aload pop pop pop 0 0 6 array astore
    cairo_font exch selectfont cairo_point_x cairo_point_y moveto } bind def
/Tf { pop /cairo_font exch def /cairo_font_matrix where
      { pop cairo_selectfont } if } bind def
/Td { matrix translate cairo_font_matrix matrix concatmatrix dup
      /cairo_font_matrix exch def dup 4 get exch 5 get cairo_store_point
      /cairo_font where { pop cairo_selectfont } if } bind def
/Tm { 2 copy 8 2 roll 6 array astore /cairo_font_matrix exch def
      cairo_store_point /cairo_font where { pop cairo_selectfont } if } bind def
/g { setgray } bind def
/rg { setrgbcolor } bind def
/d1 { setcachedevice } bind def
%%EndProlog
%%BeginSetup
%%EndSetup
%%Page: 1 1
%%BeginPageSetup
%%PageBoundingBox: 0 -1 410 410
%%EndPageSetup
q 0 -1 410 411 rectclip q
0.913725 0.894118 0.847059 rg
409.602 204.794 m 409.602 168.068 399.926 133.595 382.996 103.794 c 375.473
 90.54 366.5 78.201 356.312 67.009 c 346.508 56.228 335.562 46.501 323.672
 38.017 c 315.453 32.146 306.793 26.88 297.742 22.251 c 292.512 19.587 287.145
 17.134 281.664 14.915 c 273.191 11.486 264.434 8.599 255.441 6.318 c 239.242
 2.193 222.277 0.001 204.805 0.001 c 193.188 0.001 181.789 0.97 170.695 
2.826 c 165.098 3.767 159.594 4.931 154.164 6.318 c 145.168 8.599 136.41
 11.486 127.934 14.915 c 112.969 20.982 98.891 28.763 85.93 38.017 c 74.035
 46.501 63.094 56.228 53.285 67.013 c 49.582 71.079 46.039 75.298 42.68 
79.65 c 36.773 87.29 31.391 95.357 26.602 103.794 c 9.672 133.595 0 168.068
 0 204.794 c 0 317.908 91.695 409.591 204.805 409.591 c 317.906 409.591 
409.602 317.908 409.602 204.794 c h
409.602 204.794 m f
0.6 g
161.832 260.927 85.938 -26.938 re f
0.501961 g
161.832 260.927 14.547 -26.938 re f
247.77 260.923 m 161.832 260.923 l 167.852 260.923 173.305 263.369 177.25
 267.31 c 181.195 271.255 183.637 276.708 183.637 282.732 c 183.637 299.404
 l 225.961 299.404 l 225.961 282.732 l 225.961 270.685 235.734 260.923 247.77
 260.923 c h
247.77 260.923 m f
0.301961 g
154.137 233.986 m 154.137 7.247 l 154.137 6.939 154.148 6.626 154.164 6.318
 c 159.594 4.931 165.098 3.767 170.695 2.826 c 181.789 0.966 193.188 0.001
 204.805 0.001 c 222.277 0.001 239.242 2.193 255.441 6.314 c 255.461 6.626
 255.469 6.927 255.469 7.24 c 255.469 233.982 l h
154.137 233.986 m f
0.333333 0.776471 0.631373 rg
180.82 142.837 47.969 -104.816 re f
218.27 322.15 m 218.27 299.404 l 191.328 299.404 l 191.328 329.201 l 191.328
 332.154 194.289 334.197 197.055 333.142 c 215.555 326.091 l 217.191 325.47
 218.27 323.9 218.27 322.15 c h
218.27 322.15 m f
0.301961 g
97.699 233.994 m 97.699 191.568 l 97.699 185.255 92.582 180.138 86.266 
180.138 c 68.27 180.138 l 61.957 180.138 56.84 185.255 56.84 191.568 c 56.84
 233.994 l 26.602 233.994 l 26.602 103.794 l 31.391 95.353 36.773 87.29 
42.68 79.65 c 46.039 75.298 49.582 71.079 53.285 67.009 c 63.094 56.228 
74.035 46.501 85.93 38.017 c 98.891 28.763 112.969 20.982 127.934 14.915
 c 127.934 233.994 l h
97.699 233.994 m f
0.2 g
42.68 233.994 m 42.68 79.65 l 36.773 87.29 31.391 95.353 26.602 103.79 
c 26.602 233.994 l h
42.68 233.994 m f
170.695 2.826 m 165.098 3.767 159.594 4.931 154.164 6.318 c 154.148 6.626
 154.137 6.939 154.137 7.247 c 154.137 233.994 l 170.215 233.994 l 170.215
 7.247 l 170.215 5.728 170.375 4.247 170.695 2.826 c h
170.695 2.826 m f
0.301961 g
352.762 233.994 m 352.762 191.568 l 352.762 185.255 347.645 180.138 341.328
 180.138 c 323.332 180.138 l 317.02 180.138 311.902 185.255 311.902 191.568
 c 311.902 233.994 l 281.664 233.994 l 281.664 14.915 l 287.145 17.134 292.512
 19.587 297.742 22.251 c 306.793 26.88 315.453 32.146 323.672 38.017 c 335.562
 46.501 346.508 56.228 356.312 67.009 c 366.5 78.201 375.473 90.54 382.996
 103.794 c 382.996 233.994 l h
352.762 233.994 m f
0.2 g
297.742 233.994 m 297.742 22.251 l 292.512 19.587 287.145 17.134 281.664
 14.915 c 281.664 233.994 l h
297.742 233.994 m f
0.921569 0.188235 0.356863 rg
101.254 142.829 m 101.254 38.017 l 85.93 38.017 l 74.035 46.501 63.094 
56.228 53.285 67.009 c 53.285 142.833 l 101.254 142.833 l h
101.254 142.829 m f
127.934 344.962 m 127.934 233.994 l 26.602 233.994 l 26.602 344.962 l 26.602
 356.454 35.922 365.783 47.426 365.783 c 107.113 365.783 l 118.617 365.783
 127.934 356.454 127.934 344.962 c h
127.934 344.962 m f
0.858824 0.164706 0.345098 rg
66.965 365.783 m 47.426 365.783 l 35.922 365.783 26.602 356.458 26.602 
344.962 c 26.602 233.994 l 46.145 233.994 l 46.145 344.962 l 46.145 356.454
 55.461 365.783 66.965 365.783 c h
66.965 365.783 m f
97.699 233.994 m 97.699 191.568 l 97.699 185.255 92.582 180.138 86.266 
180.138 c 68.27 180.138 l 61.957 180.138 56.84 185.255 56.84 191.568 c 56.84
 303.603 l 97.699 303.603 l h
97.699 233.994 m f
0.196078 0.666667 0.807843 rg
356.312 142.829 m 356.312 67.009 l 346.508 56.228 335.562 46.501 323.672
 38.017 c 308.348 38.017 l 308.348 142.829 l h
356.312 142.829 m f
383 344.962 m 383 233.994 l 281.668 233.994 l 281.668 344.962 l 281.668
 356.454 290.984 365.783 302.488 365.783 c 362.18 365.783 l 373.684 365.783
 383 356.454 383 344.962 c h
383 344.962 m f
0.152941 0.611765 0.717647 rg
322.031 365.783 m 302.488 365.783 l 290.984 365.783 281.668 356.458 281.668
 344.962 c 281.668 233.994 l 301.211 233.994 l 301.211 344.962 l 301.211
 356.454 310.527 365.783 322.031 365.783 c h
322.031 365.783 m f
352.766 233.994 m 352.766 191.568 l 352.766 185.255 347.648 180.138 341.332
 180.138 c 323.336 180.138 l 317.02 180.138 311.902 185.255 311.902 191.568
 c 311.902 303.603 l 352.766 303.603 l h
352.766 233.994 m f
Q Q
showpage
%%Trailer
end restore
%%EOF
