%!PS-Adobe-3.0 EPSF-3.0
%%Creator: cairo 1.14.2 (http://cairographics.org)
%%CreationDate: Wed Jul 12 12:57:24 2017
%%Pages: 1
%%DocumentData: Clean7Bit
%%LanguageLevel: 2
%%BoundingBox: 0 -1 410 410
%%EndComments
%%BeginProlog
save
50 dict begin
/q { gsave } bind def
/Q { grestore } bind def
/cm { 6 array astore concat } bind def
/w { setlinewidth } bind def
/J { setlinecap } bind def
/j { setlinejoin } bind def
/M { setmiterlimit } bind def
/d { setdash } bind def
/m { moveto } bind def
/l { lineto } bind def
/c { curveto } bind def
/h { closepath } bind def
/re { exch dup neg 3 1 roll 5 3 roll moveto 0 rlineto
      0 exch rlineto 0 rlineto closepath } bind def
/S { stroke } bind def
/f { fill } bind def
/f* { eofill } bind def
/n { newpath } bind def
/W { clip } bind def
/W* { eoclip } bind def
/BT { } bind def
/ET { } bind def
/pdfmark where { pop globaldict /?pdfmark /exec load put }
    { globaldict begin /?pdfmark /pop load def /pdfmark
    /cleartomark load def end } ifelse
/BDC { mark 3 1 roll /BDC pdfmark } bind def
/EMC { mark /EMC pdfmark } bind def
/cairo_store_point { /cairo_point_y exch def /cairo_point_x exch def } def
/Tj { show currentpoint cairo_store_point } bind def
/TJ {
  {
    dup
    type /stringtype eq
    { show } { -0.001 mul 0 cairo_font_matrix dtransform rmoveto } ifelse
  } forall
  currentpoint cairo_store_point
} bind def
/cairo_selectfont { cairo_font_matrix aload pop pop pop 0 0 6 array astore
    cairo_font exch selectfont cairo_point_x cairo_point_y moveto } bind def
/Tf { pop /cairo_font exch def /cairo_font_matrix where
      { pop cairo_selectfont } if } bind def
/Td { matrix translate cairo_font_matrix matrix concatmatrix dup
      /cairo_font_matrix exch def dup 4 get exch 5 get cairo_store_point
      /cairo_font where { pop cairo_selectfont } if } bind def
/Tm { 2 copy 8 2 roll 6 array astore /cairo_font_matrix exch def
      cairo_store_point /cairo_font where { pop cairo_selectfont } if } bind def
/g { setgray } bind def
/rg { setrgbcolor } bind def
/d1 { setcachedevice } bind def
%%EndProlog
%%BeginSetup
%%EndSetup
%%Page: 1 1
%%BeginPageSetup
%%PageBoundingBox: 0 -1 410 410
%%EndPageSetup
q 0 -1 410 411 rectclip q
0.913725 0.894118 0.847059 rg
409.594 204.798 m 409.594 91.693 317.902 0.001 204.797 0.001 c 91.691 0.001
 0 91.693 0 204.798 c 0 317.904 91.691 409.595 204.797 409.595 c 317.902
 409.595 409.594 317.904 409.594 204.798 c h
409.594 204.798 m f
0.282353 0.686275 0.541176 rg
384.637 204.798 m 384.637 105.474 304.121 24.958 204.797 24.958 c 105.477
 24.958 24.961 105.474 24.961 204.798 c 24.961 304.119 105.477 384.634 204.797
 384.634 c 304.121 384.634 384.637 304.119 384.637 204.798 c h
384.637 204.798 m f
0.333333 0.776471 0.631373 rg
369.57 204.798 m 369.57 113.798 295.797 40.025 204.797 40.025 c 113.797
 40.025 40.027 113.798 40.027 204.798 c 40.027 295.798 113.797 369.568 204.797
 369.568 c 295.797 369.568 369.57 295.798 369.57 204.798 c h
369.57 204.798 m f
0.741176 0.92549 0.956863 rg
348.215 204.794 m 348.215 125.591 284 61.388 204.805 61.388 c 182.473 61.388
 161.324 66.494 142.477 75.599 c 94.492 98.791 61.387 147.931 61.387 204.794
 c 61.387 284.001 125.598 348.205 204.805 348.205 c 227.746 348.205 249.43
 342.814 268.66 333.24 c 315.82 309.751 348.215 261.06 348.215 204.794 c
 f
0.4 0.764706 0.827451 rg
157.016 291.279 m 145.477 311.263 l 150.59 314.216 l 162.129 294.232 l 
h
157.016 291.279 m f
270.117 95.376 m 258.578 115.361 l 263.691 118.314 l 275.23 98.33 l 270.117
 95.376 l f
120.914 253.025 m 100.93 264.56 l 103.883 269.677 l 123.867 258.138 l h
120.914 253.025 m f
316.82 139.919 m 296.836 151.455 l 299.789 156.572 l 319.773 145.033 l 
316.82 139.919 l f
103.898 139.904 m 100.945 145.021 l 120.93 156.56 l 123.883 151.443 l h
103.898 139.904 m f
299.789 253.021 m 296.836 258.134 l 316.82 269.673 l 319.773 264.56 l 299.789
 253.021 l f
150.59 95.376 m 145.477 98.33 l 157.016 118.314 l 162.129 115.361 l 150.59
 95.376 l f
263.691 291.275 m 258.578 294.228 l 270.117 314.212 l 275.23 311.263 l 
263.691 291.275 l f
0.282353 0.686275 0.541176 rg
201.391 210.701 m 257.168 204.794 l 201.391 198.892 l 201.391 210.701 l
 f
198.898 209.119 m 204.801 276.166 l 210.707 209.119 l 198.898 209.119 l
 f
0.333333 0.776471 0.631373 rg
217.508 204.794 m 217.508 211.814 211.82 217.501 204.801 217.501 c 197.781
 217.501 192.094 211.814 192.094 204.794 c 192.094 197.775 197.781 192.087
 204.801 192.087 c 211.82 192.087 217.508 197.775 217.508 204.794 c f
0.160784 0.611765 0.717647 rg
187.684 300.052 m 187.684 326.181 l 180.664 322.865 l 178.973 326.63 l 
192.684 333.091 l 192.684 300.052 l 200.438 300.052 l 200.438 295.669 l 
179.875 295.669 l 179.875 300.052 l h
187.684 300.052 m f
210.23 322.81 m 205.961 324.439 l 207.367 328.763 211.02 333.091 217.816
 333.091 c 224.113 333.091 229.277 328.486 229.277 322.361 c 229.277 317.021
 225.742 312.806 221.637 308.201 c 214.391 300.052 l 230.625 300.052 l 230.625
 295.669 l 206.355 295.669 l 206.355 297.806 l 217.645 310.392 l 222.816
 316.181 224.051 318.876 224.051 322.302 c 224.051 326.123 221.242 329.044
 217.594 329.044 c 213.656 329.044 211.578 326.349 210.23 322.81 c h
210.23 322.81 m f
314.938 186.083 m 309.488 186.083 304.711 188.892 302.859 194.005 c 307.297
 195.802 l 308.477 192.263 311.398 190.072 314.828 190.072 c 319.32 190.072
 322.129 193.388 322.129 197.544 c 322.129 200.806 320.332 203.56 316.625
 204.794 c 315.391 205.189 313.984 205.412 311.793 205.412 c 309.934 205.412
 l 309.711 206.029 l 319.094 219.123 l 303.867 219.123 l 303.867 223.505
 l 326.398 223.505 l 326.398 222.158 l 316.453 208.501 l 323.762 207.771
 327.242 202.658 327.242 197.658 c 327.242 191.478 322.582 186.083 314.938
 186.083 c f
100.586 199.908 m 99.523 199.626 98.457 199.513 97.215 199.513 c 91.148
 199.513 85.531 204.345 85.531 211.423 c 85.531 218.337 90.641 223.505 98.117
 223.505 c 105.477 223.505 110.648 218.56 110.648 211.423 c 110.648 208.279
 109.859 205.638 106.77 200.861 c 97.273 186.083 l 91.203 186.083 l h
105.59 211.482 m 105.59 215.974 102.781 219.517 98.062 219.517 c 93.227
 219.517 90.586 215.81 90.586 211.537 c 90.586 206.763 93.508 203.392 98.062
 203.392 c 102.781 203.388 105.59 206.931 105.59 211.482 c h
105.59 211.482 m f
202.328 99.712 m 203.34 99.994 204.41 100.107 205.645 100.107 c 211.711
 100.107 217.328 95.275 217.328 88.197 c 217.328 81.287 212.219 76.115 204.742
 76.115 c 197.441 76.115 192.27 81.06 192.27 88.197 c 192.27 91.341 193.059
 93.982 196.145 98.759 c 205.59 113.537 l 211.656 113.537 l 202.328 99.712
 l 197.328 88.138 m 197.328 83.642 200.137 80.103 204.801 80.103 c 209.633
 80.103 212.273 83.81 212.273 88.083 c 212.273 92.857 209.352 96.228 204.801
 96.228 c 200.137 96.228 197.328 92.689 197.328 88.138 c f
0.815686 0.94902 0.968627 rg
204.742 76.115 m 197.441 76.115 192.27 81.06 192.27 88.197 c 192.27 91.341
 193.059 93.982 196.145 98.759 c 205.59 113.537 l 211.656 113.537 l 202.328
 99.712 l 203.34 99.994 204.41 100.107 205.645 100.107 c 211.711 100.107
 217.328 95.275 217.328 88.197 c 217.328 81.283 212.219 76.115 204.742 76.115
 c 270.117 95.376 m 258.578 115.361 l 263.691 118.314 l 275.23 98.33 l 270.117
 95.376 l 316.82 139.919 m 296.836 151.455 l 299.789 156.572 l 319.773 145.033
 l 316.82 139.919 l 303.871 219.123 m 303.871 223.505 l 326.402 223.505 
l 326.402 222.158 l 316.457 208.501 l 323.762 207.771 327.246 202.662 327.246
 197.658 c 327.246 191.478 322.582 186.083 314.938 186.083 c 309.488 186.083
 304.711 188.892 302.859 194.005 c 307.297 195.802 l 308.477 192.263 311.402
 190.072 314.828 190.072 c 319.32 190.072 322.129 193.388 322.129 197.544
 c 322.129 200.802 320.332 203.556 316.625 204.794 c 315.391 205.185 313.984
 205.412 311.793 205.412 c 309.934 205.412 l 309.711 206.029 l 319.094 219.123
 l 303.871 219.123 l 299.789 253.021 m 296.832 258.134 l 316.82 269.673 
l 319.773 264.56 l 299.789 253.021 l 263.691 291.275 m 258.578 294.228 l
 270.117 314.212 l 275.23 311.259 l 263.691 291.275 l 268.66 333.24 m 211.145
 215.81 l 213.734 214.314 215.75 211.931 216.77 209.072 c 257.168 204.798
 l 216.77 200.521 l 215.016 195.607 210.32 192.087 204.801 192.087 c 203.098
 192.087 201.473 192.423 199.988 193.029 c 161.988 115.443 l 162.125 115.361
 l 160.949 113.322 l 142.473 75.599 l 161.324 66.494 182.473 61.388 204.801
 61.388 c 284 61.388 348.211 125.591 348.211 204.798 c 348.215 261.06 315.82
 309.751 268.66 333.24 c f
0.572549 0.831373 0.878431 rg
263.691 118.314 m 258.578 115.361 l 270.117 95.376 l 275.23 98.33 l 263.691
 118.314 l f
299.789 156.572 m 296.836 151.455 l 316.82 139.919 l 319.773 145.033 l 
299.789 156.572 l f
316.82 269.673 m 296.836 258.134 l 299.789 253.021 l 319.773 264.56 l 316.82
 269.673 l f
161.988 115.443 m 160.949 113.322 l 162.129 115.361 l 161.988 115.443 l
 f
270.117 314.212 m 258.578 294.228 l 263.691 291.275 l 275.23 311.263 l 
270.117 314.212 l f
0.490196 0.776471 0.67451 rg
216.77 209.072 m 217.246 207.736 217.508 206.294 217.508 204.794 c 217.508
 203.294 217.25 201.857 216.77 200.521 c 257.168 204.794 l 216.77 209.072
 l f
0.52549 0.843137 0.737255 rg
211.145 215.81 m 199.988 193.029 l 201.473 192.423 203.098 192.087 204.801
 192.087 c 210.32 192.087 215.016 195.603 216.77 200.521 c 217.246 201.857
 217.508 203.294 217.508 204.794 c 217.508 206.298 217.25 207.736 216.77
 209.076 c 215.75 211.931 213.738 214.314 211.145 215.81 c f
0.403922 0.72549 0.8 rg
326.402 223.505 m 303.867 223.505 l 303.867 219.123 l 319.094 219.123 l
 309.711 206.033 l 309.938 205.412 l 311.793 205.412 l 313.984 205.412 315.391
 205.189 316.625 204.794 c 320.332 203.56 322.129 200.806 322.129 197.548
 c 322.129 193.388 319.32 190.076 314.828 190.076 c 311.402 190.076 308.477
 192.263 307.297 195.806 c 302.859 194.005 l 304.711 188.896 309.488 186.087
 314.938 186.087 c 322.582 186.087 327.246 191.482 327.246 197.662 c 327.246
 202.662 323.766 207.775 316.457 208.505 c 326.402 222.158 l 326.402 223.509
 l f
0.815686 0.94902 0.968627 rg
204.801 96.228 m 200.137 96.228 197.324 92.689 197.324 88.138 c 197.324
 83.642 200.137 80.103 204.801 80.103 c 209.633 80.103 212.273 83.81 212.273
 88.083 c 212.273 92.857 209.352 96.228 204.801 96.228 c f
0.403922 0.72549 0.8 rg
204.801 80.103 m 200.137 80.103 197.324 83.642 197.324 88.138 c 197.324
 92.689 200.137 96.228 204.801 96.228 c 209.348 96.228 212.273 92.857 212.273
 88.083 c 212.273 83.81 209.633 80.103 204.801 80.103 c 211.656 113.537 
m 205.59 113.537 l 196.145 98.759 l 193.059 93.982 192.27 91.341 192.27 
88.193 c 192.27 81.06 197.441 76.115 204.742 76.115 c 212.219 76.115 217.328
 81.283 217.328 88.193 c 217.328 95.271 211.711 100.103 205.645 100.103 
c 204.41 100.103 203.34 99.994 202.328 99.712 c 211.656 113.537 l f
Q Q
showpage
%%Trailer
end restore
%%EOF
