%!PS-Adobe-3.0 EPSF-3.0
%%Creator: cairo 1.14.2 (http://cairographics.org)
%%CreationDate: Wed Jul 12 12:57:24 2017
%%Pages: 1
%%DocumentData: Clean7Bit
%%LanguageLevel: 2
%%BoundingBox: 0 -1 410 410
%%EndComments
%%BeginProlog
save
50 dict begin
/q { gsave } bind def
/Q { grestore } bind def
/cm { 6 array astore concat } bind def
/w { setlinewidth } bind def
/J { setlinecap } bind def
/j { setlinejoin } bind def
/M { setmiterlimit } bind def
/d { setdash } bind def
/m { moveto } bind def
/l { lineto } bind def
/c { curveto } bind def
/h { closepath } bind def
/re { exch dup neg 3 1 roll 5 3 roll moveto 0 rlineto
      0 exch rlineto 0 rlineto closepath } bind def
/S { stroke } bind def
/f { fill } bind def
/f* { eofill } bind def
/n { newpath } bind def
/W { clip } bind def
/W* { eoclip } bind def
/BT { } bind def
/ET { } bind def
/pdfmark where { pop globaldict /?pdfmark /exec load put }
    { globaldict begin /?pdfmark /pop load def /pdfmark
    /cleartomark load def end } ifelse
/BDC { mark 3 1 roll /BDC pdfmark } bind def
/EMC { mark /EMC pdfmark } bind def
/cairo_store_point { /cairo_point_y exch def /cairo_point_x exch def } def
/Tj { show currentpoint cairo_store_point } bind def
/TJ {
  {
    dup
    type /stringtype eq
    { show } { -0.001 mul 0 cairo_font_matrix dtransform rmoveto } ifelse
  } forall
  currentpoint cairo_store_point
} bind def
/cairo_selectfont { cairo_font_matrix aload pop pop pop 0 0 6 array astore
    cairo_font exch selectfont cairo_point_x cairo_point_y moveto } bind def
/Tf { pop /cairo_font exch def /cairo_font_matrix where
      { pop cairo_selectfont } if } bind def
/Td { matrix translate cairo_font_matrix matrix concatmatrix dup
      /cairo_font_matrix exch def dup 4 get exch 5 get cairo_store_point
      /cairo_font where { pop cairo_selectfont } if } bind def
/Tm { 2 copy 8 2 roll 6 array astore /cairo_font_matrix exch def
      cairo_store_point /cairo_font where { pop cairo_selectfont } if } bind def
/g { setgray } bind def
/rg { setrgbcolor } bind def
/d1 { setcachedevice } bind def
%%EndProlog
%%BeginSetup
%%EndSetup
%%Page: 1 1
%%BeginPageSetup
%%PageBoundingBox: 0 -1 410 410
%%EndPageSetup
q 0 -1 410 411 rectclip q
0.921569 0.188235 0.356863 rg
409.602 204.794 m 409.602 91.685 317.906 0.001 204.805 0.001 c 91.695 0.001
 0 91.685 0 204.794 c 0 272.579 32.926 332.658 83.656 369.923 c 101.926 
383.361 122.508 393.826 144.695 400.619 c 163.707 406.454 183.887 409.591
 204.805 409.591 c 225.715 409.591 245.895 406.454 264.902 400.619 c 287.094
 393.826 307.672 383.361 325.945 369.923 c 376.672 332.658 409.602 272.579
 409.602 204.794 c h
409.602 204.794 m f
0.941176 0.627451 0.215686 rg
306.348 118.927 m 306.348 62.845 260.891 17.372 204.805 17.372 c 187.402
 17.372 171.023 21.755 156.715 29.462 c 124.879 46.607 103.25 80.244 103.25
 118.927 c 103.25 175.001 148.719 220.474 204.805 220.474 c 208.555 220.474
 212.246 220.267 215.891 219.869 c 266.762 214.353 306.348 171.255 306.348
 118.927 c h
306.348 118.927 m f
0.368627 0.45098 0.588235 rg
244.73 237.396 m 164.879 237.396 l 154.68 254.04 l 83.656 369.923 l 101.926
 383.361 122.508 393.826 144.695 400.619 c 186.453 332.49 l 186.473 332.466
 l 204.805 302.548 l 220.848 276.365 l 233.414 255.861 l h
244.73 237.396 m f
0.337255 0.423529 0.54902 rg
164.875 237.396 m 186.453 332.486 l 222.336 277.4 l h
164.875 237.396 m f
0.941176 0.627451 0.215686 rg
254.93 254.04 m 251.75 255.22 248.312 255.861 244.73 255.861 c 164.879 
255.861 l 161.297 255.861 157.863 255.22 154.68 254.04 c 143.438 249.884
 135.398 239.056 135.398 226.38 c 135.398 216.669 140.113 208.048 147.371
 202.673 c 152.273 199.048 158.332 196.9 164.879 196.9 c 244.73 196.9 l 
251.277 196.9 257.336 199.048 262.238 202.673 c 269.496 208.048 274.211 
216.673 274.211 226.38 c 274.211 239.056 266.172 249.884 254.93 254.04 c
 h
164.879 215.365 m 158.801 215.365 153.863 220.302 153.863 226.38 c 153.863
 232.454 158.801 237.396 164.879 237.396 c 244.73 237.396 l 250.809 237.396
 255.746 232.454 255.746 226.38 c 255.746 220.302 250.809 215.365 244.73
 215.365 c h
164.879 215.365 m f
0.956863 0.796078 0.466667 rg
215.891 219.869 m 156.715 29.462 l 124.879 46.607 103.25 80.244 103.25 
118.927 c 103.25 175.001 148.719 220.474 204.805 220.474 c 208.555 220.474
 212.246 220.267 215.891 219.869 c h
215.891 219.869 m f
0.258824 0.341176 0.498039 rg
325.945 369.923 m 254.93 254.04 l 244.73 237.396 l 164.879 237.396 l 176.195
 255.861 l 204.805 302.548 l 205.363 303.462 l 264.902 400.619 l 287.094
 393.826 307.672 383.361 325.945 369.923 c h
325.945 369.923 m f
0.937255 0.701961 0.227451 rg
276.609 118.927 m 276.609 79.271 244.461 47.122 204.805 47.122 c 201.094
 47.122 197.449 47.4 193.891 47.954 c 159.414 53.204 133 82.982 133 118.927
 c 133 158.583 165.148 190.732 204.805 190.732 c 216.004 190.732 226.602
 188.165 236.047 183.603 c 260.055 171.982 276.609 147.384 276.609 118.927
 c h
276.609 118.927 m f
0.941176 0.627451 0.215686 rg
199.059 77.892 m 199.059 152.072 l 179.117 142.661 l 174.332 153.349 l 
213.258 171.693 l 213.258 77.892 l 235.27 77.892 l 235.27 65.447 l 176.887
 65.447 l 176.887 77.892 l h
199.059 77.892 m f
0.956863 0.796078 0.466667 rg
236.051 183.603 m 213.258 110.267 l 213.258 77.892 l 235.27 77.892 l 235.27
 65.447 l 199.328 65.447 l 193.891 47.954 l 197.449 47.4 201.09 47.122 204.805
 47.122 c 244.461 47.122 276.609 79.271 276.609 118.927 c 276.609 147.384
 260.055 171.982 236.051 183.603 c h
236.051 183.603 m f
0.960784 0.741176 0.458824 rg
213.258 110.267 m 199.328 65.447 l 235.27 65.447 l 235.27 77.892 l 213.258
 77.892 l h
213.258 110.267 m f
Q Q
showpage
%%Trailer
end restore
%%EOF
