%!PS-Adobe-3.0 EPSF-3.0
%%Creator: cairo 1.14.2 (http://cairographics.org)
%%CreationDate: Wed Jul 12 12:57:24 2017
%%Pages: 1
%%DocumentData: Clean7Bit
%%LanguageLevel: 2
%%BoundingBox: 0 -1 410 410
%%EndComments
%%BeginProlog
save
50 dict begin
/q { gsave } bind def
/Q { grestore } bind def
/cm { 6 array astore concat } bind def
/w { setlinewidth } bind def
/J { setlinecap } bind def
/j { setlinejoin } bind def
/M { setmiterlimit } bind def
/d { setdash } bind def
/m { moveto } bind def
/l { lineto } bind def
/c { curveto } bind def
/h { closepath } bind def
/re { exch dup neg 3 1 roll 5 3 roll moveto 0 rlineto
      0 exch rlineto 0 rlineto closepath } bind def
/S { stroke } bind def
/f { fill } bind def
/f* { eofill } bind def
/n { newpath } bind def
/W { clip } bind def
/W* { eoclip } bind def
/BT { } bind def
/ET { } bind def
/pdfmark where { pop globaldict /?pdfmark /exec load put }
    { globaldict begin /?pdfmark /pop load def /pdfmark
    /cleartomark load def end } ifelse
/BDC { mark 3 1 roll /BDC pdfmark } bind def
/EMC { mark /EMC pdfmark } bind def
/cairo_store_point { /cairo_point_y exch def /cairo_point_x exch def } def
/Tj { show currentpoint cairo_store_point } bind def
/TJ {
  {
    dup
    type /stringtype eq
    { show } { -0.001 mul 0 cairo_font_matrix dtransform rmoveto } ifelse
  } forall
  currentpoint cairo_store_point
} bind def
/cairo_selectfont { cairo_font_matrix aload pop pop pop 0 0 6 array astore
    cairo_font exch selectfont cairo_point_x cairo_point_y moveto } bind def
/Tf { pop /cairo_font exch def /cairo_font_matrix where
      { pop cairo_selectfont } if } bind def
/Td { matrix translate cairo_font_matrix matrix concatmatrix dup
      /cairo_font_matrix exch def dup 4 get exch 5 get cairo_store_point
      /cairo_font where { pop cairo_selectfont } if } bind def
/Tm { 2 copy 8 2 roll 6 array astore /cairo_font_matrix exch def
      cairo_store_point /cairo_font where { pop cairo_selectfont } if } bind def
/g { setgray } bind def
/rg { setrgbcolor } bind def
/d1 { setcachedevice } bind def
%%EndProlog
%%BeginSetup
%%EndSetup
%%Page: 1 1
%%BeginPageSetup
%%PageBoundingBox: 0 -1 410 410
%%EndPageSetup
q 0 -1 410 411 rectclip q
0.639216 0.345098 0.584314 rg
409.602 204.794 m 409.602 178.04 404.465 152.478 395.129 129.052 c 391.984
 121.138 388.352 113.466 384.277 106.076 c 363.383 68.165 330.82 37.591 
291.438 19.177 c 287.109 17.15 282.695 15.279 278.211 13.556 c 255.426 4.794
 230.672 0.001 204.805 0.001 c 178.93 0.001 154.184 4.798 131.391 13.556
 c 89.43 29.665 54.113 59.193 30.707 96.892 c 11.234 128.22 0 165.197 0 
204.794 c 0 244.392 11.234 281.372 30.707 312.701 c 34.543 318.892 38.711
 324.861 43.18 330.591 c 53.766 344.169 66.023 356.384 79.66 366.911 c 85.504
 371.439 91.605 375.65 97.938 379.533 c 129.055 398.595 165.641 409.591 
204.805 409.591 c 317.906 409.591 409.602 317.904 409.602 204.794 c h
409.602 204.794 m f
0.913725 0.894118 0.847059 rg
291.438 379.533 m 291.438 19.177 l 287.109 17.15 282.695 15.279 278.211
 13.556 c 131.391 13.556 l 89.43 29.665 54.113 59.193 30.707 96.892 c 30.707
 330.591 l 79.66 379.533 l h
291.438 379.533 m f
0.258824 0.341176 0.498039 rg
175.457 289.826 m 72.715 289.826 l 72.715 298.704 l 190.297 298.704 l h
175.457 289.826 m f
165.852 260.372 m 72.715 260.372 l 72.715 269.255 l 171.645 269.255 l h
165.852 260.372 m f
173.125 230.919 m 72.715 230.919 l 72.715 239.802 l 166.586 239.802 l h
173.125 230.919 m f
190 201.466 m 72.715 201.466 l 72.715 210.349 l 177.969 210.349 l h
190 201.466 m f
245.367 172.013 m 72.715 172.013 l 72.715 180.896 l 207.191 180.896 l h
245.367 172.013 m f
72.711 151.443 176.719 -8.883 re f
72.711 92.544 176.719 -8.883 re f
72.711 63.087 176.719 -8.883 re f
72.711 121.99 176.719 -8.883 re f
0.827451 0.807843 0.760784 rg
79.656 379.533 m 79.656 330.591 l 30.707 330.591 l h
79.656 379.533 m f
0.666667 0.313726 0.0745098 rg
395.129 129.052 m 391.984 121.138 388.352 113.466 384.277 106.076 c 382.598
 106.677 381.016 107.654 379.676 108.997 c 367.594 121.087 l 361.305 127.365
 l 307.711 180.97 l 306.82 181.861 l 324.578 199.607 l h
395.129 129.052 m f
0.941176 0.627451 0.215686 rg
343.328 252.279 m 343.328 203.029 303.406 163.103 254.156 163.103 c 204.906
 163.103 164.984 203.029 164.984 252.279 c 164.984 301.525 204.906 341.451
 254.156 341.451 c 303.406 341.451 343.328 301.525 343.328 252.279 c h
343.328 252.279 m f
0.878431 0.854902 0.803922 rg
303.996 202.431 m 276.469 174.908 231.836 174.908 204.309 202.431 c 203.969
 202.771 203.633 203.119 203.305 203.462 c 199.582 207.337 196.395 211.521
 193.727 215.943 c 188.336 224.888 185.113 234.775 184.055 244.849 c 183.609
 248.997 183.547 253.169 183.844 257.329 c 184.562 267.329 187.395 277.208
 192.359 286.232 c 194.766 290.619 197.691 294.814 201.117 298.712 c 202.133
 299.876 203.195 301.013 204.309 302.122 c 231.836 329.658 276.469 329.658
 303.996 302.122 c 331.523 274.595 331.523 229.958 303.996 202.431 c h
303.996 202.431 m f
0.258824 0.341176 0.498039 rg
266.98 298.712 m 266.98 286.232 l 192.359 286.232 l 194.766 290.619 197.691
 294.81 201.117 298.712 c h
266.98 298.712 m f
266.98 215.943 m 266.98 203.462 l 203.305 203.462 l 199.582 207.333 196.395
 211.517 193.727 215.943 c h
266.98 215.943 m f
266.98 257.326 m 266.98 244.845 l 184.055 244.845 l 183.609 248.994 183.547
 253.169 183.844 257.326 c h
266.98 257.326 m f
0.941176 0.929412 0.901961 rg
223.938 315.978 m 223.875 315.943 223.805 315.915 223.734 315.88 c 223.324
 315.685 222.926 315.482 222.516 315.286 c 220.703 314.369 218.93 313.384
 217.188 312.31 c 216.754 312.044 216.316 311.767 215.891 311.494 c 215.5
 311.236 215.109 310.986 214.727 310.72 c 214.656 310.673 214.594 310.63
 214.523 310.587 c 214.488 310.56 214.453 310.533 214.418 310.513 c 214.371
 310.478 214.328 310.451 214.281 310.415 c 213.965 310.193 213.652 309.974
 213.332 309.751 c 212.914 309.458 212.496 309.146 212.078 308.833 c 211.867
 308.685 211.664 308.525 211.449 308.365 c 211.246 308.204 211.051 308.052
 210.844 307.896 c 210.43 307.576 210.027 307.247 209.621 306.919 c 209.211
 306.587 208.812 306.251 208.41 305.915 c 208.012 305.576 207.621 305.228
 207.223 304.872 c 206.895 304.583 206.562 304.279 206.246 303.978 c 205.793
 303.56 205.348 303.142 204.902 302.708 c 204.895 302.697 l 204.848 302.654
 204.805 302.611 204.762 302.576 c 204.734 302.548 l 204.699 302.501 204.656
 302.466 204.609 302.423 c 204.586 302.396 l 204.461 302.275 l 204.461 302.263
 204.453 302.263 204.441 302.255 c 204.309 302.122 l 203.199 301.013 202.133
 299.876 201.121 298.712 c 210.457 298.712 l 212.711 302.603 215.375 306.322
 218.441 309.814 c 219.453 310.978 220.52 312.115 221.629 313.224 c 222.801
 314.4 224.02 315.509 225.254 316.583 c 224.816 316.388 224.371 316.181 
223.938 315.978 c h
201.164 268.431 m 201.598 274.462 202.797 280.447 204.777 286.232 c 192.359
 286.232 l 189.883 281.72 187.93 276.994 186.508 272.142 c 185.086 267.302
 184.195 262.326 183.84 257.326 c 201.242 257.326 l 200.922 261.021 200.906
 264.736 201.164 268.431 c h
201.164 268.431 m f
0.635294 0.678431 0.752941 rg
210.457 298.712 m 201.117 298.712 l 197.691 294.81 194.766 290.619 192.359
 286.232 c 204.777 286.232 l 206.078 290.036 207.711 293.751 209.68 297.333
 c 209.934 297.794 210.191 298.255 210.457 298.712 c h
210.457 298.712 m f
0.941176 0.929412 0.901961 rg
211.047 227.044 m 207.656 232.669 205.125 238.665 203.445 244.845 c 184.055
 244.845 l 185.113 234.775 188.336 224.888 193.727 215.943 c 219.336 215.943
 l 216.164 219.423 213.402 223.138 211.047 227.044 c h
291.438 195.779 m 284.926 193.861 278.184 192.9 271.449 192.9 c 258.555
 192.9 245.645 196.419 234.312 203.462 c 203.305 203.462 l 203.633 203.119
 203.969 202.771 204.309 202.431 c 204.449 202.29 204.594 202.15 204.742
 202.005 c 204.887 201.865 205.027 201.724 205.18 201.579 c 206.047 200.755
 l 206.164 200.646 206.27 200.548 206.387 200.451 c 206.68 200.177 206.973
 199.911 207.266 199.654 c 207.629 199.322 207.992 199.001 208.359 198.685
 c 208.695 198.392 209.035 198.107 209.379 197.822 c 209.523 197.708 209.664
 197.591 209.805 197.486 c 210.145 197.201 210.492 196.923 210.844 196.658
 c 211.059 196.49 211.273 196.322 211.496 196.161 c 211.875 195.857 212.258
 195.576 212.648 195.29 c 213.066 194.99 213.484 194.685 213.91 194.392 
c 214.371 194.064 214.836 193.755 215.305 193.435 c 215.812 193.107 216.328
 192.779 216.84 192.458 c 217.34 192.146 217.836 191.845 218.332 191.552
 c 220.254 190.415 222.215 189.376 224.215 188.443 c 224.648 188.24 225.086
 188.033 225.527 187.849 c 225.723 187.759 225.93 187.669 226.133 187.579
 c 226.512 187.411 226.906 187.244 227.297 187.083 c 227.578 186.966 227.871
 186.853 228.156 186.747 c 228.441 186.63 228.727 186.513 229.02 186.408
 c 229.445 186.24 229.879 186.079 230.316 185.927 c 230.625 185.814 230.938
 185.704 231.246 185.599 c 231.641 185.466 232.031 185.333 232.43 185.208
 c 232.445 185.201 232.473 185.189 232.5 185.189 c 232.562 185.173 232.625
 185.146 232.688 185.126 c 233.023 185.013 233.363 184.904 233.707 184.81
 c 233.719 184.81 233.734 184.798 233.742 184.798 c 234.027 184.712 234.305
 184.63 234.598 184.552 c 235.324 184.337 236.062 184.134 236.801 183.954
 c 237.121 183.865 237.449 183.786 237.777 183.716 c 237.988 183.661 238.203
 183.611 238.426 183.564 c 238.824 183.466 239.227 183.376 239.633 183.298
 c 240.086 183.201 240.547 183.111 241 183.021 c 241.055 183.005 241.109
 182.997 241.16 182.986 c 241.234 182.978 241.305 182.97 241.375 182.951
 c 241.402 182.951 241.418 182.943 241.445 182.943 c 241.676 182.9 241.906
 182.865 242.137 182.818 c 242.371 182.783 242.59 182.74 242.824 182.704
 c 243.355 182.622 243.879 182.544 244.402 182.462 c 244.438 182.462 244.473
 182.454 244.508 182.454 c 245.023 182.384 245.531 182.322 246.039 182.259
 c 246.578 182.197 247.113 182.146 247.656 182.091 c 248.73 181.994 249.812
 181.923 250.887 181.869 c 251.973 181.826 253.047 181.798 254.129 181.798
 c 256.707 181.798 259.293 181.939 261.859 182.216 c 262.363 182.279 262.879
 182.337 263.395 182.4 c 264.008 182.482 264.621 182.572 265.234 182.669
 c 265.801 182.755 266.379 182.853 266.949 182.962 c 267.516 183.068 268.086
 183.185 268.652 183.298 c 269.789 183.536 270.918 183.806 272.047 184.099
 c 272.605 184.247 273.176 184.4 273.734 184.56 c 275.414 185.048 277.074
 185.591 278.727 186.201 c 279.277 186.408 279.82 186.619 280.371 186.833
 c 284.18 188.369 287.883 190.244 291.438 192.462 c 294.547 194.4 297.539
 196.611 300.383 199.083 c 297.469 197.767 294.473 196.669 291.438 195.779
 c h
291.438 195.779 m f
0.635294 0.678431 0.752941 rg
219.336 215.943 m 193.727 215.943 l 196.395 211.521 199.582 207.333 203.305
 203.462 c 234.312 203.462 l 229.805 206.263 225.543 209.619 221.629 213.533
 c 221.289 213.872 220.953 214.22 220.625 214.564 c 220.188 215.021 219.758
 215.482 219.336 215.943 c h
219.336 215.943 m f
201.242 257.326 m 183.84 257.326 l 183.723 255.638 183.664 253.947 183.664
 252.255 c 183.664 249.783 183.793 247.31 184.055 244.845 c 203.449 244.845
 l 202.461 248.497 201.77 252.212 201.375 255.951 c 201.328 256.408 201.281
 256.869 201.242 257.326 c h
201.242 257.326 m f
0.737255 0.458824 0.698039 rg
305.918 204.439 m 305.918 300.115 l 330.887 273.146 330.887 231.408 305.918
 204.439 c h
305.918 204.439 m f
0.941176 0.627451 0.215686 rg
367.59 121.087 m 361.309 127.369 l 379.066 145.122 l 385.348 138.841 l 
h
367.59 121.087 m f
Q Q
showpage
%%Trailer
end restore
%%EOF
