%!PS-Adobe-3.0 EPSF-3.0
%%Creator: cairo 1.14.2 (http://cairographics.org)
%%CreationDate: Wed Jul 12 12:57:24 2017
%%Pages: 1
%%DocumentData: Clean7Bit
%%LanguageLevel: 2
%%BoundingBox: 0 -1 410 410
%%EndComments
%%BeginProlog
save
50 dict begin
/q { gsave } bind def
/Q { grestore } bind def
/cm { 6 array astore concat } bind def
/w { setlinewidth } bind def
/J { setlinecap } bind def
/j { setlinejoin } bind def
/M { setmiterlimit } bind def
/d { setdash } bind def
/m { moveto } bind def
/l { lineto } bind def
/c { curveto } bind def
/h { closepath } bind def
/re { exch dup neg 3 1 roll 5 3 roll moveto 0 rlineto
      0 exch rlineto 0 rlineto closepath } bind def
/S { stroke } bind def
/f { fill } bind def
/f* { eofill } bind def
/n { newpath } bind def
/W { clip } bind def
/W* { eoclip } bind def
/BT { } bind def
/ET { } bind def
/pdfmark where { pop globaldict /?pdfmark /exec load put }
    { globaldict begin /?pdfmark /pop load def /pdfmark
    /cleartomark load def end } ifelse
/BDC { mark 3 1 roll /BDC pdfmark } bind def
/EMC { mark /EMC pdfmark } bind def
/cairo_store_point { /cairo_point_y exch def /cairo_point_x exch def } def
/Tj { show currentpoint cairo_store_point } bind def
/TJ {
  {
    dup
    type /stringtype eq
    { show } { -0.001 mul 0 cairo_font_matrix dtransform rmoveto } ifelse
  } forall
  currentpoint cairo_store_point
} bind def
/cairo_selectfont { cairo_font_matrix aload pop pop pop 0 0 6 array astore
    cairo_font exch selectfont cairo_point_x cairo_point_y moveto } bind def
/Tf { pop /cairo_font exch def /cairo_font_matrix where
      { pop cairo_selectfont } if } bind def
/Td { matrix translate cairo_font_matrix matrix concatmatrix dup
      /cairo_font_matrix exch def dup 4 get exch 5 get cairo_store_point
      /cairo_font where { pop cairo_selectfont } if } bind def
/Tm { 2 copy 8 2 roll 6 array astore /cairo_font_matrix exch def
      cairo_store_point /cairo_font where { pop cairo_selectfont } if } bind def
/g { setgray } bind def
/rg { setrgbcolor } bind def
/d1 { setcachedevice } bind def
%%EndProlog
%%BeginSetup
%%EndSetup
%%Page: 1 1
%%BeginPageSetup
%%PageBoundingBox: 0 -1 410 410
%%EndPageSetup
q 0 -1 410 411 rectclip q
0.333333 0.776471 0.631373 rg
409.602 204.795 m 409.602 177.873 404.402 152.166 394.961 128.627 c 394.367
 127.135 393.754 125.651 393.125 124.186 c 391.383 120.112 389.508 116.112
 387.508 112.178 c 386.559 110.311 385.59 108.475 384.586 106.643 c 381.281
 100.604 377.688 94.752 373.812 89.1 c 336.906 35.291 274.977 -0.002 204.805
 -0.002 c 91.695 0.002 0 91.686 0 204.795 c 0 257.416 19.852 305.408 52.469
 341.678 c 57.961 347.787 63.832 353.545 70.012 358.955 c 70.012 358.971
 l 70.027 358.971 l 77.309 365.338 85.031 371.217 93.168 376.514 c 125.277
 397.44 163.625 409.592 204.805 409.592 c 245.977 409.592 284.32 397.44 
316.43 376.514 c 324.578 371.221 332.324 365.35 339.605 358.971 c 341.266
 357.522 342.902 356.037 344.52 354.53 c 384.559 317.158 409.602 263.901
 409.602 204.795 c h
409.602 204.795 m f
0.941176 0.627451 0.215686 rg
409.602 204.795 m 409.602 177.873 404.402 152.166 394.961 128.627 c 394.367
 127.135 393.754 125.651 393.125 124.186 c 391.383 120.112 389.508 116.112
 387.508 112.178 c 386.559 110.311 385.59 108.475 384.586 106.643 c 52.469
 106.643 l 52.469 359.596 l 52.469 368.94 60.043 376.514 69.387 376.514 
c 316.43 376.514 l 324.578 371.221 332.324 365.346 339.605 358.971 c 341.266
 357.522 342.902 356.037 344.52 354.53 c 384.559 317.158 409.602 263.901
 409.602 204.795 c h
409.602 204.795 m f
0.192157 0.27451 0.407843 rg
409.602 204.795 m 409.602 177.873 404.402 152.166 394.961 128.627 c 394.367
 127.135 393.754 125.651 393.125 124.186 c 70.012 124.186 l 70.012 358.971
 l 339.605 358.971 l 341.266 357.522 342.902 356.037 344.52 354.53 c 384.559
 317.158 409.602 263.901 409.602 204.795 c h
409.602 204.795 m f
0.258824 0.341176 0.498039 rg
409.602 204.795 m 409.602 177.873 404.402 152.166 394.961 128.627 c 74.453
 128.627 l 74.453 354.53 l 344.52 354.53 l 384.559 317.158 409.602 263.901
 409.602 204.795 c h
409.602 204.795 m f
0.666667 0.313726 0.0745098 rg
387.508 112.178 m 386.559 110.311 385.59 108.475 384.586 106.643 c 381.281
 100.604 377.684 94.752 373.812 89.1 c 37.367 89.1 l 37.367 112.178 l h
387.508 112.178 m f
0.913725 0.894118 0.847059 rg
280.387 150.526 m 282.383 152.522 285.617 152.522 287.609 150.526 c 306.453
 131.682 l 308.449 129.69 308.449 126.455 306.453 124.459 c 304.457 122.463
 301.227 122.463 299.23 124.459 c 280.387 143.303 l 278.395 145.299 278.395
 148.53 280.387 150.526 c h
280.387 150.526 m f
300.609 154.272 m 303.312 155.076 306.156 153.533 306.957 150.83 c 314.547
 125.287 l 315.348 122.584 313.809 119.74 311.105 118.936 c 308.398 118.135
 305.559 119.674 304.754 122.377 c 297.168 147.924 l 296.363 150.627 297.902
 153.471 300.609 154.272 c h
300.609 154.272 m f
344.648 141.643 m 342.652 143.639 339.422 143.639 337.426 141.643 c 318.582
 122.799 l 316.586 120.807 316.586 117.572 318.582 115.576 c 320.578 113.584
 323.809 113.584 325.805 115.576 c 344.648 134.42 l 346.645 136.416 346.645
 139.651 344.648 141.643 c h
344.648 141.643 m f
0.921569 0.188235 0.356863 rg
357.375 135.717 m 278.766 135.717 l 278.766 121.155 l 278.766 116.197 282.781
 112.178 287.738 112.178 c 348.402 112.178 l 353.359 112.178 357.375 116.194
 357.375 121.155 c h
357.375 135.717 m f
0.858824 0.164706 0.345098 rg
288.535 121.151 m 288.535 135.717 l 278.766 135.717 l 278.766 121.151 l
 278.766 116.194 282.781 112.178 287.738 112.178 c 297.512 112.178 l 292.555
 112.178 288.535 116.194 288.535 121.151 c h
288.535 121.151 m f
0.913725 0.894118 0.847059 rg
381.531 279.776 m 372.281 291.885 l 370.543 294.162 367.41 294.905 364.832
 293.658 c 340.98 282.1 l 336.133 279.752 330.242 281.155 326.973 285.436
 c 322.047 291.885 l 320.309 294.162 317.18 294.905 314.602 293.658 c 290.75
 282.1 l 285.902 279.752 280.012 281.155 276.742 285.436 c 271.816 291.885
 l 270.078 294.162 266.945 294.905 264.371 293.658 c 240.523 282.104 l 235.676
 279.752 229.781 281.155 226.512 285.436 c 221.594 291.885 l 219.855 294.162
 216.723 294.905 214.145 293.658 c 190.301 282.104 l 185.453 279.752 179.562
 281.155 176.293 285.44 c 171.375 291.881 l 169.637 294.158 166.504 294.905
 163.926 293.655 c 140.082 282.1 l 135.234 279.752 129.34 281.155 126.07
 285.436 c 116.828 297.541 l 121.066 300.776 l 130.309 288.67 l 132.047 
286.393 135.18 285.651 137.758 286.897 c 161.602 298.451 l 166.449 300.803
 172.34 299.397 175.609 295.115 c 180.527 288.674 l 182.266 286.397 185.398
 285.647 187.977 286.901 c 211.82 298.451 l 216.668 300.803 222.559 299.401
 225.828 295.119 c 230.75 288.67 l 232.488 286.393 235.621 285.651 238.199
 286.897 c 262.047 298.455 l 266.895 300.803 272.785 299.401 276.055 295.119
 c 280.98 288.67 l 282.719 286.393 285.852 285.651 288.426 286.897 c 312.277
 298.455 l 317.125 300.803 323.016 299.401 326.285 295.119 c 331.211 288.67
 l 332.949 286.393 336.078 285.647 338.656 286.897 c 362.508 298.455 l 367.355
 300.803 373.246 299.401 376.516 295.119 c 385.766 283.014 l h
381.531 279.776 m f
381.531 238.916 m 372.281 251.026 l 370.543 253.303 367.41 254.045 364.832
 252.799 c 340.98 241.24 l 336.133 238.893 330.242 240.295 326.973 244.576
 c 322.047 251.026 l 320.309 253.303 317.18 254.049 314.602 252.799 c 290.75
 241.244 l 285.902 238.893 280.012 240.295 276.742 244.576 c 271.816 251.026
 l 270.078 253.303 266.945 254.045 264.371 252.799 c 240.523 241.244 l 235.676
 238.893 229.781 240.295 226.512 244.58 c 221.594 251.026 l 219.855 253.303
 216.723 254.049 214.145 252.799 c 190.305 241.244 l 185.457 238.893 179.562
 240.295 176.293 244.58 c 171.375 251.022 l 169.637 253.299 166.504 254.045
 163.926 252.795 c 140.082 241.244 l 135.234 238.893 129.344 240.295 126.074
 244.576 c 116.832 256.682 l 121.066 259.916 l 130.309 247.811 l 132.047
 245.533 135.18 244.791 137.758 246.037 c 161.602 257.592 l 166.449 259.944
 172.344 258.537 175.609 254.256 c 180.531 247.815 l 182.27 245.537 185.402
 244.787 187.98 246.041 c 211.82 257.592 l 216.668 259.944 222.562 258.541
 225.828 254.26 c 230.75 247.811 l 232.492 245.533 235.621 244.791 238.199
 246.037 c 262.047 257.596 l 266.895 259.944 272.785 258.541 276.055 254.26
 c 280.98 247.811 l 282.719 245.533 285.852 244.791 288.43 246.037 c 312.277
 257.596 l 317.125 259.944 323.016 258.541 326.285 254.26 c 331.211 247.811
 l 332.949 245.533 336.082 244.787 338.66 246.037 c 362.512 257.596 l 367.359
 259.944 373.25 258.541 376.516 254.26 c 385.766 242.155 l h
381.531 238.916 m f
381.531 198.057 m 372.281 210.166 l 370.543 212.44 367.41 213.186 364.832
 211.94 c 340.98 200.381 l 336.133 198.033 330.242 199.436 326.973 203.717
 c 322.047 210.166 l 320.309 212.44 317.18 213.186 314.602 211.94 c 290.75
 200.381 l 285.902 198.033 280.012 199.436 276.742 203.717 c 271.816 210.166
 l 270.078 212.44 266.945 213.186 264.371 211.94 c 240.523 200.385 l 235.676
 198.033 229.781 199.436 226.512 203.717 c 221.594 210.166 l 219.855 212.44
 216.723 213.186 214.145 211.936 c 190.301 200.385 l 185.453 198.033 179.562
 199.44 176.293 203.721 c 171.375 210.162 l 169.637 212.44 166.504 213.186
 163.926 211.936 c 140.082 200.381 l 135.234 198.033 129.34 199.436 126.07
 203.717 c 116.828 215.822 l 121.066 219.057 l 130.309 206.951 l 132.047
 204.674 135.18 203.928 137.758 205.178 c 161.602 216.733 l 166.449 219.084
 172.34 217.678 175.609 213.397 c 180.527 206.955 l 182.266 204.678 185.398
 203.928 187.977 205.182 c 211.82 216.733 l 216.668 219.084 222.559 217.682
 225.828 213.397 c 230.75 206.951 l 232.488 204.674 235.621 203.932 238.199
 205.178 c 262.047 216.733 l 266.895 219.084 272.785 217.682 276.055 213.401
 c 280.98 206.951 l 282.719 204.674 285.852 203.928 288.426 205.178 c 312.277
 216.733 l 317.125 219.084 323.016 217.682 326.285 213.401 c 331.211 206.951
 l 332.949 204.674 336.078 203.928 338.656 205.178 c 362.508 216.733 l 367.355
 219.084 373.246 217.682 376.516 213.401 c 385.766 201.291 l h
381.531 198.057 m f
Q Q
showpage
%%Trailer
end restore
%%EOF
