%!PS-Adobe-3.0 EPSF-3.0
%%Creator: cairo 1.14.2 (http://cairographics.org)
%%CreationDate: Wed Jul 12 12:57:24 2017
%%Pages: 1
%%DocumentData: Clean7Bit
%%LanguageLevel: 2
%%BoundingBox: 0 -1 410 410
%%EndComments
%%BeginProlog
save
50 dict begin
/q { gsave } bind def
/Q { grestore } bind def
/cm { 6 array astore concat } bind def
/w { setlinewidth } bind def
/J { setlinecap } bind def
/j { setlinejoin } bind def
/M { setmiterlimit } bind def
/d { setdash } bind def
/m { moveto } bind def
/l { lineto } bind def
/c { curveto } bind def
/h { closepath } bind def
/re { exch dup neg 3 1 roll 5 3 roll moveto 0 rlineto
      0 exch rlineto 0 rlineto closepath } bind def
/S { stroke } bind def
/f { fill } bind def
/f* { eofill } bind def
/n { newpath } bind def
/W { clip } bind def
/W* { eoclip } bind def
/BT { } bind def
/ET { } bind def
/pdfmark where { pop globaldict /?pdfmark /exec load put }
    { globaldict begin /?pdfmark /pop load def /pdfmark
    /cleartomark load def end } ifelse
/BDC { mark 3 1 roll /BDC pdfmark } bind def
/EMC { mark /EMC pdfmark } bind def
/cairo_store_point { /cairo_point_y exch def /cairo_point_x exch def } def
/Tj { show currentpoint cairo_store_point } bind def
/TJ {
  {
    dup
    type /stringtype eq
    { show } { -0.001 mul 0 cairo_font_matrix dtransform rmoveto } ifelse
  } forall
  currentpoint cairo_store_point
} bind def
/cairo_selectfont { cairo_font_matrix aload pop pop pop 0 0 6 array astore
    cairo_font exch selectfont cairo_point_x cairo_point_y moveto } bind def
/Tf { pop /cairo_font exch def /cairo_font_matrix where
      { pop cairo_selectfont } if } bind def
/Td { matrix translate cairo_font_matrix matrix concatmatrix dup
      /cairo_font_matrix exch def dup 4 get exch 5 get cairo_store_point
      /cairo_font where { pop cairo_selectfont } if } bind def
/Tm { 2 copy 8 2 roll 6 array astore /cairo_font_matrix exch def
      cairo_store_point /cairo_font where { pop cairo_selectfont } if } bind def
/g { setgray } bind def
/rg { setrgbcolor } bind def
/d1 { setcachedevice } bind def
%%EndProlog
%%BeginSetup
%%EndSetup
%%Page: 1 1
%%BeginPageSetup
%%PageBoundingBox: 0 -1 410 410
%%EndPageSetup
q 0 -1 410 411 rectclip q
0.639216 0.345098 0.584314 rg
409.602 204.794 m 409.602 176.603 403.906 149.744 393.594 125.298 c 390.734
 118.501 387.508 111.892 383.957 105.497 c 381.379 100.861 378.625 96.333
 375.711 91.927 c 339.055 36.533 276.191 0.001 204.805 0.001 c 91.695 0.001
 0 91.685 0 204.794 c 0 230.486 4.734 255.072 13.367 277.732 c 18.102 290.138
 24 301.97 30.945 313.091 c 35.754 320.783 41.047 328.138 46.793 335.103
 c 53.098 342.732 59.949 349.911 67.277 356.544 c 103.625 389.509 151.875
 409.591 204.805 409.591 c 257.727 409.591 305.977 389.509 342.324 356.544
 c 348.285 351.146 353.926 345.396 359.211 339.329 c 390.59 303.349 409.602
 256.298 409.602 204.794 c h
409.602 204.794 m f
0.901961 g
359.211 339.329 m 358.934 341.763 l 357.984 350.185 350.859 356.544 342.387
 356.544 c 23.086 356.544 l 13.145 356.544 5.41 347.892 6.539 338.017 c 
13.367 277.732 l 30.652 125.298 l 383.484 125.298 l h
49.812 146.759 m 30.945 313.091 l 28.449 335.103 l 338.105 335.103 l 359.457
 146.759 l h
49.812 146.759 m f
0.258824 0.341176 0.498039 rg
49.812 146.755 m 28.453 335.099 l 338.102 335.099 l 359.461 146.755 l h
49.812 146.755 m f
0.215686 0.294118 0.419608 rg
338.102 335.099 m 329.938 335.099 l 351.297 146.755 l 359.461 146.755 l
 h
338.102 335.099 m f
0.901961 g
297.492 277.607 m 81.461 277.607 l 80.367 287.212 l 296.398 287.212 l h
297.492 277.607 m f
300.422 251.79 m 84.391 251.79 l 83.297 261.392 l 299.328 261.392 l h
300.422 251.79 m f
303.344 225.982 m 87.309 225.982 l 86.227 235.587 l 302.258 235.587 l h
303.344 225.982 m f
306.27 200.158 m 90.238 200.158 l 89.152 209.759 l 305.188 209.759 l h
306.27 200.158 m f
309.199 174.341 m 93.168 174.341 l 92.082 183.943 l 308.117 183.943 l h
309.199 174.341 m f
243.023 303.376 m 125.93 303.376 l 124.836 312.982 l 241.926 312.982 l 
h
243.023 303.376 m f
0.8 g
144.211 125.298 m 144.211 105.494 l 144.211 98.001 138.133 91.923 130.641
 91.923 c 41.594 91.923 l 35.555 91.923 30.652 96.822 30.652 102.865 c 30.652
 125.298 l h
144.211 125.298 m f
0.94902 g
393.594 125.298 m 390.734 118.501 387.508 111.892 383.957 105.497 c 381.379
 100.861 378.625 96.333 375.711 91.927 c 130.645 91.927 l 138.133 91.927
 144.207 98.001 144.207 105.497 c 144.207 125.298 l h
393.594 125.298 m f
0.8 g
366.219 125.302 m 366.219 117.732 360.082 111.595 352.512 111.595 c 288.738
 111.595 l 281.168 111.595 275.031 117.732 275.031 125.302 c h
366.219 125.302 m f
0.4 g
55.566 103.814 m 47.879 103.814 l 46.898 103.814 45.84 103.716 44.859 103.876
 c 42.613 104.244 40.906 106.216 40.84 108.486 c 40.773 110.806 42.453 112.896
 44.734 113.333 c 45.723 113.521 46.805 113.419 47.801 113.419 c 50.387 
113.419 52.98 113.486 55.562 113.419 c 58.129 113.353 60.297 111.369 60.367
 108.747 c 60.434 106.083 58.238 103.814 55.566 103.814 c h
55.566 103.814 m f
80.383 103.814 m 72.922 103.814 l 71.922 103.814 70.832 103.716 69.855 
103.954 c 67.688 104.49 66.148 106.521 66.207 108.747 c 66.27 110.974 67.914
 112.915 70.102 113.333 c 71.086 113.521 72.164 113.419 73.16 113.419 c 
75.645 113.419 78.168 113.56 80.648 113.411 c 83.16 113.263 85.188 111.142
 85.188 108.619 c 85.184 106.001 83 103.814 80.383 103.814 c h
80.383 103.814 m f
116.051 103.294 m 113.973 103.294 112.23 105.72 112.234 108.619 c 112.234
 111.521 113.973 113.927 116.051 113.935 c 118.133 113.943 119.867 111.513
 119.871 108.619 c 119.871 105.716 118.133 103.294 116.051 103.294 c h
116.051 103.294 m f
0.901961 g
383.957 105.497 m 381.379 100.861 378.625 96.333 375.711 91.927 c 130.645
 91.927 l 138.133 91.927 144.207 98.001 144.207 105.497 c h
383.957 105.497 m f
Q Q
showpage
%%Trailer
end restore
%%EOF
