%!PS-Adobe-3.0 EPSF-3.0
%%Creator: cairo 1.14.2 (http://cairographics.org)
%%CreationDate: Wed Jul 12 12:57:24 2017
%%Pages: 1
%%DocumentData: Clean7Bit
%%LanguageLevel: 2
%%BoundingBox: 0 -1 410 410
%%EndComments
%%BeginProlog
save
50 dict begin
/q { gsave } bind def
/Q { grestore } bind def
/cm { 6 array astore concat } bind def
/w { setlinewidth } bind def
/J { setlinecap } bind def
/j { setlinejoin } bind def
/M { setmiterlimit } bind def
/d { setdash } bind def
/m { moveto } bind def
/l { lineto } bind def
/c { curveto } bind def
/h { closepath } bind def
/re { exch dup neg 3 1 roll 5 3 roll moveto 0 rlineto
      0 exch rlineto 0 rlineto closepath } bind def
/S { stroke } bind def
/f { fill } bind def
/f* { eofill } bind def
/n { newpath } bind def
/W { clip } bind def
/W* { eoclip } bind def
/BT { } bind def
/ET { } bind def
/pdfmark where { pop globaldict /?pdfmark /exec load put }
    { globaldict begin /?pdfmark /pop load def /pdfmark
    /cleartomark load def end } ifelse
/BDC { mark 3 1 roll /BDC pdfmark } bind def
/EMC { mark /EMC pdfmark } bind def
/cairo_store_point { /cairo_point_y exch def /cairo_point_x exch def } def
/Tj { show currentpoint cairo_store_point } bind def
/TJ {
  {
    dup
    type /stringtype eq
    { show } { -0.001 mul 0 cairo_font_matrix dtransform rmoveto } ifelse
  } forall
  currentpoint cairo_store_point
} bind def
/cairo_selectfont { cairo_font_matrix aload pop pop pop 0 0 6 array astore
    cairo_font exch selectfont cairo_point_x cairo_point_y moveto } bind def
/Tf { pop /cairo_font exch def /cairo_font_matrix where
      { pop cairo_selectfont } if } bind def
/Td { matrix translate cairo_font_matrix matrix concatmatrix dup
      /cairo_font_matrix exch def dup 4 get exch 5 get cairo_store_point
      /cairo_font where { pop cairo_selectfont } if } bind def
/Tm { 2 copy 8 2 roll 6 array astore /cairo_font_matrix exch def
      cairo_store_point /cairo_font where { pop cairo_selectfont } if } bind def
/g { setgray } bind def
/rg { setrgbcolor } bind def
/d1 { setcachedevice } bind def
%%EndProlog
%%BeginSetup
%%EndSetup
%%Page: 1 1
%%BeginPageSetup
%%PageBoundingBox: 0 -1 410 410
%%EndPageSetup
q 0 -1 410 411 rectclip q
0.941176 0.627451 0.215686 rg
409.594 204.799 m 409.594 91.694 317.902 0.002 204.797 0.002 c 91.691 0.002
 0 91.694 0 204.799 c 0 317.905 91.691 409.596 204.797 409.596 c 317.902
 409.596 409.594 317.905 409.594 204.799 c h
409.594 204.799 m f
0.258824 0.341176 0.498039 rg
332.527 322.518 m 332.527 44.705 l 327.391 40.604 322.055 36.737 316.535
 33.151 c 312.488 30.502 308.34 27.998 304.094 25.643 c 301.461 24.178 298.797
 22.776 296.098 21.436 c 287.438 17.108 278.41 13.377 269.102 10.303 c 266.5
 9.444 263.879 8.635 261.234 7.881 c 257.93 6.928 254.582 6.069 251.203 
5.276 c 241.168 2.959 230.844 1.369 220.301 0.576 c 215.188 0.198 210.016
 0.002 204.801 0.002 c 199.59 0.002 194.418 0.198 189.301 0.576 c 178.758
 1.369 168.43 2.959 158.391 5.276 c 155.016 6.069 151.668 6.928 148.363 
7.881 c 145.715 8.635 143.086 9.444 140.492 10.303 c 131.176 13.377 122.16
 17.108 113.488 21.436 c 110.789 22.784 108.125 24.19 105.496 25.643 c 101.258
 27.998 97.109 30.494 93.07 33.143 c 87.555 36.741 82.215 40.596 77.078 
44.698 c 77.078 322.518 l 77.078 334.983 87.172 345.073 99.633 345.073 c
 309.973 345.073 l 322.426 345.073 332.527 334.979 332.527 322.518 c h
332.527 322.518 m f
0.117647 0.192157 0.376471 rg
316.535 322.518 m 316.535 33.151 l 312.488 30.502 308.34 27.998 304.094
 25.643 c 301.461 24.178 298.797 22.776 296.098 21.432 c 287.438 17.108 
278.41 13.377 269.102 10.303 c 266.5 9.444 263.879 8.635 261.234 7.877 c
 257.93 6.928 254.582 6.069 251.203 5.276 c 241.168 2.959 230.844 1.369 
220.301 0.576 c 215.188 0.198 210.016 -0.002 204.801 -0.002 c 199.59 -0.002
 194.418 0.194 189.301 0.576 c 178.758 1.369 168.43 2.959 158.391 5.276 
c 155.016 6.069 151.668 6.928 148.363 7.877 c 145.715 8.635 143.086 9.444
 140.492 10.303 c 131.176 13.377 122.16 17.108 113.488 21.432 c 110.789 
22.784 108.125 24.186 105.496 25.643 c 101.258 27.998 97.109 30.494 93.07
 33.139 c 93.07 322.518 l 93.07 326.143 96.008 329.084 99.633 329.084 c 
309.973 329.084 l 313.59 329.084 316.535 326.143 316.535 322.518 c h
316.535 322.518 m f
0.129412 0.564706 0.639216 rg
114.293 196.616 m 109.445 196.616 105.5 200.561 105.5 205.409 c 105.5 227.951
 l 105.5 232.799 109.445 236.748 114.293 236.748 c 139.695 236.748 l 144.543
 236.748 148.492 232.803 148.492 227.951 c 148.492 205.409 l 148.492 200.561
 144.547 196.616 139.695 196.616 c h
114.293 196.616 m f
114.293 147.608 m 109.445 147.608 105.5 151.553 105.5 156.405 c 105.5 178.94
 l 105.5 183.787 109.445 187.733 114.293 187.733 c 139.695 187.733 l 144.543
 187.733 148.492 183.787 148.492 178.94 c 148.492 156.405 l 148.492 151.557
 144.547 147.608 139.695 147.608 c h
114.293 147.608 m f
114.293 98.596 m 109.445 98.596 105.5 102.541 105.5 107.389 c 105.5 129.932
 l 105.5 134.78 109.445 138.725 114.293 138.725 c 139.695 138.725 l 144.543
 138.725 148.492 134.784 148.492 129.932 c 148.492 107.389 l 148.492 102.541
 144.547 98.596 139.695 98.596 c h
114.293 98.596 m f
114.293 49.592 m 109.445 49.592 105.5 53.534 105.5 58.385 c 105.5 80.92
 l 105.5 85.768 109.445 89.713 114.293 89.713 c 139.695 89.713 l 144.543
 89.713 148.492 85.768 148.492 80.92 c 148.492 58.385 l 148.492 53.537 144.547
 49.592 139.695 49.592 c h
114.293 49.592 m f
148.488 31.916 m 148.488 9.369 l 148.488 8.866 148.441 8.366 148.363 7.877
 c 145.715 8.635 143.086 9.44 140.492 10.303 c 131.176 13.377 122.16 17.108
 113.492 21.432 c 110.789 22.784 108.125 24.186 105.496 25.643 c 105.496
 31.916 l 105.496 36.764 109.449 40.709 114.289 40.709 c 139.695 40.709 
l 144.543 40.709 148.488 36.764 148.488 31.916 c h
148.488 31.916 m f
166.168 196.616 m 161.32 196.616 157.375 200.561 157.375 205.409 c 157.375
 227.951 l 157.375 232.799 161.32 236.748 166.168 236.748 c 191.562 236.748
 l 196.41 236.748 200.355 232.803 200.355 227.951 c 200.355 205.409 l 200.355
 200.561 196.41 196.616 191.562 196.616 c h
166.168 196.616 m f
166.168 147.608 m 161.32 147.608 157.375 151.553 157.375 156.405 c 157.375
 178.94 l 157.375 183.787 161.32 187.733 166.168 187.733 c 191.562 187.733
 l 196.41 187.733 200.355 183.787 200.355 178.94 c 200.355 156.405 l 200.355
 151.557 196.41 147.608 191.562 147.608 c h
166.168 147.608 m f
166.168 98.596 m 161.32 98.596 157.375 102.541 157.375 107.389 c 157.375
 129.932 l 157.375 134.78 161.32 138.725 166.168 138.725 c 191.562 138.725
 l 196.41 138.725 200.355 134.784 200.355 129.932 c 200.355 107.389 l 200.355
 102.541 196.41 98.596 191.562 98.596 c h
166.168 98.596 m f
166.168 49.592 m 161.32 49.592 157.375 53.534 157.375 58.385 c 157.375 
80.92 l 157.375 85.768 161.32 89.713 166.168 89.713 c 191.562 89.713 l 196.41
 89.713 200.355 85.768 200.355 80.92 c 200.355 58.385 l 200.355 53.537 196.41
 49.592 191.562 49.592 c h
166.168 49.592 m f
200.352 31.916 m 200.352 9.369 l 200.352 4.522 196.41 0.576 191.559 0.576
 c 189.305 0.576 l 178.758 1.366 168.43 2.959 158.391 5.276 c 157.734 6.502
 157.371 7.889 157.371 9.369 c 157.371 31.916 l 157.371 36.764 161.324 40.709
 166.164 40.709 c 191.559 40.709 l 196.41 40.709 200.352 36.764 200.352 
31.916 c h
200.352 31.916 m f
269.906 196.616 m 265.059 196.616 261.113 200.561 261.113 205.409 c 261.113
 227.951 l 261.113 232.799 265.059 236.748 269.906 236.748 c 295.301 236.748
 l 300.152 236.748 304.098 232.803 304.098 227.951 c 304.098 205.409 l 304.098
 200.561 300.152 196.616 295.301 196.616 c h
269.906 196.616 m f
269.906 147.608 m 265.059 147.608 261.113 151.553 261.113 156.405 c 261.113
 178.94 l 261.113 183.787 265.059 187.733 269.906 187.733 c 295.301 187.733
 l 300.152 187.733 304.098 183.787 304.098 178.94 c 304.098 156.405 l 304.098
 151.557 300.152 147.608 295.301 147.608 c h
269.906 147.608 m f
269.906 98.596 m 265.059 98.596 261.113 102.541 261.113 107.389 c 261.113
 129.932 l 261.113 134.78 265.059 138.725 269.906 138.725 c 295.301 138.725
 l 300.152 138.725 304.098 134.784 304.098 129.932 c 304.098 107.389 l 304.098
 102.541 300.152 98.596 295.301 98.596 c h
269.906 98.596 m f
269.906 49.592 m 265.059 49.592 261.113 53.534 261.113 58.385 c 261.113
 80.92 l 261.113 85.768 265.059 89.713 269.906 89.713 c 295.301 89.713 l
 300.152 89.713 304.098 85.768 304.098 80.92 c 304.098 58.385 l 304.098 
53.537 300.152 49.592 295.301 49.592 c h
269.906 49.592 m f
304.094 31.916 m 304.094 25.643 l 301.465 24.178 298.797 22.776 296.098
 21.432 c 287.438 17.108 278.414 13.377 269.105 10.303 c 266.5 9.44 263.879
 8.635 261.234 7.877 c 261.156 8.366 261.109 8.866 261.109 9.369 c 261.109
 31.916 l 261.109 36.764 265.062 40.709 269.902 40.709 c 295.301 40.709 
l 300.148 40.709 304.094 36.764 304.094 31.916 c h
304.094 31.916 m f
218.035 196.616 m 213.184 196.616 209.238 200.561 209.238 205.409 c 209.238
 227.951 l 209.238 232.799 213.184 236.748 218.035 236.748 c 243.438 236.748
 l 248.285 236.748 252.23 232.803 252.23 227.951 c 252.23 205.409 l 252.23
 200.561 248.285 196.616 243.438 196.616 c h
218.035 196.616 m f
218.035 147.608 m 213.184 147.608 209.238 151.553 209.238 156.405 c 209.238
 178.94 l 209.238 183.787 213.184 187.733 218.035 187.733 c 243.438 187.733
 l 248.285 187.733 252.23 183.787 252.23 178.94 c 252.23 156.405 l 252.23
 151.557 248.285 147.608 243.438 147.608 c h
218.035 147.608 m f
218.035 98.596 m 213.184 98.596 209.238 102.541 209.238 107.389 c 209.238
 129.932 l 209.238 134.78 213.184 138.725 218.035 138.725 c 243.438 138.725
 l 248.285 138.725 252.23 134.784 252.23 129.932 c 252.23 107.389 l 252.23
 102.541 248.285 98.596 243.438 98.596 c h
218.035 98.596 m f
218.035 49.592 m 213.184 49.592 209.238 53.534 209.238 58.385 c 209.238
 80.92 l 209.238 85.768 213.184 89.713 218.035 89.713 c 243.438 89.713 l
 248.285 89.713 252.23 85.768 252.23 80.92 c 252.23 58.385 l 252.23 53.537
 248.285 49.592 243.438 49.592 c h
218.035 49.592 m f
252.227 31.916 m 252.227 9.369 l 252.227 7.889 251.863 6.502 251.207 5.276
 c 241.168 2.955 230.848 1.366 220.305 0.576 c 218.031 0.576 l 213.188 0.576
 209.234 4.522 209.234 9.369 c 209.234 31.912 l 209.234 36.764 213.188 40.705
 218.031 40.705 c 243.434 40.705 l 248.281 40.709 252.227 36.764 252.227
 31.916 c h
252.227 31.916 m f
0.866667 0.917647 0.929412 rg
109.051 313.096 191.492 -62.43 re f
0.160784 0.611765 0.717647 rg
300.547 316.647 m 109.059 316.647 l 107.094 316.647 105.504 315.057 105.504
 313.092 c 105.504 250.666 l 105.504 248.701 107.094 247.116 109.059 247.116
 c 300.547 247.116 l 302.504 247.116 304.102 248.701 304.102 250.666 c 304.102
 313.092 l 304.102 315.057 302.504 316.647 300.547 316.647 c h
296.996 254.221 m 112.609 254.221 l 112.609 309.541 l 296.996 309.541 l
 h
296.996 254.221 m f
0.196078 0.666667 0.807843 rg
114.293 204.608 m 113.852 204.608 113.492 204.967 113.492 205.409 c 113.492
 227.951 l 113.492 228.393 113.852 228.752 114.293 228.752 c 139.695 228.752
 l 140.137 228.752 140.496 228.393 140.496 227.951 c 140.496 205.409 l 140.496
 204.967 140.137 204.608 139.695 204.608 c h
114.293 204.608 m f
114.293 155.604 m 113.852 155.604 113.492 155.963 113.492 156.405 c 113.492
 178.94 l 113.492 179.381 113.852 179.737 114.293 179.737 c 139.695 179.737
 l 140.137 179.737 140.496 179.377 140.496 178.94 c 140.496 156.405 l 140.496
 155.963 140.137 155.604 139.695 155.604 c h
114.293 155.604 m f
114.293 106.588 m 113.852 106.588 113.492 106.948 113.492 107.389 c 113.492
 129.932 l 113.492 130.373 113.852 130.733 114.293 130.733 c 139.695 130.733
 l 140.137 130.733 140.496 130.373 140.496 129.932 c 140.496 107.389 l 140.496
 106.948 140.137 106.588 139.695 106.588 c h
114.293 106.588 m f
114.293 57.584 m 113.852 57.584 113.492 57.944 113.492 58.385 c 113.492
 80.92 l 113.492 81.362 113.852 81.717 114.293 81.717 c 139.695 81.717 l
 140.137 81.717 140.496 81.358 140.496 80.92 c 140.496 58.385 l 140.496 
57.944 140.137 57.584 139.695 57.584 c h
114.293 57.584 m f
140.492 31.916 m 140.492 10.303 l 131.176 13.377 122.16 17.108 113.488 
21.432 c 113.488 31.916 l 113.488 32.35 113.855 32.713 114.289 32.713 c 
139.691 32.713 l 140.137 32.713 140.492 32.35 140.492 31.916 c h
140.492 31.916 m f
166.168 204.608 m 165.727 204.608 165.367 204.967 165.367 205.409 c 165.367
 227.951 l 165.367 228.393 165.727 228.752 166.168 228.752 c 191.562 228.752
 l 192.004 228.752 192.363 228.393 192.363 227.951 c 192.363 205.409 l 192.363
 204.967 192.004 204.608 191.562 204.608 c h
166.168 204.608 m f
166.168 155.604 m 165.727 155.604 165.367 155.963 165.367 156.405 c 165.367
 178.94 l 165.367 179.381 165.727 179.737 166.168 179.737 c 191.562 179.737
 l 192.004 179.737 192.363 179.377 192.363 178.94 c 192.363 156.405 l 192.363
 155.963 192.004 155.604 191.562 155.604 c h
166.168 155.604 m f
166.168 106.588 m 165.727 106.588 165.367 106.948 165.367 107.389 c 165.367
 129.932 l 165.367 130.373 165.727 130.733 166.168 130.733 c 191.562 130.733
 l 192.004 130.733 192.363 130.373 192.363 129.932 c 192.363 107.389 l 192.363
 106.948 192.004 106.588 191.562 106.588 c h
166.168 106.588 m f
166.168 57.584 m 165.727 57.584 165.367 57.944 165.367 58.385 c 165.367
 80.92 l 165.367 81.362 165.727 81.717 166.168 81.717 c 191.562 81.717 l
 192.004 81.717 192.363 81.358 192.363 80.92 c 192.363 58.385 l 192.363 
57.944 192.004 57.584 191.562 57.584 c h
166.168 57.584 m f
166.168 8.569 m 165.727 8.569 165.367 8.928 165.367 9.369 c 165.367 31.912
 l 165.367 32.354 165.727 32.713 166.168 32.713 c 191.562 32.713 l 192.004
 32.713 192.363 32.354 192.363 31.912 c 192.363 9.369 l 192.363 8.928 192.004
 8.569 191.562 8.569 c h
166.168 8.569 m f
269.906 204.608 m 269.469 204.608 269.109 204.967 269.109 205.409 c 269.109
 227.951 l 269.109 228.393 269.469 228.752 269.906 228.752 c 295.301 228.752
 l 295.742 228.752 296.102 228.393 296.102 227.951 c 296.102 205.409 l 296.102
 204.967 295.742 204.608 295.301 204.608 c h
269.906 204.608 m f
269.906 155.604 m 269.469 155.604 269.109 155.963 269.109 156.405 c 269.109
 178.94 l 269.109 179.381 269.469 179.737 269.906 179.737 c 295.301 179.737
 l 295.742 179.737 296.102 179.377 296.102 178.94 c 296.102 156.405 l 296.102
 155.963 295.742 155.604 295.301 155.604 c h
269.906 155.604 m f
269.906 106.588 m 269.469 106.588 269.109 106.948 269.109 107.389 c 269.109
 129.932 l 269.109 130.373 269.469 130.733 269.906 130.733 c 295.301 130.733
 l 295.742 130.733 296.102 130.373 296.102 129.932 c 296.102 107.389 l 296.102
 106.948 295.742 106.588 295.301 106.588 c h
269.906 106.588 m f
269.906 57.584 m 269.469 57.584 269.109 57.944 269.109 58.385 c 269.109
 80.92 l 269.109 81.362 269.469 81.717 269.906 81.717 c 295.301 81.717 l
 295.742 81.717 296.102 81.358 296.102 80.92 c 296.102 58.385 l 296.102 
57.944 295.742 57.584 295.301 57.584 c h
269.906 57.584 m f
296.098 31.916 m 296.098 21.432 l 287.438 17.108 278.414 13.377 269.105
 10.303 c 269.105 31.916 l 269.105 32.35 269.469 32.713 269.902 32.713 c
 295.297 32.713 l 295.742 32.713 296.098 32.35 296.098 31.916 c h
296.098 31.916 m f
218.035 204.608 m 217.594 204.608 217.234 204.967 217.234 205.409 c 217.234
 227.951 l 217.234 228.393 217.594 228.752 218.035 228.752 c 243.438 228.752
 l 243.879 228.752 244.234 228.393 244.234 227.951 c 244.234 205.409 l 244.234
 204.967 243.875 204.608 243.438 204.608 c h
218.035 204.608 m f
218.035 155.604 m 217.594 155.604 217.234 155.963 217.234 156.405 c 217.234
 178.94 l 217.234 179.381 217.594 179.737 218.035 179.737 c 243.438 179.737
 l 243.879 179.737 244.234 179.377 244.234 178.94 c 244.234 156.405 l 244.234
 155.963 243.875 155.604 243.438 155.604 c h
218.035 155.604 m f
218.035 106.588 m 217.594 106.588 217.234 106.948 217.234 107.389 c 217.234
 129.932 l 217.234 130.373 217.594 130.733 218.035 130.733 c 243.438 130.733
 l 243.879 130.733 244.234 130.373 244.234 129.932 c 244.234 107.389 l 244.234
 106.948 243.875 106.588 243.438 106.588 c h
218.035 106.588 m f
218.035 57.584 m 217.594 57.584 217.234 57.944 217.234 58.385 c 217.234
 80.92 l 217.234 81.362 217.594 81.717 218.035 81.717 c 243.438 81.717 l
 243.879 81.717 244.234 81.358 244.234 80.92 c 244.234 58.385 l 244.234 
57.944 243.875 57.584 243.438 57.584 c h
218.035 57.584 m f
218.035 8.569 m 217.594 8.569 217.234 8.928 217.234 9.369 c 217.234 31.912
 l 217.234 32.354 217.594 32.713 218.035 32.713 c 243.438 32.713 l 243.879
 32.713 244.234 32.354 244.234 31.912 c 244.234 9.369 l 244.234 8.928 243.875
 8.569 243.438 8.569 c h
218.035 8.569 m f
0.513726 0.545098 0.54902 rg
177.559 276.401 m 176.176 276.401 175.695 275.608 175.695 274.526 c 175.695
 266.967 l 172.062 266.967 l 172.062 292.334 l 162.824 292.334 l 161.848
 292.334 160.949 291.811 160.949 290.459 c 160.949 289.119 161.844 288.596
 162.824 288.596 c 168.32 288.596 l 168.32 266.967 l 162.824 266.967 l 161.848
 266.967 160.949 266.44 160.949 265.092 c 160.949 263.748 161.844 263.225
 162.824 263.225 c 177.559 263.225 l 178.535 263.225 179.434 263.748 179.434
 265.092 c 179.434 274.526 l 179.434 275.608 178.945 276.401 177.559 276.401
 c h
177.559 276.401 m f
202.184 275.912 m 203.418 275.912 204.277 276.096 205.211 276.959 c 206.258
 277.928 206.375 278.94 206.375 280.291 c 206.375 287.955 l 206.375 289.307
 206.262 290.319 205.211 291.287 c 204.277 292.151 203.418 292.334 202.184
 292.334 c 189.766 292.334 l 188.789 292.334 187.891 291.811 187.891 290.459
 c 187.891 289.119 188.789 288.596 189.766 288.596 c 202.637 288.596 l 202.637
 279.651 l 192.121 279.651 l 189.312 279.651 187.891 278.229 187.891 275.424
 c 187.891 263.225 l 204.5 263.225 l 205.477 263.225 206.375 263.752 206.375
 265.092 c 206.375 266.444 205.48 266.967 204.5 266.967 c 191.629 266.967
 l 191.629 275.912 l h
202.184 275.912 m f
233.316 288.596 m 233.316 290.729 231.707 292.334 229.578 292.334 c 216.707
 292.334 l 215.73 292.334 214.832 291.811 214.832 290.459 c 214.832 289.119
 215.727 288.596 216.707 288.596 c 229.578 288.596 l 229.578 282.385 l 229.578
 280.291 228.75 279.651 227.703 279.651 c 220.375 279.651 l 219.398 279.651
 218.5 279.127 218.5 277.776 c 218.5 276.432 219.398 275.909 220.375 275.909
 c 227.703 275.909 l 228.75 275.909 229.578 275.272 229.578 273.174 c 229.578
 266.963 l 216.707 266.963 l 215.73 266.963 214.832 266.44 214.832 265.092
 c 214.832 263.748 215.727 263.225 216.707 263.225 c 229.578 263.225 l 231.707
 263.225 233.316 264.834 233.316 266.963 c 233.316 274.151 l 233.316 275.643
 233.012 276.737 231.859 277.776 c 233.012 278.823 233.316 279.916 233.316
 281.409 c h
233.316 288.596 m f
258.383 276.471 m 258.383 287.28 l 258.383 288.221 257.938 289.155 256.516
 289.155 c 255.094 289.155 254.641 288.221 254.641 287.28 c 254.641 276.471
 l 247.387 276.471 l 247.387 290.459 l 247.387 291.401 246.934 292.334 245.512
 292.334 c 244.09 292.334 243.645 291.401 243.645 290.459 c 243.645 272.733
 l 254.641 272.733 l 254.641 265.092 l 254.641 263.901 255.168 263.225 256.516
 263.225 c 257.859 263.225 258.383 263.901 258.383 265.092 c 258.383 272.733
 l 259.359 272.733 260.258 273.256 260.258 274.596 c 260.258 275.948 259.359
 276.471 258.383 276.471 c h
258.383 276.471 m f
283.039 279.651 m 276.156 279.651 l 276.156 288.596 l 285.324 288.596 l
 286.301 288.596 287.199 289.119 287.199 290.459 c 287.199 291.811 286.301
 292.334 285.324 292.334 c 272.418 292.334 l 272.418 275.912 l 283.457 275.912
 l 283.457 266.967 l 274.816 266.967 l 274.211 266.967 273.359 267.491 272.824
 267.713 c 271.707 268.201 l 271.297 268.389 270.961 268.502 270.508 268.502
 c 269.539 268.502 268.711 267.608 268.711 266.631 c 268.711 265.323 269.832
 264.987 270.844 264.534 c 272.266 263.905 l 273.207 263.487 273.766 263.229
 274.734 263.229 c 283.043 263.229 l 284.391 263.229 285.367 263.377 286.301
 264.498 c 287.082 265.432 287.199 266.256 287.199 267.42 c 287.199 275.424
 l 287.199 276.737 287.082 277.635 286.043 278.604 c 285.137 279.463 284.238
 279.651 283.039 279.651 c h
283.039 279.651 m f
132.223 290.807 m 131.91 301.041 l 131.887 302.186 131.945 303.049 131.211
 304.006 c 130.625 304.772 129.727 305.205 128.742 305.205 c 127.445 305.205
 127.07 304.893 126.148 303.971 c 125.898 303.721 l 125.223 304.655 124.328
 305.205 123.188 305.205 c 122.168 305.205 121.707 304.807 120.934 304.221
 c 120.691 304.034 l 120.508 304.709 120.008 305.205 119.27 305.205 c 118.008
 305.205 117.727 304.159 117.727 303.112 c 117.727 290.623 l 117.727 289.6
 117.949 288.588 119.207 288.588 c 120.469 288.588 120.691 289.6 120.691
 290.623 c 120.691 300.241 l 121.98 301.44 l 122.23 301.662 122.449 301.94
 122.789 301.94 c 123.562 301.94 123.5 301.014 123.5 300.518 c 123.5 290.623
 l 123.5 289.6 123.711 288.588 124.973 288.588 c 126.242 288.588 126.457
 289.6 126.457 290.623 c 126.457 300.241 l 127.07 300.916 l 127.316 301.201
 127.875 301.94 128.305 301.94 c 129.102 301.94 128.953 300.889 128.988 
300.366 c 129.289 290.588 l 129.324 289.6 129.566 288.588 130.773 288.588
 c 132.098 288.588 132.258 289.76 132.223 290.807 c h
132.223 290.807 m f
Q Q
showpage
%%Trailer
end restore
%%EOF
