%!PS-Adobe-3.0 EPSF-3.0
%%Creator: cairo 1.14.2 (http://cairographics.org)
%%CreationDate: Wed Jul 12 12:57:24 2017
%%Pages: 1
%%DocumentData: Clean7Bit
%%LanguageLevel: 2
%%BoundingBox: 0 -1 410 410
%%EndComments
%%BeginProlog
save
50 dict begin
/q { gsave } bind def
/Q { grestore } bind def
/cm { 6 array astore concat } bind def
/w { setlinewidth } bind def
/J { setlinecap } bind def
/j { setlinejoin } bind def
/M { setmiterlimit } bind def
/d { setdash } bind def
/m { moveto } bind def
/l { lineto } bind def
/c { curveto } bind def
/h { closepath } bind def
/re { exch dup neg 3 1 roll 5 3 roll moveto 0 rlineto
      0 exch rlineto 0 rlineto closepath } bind def
/S { stroke } bind def
/f { fill } bind def
/f* { eofill } bind def
/n { newpath } bind def
/W { clip } bind def
/W* { eoclip } bind def
/BT { } bind def
/ET { } bind def
/pdfmark where { pop globaldict /?pdfmark /exec load put }
    { globaldict begin /?pdfmark /pop load def /pdfmark
    /cleartomark load def end } ifelse
/BDC { mark 3 1 roll /BDC pdfmark } bind def
/EMC { mark /EMC pdfmark } bind def
/cairo_store_point { /cairo_point_y exch def /cairo_point_x exch def } def
/Tj { show currentpoint cairo_store_point } bind def
/TJ {
  {
    dup
    type /stringtype eq
    { show } { -0.001 mul 0 cairo_font_matrix dtransform rmoveto } ifelse
  } forall
  currentpoint cairo_store_point
} bind def
/cairo_selectfont { cairo_font_matrix aload pop pop pop 0 0 6 array astore
    cairo_font exch selectfont cairo_point_x cairo_point_y moveto } bind def
/Tf { pop /cairo_font exch def /cairo_font_matrix where
      { pop cairo_selectfont } if } bind def
/Td { matrix translate cairo_font_matrix matrix concatmatrix dup
      /cairo_font_matrix exch def dup 4 get exch 5 get cairo_store_point
      /cairo_font where { pop cairo_selectfont } if } bind def
/Tm { 2 copy 8 2 roll 6 array astore /cairo_font_matrix exch def
      cairo_store_point /cairo_font where { pop cairo_selectfont } if } bind def
/g { setgray } bind def
/rg { setrgbcolor } bind def
/d1 { setcachedevice } bind def
%%EndProlog
%%BeginSetup
%%EndSetup
%%Page: 1 1
%%BeginPageSetup
%%PageBoundingBox: 0 -1 410 410
%%EndPageSetup
q 0 -1 410 411 rectclip q
0.666667 0.313726 0.0745098 rg
409.602 204.794 m 409.602 182.669 406.09 161.369 399.605 141.411 c 398.957
 139.411 398.273 137.431 397.562 135.458 c 394.348 126.505 390.512 117.833
 386.125 109.513 c 379.934 97.744 372.621 86.65 364.336 76.372 c 358.418
 69.017 351.996 62.087 345.121 55.63 c 343.602 54.193 342.059 52.79 340.492
 51.404 c 304.359 19.419 256.848 0.001 204.805 0.001 c 179.195 0.001 154.68
 4.701 132.082 13.286 c 54.875 42.619 0 117.294 0 204.794 c 0 283.04 43.891
 351.048 108.387 385.509 c 137.121 400.876 169.941 409.591 204.805 409.591
 c 205.398 409.591 l 224.656 409.536 243.293 406.822 260.953 401.79 c 296.375
 391.72 327.891 372.345 352.672 346.47 c 354.34 344.732 355.977 342.962 
357.574 341.169 c 376.301 320.216 390.777 295.388 399.645 268.029 c 400.391
 265.74 401.09 263.431 401.758 261.103 c 406.863 243.212 409.602 224.318
 409.602 204.794 c h
409.602 204.794 m f
0.8 g
312.992 253.029 m 307.266 258.755 303.363 265.622 301.285 272.896 c 258.996
 230.607 l 258.988 230.607 l 251.73 223.353 l 234.012 205.622 l 227.418 
199.029 l 220.172 191.775 l 220.164 191.775 l 205.398 177.013 l 124.113 
95.728 l 141.551 78.29 169.824 78.29 187.262 95.728 c 205.398 113.865 l 
251.73 160.204 l 251.738 160.204 l 258.996 167.454 l 265.586 174.044 l 283.309
 191.775 l 283.316 191.775 l 290.566 199.029 l 311.723 220.189 l 320.953
 229.408 l 324.344 232.802 l 331.902 240.361 l 332.855 241.322 l 332.855
 241.329 l 325.578 243.4 318.723 247.306 312.992 253.029 c h
267.188 198.15 m 267.168 198.017 267.16 197.884 267.133 197.759 c 267.113
 197.654 267.098 197.556 267.078 197.458 c 267.062 197.333 267.035 197.216
 267.008 197.103 c 266.945 196.845 266.875 196.587 266.777 196.337 c 266.73
 196.177 266.66 196.017 266.598 195.869 c 266.527 195.673 266.438 195.478
 266.332 195.29 c 265.961 194.536 265.453 193.833 264.824 193.204 c 264.652
 193.033 264.484 192.872 264.309 192.732 c 264.297 192.724 264.297 192.716
 264.289 192.716 c 264.121 192.572 263.941 192.431 263.766 192.306 c 263.508
 192.119 263.242 191.958 262.965 191.81 c 262.844 191.736 262.719 191.677
 262.594 191.615 c 262.547 191.587 262.504 191.568 262.461 191.552 c 262.273
 191.462 262.086 191.384 261.898 191.322 c 261.855 191.302 261.812 191.286
 261.758 191.275 c 261.738 191.267 261.723 191.267 261.703 191.259 c 261.652
 191.232 261.59 191.212 261.527 191.197 c 261.332 191.134 261.125 191.072
 260.914 191.017 c 260.887 191.009 260.867 191.009 260.844 191.001 c 260.762
 190.982 260.691 190.966 260.609 190.947 c 260.574 190.939 260.539 190.927
 260.504 190.927 c 260.469 190.919 260.434 190.919 260.398 190.911 c 260.258
 190.884 260.113 190.865 259.965 190.857 c 259.953 190.849 259.945 190.849
 259.93 190.849 c 259.93 190.849 259.93 190.841 259.918 190.849 c 259.758
 190.829 259.609 190.822 259.449 190.802 c 259.031 190.786 258.613 190.786
 258.195 190.829 c 258.027 190.849 257.867 190.876 257.715 190.892 c 257.477
 190.927 257.246 190.982 257.023 191.036 c 256.941 191.052 256.871 191.072
 256.793 191.087 c 256.766 191.099 256.738 191.107 256.711 191.115 c 256.605
 191.142 256.508 191.177 256.402 191.212 c 256.242 191.259 256.082 191.31
 255.93 191.372 c 255.672 191.478 255.406 191.595 255.156 191.728 c 254.438
 192.111 253.762 192.599 253.16 193.201 c 253.055 193.31 252.945 193.423
 252.848 193.54 c 252.59 193.826 252.352 194.126 252.137 194.454 c 252.047
 194.579 251.969 194.704 251.891 194.837 c 251.871 194.872 251.855 194.9
 251.836 194.935 c 251.738 195.111 251.641 195.29 251.551 195.478 c 251.48
 195.619 251.418 195.767 251.355 195.919 c 251.348 195.927 l 251.312 196.025
 251.277 196.122 251.242 196.232 c 251.207 196.329 251.168 196.427 251.145
 196.525 c 251.098 196.638 251.062 196.763 251.035 196.888 c 251.027 196.915
 251.02 196.943 251.012 196.966 c 251 197.001 250.992 197.029 250.984 197.056
 c 250.984 197.064 l 250.977 197.111 250.965 197.154 250.957 197.208 c 250.922
 197.349 250.887 197.501 250.867 197.654 c 250.852 197.697 250.852 197.732
 250.844 197.775 c 250.844 197.81 250.832 197.849 250.824 197.892 c 250.816
 197.962 250.809 198.025 250.809 198.095 c 250.781 198.247 250.773 198.396
 250.773 198.548 c 250.773 198.638 250.762 198.716 250.762 198.806 c 250.746
 199.036 250.754 199.267 250.762 199.49 c 250.781 199.65 250.789 199.81 
250.809 199.958 c 250.824 200.095 250.844 200.228 250.863 200.353 c 250.863
 200.431 250.879 200.513 250.898 200.583 c 250.898 200.599 250.906 200.611
 250.906 200.619 c 250.906 200.626 l 250.906 200.646 250.914 200.661 250.922
 200.689 c 250.957 200.876 251.004 201.06 251.059 201.247 c 251.059 201.275
 251.066 201.302 251.074 201.329 c 251.121 201.478 251.164 201.622 251.219
 201.763 c 251.234 201.826 251.262 201.88 251.277 201.939 c 251.297 201.978
 251.312 202.021 251.332 202.056 c 251.332 202.083 251.34 202.111 251.359
 202.134 c 251.422 202.279 251.484 202.419 251.547 202.564 c 251.555 202.599
 251.57 202.634 251.598 202.669 c 251.633 202.74 251.672 202.81 251.715 
202.88 c 251.742 202.954 251.777 203.025 251.82 203.095 c 251.84 203.13 
251.863 203.173 251.891 203.22 c 251.945 203.306 252 203.388 252.062 203.478
 c 252.184 203.669 252.309 203.857 252.453 204.036 c 252.586 204.212 252.727
 204.38 252.879 204.552 c 252.969 204.658 253.066 204.755 253.164 204.853
 c 253.312 205.001 253.465 205.146 253.625 205.279 c 253.676 205.322 253.73
 205.369 253.785 205.411 c 253.82 205.447 253.855 205.474 253.891 205.501
 c 254.078 205.642 254.262 205.775 254.461 205.911 c 254.691 206.06 254.922
 206.201 255.16 206.326 c 255.641 206.576 256.137 206.779 256.645 206.931
 c 256.902 207.001 257.16 207.064 257.418 207.119 c 258.457 207.322 259.531
 207.322 260.57 207.119 c 260.652 207.099 260.738 207.083 260.82 207.056
 c 260.898 207.036 260.988 207.021 261.066 206.994 c 261.094 206.994 261.121
 206.986 261.148 206.974 c 261.164 206.974 l 261.227 206.966 261.281 206.951
 261.344 206.931 c 261.371 206.923 261.387 206.911 261.414 206.904 c 261.449
 206.888 261.496 206.876 261.539 206.861 c 261.812 206.779 262.078 206.673
 262.336 206.556 c 262.348 206.556 l 262.383 206.54 262.426 206.521 262.461
 206.501 c 262.863 206.318 263.262 206.095 263.633 205.837 c 263.777 205.74
 263.91 205.642 264.051 205.533 c 264.105 205.497 264.148 205.454 264.203
 205.419 c 264.281 205.349 264.363 205.279 264.441 205.204 c 264.566 205.099
 264.691 204.986 264.809 204.861 c 264.816 204.861 264.816 204.861 264.824
 204.853 c 264.922 204.755 265.02 204.646 265.117 204.54 c 265.242 204.396
 265.359 204.255 265.473 204.103 c 265.59 203.97 265.688 203.837 265.766
 203.697 c 265.879 203.564 265.969 203.419 266.039 203.279 c 266.121 203.134
 266.199 202.986 266.281 202.845 c 266.371 202.701 266.441 202.552 266.504
 202.392 c 266.707 201.954 266.859 201.513 266.965 201.048 c 266.98 201.005
 266.992 200.951 267.008 200.896 c 267.043 200.763 267.07 200.622 267.09
 200.482 c 267.23 199.724 267.266 198.943 267.188 198.15 c h
267.188 198.15 m f
0.333333 0.776471 0.631373 rg
205.398 409.591 m 205.398 13.286 l 132.082 13.286 l 54.875 42.619 0 117.294
 0 204.794 c 0 283.04 43.891 351.048 108.387 385.509 c 137.121 400.876 169.941
 409.591 204.805 409.591 c 204.805 409.591 205.398 409.591 205.398 409.591
 c h
205.398 409.591 m f
0.701961 g
251.73 223.353 m 234.012 205.622 l 227.418 199.029 l 220.172 191.775 l 
251.73 160.204 l 251.738 160.204 l 258.996 167.454 l 265.59 174.044 l 283.309
 191.775 l h
245.914 185.947 m 243.371 188.478 242.832 192.263 244.305 195.326 c 244.688
 196.142 245.23 196.915 245.914 197.599 c 247.289 198.978 249.012 199.767
 250.797 199.962 c 250.816 199.962 l 253.207 200.236 255.703 199.466 257.539
 197.626 c 257.566 197.599 l 258.82 196.357 259.582 194.81 259.859 193.204
 c 259.848 193.193 259.848 193.193 259.859 193.193 c 260 192.423 260.02 
191.63 259.93 190.849 c 259.93 190.833 l 259.727 189.048 258.934 187.314
 257.566 185.947 c 256.883 185.263 256.121 184.728 255.293 184.337 c 252.227
 182.865 248.445 183.408 245.914 185.947 c h
245.914 185.947 m f
0.254902 0.666667 0.517647 rg
180.75 295.822 m 167.988 308.587 149.422 312.005 133.547 306.083 c 130.512
 304.954 127.57 303.482 124.789 301.658 c 122.25 299.997 119.832 298.052
 117.605 295.822 c 205.398 208.029 l 205.398 271.173 l h
180.75 295.822 m f
0.8 g
331.906 157.701 m 324.336 165.259 l 187.262 302.333 l 172.082 317.513 148.703
 319.478 131.398 308.232 c 128.824 306.564 126.379 304.599 124.113 302.333
 c 205.398 221.052 l 227.418 199.029 l 292.77 133.681 l 295.078 131.372 
l 301.285 125.161 l 303.363 132.439 307.266 139.294 312.992 145.025 c 317.934
 149.962 323.707 153.544 329.863 155.755 c 330.855 156.119 331.852 156.447
 332.855 156.732 c 332.855 156.74 l h
331.906 157.701 m f
0.501961 g
253.164 204.861 m 250.719 202.419 250.059 198.595 251.555 195.478 c 253.023
 192.408 256.332 190.521 259.723 190.822 c 263.203 191.126 266.191 193.701
 267.008 197.099 c 267.805 200.404 266.438 203.931 263.633 205.845 c 260.402
 208.056 255.926 207.626 253.164 204.861 c h
253.164 204.861 m f
0.4 g
258.215 195.478 m 256.723 198.595 257.383 202.419 259.828 204.861 c 260.562
 205.595 261.422 206.161 262.344 206.56 c 259.289 207.908 255.574 207.275
 253.164 204.861 c 250.719 202.419 250.059 198.595 251.555 195.478 c 253.023
 192.408 256.332 190.521 259.723 190.822 c 260.637 190.9 261.516 191.142
 262.332 191.509 c 260.566 192.294 259.074 193.681 258.215 195.478 c h
258.215 195.478 m f
0.701961 g
300.32 271.935 m 302.324 255.439 315.402 242.369 331.902 240.365 c 311.727
 220.185 l 297.633 226.357 286.312 237.673 280.152 251.767 c h
300.32 271.935 m f
0.878431 0.568627 0.196078 rg
388.887 328.927 m 378.734 339.091 365.906 344.935 352.672 346.47 c 334.703
 348.568 315.977 342.716 302.191 328.927 c 283.824 310.56 279.543 283.431
 289.367 260.986 c 289.367 260.978 l 292.352 254.173 296.621 247.806 302.191
 242.236 c 307.762 236.665 314.148 232.384 320.953 229.408 c 343.398 219.595
 370.516 223.865 388.887 242.236 c 394.492 247.841 398.781 254.255 401.758
 261.103 c 411.508 283.521 407.219 310.595 388.887 328.927 c h
371.176 311.216 m 385.332 297.06 385.332 274.107 371.176 259.947 c 357.016
 245.79 334.062 245.79 319.906 259.947 c 305.746 274.107 305.746 297.06 
319.906 311.216 c 334.062 325.376 357.016 325.376 371.176 311.216 c h
371.176 311.216 m f
0.941176 0.627451 0.215686 rg
385.742 325.794 m 377.906 333.634 368.254 338.896 357.574 341.169 c 355.797
 341.552 353.988 341.845 352.156 342.056 c 349.973 342.314 347.742 342.447
 345.539 342.447 c 330.352 342.447 316.074 336.533 305.328 325.783 c 289.055
 309.513 284.223 285.583 292.77 264.38 c 292.973 263.837 293.203 263.306
 293.434 262.771 c 293.602 262.372 l 296.438 256.036 300.379 250.326 305.328
 245.38 c 310.391 240.318 316.246 236.31 322.73 233.478 c 323.262 233.247
 323.805 233.017 324.344 232.802 c 331.086 230.091 338.211 228.724 345.539
 228.724 c 345.547 228.724 l 360.727 228.724 375.004 234.642 385.742 245.38
 c 390.832 250.458 394.848 256.349 397.688 262.869 c 398.426 264.576 399.074
 266.29 399.645 268.029 c 406.262 288.298 401.074 310.462 385.742 325.794
 c h
374.309 256.802 m 366.625 249.119 356.41 244.884 345.539 244.884 c 334.668
 244.884 324.453 249.119 316.762 256.802 c 309.078 264.494 304.84 274.708
 304.84 285.583 c 304.84 296.454 309.078 306.669 316.762 314.361 c 324.453
 322.044 334.668 326.283 345.539 326.283 c 356.41 326.283 366.625 322.044
 374.309 314.361 c 382 306.669 386.23 296.454 386.23 285.583 c 386.23 274.708
 382 264.494 374.309 256.802 c h
374.309 256.802 m f
0.901961 g
304.324 135.306 m 295.078 131.372 l 289.375 137.076 l 227.418 199.029 l
 205.398 221.052 l 124.113 302.333 l 126.379 304.599 128.824 306.564 131.398
 308.232 c h
304.324 135.306 m f
0.878431 0.568627 0.196078 rg
388.887 155.833 m 370.516 174.212 343.391 178.478 320.941 168.654 c 314.141
 165.685 307.762 161.404 302.191 155.833 c 299.039 152.681 296.293 149.263
 293.977 145.654 c 292.191 142.9 290.664 140.025 289.375 137.076 c 279.551
 114.638 283.812 87.509 302.191 69.142 c 312.879 58.462 326.531 52.548 340.496
 51.404 c 342.059 52.786 343.602 54.193 345.121 55.63 c 351.996 62.087 358.418
 69.017 364.336 76.372 c 372.621 86.65 379.934 97.744 386.125 109.513 c 
390.512 117.833 394.348 126.505 397.566 135.458 c 398.273 137.431 398.961
 139.411 399.609 141.408 c 396.836 146.595 393.258 151.466 388.887 155.833
 c h
371.176 86.853 m 357.016 72.693 334.062 72.693 319.906 86.853 c 305.746
 101.013 305.746 123.962 319.906 138.122 c 334.062 152.283 357.016 152.283
 371.176 138.122 c 385.332 123.962 385.332 101.013 371.176 86.853 c h
371.176 86.853 m f
0.941176 0.627451 0.215686 rg
397.562 135.458 m 396.996 136.755 396.363 138.044 395.691 139.314 c 393.078
 144.208 389.73 148.712 385.742 152.701 c 375.012 163.439 360.738 169.345
 345.547 169.345 c 338.211 169.345 331.086 167.978 324.336 165.259 c 323.793
 165.048 323.254 164.814 322.719 164.583 c 316.254 161.759 310.398 157.763
 305.336 152.689 c 302.199 149.564 299.48 146.134 297.191 142.439 c 295.77
 140.15 294.527 137.767 293.441 135.29 c 293.211 134.755 292.98 134.216 
292.766 133.681 c 284.223 112.47 289.055 88.548 305.328 72.286 c 314.848
 62.771 327.461 56.927 340.855 55.826 c 342.262 55.712 343.699 55.65 345.121
 55.63 c 351.996 62.087 358.418 69.017 364.332 76.372 c 358.605 73.38 352.191
 71.79 345.539 71.79 c 334.668 71.79 324.453 76.025 316.758 83.708 c 309.074
 91.4 304.84 101.615 304.84 112.49 c 304.84 123.361 309.074 133.576 316.758
 141.267 c 324.453 148.951 334.668 153.189 345.539 153.189 c 356.41 153.189
 366.625 148.951 374.309 141.267 c 382 133.576 386.23 123.361 386.23 112.49
 c 386.23 111.494 386.195 110.497 386.121 109.513 c 390.512 117.833 394.348
 126.505 397.562 135.458 c h
397.562 135.458 m f
Q Q
showpage
%%Trailer
end restore
%%EOF
