%!PS-Adobe-3.0 EPSF-3.0
%%Creator: cairo 1.14.2 (http://cairographics.org)
%%CreationDate: Wed Jul 12 12:57:24 2017
%%Pages: 1
%%DocumentData: Clean7Bit
%%LanguageLevel: 2
%%BoundingBox: 0 -1 410 410
%%EndComments
%%BeginProlog
save
50 dict begin
/q { gsave } bind def
/Q { grestore } bind def
/cm { 6 array astore concat } bind def
/w { setlinewidth } bind def
/J { setlinecap } bind def
/j { setlinejoin } bind def
/M { setmiterlimit } bind def
/d { setdash } bind def
/m { moveto } bind def
/l { lineto } bind def
/c { curveto } bind def
/h { closepath } bind def
/re { exch dup neg 3 1 roll 5 3 roll moveto 0 rlineto
      0 exch rlineto 0 rlineto closepath } bind def
/S { stroke } bind def
/f { fill } bind def
/f* { eofill } bind def
/n { newpath } bind def
/W { clip } bind def
/W* { eoclip } bind def
/BT { } bind def
/ET { } bind def
/pdfmark where { pop globaldict /?pdfmark /exec load put }
    { globaldict begin /?pdfmark /pop load def /pdfmark
    /cleartomark load def end } ifelse
/BDC { mark 3 1 roll /BDC pdfmark } bind def
/EMC { mark /EMC pdfmark } bind def
/cairo_store_point { /cairo_point_y exch def /cairo_point_x exch def } def
/Tj { show currentpoint cairo_store_point } bind def
/TJ {
  {
    dup
    type /stringtype eq
    { show } { -0.001 mul 0 cairo_font_matrix dtransform rmoveto } ifelse
  } forall
  currentpoint cairo_store_point
} bind def
/cairo_selectfont { cairo_font_matrix aload pop pop pop 0 0 6 array astore
    cairo_font exch selectfont cairo_point_x cairo_point_y moveto } bind def
/Tf { pop /cairo_font exch def /cairo_font_matrix where
      { pop cairo_selectfont } if } bind def
/Td { matrix translate cairo_font_matrix matrix concatmatrix dup
      /cairo_font_matrix exch def dup 4 get exch 5 get cairo_store_point
      /cairo_font where { pop cairo_selectfont } if } bind def
/Tm { 2 copy 8 2 roll 6 array astore /cairo_font_matrix exch def
      cairo_store_point /cairo_font where { pop cairo_selectfont } if } bind def
/g { setgray } bind def
/rg { setrgbcolor } bind def
/d1 { setcachedevice } bind def
%%EndProlog
%%BeginSetup
%%EndSetup
%%Page: 1 1
%%BeginPageSetup
%%PageBoundingBox: 0 -1 410 410
%%EndPageSetup
q 0 -1 410 411 rectclip q
0.258824 0.341176 0.498039 rg
409.602 204.794 m 409.602 184.817 406.738 165.508 401.402 147.254 c 397.637
 134.348 392.625 121.965 386.516 110.251 c 384.668 106.704 382.723 103.223
 380.68 99.813 c 378.555 96.258 376.324 92.778 373.988 89.368 c 368.652 
81.559 362.789 74.133 356.457 67.161 c 353.125 63.493 349.66 59.938 346.07
 56.528 c 343.469 54.051 340.805 51.633 338.078 49.297 c 330.82 43.071 323.109
 37.344 315.02 32.165 c 310.336 29.169 305.523 26.356 300.594 23.743 c 272.008
 8.59 239.41 0.001 204.805 0.001 c 170.199 0.001 137.598 8.583 109.016 23.743
 c 104.074 26.356 99.262 29.169 94.578 32.157 c 86.488 37.344 78.777 43.071
 71.52 49.297 c 68.793 51.633 66.129 54.051 63.527 56.528 c 59.938 59.938
 56.473 63.493 53.141 67.161 c 46.809 74.133 40.957 81.551 35.617 89.348
 c 33.281 92.762 31.051 96.251 28.918 99.813 c 26.875 103.223 24.93 106.708
 23.082 110.251 c 16.98 121.958 11.973 134.333 8.203 147.227 c 2.859 165.489
 0 184.809 0 204.794 c 0 224.782 2.859 244.098 8.207 262.364 c 10.062 268.731
 12.23 274.977 14.684 281.071 c 15.961 284.278 17.32 287.43 18.77 290.547
 c 20.137 293.524 21.574 296.454 23.086 299.34 c 26.406 305.719 30.059 311.899
 34.02 317.86 c 70.688 373.145 133.488 409.59 204.805 409.59 c 276.113 409.59
 338.914 373.145 375.578 317.86 c 379.543 311.899 383.191 305.719 386.516
 299.34 c 388.023 296.454 389.465 293.524 390.832 290.547 c 392.277 287.43
 393.637 284.278 394.918 281.071 c 397.379 274.965 399.543 268.715 401.402
 262.336 c 406.738 244.083 409.602 224.77 409.602 204.794 c h
409.602 204.794 m f
0.878431 0.568627 0.196078 rg
401.402 281.071 m 401.402 147.254 l 397.637 134.348 392.625 121.965 386.516
 110.251 c 384.668 106.704 382.723 103.223 380.68 99.813 c 378.555 96.258
 376.324 92.778 373.988 89.368 c 368.652 81.559 362.789 74.133 356.457 67.161
 c 353.125 63.493 349.66 59.938 346.07 56.528 c 343.469 54.051 340.805 51.633
 338.078 49.297 c 330.82 43.071 323.109 37.344 315.02 32.165 c 310.336 29.169
 305.523 26.356 300.594 23.743 c 236.781 28.407 l 236.781 27.954 l 236.781
 24.106 233.652 20.981 229.809 20.981 c 179.789 20.981 l 175.941 20.981 
172.824 24.106 172.824 27.954 c 172.824 28.407 l 109.012 23.743 l 104.074
 26.356 99.262 29.169 94.578 32.157 c 86.488 37.344 78.777 43.071 71.52 
49.297 c 68.793 51.633 66.129 54.051 63.527 56.528 c 59.938 59.938 56.473
 63.493 53.141 67.161 c 46.809 74.133 40.953 81.551 35.617 89.348 c 33.281
 92.762 31.051 96.251 28.918 99.813 c 26.875 103.223 24.93 106.708 23.082
 110.251 c 16.98 121.958 11.969 134.333 8.203 147.227 c 8.203 281.071 l 
23.082 281.071 l 58.078 230.751 l 63.754 222.586 l 77.391 202.993 l 83.059
 194.836 l 96.684 175.243 l 102.359 167.086 l 114.219 150.032 l 115.992 
147.493 l 119.547 142.376 l 121.668 139.329 l 135.613 119.274 l 141.664 
110.567 l 165.113 76.86 l 171.773 67.286 l 172.512 66.227 l 172.824 65.774
 l 172.824 148.141 l 172.824 148.801 172.914 149.438 173.09 150.036 c 173.906
 152.965 176.598 155.106 179.789 155.106 c 229.805 155.106 l 232.996 155.106
 235.695 152.965 236.512 150.036 c 236.691 149.438 236.777 148.801 236.777
 148.141 c 236.777 65.786 l 237.082 66.219 l 237.828 67.286 l 244.48 76.86
 l 267.93 110.571 l 273.977 119.266 l 287.934 139.333 l 290.055 142.379 
l 293.609 147.493 l 295.375 150.032 l 307.234 167.086 l 312.91 175.243 l
 326.547 194.836 l 332.211 202.993 l 345.848 222.586 l 351.516 230.751 l
 386.512 281.059 l 386.52 281.071 l h
401.402 281.071 m f
0.941176 0.627451 0.215686 rg
401.402 290.547 m 401.402 147.254 l 397.637 134.348 392.625 121.965 386.516
 110.251 c 384.668 106.704 382.723 103.223 380.68 99.813 c 378.555 96.258
 376.324 92.778 373.988 89.368 c 368.668 81.586 362.832 74.188 356.527 67.243
 c 356.5 67.215 356.48 67.188 356.457 67.161 c 353.125 63.493 349.66 59.938
 346.07 56.528 c 343.469 54.051 340.805 51.633 338.078 49.297 c 337.578 
48.872 337.082 48.446 336.574 48.036 c 329.762 42.29 322.551 36.989 315.02
 32.165 c 270.535 35.407 l 261.082 36.098 l 251.625 36.794 l 241.223 37.547
 l 236.781 37.876 l 236.781 37.43 l 236.781 33.579 233.652 30.458 229.809
 30.458 c 179.789 30.458 l 175.941 30.458 172.824 33.579 172.824 37.43 c
 172.824 37.876 l 94.578 32.157 l 87.047 36.989 79.836 42.29 73.023 48.036
 c 72.516 48.446 72.02 48.872 71.52 49.297 c 68.793 51.633 66.129 54.051
 63.527 56.528 c 59.938 59.942 56.473 63.493 53.141 67.161 c 53.117 67.188
 53.098 67.215 53.07 67.243 c 46.766 74.188 40.938 81.579 35.617 89.352 
c 33.281 92.762 31.051 96.251 28.918 99.813 c 26.875 103.227 24.93 106.708
 23.082 110.251 c 16.98 121.958 11.973 134.333 8.203 147.227 c 8.203 290.547
 l 23.082 290.547 l 64.074 231.614 l 69.754 223.45 l 83.379 203.852 l 89.055
 195.7 l 102.68 176.102 l 108.355 167.95 l 120.809 150.032 l 121.98 148.344
 l 126.137 142.376 l 127.676 140.165 l 138.211 125.012 l 142.082 119.45 
l 148.344 110.442 l 172.816 75.258 l 172.824 75.258 l 172.824 157.61 l 172.824
 161.465 175.941 164.583 179.789 164.583 c 229.805 164.583 l 233.652 164.583
 236.777 161.465 236.777 157.61 c 236.777 75.254 l 261.258 110.446 l 267.523
 119.454 l 271.395 125.012 l 281.93 140.169 l 283.465 142.379 l 287.621 
148.348 l 288.797 150.036 l 301.25 167.942 l 306.926 176.106 l 320.551 195.7
 l 326.227 203.856 l 339.852 223.45 l 345.527 231.606 l 386.512 290.54 l
 386.52 290.551 l h
401.402 290.547 m f
0.878431 0.568627 0.196078 rg
163.758 67.29 9.07 -33.867 re f
236.781 67.29 9.066 -33.867 re f
356.527 67.243 m 356.5 67.215 356.484 67.188 356.457 67.161 c 353.125 63.493
 349.66 59.938 346.07 56.528 c 343.469 54.051 340.805 51.633 338.078 49.297
 c 337.578 48.872 337.082 48.446 336.578 48.036 c 73.023 48.036 l 72.516
 48.446 72.02 48.872 71.523 49.297 c 68.797 51.633 66.129 54.051 63.527 
56.528 c 59.938 59.938 56.477 63.493 53.145 67.161 c 53.117 67.188 53.098
 67.215 53.074 67.243 c 138.211 125.012 l 172.828 148.508 l 196.516 164.586
 l 204.805 170.208 l 213.09 164.586 l 236.781 148.508 l 271.395 125.012 
l h
356.527 67.243 m f
0.756863 0.737255 0.705882 rg
373.988 142.379 m 373.988 89.368 l 368.652 81.559 362.789 74.133 356.457
 67.161 c 353.125 63.493 349.66 59.938 346.07 56.528 c 343.469 54.051 340.805
 51.633 338.078 49.297 c 284.641 58.055 l 279.949 58.731 275.242 59.274 
270.535 59.637 c 262.246 60.294 253.984 60.419 245.848 59.77 c 244.305 59.645
 242.758 59.497 241.223 59.317 c 239.738 59.149 238.254 58.946 236.777 58.715
 c 225.676 56.989 214.918 53.633 204.801 48.036 c 194.688 53.633 183.93 
56.989 172.824 58.715 c 169.824 59.184 166.805 59.532 163.758 59.77 c 160.078
 60.063 156.375 60.196 152.652 60.196 c 143.477 60.196 134.195 59.379 124.977
 58.055 c 71.52 49.297 l 68.793 51.633 66.129 54.051 63.527 56.528 c 59.938
 59.938 56.473 63.493 53.141 67.161 c 46.809 74.133 40.957 81.551 35.617
 89.348 c 35.617 142.379 l h
373.988 142.379 m f
0.921569 0.188235 0.356863 rg
270.535 72.461 m 270.535 29.223 l 255.879 39.883 l 241.223 29.223 l 241.223
 67.997 l h
270.535 72.461 m f
0.839216 0.152941 0.333333 rg
270.535 72.461 m 270.535 54.45 l 260.668 55.071 250.832 54.965 241.223 
53.774 c 241.223 67.997 l h
270.535 72.461 m f
0.827451 0.807843 0.760784 rg
380.68 150.036 m 380.68 99.813 l 378.555 96.258 376.324 92.778 373.988 
89.368 c 368.652 81.559 362.789 74.133 356.457 67.161 c 353.125 63.493 349.66
 59.938 346.07 56.528 c 287.793 65.715 l 282.055 66.504 276.289 67.118 270.535
 67.481 c 262.203 68.004 253.906 68.016 245.742 67.286 c 244.234 67.153 
242.723 66.993 241.223 66.805 c 239.836 66.637 238.461 66.442 237.082 66.219
 c 236.984 66.211 236.879 66.192 236.781 66.176 c 225.688 64.399 214.93 
61.086 204.805 55.696 c 194.676 61.086 183.922 64.399 172.828 66.176 c 172.723
 66.192 172.625 66.211 172.516 66.231 c 169.648 66.684 166.762 67.028 163.855
 67.286 c 159.469 67.676 155.043 67.856 150.586 67.856 c 141.055 67.856 
131.398 67.036 121.812 65.715 c 63.527 56.528 l 59.938 59.938 56.477 63.493
 53.145 67.161 c 46.809 74.133 40.957 81.551 35.617 89.348 c 33.281 92.758
 31.055 96.251 28.922 99.813 c 28.922 150.032 l h
380.68 150.036 m f
0.913725 0.894118 0.847059 rg
386.516 316.29 m 386.516 110.251 l 384.668 106.704 382.723 103.223 380.68
 99.813 c 378.555 96.258 376.324 92.778 373.988 89.368 c 368.652 81.559 
362.789 74.133 356.457 67.161 c 284.633 77.481 l 271.211 79.411 257.664 
79.169 244.48 76.86 c 241.898 76.407 239.332 75.876 236.781 75.254 c 233.797
 74.544 230.832 73.715 227.898 72.782 c 219.93 70.262 212.195 66.938 204.805
 62.844 c 194.688 68.438 183.922 72.598 172.828 75.262 c 172.82 75.262 l
 170.27 75.876 167.703 76.407 165.117 76.86 c 157.863 78.129 150.496 78.778
 143.098 78.778 c 137.059 78.778 131 78.352 124.969 77.481 c 53.145 67.161
 l 46.812 74.133 40.957 81.551 35.621 89.348 c 33.281 92.762 31.055 96.251
 28.922 99.813 c 26.879 103.223 24.934 106.704 23.086 110.251 c 23.086 316.29
 l 34.02 317.86 l 124.969 330.926 l 152.469 334.879 180.492 329.735 204.805
 316.29 c 212.195 320.383 219.93 323.704 227.898 326.227 c 246.105 332.02
 265.5 333.68 284.633 330.926 c 375.578 317.86 l h
386.516 316.29 m f
0.886275 0.870588 0.827451 rg
227.898 326.227 m 227.898 72.782 l 219.93 70.262 212.195 66.938 204.805
 62.844 c 204.805 316.29 l 212.195 320.383 219.93 323.704 227.898 326.227
 c h
227.898 326.227 m f
0.117647 0.192157 0.376471 rg
173.668 298.922 m 173.668 289.766 l 163.578 292.395 153.195 293.719 142.758
 293.719 c 136.906 293.719 131.016 293.294 125.27 292.465 c 55.32 282.419
 l 55.32 291.391 l 124 301.258 l 130.164 302.149 136.48 302.602 142.758 
302.602 c 153.176 302.602 163.562 301.356 173.668 298.922 c h
173.668 298.922 m f
173.668 268.395 m 173.668 259.235 l 163.578 261.868 153.195 263.188 142.758
 263.188 c 136.906 263.188 131.016 262.77 125.27 261.946 c 55.32 251.899
 l 55.32 260.872 l 124 270.731 l 130.164 271.626 136.477 272.071 142.758
 272.071 c 153.176 272.071 163.562 270.836 173.668 268.395 c h
173.668 268.395 m f
173.668 237.872 m 173.668 228.715 l 163.578 231.344 153.195 232.669 142.758
 232.669 c 136.906 232.669 131.016 232.251 125.27 231.415 c 55.32 221.379
 l 55.32 230.352 l 124 240.211 l 130.164 241.098 136.477 241.551 142.758
 241.551 c 153.176 241.551 163.562 240.317 173.668 237.872 c h
173.668 237.872 m f
173.668 207.352 m 173.668 198.196 l 163.578 200.825 153.195 202.149 142.758
 202.149 c 136.906 202.149 131.016 201.723 125.27 200.895 c 55.32 190.86
 l 55.32 199.821 l 124 209.688 l 130.164 210.579 136.48 211.032 142.758 
211.032 c 153.176 211.032 163.562 209.786 173.668 207.352 c h
173.668 207.352 m f
173.668 176.825 m 173.668 167.676 l 163.578 170.294 153.195 171.629 142.758
 171.629 c 136.906 171.629 131.016 171.2 125.27 170.376 c 55.32 160.329 
l 55.32 169.301 l 124 179.169 l 130.164 180.055 136.48 180.512 142.758 180.512
 c 153.176 180.512 163.562 179.266 173.668 176.825 c h
173.668 176.825 m f
173.668 146.305 m 173.668 137.145 l 163.578 139.778 153.195 141.098 142.758
 141.098 c 136.906 141.098 131.016 140.68 125.27 139.848 c 55.32 129.809
 l 55.32 138.782 l 124 148.641 l 130.164 149.528 136.48 149.981 142.758 
149.981 c 153.176 149.981 163.562 148.747 173.668 146.305 c h
173.668 146.305 m f
173.668 115.782 m 173.668 106.626 l 163.578 109.254 153.195 110.579 142.758
 110.579 c 136.906 110.579 131.016 110.161 125.27 109.325 c 55.32 99.29 
l 55.32 108.258 l 124 118.118 l 130.164 119.008 136.48 119.461 142.758 119.461
 c 153.176 119.461 163.562 118.227 173.668 115.782 c h
173.668 115.782 m f
235.93 298.922 m 235.93 289.766 l 246.02 292.395 256.406 293.719 266.84
 293.719 c 272.695 293.719 278.586 293.294 284.332 292.465 c 354.281 282.419
 l 354.281 291.391 l 285.602 301.258 l 279.438 302.149 273.121 302.602 266.84
 302.602 c 256.422 302.602 246.039 301.356 235.93 298.922 c h
235.93 298.922 m f
235.93 268.395 m 235.93 259.235 l 246.02 261.868 256.406 263.188 266.84
 263.188 c 272.695 263.188 278.586 262.77 284.332 261.946 c 354.281 251.899
 l 354.281 260.872 l 285.602 270.731 l 279.438 271.629 273.121 272.071 266.84
 272.071 c 256.422 272.071 246.039 270.836 235.93 268.395 c h
235.93 268.395 m f
235.93 237.872 m 235.93 228.715 l 246.02 231.344 256.406 232.669 266.84
 232.669 c 272.695 232.669 278.586 232.251 284.332 231.415 c 354.281 221.379
 l 354.281 230.348 l 285.602 240.211 l 279.438 241.098 273.121 241.551 266.84
 241.551 c 256.422 241.551 246.039 240.317 235.93 237.872 c h
235.93 237.872 m f
235.93 207.352 m 235.93 198.196 l 246.02 200.825 256.406 202.149 266.84
 202.149 c 272.695 202.149 278.586 201.723 284.332 200.895 c 354.281 190.86
 l 354.281 199.821 l 285.602 209.688 l 279.438 210.579 273.121 211.032 266.84
 211.032 c 256.422 211.032 246.039 209.786 235.93 207.352 c h
235.93 207.352 m f
235.93 176.825 m 235.93 167.676 l 246.02 170.294 256.406 171.629 266.84
 171.629 c 272.695 171.629 278.586 171.2 284.332 170.376 c 354.281 160.329
 l 354.281 169.301 l 285.602 179.169 l 279.438 180.055 273.121 180.512 266.84
 180.512 c 256.422 180.512 246.039 179.266 235.93 176.825 c h
235.93 176.825 m f
235.93 146.305 m 235.93 137.145 l 246.02 139.778 256.406 141.098 266.84
 141.098 c 272.695 141.098 278.586 140.68 284.332 139.848 c 354.281 129.809
 l 354.281 138.782 l 285.602 148.641 l 279.438 149.528 273.121 149.981 266.84
 149.981 c 256.422 149.981 246.039 148.747 235.93 146.305 c h
235.93 146.305 m f
235.93 115.782 m 235.93 106.626 l 246.02 109.254 256.406 110.579 266.84
 110.579 c 272.695 110.579 278.586 110.161 284.332 109.325 c 354.281 99.29
 l 354.281 108.258 l 285.602 118.118 l 279.438 119.008 273.121 119.461 266.84
 119.461 c 256.422 119.461 246.039 118.227 235.93 115.782 c h
235.93 115.782 m f
Q Q
showpage
%%Trailer
end restore
%%EOF
