%!PS-Adobe-3.0 EPSF-3.0
%%Creator: cairo 1.14.2 (http://cairographics.org)
%%CreationDate: Wed Jul 12 12:57:24 2017
%%Pages: 1
%%DocumentData: Clean7Bit
%%LanguageLevel: 2
%%BoundingBox: 0 -1 410 410
%%EndComments
%%BeginProlog
save
50 dict begin
/q { gsave } bind def
/Q { grestore } bind def
/cm { 6 array astore concat } bind def
/w { setlinewidth } bind def
/J { setlinecap } bind def
/j { setlinejoin } bind def
/M { setmiterlimit } bind def
/d { setdash } bind def
/m { moveto } bind def
/l { lineto } bind def
/c { curveto } bind def
/h { closepath } bind def
/re { exch dup neg 3 1 roll 5 3 roll moveto 0 rlineto
      0 exch rlineto 0 rlineto closepath } bind def
/S { stroke } bind def
/f { fill } bind def
/f* { eofill } bind def
/n { newpath } bind def
/W { clip } bind def
/W* { eoclip } bind def
/BT { } bind def
/ET { } bind def
/pdfmark where { pop globaldict /?pdfmark /exec load put }
    { globaldict begin /?pdfmark /pop load def /pdfmark
    /cleartomark load def end } ifelse
/BDC { mark 3 1 roll /BDC pdfmark } bind def
/EMC { mark /EMC pdfmark } bind def
/cairo_store_point { /cairo_point_y exch def /cairo_point_x exch def } def
/Tj { show currentpoint cairo_store_point } bind def
/TJ {
  {
    dup
    type /stringtype eq
    { show } { -0.001 mul 0 cairo_font_matrix dtransform rmoveto } ifelse
  } forall
  currentpoint cairo_store_point
} bind def
/cairo_selectfont { cairo_font_matrix aload pop pop pop 0 0 6 array astore
    cairo_font exch selectfont cairo_point_x cairo_point_y moveto } bind def
/Tf { pop /cairo_font exch def /cairo_font_matrix where
      { pop cairo_selectfont } if } bind def
/Td { matrix translate cairo_font_matrix matrix concatmatrix dup
      /cairo_font_matrix exch def dup 4 get exch 5 get cairo_store_point
      /cairo_font where { pop cairo_selectfont } if } bind def
/Tm { 2 copy 8 2 roll 6 array astore /cairo_font_matrix exch def
      cairo_store_point /cairo_font where { pop cairo_selectfont } if } bind def
/g { setgray } bind def
/rg { setrgbcolor } bind def
/d1 { setcachedevice } bind def
%%EndProlog
%%BeginSetup
%%EndSetup
%%Page: 1 1
%%BeginPageSetup
%%PageBoundingBox: 0 -1 410 410
%%EndPageSetup
q 0 -1 410 411 rectclip q
0.921569 0.188235 0.356863 rg
409.602 204.794 m 409.602 140.275 379.762 82.724 333.129 45.185 c 327.562
 40.708 321.762 36.505 315.738 32.626 c 283.77 11.982 245.68 0.001 204.805
 0.001 c 183.984 0.001 163.902 3.111 144.973 8.884 c 138.914 10.728 132.98
 12.845 127.18 15.224 c 52.559 45.81 0 119.158 0 204.794 c 0 317.908 91.695
 409.591 204.805 409.591 c 317.906 409.591 409.602 317.908 409.602 204.794
 c h
409.602 204.794 m f
0.913725 0.894118 0.847059 rg
128.164 111.794 m 128.164 98.419 l 100.836 98.419 l 93.125 98.419 85.938
 101.857 81.098 107.861 c 76.266 113.857 74.426 121.622 76.07 129.154 c 
85.023 170.349 l 90.363 194.892 l 103.438 192.048 l 98.723 170.349 l 89.145
 126.302 l 88.371 122.747 89.234 119.087 91.52 116.255 c 93.801 113.419 
97.195 111.794 100.836 111.794 c h
128.164 111.794 m f
288.258 249.24 12.414 -151.32 re f
155.312 249.24 12.418 -151.32 re f
333.129 45.185 m 327.562 40.708 321.762 36.505 315.738 32.626 c 314.547
 50.81 l 314.051 58.349 307.797 64.212 300.238 64.212 c 162.027 64.212 l
 154.469 64.212 148.215 58.349 147.719 50.81 c 144.973 8.884 l 138.914 10.728
 132.98 12.845 127.18 15.224 c 131.371 79.286 l 132.34 94.091 l 140.852 
94.091 l 140.852 98.56 l 325.605 98.56 l 325.605 94.091 l 329.934 94.091
 l 330.902 79.286 l h
333.129 45.185 m f
0.827451 0.807843 0.760784 rg
103.438 192.048 m 98.723 170.349 l 85.023 170.349 l 90.363 194.892 l h
103.438 192.048 m f
330.902 79.286 m 131.371 79.286 l 132.34 94.091 l 140.852 94.091 l 140.852
 98.56 l 325.605 98.56 l 325.605 94.091 l 329.934 94.091 l h
330.902 79.286 m f
155.312 249.24 12.418 -31.133 re f
288.258 249.24 12.414 -31.133 re f
0.941176 0.627451 0.215686 rg
332.402 94.091 m 129.867 94.091 l 124.703 94.091 120.52 98.279 120.52 103.439
 c 120.52 106.775 l 120.52 111.935 124.703 116.119 129.867 116.119 c 332.402
 116.119 l 337.562 116.119 341.746 111.935 341.746 106.775 c 341.746 103.439
 l 341.746 98.279 337.562 94.091 332.402 94.091 c h
332.402 94.091 m f
0.878431 0.568627 0.196078 rg
144.207 103.439 m 144.207 106.775 l 144.207 111.935 148.391 116.122 153.551
 116.122 c 129.863 116.122 l 124.703 116.122 120.52 111.935 120.52 106.775
 c 120.52 103.439 l 120.52 98.279 124.703 94.095 129.863 94.095 c 153.551
 94.095 l 148.391 94.091 144.207 98.279 144.207 103.439 c h
144.207 103.439 m f
0.941176 0.627451 0.215686 rg
221 186.931 m 65.406 186.931 l 59.52 186.931 54.746 191.704 54.746 197.591
 c 54.746 201.396 l 54.746 207.283 59.52 212.056 65.406 212.056 c 221 212.056
 l 226.887 212.056 231.656 207.283 231.656 201.396 c 231.656 197.591 l 231.656
 191.704 226.887 186.931 221 186.931 c h
221 186.931 m f
0.878431 0.568627 0.196078 rg
75.473 197.591 m 75.473 201.396 l 75.473 207.283 80.246 212.056 86.133 
212.056 c 65.406 212.056 l 59.52 212.056 54.746 207.283 54.746 201.396 c
 54.746 197.591 l 54.746 191.704 59.52 186.931 65.406 186.931 c 86.129 186.931
 l 80.242 186.931 75.473 191.704 75.473 197.591 c h
75.473 197.591 m f
0.941176 0.627451 0.215686 rg
311.676 233.494 m 150.59 233.494 l 138.551 233.494 129.18 243.958 130.504
 255.923 c 139.934 341.126 l 141.07 351.365 149.719 359.115 160.02 359.115
 c 302.246 359.115 l 312.547 359.115 321.199 351.365 322.332 341.126 c 331.762
 255.923 l 333.086 243.958 323.719 233.494 311.676 233.494 c h
311.676 233.494 m f
0.878431 0.568627 0.196078 rg
141.758 255.923 m 151.188 341.126 l 152.32 351.365 160.969 359.115 171.27
 359.115 c 160.02 359.115 l 149.719 359.115 141.066 351.365 139.934 341.126
 c 130.504 255.923 l 129.18 243.958 138.547 233.494 150.59 233.494 c 161.84
 233.494 l 149.801 233.494 140.434 243.958 141.758 255.923 c h
141.758 255.923 m f
0.913725 0.894118 0.847059 rg
83.406 247.88 111.191 -35.832 re f
0.466667 0.556863 0.698039 rg
96.996 285.017 111.191 -35.832 re f
0.321569 0.764706 0.866667 rg
125.023 275.923 55.148 -17.633 re f
0.196078 0.666667 0.807843 rg
113.129 285.017 4.746 -35.832 re f
187.312 285.017 4.746 -35.832 re f
0.847059 0.823529 0.772549 rg
83.406 236.583 111.191 -1.898 re f
83.406 244.13 111.191 -1.898 re f
83.406 240.357 111.191 -1.898 re f
83.406 232.806 111.191 -1.898 re f
83.406 225.255 111.191 -1.898 re f
83.406 229.033 111.191 -1.898 re f
83.406 221.482 111.191 -1.898 re f
83.406 217.704 111.191 -1.895 re f
0.4 g
79.543 214.786 119.613 -2.727 re f
79.543 249.197 119.613 -2.727 re f
0.913725 0.894118 0.847059 rg
203.949 301.814 m 203.949 301.193 203.93 300.568 203.891 299.931 c 203.863
 299.306 203.816 298.669 203.738 298.033 c 203.684 297.408 203.598 296.783
 203.492 296.165 c 203.387 295.529 203.266 294.892 203.121 294.267 c 202.98
 293.638 202.809 293.005 202.621 292.388 c 202.43 291.744 202.203 291.115
 201.965 290.49 c 201.633 289.646 201.254 288.818 200.816 288.001 c 93.871
 286.919 l 94.555 288.079 95.164 289.275 95.695 290.49 c 95.988 291.115 
96.246 291.751 96.48 292.388 c 96.719 293.005 96.93 293.642 97.129 294.267
 c 97.328 294.892 97.508 295.529 97.66 296.165 c 97.82 296.783 97.965 297.408
 98.086 298.033 c 98.211 298.661 98.312 299.298 98.402 299.931 c 98.488 
300.56 98.562 301.185 98.609 301.814 c 98.668 302.439 98.703 303.076 98.723
 303.712 c 98.742 304.337 98.742 304.954 98.734 305.579 c 98.723 306.216
 98.695 306.853 98.637 307.478 c 98.598 308.103 98.531 308.732 98.445 309.357
 c 98.371 309.994 98.277 310.63 98.152 311.255 c 98.039 311.892 97.906 312.517
 97.754 313.134 c 97.602 313.771 97.43 314.408 97.242 315.033 c 97.062 315.661
 96.852 316.286 96.625 316.904 c 96.395 317.54 96.148 318.177 95.875 318.802
 c 95.293 320.15 94.629 321.47 93.879 322.751 c 196.305 322.751 l 196.305
 322.751 199.344 322.54 200.949 318.802 c 201.043 318.576 201.137 318.326
 201.223 318.072 c 201.336 317.74 201.461 317.349 201.602 316.904 c 201.766
 316.361 201.945 315.728 202.133 315.033 c 202.285 314.447 202.449 313.81
 202.602 313.134 c 202.742 312.548 202.875 311.911 203 311.255 c 203.121
 310.65 203.234 310.013 203.34 309.357 c 203.438 308.751 203.531 308.122
 203.605 307.478 c 203.684 306.861 203.75 306.224 203.797 305.579 c 203.844
 304.974 203.891 304.345 203.91 303.712 c 203.938 303.083 203.957 302.458
 203.949 301.814 c h
203.949 301.814 m f
0.847059 0.823529 0.772549 rg
203.34 309.357 m 98.445 309.357 l 98.371 309.994 98.277 310.63 98.152 311.255
 c 203 311.255 l 203.121 310.65 203.234 310.013 203.34 309.357 c h
203.34 309.357 m f
201.602 316.904 m 96.625 316.904 l 96.398 317.54 96.148 318.177 95.875 
318.802 c 200.949 318.802 l 201.043 318.576 201.141 318.329 201.223 318.072
 c 201.336 317.74 201.461 317.353 201.602 316.904 c h
201.602 316.904 m f
202.602 313.138 m 97.754 313.138 l 97.602 313.771 97.43 314.408 97.242 
315.036 c 202.133 315.036 l 202.289 314.447 202.449 313.81 202.602 313.138
 c h
202.602 313.138 m f
203.797 305.579 m 98.73 305.579 l 98.723 306.216 98.691 306.853 98.637 
307.478 c 203.605 307.478 l 203.68 306.861 203.746 306.228 203.797 305.579
 c h
203.797 305.579 m f
203.891 299.931 m 98.398 299.931 l 98.312 299.294 98.207 298.661 98.086
 298.033 c 203.738 298.033 l h
203.891 299.931 m f
203.91 303.712 m 98.723 303.712 l 98.703 303.076 98.664 302.439 98.609 
301.814 c 203.949 301.814 l h
203.91 303.712 m f
203.492 296.165 m 203.387 295.529 203.266 294.892 203.121 294.267 c 97.129
 294.267 l 97.328 294.892 97.508 295.529 97.66 296.165 c h
203.492 296.165 m f
202.621 292.384 m 202.43 291.74 202.203 291.115 201.965 290.486 c 95.695
 290.486 l 95.988 291.115 96.246 291.751 96.48 292.384 c h
202.621 292.384 m f
0.333333 0.776471 0.631373 rg
199.543 285.021 m 199.508 285.021 199.473 285.025 199.434 285.025 c 88.352
 285.025 l 88.352 288.822 l 198.441 288.822 l 203.883 298.798 203.887 310.884
 198.445 320.857 c 88.352 320.857 l 88.352 324.654 l 199.543 324.654 l 199.641
 324.654 199.738 324.646 199.836 324.63 c 200.398 324.54 200.898 324.204
 201.188 323.716 c 208.031 312.072 208.031 297.603 201.18 285.958 c 200.832
 285.369 200.203 285.021 199.543 285.021 c h
199.543 285.021 m f
Q Q
showpage
%%Trailer
end restore
%%EOF
