%!PS-Adobe-3.0 EPSF-3.0
%%Creator: cairo 1.14.2 (http://cairographics.org)
%%CreationDate: Wed Jul 12 12:57:24 2017
%%Pages: 1
%%DocumentData: Clean7Bit
%%LanguageLevel: 2
%%BoundingBox: 0 -1 410 410
%%EndComments
%%BeginProlog
save
50 dict begin
/q { gsave } bind def
/Q { grestore } bind def
/cm { 6 array astore concat } bind def
/w { setlinewidth } bind def
/J { setlinecap } bind def
/j { setlinejoin } bind def
/M { setmiterlimit } bind def
/d { setdash } bind def
/m { moveto } bind def
/l { lineto } bind def
/c { curveto } bind def
/h { closepath } bind def
/re { exch dup neg 3 1 roll 5 3 roll moveto 0 rlineto
      0 exch rlineto 0 rlineto closepath } bind def
/S { stroke } bind def
/f { fill } bind def
/f* { eofill } bind def
/n { newpath } bind def
/W { clip } bind def
/W* { eoclip } bind def
/BT { } bind def
/ET { } bind def
/pdfmark where { pop globaldict /?pdfmark /exec load put }
    { globaldict begin /?pdfmark /pop load def /pdfmark
    /cleartomark load def end } ifelse
/BDC { mark 3 1 roll /BDC pdfmark } bind def
/EMC { mark /EMC pdfmark } bind def
/cairo_store_point { /cairo_point_y exch def /cairo_point_x exch def } def
/Tj { show currentpoint cairo_store_point } bind def
/TJ {
  {
    dup
    type /stringtype eq
    { show } { -0.001 mul 0 cairo_font_matrix dtransform rmoveto } ifelse
  } forall
  currentpoint cairo_store_point
} bind def
/cairo_selectfont { cairo_font_matrix aload pop pop pop 0 0 6 array astore
    cairo_font exch selectfont cairo_point_x cairo_point_y moveto } bind def
/Tf { pop /cairo_font exch def /cairo_font_matrix where
      { pop cairo_selectfont } if } bind def
/Td { matrix translate cairo_font_matrix matrix concatmatrix dup
      /cairo_font_matrix exch def dup 4 get exch 5 get cairo_store_point
      /cairo_font where { pop cairo_selectfont } if } bind def
/Tm { 2 copy 8 2 roll 6 array astore /cairo_font_matrix exch def
      cairo_store_point /cairo_font where { pop cairo_selectfont } if } bind def
/g { setgray } bind def
/rg { setrgbcolor } bind def
/d1 { setcachedevice } bind def
%%EndProlog
%%BeginSetup
%%EndSetup
%%Page: 1 1
%%BeginPageSetup
%%PageBoundingBox: 0 -1 410 410
%%EndPageSetup
q 0 -1 410 411 rectclip q
0.941176 0.627451 0.215686 rg
409.602 204.794 m 409.602 91.684 317.906 0.001 204.805 0.001 c 200.211 
0.001 195.656 0.153 191.145 0.454 c 142.477 3.649 98.453 23.86 64.957 55.18
 c 35.352 82.848 13.973 119.211 4.875 160.196 c 1.68 174.551 0 189.481 0
 204.794 c 0 317.907 91.695 409.59 204.805 409.59 c 253.926 409.59 299.012
 392.286 334.305 363.446 c 336.285 361.836 338.219 360.184 340.129 358.497
 c 382.73 320.977 409.602 266.032 409.602 204.794 c h
409.602 204.794 m f
0.196078 0.666667 0.807843 rg
356.547 144.911 m 320.27 108.633 l 254.328 174.579 l 290.605 210.852 l 
h
356.547 144.911 m f
110.527 170.711 m 91.242 151.419 91.242 120.036 110.527 100.747 c 64.957
 55.176 l 35.352 82.848 13.973 119.211 4.875 160.196 c 9.719 188.204 22.953
 215.036 44.582 236.665 c 118.414 310.489 l 184.355 244.544 l h
110.527 170.711 m f
0.921569 0.188235 0.356863 rg
220.633 280.821 m 184.355 244.544 l 118.414 310.489 l 154.68 346.766 l 
h
220.633 280.821 m f
320.27 108.633 m 246.438 34.801 l 230.344 18.696 211.352 7.247 191.145 
0.454 c 142.477 3.649 98.457 23.86 64.961 55.18 c 110.527 100.747 l 129.82
 81.461 161.203 81.461 180.496 100.747 c 254.324 174.579 l h
320.27 108.633 m f
0.258824 0.341176 0.498039 rg
309.949 305.024 m 305.648 305.126 301.352 305.165 297.051 305.176 c 296.004
 305.176 294.961 305.165 293.918 305.157 c 295.598 306.989 297.285 308.813
 298.961 310.649 c 305.832 318.243 312.648 325.887 319.344 333.657 c 326.07
 341.395 332.641 349.294 339.137 357.258 c 345.605 365.254 351.98 373.344
 358.039 381.751 c 349.633 375.692 341.543 369.317 333.551 362.848 c 325.582
 356.348 317.688 349.782 309.949 343.055 c 302.176 336.36 294.531 329.544
 286.938 322.669 c 279.379 315.766 271.848 308.833 264.43 301.786 c 248.246
 286.403 l 271.254 285.313 l 275.555 285.11 279.852 284.985 284.152 284.883
 c 288.453 284.79 292.754 284.754 297.051 284.751 c 298.141 284.751 299.23
 284.762 300.32 284.77 c 299.074 283.403 297.82 282.04 296.578 280.669 c
 290.176 273.551 283.832 266.376 277.605 259.075 c 271.348 251.813 265.25
 244.387 259.223 236.891 c 253.223 229.372 247.312 221.758 241.719 213.833
 c 249.648 219.426 257.262 225.336 264.781 231.336 c 272.273 237.364 279.699
 243.461 286.961 249.719 c 294.262 255.942 301.438 262.29 308.559 268.692
 c 315.652 275.118 322.707 281.586 329.66 288.157 c 345.891 303.497 l 322.852
 304.59 l 318.547 304.794 314.25 304.926 309.949 305.024 c h
309.949 305.024 m f
Q Q
showpage
%%Trailer
end restore
%%EOF
