%!PS-Adobe-3.0 EPSF-3.0
%%Creator: cairo 1.14.2 (http://cairographics.org)
%%CreationDate: Wed Jul 12 12:57:24 2017
%%Pages: 1
%%DocumentData: Clean7Bit
%%LanguageLevel: 2
%%BoundingBox: 0 -1 410 410
%%EndComments
%%BeginProlog
save
50 dict begin
/q { gsave } bind def
/Q { grestore } bind def
/cm { 6 array astore concat } bind def
/w { setlinewidth } bind def
/J { setlinecap } bind def
/j { setlinejoin } bind def
/M { setmiterlimit } bind def
/d { setdash } bind def
/m { moveto } bind def
/l { lineto } bind def
/c { curveto } bind def
/h { closepath } bind def
/re { exch dup neg 3 1 roll 5 3 roll moveto 0 rlineto
      0 exch rlineto 0 rlineto closepath } bind def
/S { stroke } bind def
/f { fill } bind def
/f* { eofill } bind def
/n { newpath } bind def
/W { clip } bind def
/W* { eoclip } bind def
/BT { } bind def
/ET { } bind def
/pdfmark where { pop globaldict /?pdfmark /exec load put }
    { globaldict begin /?pdfmark /pop load def /pdfmark
    /cleartomark load def end } ifelse
/BDC { mark 3 1 roll /BDC pdfmark } bind def
/EMC { mark /EMC pdfmark } bind def
/cairo_store_point { /cairo_point_y exch def /cairo_point_x exch def } def
/Tj { show currentpoint cairo_store_point } bind def
/TJ {
  {
    dup
    type /stringtype eq
    { show } { -0.001 mul 0 cairo_font_matrix dtransform rmoveto } ifelse
  } forall
  currentpoint cairo_store_point
} bind def
/cairo_selectfont { cairo_font_matrix aload pop pop pop 0 0 6 array astore
    cairo_font exch selectfont cairo_point_x cairo_point_y moveto } bind def
/Tf { pop /cairo_font exch def /cairo_font_matrix where
      { pop cairo_selectfont } if } bind def
/Td { matrix translate cairo_font_matrix matrix concatmatrix dup
      /cairo_font_matrix exch def dup 4 get exch 5 get cairo_store_point
      /cairo_font where { pop cairo_selectfont } if } bind def
/Tm { 2 copy 8 2 roll 6 array astore /cairo_font_matrix exch def
      cairo_store_point /cairo_font where { pop cairo_selectfont } if } bind def
/g { setgray } bind def
/rg { setrgbcolor } bind def
/d1 { setcachedevice } bind def
%%EndProlog
%%BeginSetup
%%EndSetup
%%Page: 1 1
%%BeginPageSetup
%%PageBoundingBox: 0 -1 410 410
%%EndPageSetup
q 0 -1 410 411 rectclip q
0.258824 0.341176 0.498039 rg
409.602 204.794 m 409.602 170.829 401.332 138.79 386.691 110.587 c 382.367
 102.247 377.48 94.244 372.078 86.622 c 346.926 51.083 310.738 23.904 268.484
 10.111 c 268.004 9.951 267.523 9.79 267.043 9.638 c 264.352 8.786 261.633
 7.978 258.898 7.232 c 254.289 5.97 249.605 4.869 244.871 3.927 c 244.855
 3.927 l 231.906 1.353 218.508 0.001 204.805 0.001 c 204.031 0.001 203.258
 0.001 202.496 0.017 c 193.391 0.115 184.426 0.81 175.652 2.06 c 173.227
 2.408 170.809 2.798 168.402 3.236 c 162.719 4.247 157.113 5.497 151.598
 6.982 c 120.871 15.228 93.008 30.431 69.781 50.81 c 67.07 53.189 64.426
 55.634 61.848 58.154 c 53.668 66.122 46.152 74.775 39.395 84.021 c 14.621
 117.88 0 159.626 0 204.794 c 0 317.908 91.695 409.591 204.805 409.591 c
 317.906 409.591 409.602 317.908 409.602 204.794 c h
409.602 204.794 m f
0.368627 0.658824 0.819608 rg
278.617 373.9 m 272.266 366.767 267.336 358.595 263.996 349.822 c 260.656
 341.036 258.898 331.658 258.898 322.107 c 258.898 7.232 l 254.289 5.97 
249.609 4.869 244.875 3.927 c 244.855 3.927 l 231.906 1.349 218.512 0.001
 204.805 0.001 c 194.91 0.001 185.176 0.701 175.652 2.06 c 167.473 3.224
 159.441 4.876 151.598 6.982 c 151.598 385.911 l 273.227 385.911 l 279.461
 385.911 282.758 378.548 278.617 373.9 c h
278.617 373.9 m f
0.309804 0.6 0.729412 rg
175.652 385.911 m 175.652 2.06 l 167.473 3.224 159.441 4.876 151.598 6.982
 c 151.598 385.911 l h
175.652 385.911 m f
0.913725 0.894118 0.847059 rg
166.227 149.896 28.312 -8 re f
166.227 169.279 28.312 -8.004 re f
166.227 188.669 46.773 -8.004 re f
166.227 208.052 28.312 -8.004 re f
166.227 227.443 28.312 -8.004 re f
166.227 246.826 46.773 -8.004 re f
166.227 266.216 28.312 -8.004 re f
166.227 285.595 28.312 -8.004 re f
166.227 304.986 46.773 -8.004 re f
166.227 324.369 28.312 -8.004 re f
166.227 343.759 28.312 -8.004 re f
166.227 363.138 46.773 -8 re f
0.901961 g
386.691 110.587 m 358.5 56.271 306.695 16.185 244.875 3.927 c 225.926 20.591
 213.875 44.962 213.875 71.915 c 213.875 103.685 230.199 131.63 254.922 
147.841 c 266.246 155.267 273.086 167.872 273.086 181.408 c 273.086 244.767
 l 336.113 244.767 l 336.113 181.408 l 336.113 167.915 342.883 155.294 354.184
 147.904 c 368.18 138.755 379.496 125.829 386.691 110.587 c h
386.691 110.587 m f
0.8 g
286.578 244.775 m 286.578 181.408 l 286.578 167.872 282.668 155.259 276.191
 147.833 c 262.051 131.63 252.715 103.677 252.715 71.911 c 252.715 47.904
 258.188 25.935 267.043 9.638 c 259.82 7.337 252.422 5.427 244.871 3.927
 c 244.855 3.927 l 225.918 20.599 213.871 44.962 213.871 71.915 c 213.871
 103.677 230.199 131.63 254.918 147.833 c 266.246 155.259 273.086 167.872
 273.086 181.408 c 273.086 244.779 l h
286.578 244.775 m f
347.207 255.115 m 347.207 249.404 342.57 244.775 336.859 244.775 c 272.336
 244.775 l 269.48 244.775 266.895 245.931 265.027 247.802 c 263.156 249.669
 261.996 252.255 261.996 255.115 c 261.996 260.826 266.625 265.454 272.336
 265.454 c 336.859 265.454 l 339.719 265.454 342.305 264.294 344.176 262.423
 c 346.047 260.556 347.207 257.974 347.207 255.115 c h
347.207 255.115 m f
273.086 244.771 63.027 -13.812 re f
0.901961 g
347.207 255.115 m 347.207 249.404 342.57 244.775 336.859 244.775 c 297.258
 244.775 l 294.398 244.775 291.816 245.931 289.949 247.802 c 288.078 249.669
 286.918 252.255 286.918 255.115 c 286.918 260.826 291.547 265.454 297.258
 265.454 c 336.859 265.454 l 339.719 265.454 342.305 264.294 344.176 262.423
 c 346.047 260.556 347.207 257.974 347.207 255.115 c h
347.207 255.115 m f
0.639216 0.345098 0.584314 rg
372.078 86.622 m 346.926 51.083 310.738 23.904 268.484 10.111 c 246.871
 22.822 232.535 46.536 232.988 73.138 c 233.023 75.396 233.168 77.626 233.406
 79.818 c 233.977 84.908 238.258 88.783 243.371 88.736 c 248.738 88.701 
254.094 86.908 258.535 83.372 c 258.543 83.372 l 267.531 76.204 280.27 76.204
 289.25 83.372 c 293.738 86.954 299.172 88.747 304.602 88.747 c 310.027 
88.747 315.465 86.951 319.957 83.372 c 324.453 79.783 329.871 77.997 335.316
 77.997 c 340.734 77.997 346.168 79.786 350.664 83.372 c 355.148 86.954 
360.586 88.747 366.012 88.747 c 366.102 88.747 l 368.348 88.736 370.438 
87.947 372.078 86.622 c h
372.078 86.622 m f
0.466667 0.843137 0.929412 rg
229.633 119.978 m 235.727 107.052 239.137 92.619 239.137 77.384 c 239.137
 46.197 224.859 18.353 202.496 0.017 c 193.391 0.115 184.426 0.81 175.652
 2.06 c 167.469 3.224 159.441 4.876 151.598 6.982 c 120.871 15.224 93.008
 30.431 69.781 50.81 c 58.48 60.72 48.285 71.861 39.395 84.021 c 40.23 96.837
 43.496 108.997 48.711 120.036 c 48.668 119.994 l 48.656 120.036 l 14.809
 224.869 l 48.375 235.708 l 73.066 159.228 l 74.793 153.9 l 74.773 153.872
 l 80.039 158.314 85.77 162.224 91.891 165.509 c 99.902 169.818 104.867 
178.228 104.867 187.333 c 104.867 250.685 l 173.434 250.685 l 173.434 187.326
 l 173.434 178.177 178.477 169.79 186.535 165.447 c 192.602 162.177 198.277
 158.294 203.508 153.9 c 229.926 235.708 l 263.492 224.869 l h
229.633 119.978 m f
0.368627 0.760784 0.827451 rg
267.566 217.208 m 266.922 217.208 266.262 217.31 265.613 217.517 c 223.906
 230.986 l 220.57 232.06 218.738 235.638 219.816 238.978 c 220.895 242.314
 224.469 244.146 227.809 243.068 c 269.516 229.599 l 272.852 228.525 274.684
 224.947 273.605 221.611 c 272.738 218.919 270.246 217.208 267.566 217.208
 c h
267.566 217.208 m f
122.828 239.259 m 122.828 176.462 l 122.828 164.415 117.168 153.119 107.648
 145.744 c 91.488 133.228 68.227 108.021 68.227 66.583 c 68.227 61.04 68.777
 55.783 69.781 50.81 c 58.48 60.72 48.285 71.861 39.395 84.021 c 40.23 96.837
 43.496 108.997 48.711 120.04 c 14.809 224.869 l 25.688 224.869 l 54.324
 144.013 l 56.699 137.298 65.953 136.677 69.203 143.017 c 74.773 153.872
 l 74.781 153.88 l 80.051 158.314 85.77 162.22 91.891 165.509 c 99.902 169.818
 104.867 178.228 104.867 187.333 c 104.867 250.681 l h
122.828 239.259 m f
10.738 217.208 m 8.059 217.208 5.566 218.919 4.699 221.611 c 3.621 224.947
 5.453 228.525 8.789 229.599 c 50.5 243.068 l 53.836 244.146 57.414 242.314
 58.492 238.978 c 59.566 235.638 57.734 232.06 54.398 230.986 c 12.691 217.517
 l 12.039 217.31 11.383 217.208 10.738 217.208 c h
10.738 217.208 m f
185.332 259.837 m 185.332 254.435 180.949 250.052 175.547 250.052 c 102.758
 250.052 l 100.059 250.052 97.609 251.146 95.836 252.915 c 94.066 254.689
 92.973 257.138 92.973 259.833 c 92.973 265.236 97.355 269.619 102.758 269.619
 c 175.547 269.619 l 178.246 269.619 180.695 268.525 182.469 266.755 c 184.238
 264.986 185.332 262.533 185.332 259.837 c h
185.332 259.837 m f
0.466667 0.843137 0.929412 rg
185.332 259.837 m 185.332 254.435 180.949 250.052 175.547 250.052 c 130.691
 250.052 l 127.992 250.052 125.543 251.146 123.77 252.915 c 122 254.689 
120.906 257.138 120.906 259.833 c 120.906 265.236 125.289 269.619 130.691
 269.619 c 175.547 269.619 l 178.246 269.619 180.695 268.525 182.469 266.755
 c 184.238 264.986 185.332 262.533 185.332 259.837 c h
185.332 259.837 m f
0.368627 0.760784 0.827451 rg
104.867 250.689 68.562 -11.43 re f
0.921569 0.188235 0.356863 rg
218.82 77.384 m 218.82 56.216 210.613 36.294 195.699 21.263 c 187.812 13.314
 178.531 7.232 168.402 3.232 c 162.719 4.247 157.113 5.497 151.598 6.982
 c 120.871 15.224 93.008 30.431 69.781 50.81 c 67.07 53.189 64.426 55.63
 61.848 58.154 c 60.285 64.38 59.477 70.829 59.477 77.384 c 59.477 92.333
 63.652 106.646 71.168 118.927 c 78.621 121.06 86.863 119.587 93.223 114.521
 c 93.23 114.513 l 102.184 107.38 114.887 107.38 123.84 114.513 c 123.848
 114.513 l 132.801 121.654 145.504 121.654 154.457 114.521 c 154.457 114.513
 l 163.418 107.38 176.121 107.38 185.074 114.513 c 189.562 118.083 194.969
 119.88 200.379 119.88 c 202.652 119.88 204.938 119.56 207.141 118.919 c
 214.645 106.634 218.82 92.326 218.82 77.384 c h
218.82 77.384 m f
0.466667 0.843137 0.929412 rg
96.156 77.06 m 96.156 71.978 92.035 67.857 86.953 67.857 c 81.867 67.857
 77.746 71.978 77.746 77.06 c 77.746 82.146 81.867 86.267 86.953 86.267 
c 92.035 86.267 96.156 82.146 96.156 77.06 c h
96.156 77.06 m f
1 g
126.961 304.365 m 126.961 299.283 122.84 295.161 117.758 295.161 c 112.672
 295.161 108.551 299.283 108.551 304.365 c 108.551 309.447 112.672 313.568
 117.758 313.568 c 122.84 313.568 126.961 309.447 126.961 304.365 c h
126.961 304.365 m f
0.639216 0.345098 0.584314 rg
338.363 297.259 m 338.363 292.173 334.242 288.052 329.16 288.052 c 324.078
 288.052 319.957 292.173 319.957 297.259 c 319.957 302.341 324.078 306.462
 329.16 306.462 c 334.242 306.462 338.363 302.341 338.363 297.259 c h
338.363 297.259 m f
324.496 335.81 m 324.496 327.896 318.082 321.482 310.168 321.482 c 302.258
 321.482 295.84 327.896 295.84 335.81 c 295.84 343.72 302.258 350.134 310.168
 350.134 c 318.082 350.134 324.496 343.72 324.496 335.81 c h
324.496 335.81 m f
1 g
157.027 292.384 m 157.027 289.841 154.965 287.779 152.426 287.779 c 149.883
 287.779 147.82 289.841 147.82 292.384 c 147.82 294.923 149.883 296.986 
152.426 296.986 c 154.965 296.986 157.027 294.923 157.027 292.384 c h
157.027 292.384 m f
145.621 347.599 m 145.621 339.24 138.844 332.462 130.484 332.462 c 122.125
 332.462 115.348 339.24 115.348 347.599 c 115.348 355.958 122.125 362.732
 130.484 362.732 c 138.844 362.732 145.621 355.958 145.621 347.599 c h
145.621 347.599 m f
0.466667 0.843137 0.929412 rg
189.922 58.122 m 189.922 53.04 185.801 48.919 180.715 48.919 c 175.633 
48.919 171.512 53.04 171.512 58.122 c 171.512 63.208 175.633 67.329 180.715
 67.329 c 185.801 67.329 189.922 63.208 189.922 58.122 c h
189.922 58.122 m f
130.758 51.185 m 130.758 48.294 128.41 45.951 125.52 45.951 c 122.629 45.951
 120.281 48.294 120.281 51.185 c 120.281 54.079 122.629 56.423 125.52 56.423
 c 128.41 56.423 130.758 54.079 130.758 51.185 c h
130.758 51.185 m f
157.105 81.822 m 157.105 79.017 154.828 76.744 152.023 76.744 c 149.219
 76.744 146.945 79.017 146.945 81.822 c 146.945 84.626 149.219 86.9 152.023
 86.9 c 154.828 86.9 157.105 84.626 157.105 81.822 c h
157.105 81.822 m f
48.656 120.036 m 48.711 120.044 l 48.668 119.994 l h
48.656 120.036 m f
0.368627 0.760784 0.827451 rg
203.504 153.9 m 212.973 145.302 l 243.445 233.548 l 229.922 235.712 l h
203.504 153.9 m f
Q Q
showpage
%%Trailer
end restore
%%EOF
