%!PS-Adobe-3.0 EPSF-3.0
%%Creator: cairo 1.14.2 (http://cairographics.org)
%%CreationDate: Wed Jul 12 12:57:24 2017
%%Pages: 1
%%DocumentData: Clean7Bit
%%LanguageLevel: 2
%%BoundingBox: 0 -1 410 410
%%EndComments
%%BeginProlog
save
50 dict begin
/q { gsave } bind def
/Q { grestore } bind def
/cm { 6 array astore concat } bind def
/w { setlinewidth } bind def
/J { setlinecap } bind def
/j { setlinejoin } bind def
/M { setmiterlimit } bind def
/d { setdash } bind def
/m { moveto } bind def
/l { lineto } bind def
/c { curveto } bind def
/h { closepath } bind def
/re { exch dup neg 3 1 roll 5 3 roll moveto 0 rlineto
      0 exch rlineto 0 rlineto closepath } bind def
/S { stroke } bind def
/f { fill } bind def
/f* { eofill } bind def
/n { newpath } bind def
/W { clip } bind def
/W* { eoclip } bind def
/BT { } bind def
/ET { } bind def
/pdfmark where { pop globaldict /?pdfmark /exec load put }
    { globaldict begin /?pdfmark /pop load def /pdfmark
    /cleartomark load def end } ifelse
/BDC { mark 3 1 roll /BDC pdfmark } bind def
/EMC { mark /EMC pdfmark } bind def
/cairo_store_point { /cairo_point_y exch def /cairo_point_x exch def } def
/Tj { show currentpoint cairo_store_point } bind def
/TJ {
  {
    dup
    type /stringtype eq
    { show } { -0.001 mul 0 cairo_font_matrix dtransform rmoveto } ifelse
  } forall
  currentpoint cairo_store_point
} bind def
/cairo_selectfont { cairo_font_matrix aload pop pop pop 0 0 6 array astore
    cairo_font exch selectfont cairo_point_x cairo_point_y moveto } bind def
/Tf { pop /cairo_font exch def /cairo_font_matrix where
      { pop cairo_selectfont } if } bind def
/Td { matrix translate cairo_font_matrix matrix concatmatrix dup
      /cairo_font_matrix exch def dup 4 get exch 5 get cairo_store_point
      /cairo_font where { pop cairo_selectfont } if } bind def
/Tm { 2 copy 8 2 roll 6 array astore /cairo_font_matrix exch def
      cairo_store_point /cairo_font where { pop cairo_selectfont } if } bind def
/g { setgray } bind def
/rg { setrgbcolor } bind def
/d1 { setcachedevice } bind def
%%EndProlog
%%BeginSetup
%%EndSetup
%%Page: 1 1
%%BeginPageSetup
%%PageBoundingBox: 0 -1 410 410
%%EndPageSetup
q 0 -1 410 411 rectclip q
0.333333 0.776471 0.631373 rg
409.602 204.794 m 409.602 183.797 406.438 163.528 400.559 144.458 c 400.559
 144.446 l 395.887 129.258 389.488 114.825 381.602 101.376 c 346.055 40.727
 280.18 0.001 204.805 0.001 c 194.164 0.001 183.707 0.809 173.504 2.379 
c 75.254 17.446 0 102.325 0 204.794 c 0 317.907 91.695 409.59 204.805 409.59
 c 317.906 409.59 409.602 317.907 409.602 204.794 c h
409.602 204.794 m f
0.788235 0.384314 0.109804 rg
336.105 235.36 m 336.105 232.196 336.008 229.063 335.82 225.946 c 273.039
 225.946 l 273.859 212.258 276.426 198.836 280.645 185.981 c 274.008 186.516
 267.348 186.79 260.691 186.801 c 257.078 199.477 254.883 212.594 254.172
 225.946 c 192.805 225.946 l 192.805 177.731 l 186.461 176.001 180.18 174.008
 173.973 171.762 c 173.973 225.946 l 112.602 225.946 l 110.629 188.657 97.023
 153.133 73.582 124.145 c 69.043 128.622 64.789 133.356 60.828 138.356 c
 80.402 163.563 91.852 194.012 93.734 225.946 c 27.367 225.946 l 27.18 229.063
 27.094 232.2 27.094 235.36 c 27.094 238.524 27.18 241.657 27.367 244.778
 c 93.738 244.778 l 91.855 276.708 80.406 307.157 60.828 332.368 c 64.789
 337.368 69.043 342.102 73.582 346.571 c 97.023 317.567 110.633 282.055 
112.605 244.778 c 173.973 244.778 l 173.973 391.372 l 177.09 391.559 180.227
 391.657 183.391 391.657 c 186.551 391.657 189.688 391.559 192.805 391.372
 c 192.805 244.774 l 254.172 244.774 l 256.145 282.055 269.754 317.567 293.203
 346.567 c 297.742 342.102 301.996 337.368 305.949 332.364 c 286.383 307.157
 274.934 276.708 273.039 244.774 c 335.82 244.774 l 336.008 241.657 336.105
 238.524 336.105 235.36 c h
336.105 235.36 m f
0.988235 0.517647 0.168627 rg
305.949 332.368 m 306.562 333.137 307.168 333.911 307.789 334.676 c 327.719
 309.743 340.316 278.688 342.297 244.778 c 273.039 244.778 l 274.934 276.708
 286.383 307.157 305.949 332.368 c h
305.949 332.368 m f
335.82 225.946 m 342.297 225.946 l 341.285 208.626 337.508 192.059 331.391
 176.665 c 314.777 181.504 297.77 184.606 280.645 185.981 c 276.426 198.836
 273.855 212.258 273.039 225.946 c h
335.82 225.946 m f
260.695 186.797 m 260.215 186.797 l 237.52 186.797 214.824 183.778 192.805
 177.731 c 192.805 225.946 l 254.172 225.946 l 254.883 212.594 257.078 199.473
 260.695 186.797 c h
260.695 186.797 m f
295.043 348.817 m 294.422 348.071 293.809 347.325 293.203 346.571 c 269.754
 317.567 256.145 282.055 254.176 244.778 c 192.805 244.778 l 192.805 394.258
 l 232.562 391.942 268.402 375.036 295.043 348.817 c h
295.043 348.817 m f
60.828 332.368 m 80.402 307.157 91.855 276.708 93.738 244.778 c 24.488 
244.778 l 26.469 278.688 39.066 309.743 59 334.676 c 59.621 333.911 60.223
 333.137 60.828 332.368 c h
60.828 332.368 m f
60.828 138.352 m 60.223 137.583 59.621 136.809 58.996 136.044 c 39.066 
160.977 26.469 192.032 24.488 225.946 c 93.738 225.946 l 91.855 194.012 
80.406 163.563 60.828 138.352 c h
60.828 138.352 m f
173.973 225.946 m 173.973 171.762 l 139.41 159.297 107.07 139.09 79.73 
111.129 c 79.711 111.122 l 71.742 121.903 l 72.363 122.649 72.977 123.395
 73.582 124.141 c 97.023 153.133 110.629 188.657 112.602 225.946 c h
173.973 225.946 m f
173.973 391.372 m 173.973 244.774 l 112.602 244.774 l 110.633 282.055 97.023
 317.567 73.582 346.567 c 72.977 347.325 72.367 348.071 71.742 348.817 c
 98.383 375.036 134.223 391.942 173.973 394.258 c h
173.973 391.372 m f
0.6 0.27451 0.054902 rg
400.691 144.368 m 400.559 144.446 l 400.559 144.446 399.34 141.188 397.422
 136.348 c 393.566 126.586 386.879 110.364 381.602 101.376 c 346.055 40.727
 280.18 0.001 204.805 0.001 c 194.164 0.001 183.707 0.809 173.504 2.379 
c 137.52 15.438 103.961 36.899 75.953 66.778 c 71.672 71.336 67.523 76.086
 63.52 81.044 c 62.117 82.778 61.414 84.883 61.414 86.989 c 61.414 89.09
 62.117 91.196 63.52 92.93 c 68.688 99.317 74.09 105.383 79.711 111.122 
c 79.73 111.129 l 107.07 139.09 139.41 159.297 173.973 171.762 c 180.184
 174.008 186.461 175.997 192.805 177.731 c 214.824 183.778 237.52 186.797
 260.215 186.797 c 260.695 186.797 l 267.348 186.79 274.008 186.516 280.645
 185.981 c 297.77 184.606 314.781 181.504 331.391 176.665 c 348.676 171.629
 365.527 164.727 381.602 155.934 c 383.84 154.715 386.07 153.454 388.273
 152.157 c 388.559 151.989 388.832 151.829 389.117 151.661 c 390.129 151.063
 391.133 150.454 392.137 149.84 c 393.152 149.227 394.164 148.594 395.176
 147.958 c 395.531 147.723 395.895 147.504 396.258 147.262 c 396.934 146.836
 397.602 146.403 398.273 145.965 c 399.039 145.469 399.805 144.961 400.559
 144.458 c 400.609 144.422 400.656 144.395 400.691 144.368 c h
400.691 144.368 m f
0.666667 0.313726 0.0745098 rg
397.422 136.348 m 393.566 126.586 386.879 110.364 381.602 101.376 c 346.055
 40.727 280.18 0.001 204.805 0.001 c 194.164 0.001 183.707 0.809 173.504
 2.379 c 137.52 15.438 103.961 36.899 75.953 66.778 c 76.293 67.544 76.734
 68.27 77.277 68.938 c 82.562 75.477 88.098 81.684 93.852 87.563 c 93.871
 87.571 l 121.859 116.2 154.965 136.887 190.352 149.645 c 196.703 151.946
 203.133 153.977 209.629 155.754 c 232.172 161.946 255.406 165.036 278.637
 165.036 c 279.133 165.036 l 285.938 165.028 292.758 164.747 299.555 164.204
 c 317.09 162.79 334.496 159.618 351.5 154.661 c 367.246 150.071 382.633
 143.977 397.422 136.348 c h
397.422 136.348 m f
0.447059 0.2 0.027451 rg
353.398 141.626 m 283.219 154.403 234.254 154.403 164.078 141.626 c 166.109
 130.473 l 214.258 139.239 303.219 139.239 351.367 130.473 c h
353.398 141.626 m f
0.8 g
166.102 117.692 m 164.418 117.692 162.926 118.891 162.609 120.606 c 157.273
 149.922 l 156.922 151.852 158.203 153.704 160.133 154.055 c 162.062 154.403
 163.914 153.126 164.266 151.196 c 169.602 121.879 l 169.953 119.95 168.672
 118.098 166.742 117.747 c 166.527 117.708 166.312 117.692 166.102 117.692
 c h
166.102 117.692 m f
258.738 126.055 m 256.773 126.055 255.184 127.645 255.184 129.606 c 255.184
 159.403 l 255.184 161.368 256.777 162.958 258.738 162.958 c 260.699 162.958
 262.289 161.364 262.289 159.403 c 262.289 129.606 l 262.289 127.645 260.699
 126.055 258.738 126.055 c h
258.738 126.055 m f
227.746 125.126 m 225.879 125.126 224.316 126.579 224.203 128.465 c 222.414
 158.208 l 222.297 160.165 223.793 161.848 225.75 161.965 c 227.695 162.083
 229.391 160.594 229.508 158.633 c 231.297 128.891 l 231.414 126.93 229.922
 125.247 227.961 125.129 c 227.891 125.126 227.816 125.126 227.746 125.126
 c h
227.746 125.126 m f
289.73 125.126 m 289.656 125.126 289.586 125.126 289.512 125.129 c 287.555
 125.247 286.062 126.93 286.18 128.891 c 287.965 158.633 l 288.082 160.594
 289.793 162.083 291.723 161.965 c 293.68 161.848 295.176 160.165 295.059
 158.208 c 293.273 128.465 l 293.16 126.579 291.594 125.126 289.73 125.126
 c h
289.73 125.126 m f
196.84 122.336 m 195.066 122.336 193.531 123.661 193.316 125.465 c 189.75
 155.047 l 189.516 156.997 190.902 158.766 192.852 159.001 c 194.805 159.235
 196.57 157.848 196.805 155.899 c 200.371 126.317 l 200.605 124.368 199.215
 122.598 197.27 122.364 c 197.125 122.344 196.98 122.336 196.84 122.336 
c h
196.84 122.336 m f
320.633 122.336 m 320.492 122.336 320.348 122.344 320.203 122.36 c 318.258
 122.594 316.867 124.364 317.102 126.313 c 320.668 155.899 l 320.902 157.848
 322.68 159.235 324.621 159.001 c 326.57 158.766 327.957 156.997 327.723
 155.047 c 324.156 125.465 l 323.938 123.661 322.406 122.336 320.633 122.336
 c h
320.633 122.336 m f
351.371 117.692 m 351.16 117.692 350.945 117.708 350.73 117.747 c 348.797
 118.098 347.52 119.95 347.871 121.879 c 353.207 151.196 l 353.559 153.126
 355.41 154.403 357.336 154.055 c 359.27 153.704 360.547 151.856 360.199
 149.922 c 354.859 120.606 l 354.551 118.891 353.055 117.692 351.371 117.692
 c h
351.371 117.692 m f
1 g
111.281 138.461 m 120.145 144.934 129.348 150.762 138.824 155.942 c 138.824
 18.032 l 129.355 23.2 120.145 29.028 111.281 35.512 c h
111.281 138.461 m f
0.901961 g
138.824 155.942 m 138.824 124.223 l 129.293 118.11 120.09 111.305 111.281
 103.801 c 111.281 138.461 l 120.145 144.934 129.348 150.762 138.824 155.942
 c h
138.824 155.942 m f
1 g
400.559 144.458 m 400.559 144.446 l 395.887 129.258 389.488 114.825 381.602
 101.376 c 381.602 155.934 l 383.84 154.708 386.062 153.454 388.273 152.157
 c 388.559 151.989 388.832 151.829 389.117 151.661 c 390.129 151.063 391.133
 150.454 392.137 149.84 c 393.148 149.227 394.164 148.594 395.176 147.958
 c 395.531 147.723 395.895 147.504 396.258 147.262 c 396.934 146.836 397.602
 146.403 398.273 145.965 c 399.039 145.469 399.801 144.961 400.559 144.458
 c h
400.559 144.458 m f
0.917647 0.462745 0.156863 rg
81.664 296.754 m 74.801 280.618 70.492 263.118 69.273 244.774 c 24.488 
244.774 l 26.469 278.688 39.066 309.743 58.996 334.676 c 59.621 333.911 
60.223 333.137 60.828 332.364 c 69.355 321.387 76.336 309.415 81.664 296.754
 c h
81.664 296.754 m f
81.035 172.508 m 75.793 160.383 69.027 148.907 60.828 138.352 c 60.223 
137.583 59.621 136.809 58.996 136.044 c 39.066 160.977 26.469 192.032 24.488
 225.946 c 69.098 225.946 l 70.012 207.094 74.168 189.098 81.035 172.508
 c h
81.035 172.508 m f
104.324 133.192 m 95.762 126.477 87.539 119.114 79.73 111.129 c 79.711 
111.122 l 71.742 121.903 l 72.367 122.649 72.977 123.395 73.582 124.141 
c 80.484 132.676 86.531 141.782 91.676 151.333 c 95.477 144.989 99.707 138.922
 104.324 133.192 c h
104.324 133.192 m f
173.973 394.258 m 173.973 384.727 l 139.898 372.141 111.262 348.344 92.527
 317.809 c 87.199 327.934 80.867 337.563 73.582 346.571 c 72.98 347.325 
72.367 348.071 71.746 348.817 c 98.383 375.036 134.223 391.942 173.973 394.258
 c h
173.973 394.258 m f
Q Q
showpage
%%Trailer
end restore
%%EOF
