%!PS-Adobe-3.0 EPSF-3.0
%%Creator: cairo 1.14.2 (http://cairographics.org)
%%CreationDate: Wed Jul 12 12:57:24 2017
%%Pages: 1
%%DocumentData: Clean7Bit
%%LanguageLevel: 2
%%BoundingBox: 0 -1 410 410
%%EndComments
%%BeginProlog
save
50 dict begin
/q { gsave } bind def
/Q { grestore } bind def
/cm { 6 array astore concat } bind def
/w { setlinewidth } bind def
/J { setlinecap } bind def
/j { setlinejoin } bind def
/M { setmiterlimit } bind def
/d { setdash } bind def
/m { moveto } bind def
/l { lineto } bind def
/c { curveto } bind def
/h { closepath } bind def
/re { exch dup neg 3 1 roll 5 3 roll moveto 0 rlineto
      0 exch rlineto 0 rlineto closepath } bind def
/S { stroke } bind def
/f { fill } bind def
/f* { eofill } bind def
/n { newpath } bind def
/W { clip } bind def
/W* { eoclip } bind def
/BT { } bind def
/ET { } bind def
/pdfmark where { pop globaldict /?pdfmark /exec load put }
    { globaldict begin /?pdfmark /pop load def /pdfmark
    /cleartomark load def end } ifelse
/BDC { mark 3 1 roll /BDC pdfmark } bind def
/EMC { mark /EMC pdfmark } bind def
/cairo_store_point { /cairo_point_y exch def /cairo_point_x exch def } def
/Tj { show currentpoint cairo_store_point } bind def
/TJ {
  {
    dup
    type /stringtype eq
    { show } { -0.001 mul 0 cairo_font_matrix dtransform rmoveto } ifelse
  } forall
  currentpoint cairo_store_point
} bind def
/cairo_selectfont { cairo_font_matrix aload pop pop pop 0 0 6 array astore
    cairo_font exch selectfont cairo_point_x cairo_point_y moveto } bind def
/Tf { pop /cairo_font exch def /cairo_font_matrix where
      { pop cairo_selectfont } if } bind def
/Td { matrix translate cairo_font_matrix matrix concatmatrix dup
      /cairo_font_matrix exch def dup 4 get exch 5 get cairo_store_point
      /cairo_font where { pop cairo_selectfont } if } bind def
/Tm { 2 copy 8 2 roll 6 array astore /cairo_font_matrix exch def
      cairo_store_point /cairo_font where { pop cairo_selectfont } if } bind def
/g { setgray } bind def
/rg { setrgbcolor } bind def
/d1 { setcachedevice } bind def
%%EndProlog
%%BeginSetup
%%EndSetup
%%Page: 1 1
%%BeginPageSetup
%%PageBoundingBox: 0 -1 410 410
%%EndPageSetup
q 0 -1 410 411 rectclip q
0.913725 0.894118 0.847059 rg
409.594 204.798 m 409.594 91.693 317.902 0.001 204.797 0.001 c 91.691 0.001
 0 91.693 0 204.798 c 0 317.904 91.691 409.595 204.797 409.595 c 317.902
 409.595 409.594 317.904 409.594 204.798 c h
409.594 204.798 m f
0.941176 0.627451 0.215686 rg
46.324 165.037 m 39.684 150.994 33.887 130.615 43.902 113.259 c 53.133 
97.271 72.777 89.048 100.062 89.048 c 111.996 89.048 125.383 90.615 140.012
 93.81 c 139.102 96.662 138.23 99.583 137.379 102.587 c 136.484 105.767 
135.633 108.99 134.828 112.275 c 97.066 104.255 68.988 108.107 60.488 122.83
 c 54.609 133.009 58.953 146.951 63.633 156.853 c h
46.324 165.037 m f
63.113 191.912 m 78.301 180.255 l 81.402 184.291 84.82 188.38 88.512 192.486
 c 86.074 194.822 83.703 197.173 81.402 199.541 c 79.227 201.775 77.129 
203.998 75.113 206.22 c 70.773 201.439 66.754 196.654 63.113 191.912 c h
63.113 191.912 m f
0.196078 0.666667 0.807843 rg
43.902 299.181 m 57.188 322.162 91.961 329.107 140.023 318.63 c 139.102
 315.771 138.223 312.837 137.379 309.841 c 136.484 306.673 135.633 303.439
 134.828 300.162 c 97.074 308.181 68.996 304.33 60.488 289.607 c 51.984 
274.876 62.699 248.638 88.52 219.943 c 90.621 217.607 92.824 215.259 95.121
 212.9 c 97.297 210.662 99.551 208.423 101.863 206.22 c 108.863 199.486 
116.469 192.869 124.625 186.396 c 124.934 179.291 125.414 172.244 126.066
 165.31 c 126.203 163.857 126.34 162.408 126.496 160.966 c 112.523 171.087
 99.801 181.65 88.512 192.486 c 86.074 194.822 83.703 197.173 81.402 199.541
 c 79.227 201.775 77.129 203.998 75.113 206.22 c 42.02 242.611 30.637 276.197
 43.902 299.181 c h
43.902 299.181 m f
0.941176 0.627451 0.215686 rg
88.52 219.943 m 90.617 217.607 92.824 215.259 95.121 212.9 c 97.297 210.662
 99.547 208.423 101.863 206.22 c 108.863 212.943 116.469 219.568 124.625
 226.041 c 124.93 233.15 125.414 240.197 126.066 247.126 c 126.203 248.583
 126.348 250.041 126.492 251.486 c 112.523 241.361 99.793 230.791 88.52 
219.943 c h
88.52 219.943 m f
0.921569 0.188235 0.356863 rg
126.066 247.126 m 125.414 240.197 124.934 233.15 124.625 226.041 c 129.902
 230.24 135.41 234.369 141.133 238.419 c 141.23 238.49 141.324 238.556 141.414
 238.626 c 142.52 239.408 143.629 240.189 144.746 240.955 c 144.871 242.427
 144.992 243.888 145.129 245.341 c 145.789 252.337 146.617 259.177 147.613
 265.849 c 141.59 262.009 135.727 258.064 130.059 254.044 c 129.965 253.982
 129.871 253.916 129.789 253.845 c 128.688 253.064 127.582 252.275 126.496
 251.486 c 126.348 250.037 126.203 248.583 126.066 247.126 c h
126.066 247.126 m f
134.828 300.162 m 135.633 303.439 136.484 306.673 137.379 309.841 c 138.223
 312.837 139.102 315.771 140.023 318.63 c 144.074 331.306 148.801 342.65
 154.113 352.439 c 170.941 343.298 l 166.348 334.837 162.211 324.97 158.617
 313.896 c 157.637 310.9 156.703 307.814 155.809 304.642 c 154.957 301.642
 154.145 298.576 153.387 295.466 c 151.066 286.052 149.137 276.158 147.609
 265.849 c 141.59 262.009 135.723 258.064 130.055 254.044 c 129.965 253.982
 129.871 253.916 129.789 253.845 c 128.684 253.064 127.582 252.275 126.496
 251.486 c 128.297 268.666 131.074 284.982 134.828 300.162 c h
134.828 300.162 m f
124.625 226.041 m 129.902 230.24 135.41 234.369 141.133 238.419 c 141.23
 238.49 141.324 238.556 141.414 238.626 c 142.52 239.408 143.629 240.189
 144.746 240.955 c 143.812 229.587 143.336 217.923 143.336 206.22 c 143.336
 194.505 143.812 182.853 144.746 171.486 c 144.871 170.013 144.992 168.552
 145.129 167.095 c 145.781 160.103 146.609 153.263 147.605 146.599 c 149.137
 136.287 151.066 126.392 153.387 116.97 c 154.152 113.861 154.957 110.798
 155.809 107.794 c 156.703 104.615 157.637 101.537 158.617 98.541 c 170.551
 61.83 187.922 39.443 204.922 39.443 c 221.914 39.443 239.289 61.83 251.23
 98.541 c 254.484 97.591 257.707 96.72 260.902 95.908 c 263.914 95.15 266.895
 94.443 269.828 93.81 c 254.852 46.951 231.453 20.294 204.922 20.294 c 178.387
 20.294 154.988 46.951 140.012 93.81 c 139.102 96.658 138.23 99.583 137.379
 102.587 c 136.484 105.767 135.633 108.99 134.828 112.275 c 131.074 127.47
 128.289 143.787 126.496 160.966 c 126.344 162.408 126.203 163.853 126.066
 165.31 c 125.414 172.24 124.934 179.287 124.625 186.396 c 124.336 192.966
 124.191 199.583 124.191 206.216 c 124.191 212.853 124.336 219.47 124.625
 226.041 c h
124.625 226.041 m f
0.196078 0.666667 0.807843 rg
155.809 304.642 m 154.957 301.638 154.145 298.576 153.387 295.466 c 162.703
 292.775 172.238 289.498 181.934 285.669 c 188.238 288.947 194.578 292.048
 200.922 294.958 c 202.254 295.572 203.586 296.177 204.914 296.767 c 189.148
 303.806 173.633 309.544 158.621 313.892 c 157.637 310.9 156.703 307.814
 155.809 304.642 c h
155.809 304.642 m f
0.941176 0.627451 0.215686 rg
153.387 116.97 m 154.152 113.861 154.957 110.798 155.809 107.794 c 156.703
 104.619 157.637 101.537 158.621 98.544 c 173.617 102.884 189.141 108.63
 204.922 115.677 c 203.59 116.267 202.254 116.873 200.922 117.486 c 194.578
 120.396 188.23 123.498 181.926 126.775 c 172.23 122.939 162.695 119.662
 153.387 116.97 c h
153.387 116.97 m f
0.921569 0.188235 0.356863 rg
173.738 378.701 m 186.684 364.595 l 192.758 370.169 198.891 372.998 204.922
 372.998 c 221.914 372.998 239.289 350.599 251.23 313.888 c 254.477 314.837
 257.699 315.712 260.895 316.525 c 263.922 317.291 266.898 317.994 269.824
 318.63 c 254.852 365.49 231.453 392.146 204.918 392.146 c 193.953 392.142
 183.457 387.619 173.738 378.701 c h
173.738 378.701 m f
256.453 295.466 m 258.773 286.052 260.711 276.15 262.234 265.837 c 268.254
 262.009 274.121 258.064 279.781 254.044 c 279.871 253.982 279.965 253.916
 280.059 253.845 c 281.16 253.064 282.254 252.275 283.344 251.486 c 281.551
 268.673 278.762 284.978 275.016 300.162 c 271.938 299.509 268.805 298.775
 265.602 297.962 c 262.582 297.197 259.531 296.369 256.453 295.466 c h
256.453 295.466 m f
262.234 146.599 m 260.703 136.287 258.773 126.384 256.453 116.962 c 259.531
 116.068 262.582 115.24 265.605 114.474 c 268.793 113.669 271.934 112.935
 275.02 112.287 c 278.766 127.474 281.555 143.787 283.344 160.962 c 282.258
 160.173 281.164 159.384 280.059 158.603 c 279.969 158.533 279.875 158.462
 279.785 158.404 c 274.121 154.38 268.254 150.435 262.234 146.599 c h
262.234 146.599 m f
265.094 240.962 m 266.035 229.587 266.508 217.923 266.508 206.22 c 266.508
 194.505 266.035 182.841 265.094 171.474 c 266.211 172.259 267.328 173.037
 268.434 173.822 c 268.516 173.888 268.617 173.958 268.707 174.029 c 274.43
 178.08 279.938 182.208 285.215 186.404 c 285.512 192.97 285.656 199.587
 285.656 206.22 c 285.656 212.853 285.512 219.47 285.215 226.041 c 279.938
 230.24 274.43 234.369 268.707 238.419 c 268.617 238.49 268.516 238.556 
268.434 238.626 c 267.328 239.408 266.211 240.189 265.094 240.962 c h
265.094 240.962 m f
0.196078 0.666667 0.807843 rg
174.129 152.888 m 184.227 147.056 194.559 141.634 204.914 136.748 c 206.246
 136.123 207.578 135.501 208.91 134.888 c 215.301 131.955 221.633 129.251
 227.898 126.775 c 237.602 122.939 247.145 119.662 256.453 116.966 c 259.531
 116.068 262.578 115.24 265.605 114.474 c 268.793 113.669 271.934 112.935
 275.02 112.287 c 283.023 110.587 290.66 109.404 297.812 108.771 c 296.121
 89.697 l 287.832 90.431 279.027 91.81 269.824 93.81 c 266.891 94.447 263.914
 95.15 260.902 95.908 c 257.707 96.72 254.484 97.595 251.227 98.544 c 236.23
 102.888 220.711 108.63 204.918 115.677 c 203.586 116.267 202.254 116.873
 200.922 117.486 c 194.578 120.396 188.23 123.498 181.926 126.779 c 176.082
 129.818 170.277 132.998 164.547 136.306 c 158.793 139.638 153.133 143.068
 147.605 146.599 c 146.609 153.263 145.781 160.103 145.129 167.095 c 144.992
 168.552 144.871 170.013 144.746 171.486 c 154.07 165.021 163.941 158.775
 174.129 152.888 c h
174.129 152.888 m f
208.91 277.56 m 215.301 280.494 221.633 283.197 227.898 285.669 c 233.75
 282.63 239.555 279.443 245.293 276.134 c 251.043 272.81 256.703 269.373
 262.234 265.841 c 268.258 262.009 274.121 258.064 279.781 254.044 c 279.875
 253.982 279.965 253.916 280.059 253.845 c 281.16 253.064 282.258 252.275
 283.344 251.486 c 297.312 241.361 310.043 230.791 321.32 219.951 c 319.219
 217.615 317.023 215.263 314.719 212.896 c 312.543 210.662 310.289 208.423
 307.977 206.22 c 300.977 212.943 293.371 219.568 285.215 226.041 c 279.938
 230.236 274.43 234.365 268.707 238.419 c 268.617 238.49 268.516 238.556
 268.434 238.626 c 267.328 239.408 266.211 240.189 265.094 240.962 c 255.762
 247.435 245.898 253.669 235.719 259.552 c 225.609 265.388 215.262 270.81
 204.914 275.697 c 206.246 276.326 207.578 276.947 208.91 277.56 c h
208.91 277.56 m f
0.941176 0.627451 0.215686 rg
145.129 245.341 m 145.789 252.337 146.617 259.177 147.613 265.849 c 153.141
 269.38 158.793 272.818 164.547 276.134 c 170.277 279.443 176.09 282.638
 181.934 285.669 c 188.238 288.951 194.578 292.052 200.922 294.962 c 202.254
 295.576 203.586 296.181 204.91 296.771 c 220.699 303.806 236.215 309.552
 251.23 313.888 c 254.477 314.837 257.699 315.708 260.895 316.521 c 263.922
 317.291 266.898 317.994 269.824 318.63 c 317.891 329.099 352.672 322.162
 365.938 299.181 c 379.203 276.197 367.82 242.611 334.723 206.22 c 332.711
 203.998 330.609 201.779 328.438 199.541 c 326.137 197.173 323.766 194.822
 321.328 192.486 c 310.047 181.65 297.316 171.08 283.344 160.962 c 282.258
 160.173 281.16 159.384 280.059 158.603 c 279.969 158.533 279.875 158.462
 279.785 158.404 c 274.125 154.38 268.258 150.435 262.238 146.599 c 256.707
 143.068 251.047 139.63 245.293 136.306 c 239.559 132.998 233.75 129.81 
227.898 126.775 c 221.633 129.251 215.301 131.955 208.91 134.888 c 207.578
 135.501 206.246 136.123 204.914 136.748 c 215.262 141.626 225.609 147.052
 235.711 152.888 c 245.898 158.775 255.766 165.009 265.094 171.474 c 266.211
 172.259 267.332 173.037 268.434 173.822 c 268.52 173.888 268.617 173.958
 268.707 174.029 c 274.43 178.08 279.938 182.208 285.215 186.404 c 293.371
 192.869 300.977 199.486 307.977 206.22 c 310.289 208.427 312.543 210.662
 314.719 212.9 c 317.023 215.267 319.223 217.619 321.32 219.955 c 347.141
 248.638 357.855 274.888 349.355 289.607 c 340.844 304.33 312.773 308.181
 275.02 300.162 c 271.938 299.513 268.805 298.775 265.605 297.966 c 262.578
 297.197 259.531 296.373 256.453 295.466 c 247.137 292.779 237.594 289.494
 227.898 285.673 c 221.633 283.197 215.297 280.494 208.91 277.56 c 207.578
 276.947 206.246 276.326 204.91 275.697 c 194.559 270.814 184.223 265.388
 174.129 259.552 c 163.941 253.669 154.066 247.419 144.746 240.955 c 144.871
 242.427 144.992 243.888 145.129 245.341 c h
145.129 245.341 m f
0.196078 0.666667 0.807843 rg
325.027 109.38 m 328.191 90.494 l 346.008 93.47 359.059 101.345 365.938
 113.255 c 379.211 136.244 367.82 169.83 334.723 206.22 c 332.711 203.998
 330.609 201.775 328.438 199.541 c 326.137 197.173 323.766 194.822 321.328
 192.486 c 347.148 163.802 357.855 137.552 349.355 122.83 c 345.379 115.939
 337.191 111.412 325.027 109.38 c h
325.027 109.38 m f
194.785 360.474 m 194.785 347.013 183.875 336.103 170.414 336.103 c 156.953
 336.103 146.039 347.013 146.039 360.474 c 146.039 373.935 156.953 384.845
 170.414 384.845 c 183.875 384.845 194.785 373.935 194.785 360.474 c h
194.785 360.474 m f
0.921569 0.188235 0.356863 rg
86.996 173.06 m 86.996 159.599 76.082 148.689 62.621 148.689 c 49.164 148.689
 38.25 159.599 38.25 173.06 c 38.25 186.521 49.164 197.431 62.621 197.431
 c 76.082 197.431 86.996 186.521 86.996 173.06 c h
86.996 173.06 m f
0.941176 0.627451 0.215686 rg
287.16 98.427 m 287.16 84.962 298.074 74.056 311.531 74.056 c 321.391 74.056
 329.875 79.9 333.711 88.318 c 335.121 91.396 335.902 94.822 335.902 98.427
 c 335.902 111.884 324.996 122.802 311.531 122.802 c 307.926 122.802 304.5
 122.021 301.422 120.611 c 293.012 116.771 287.16 108.279 287.16 98.427 
c h
287.16 98.427 m f
0.976471 0.705882 0.384314 rg
299.23 110.498 m 299.23 97.033 310.145 86.126 323.602 86.126 c 327.211 
86.126 330.633 86.908 333.711 88.318 c 335.121 91.396 335.902 94.822 335.902
 98.427 c 335.902 111.884 324.996 122.798 311.531 122.798 c 307.926 122.798
 304.5 122.021 301.422 120.611 c 300.012 117.529 299.23 114.107 299.23 110.498
 c h
299.23 110.498 m f
0.976471 0.419608 0.568627 rg
50.32 185.134 m 50.32 171.669 61.234 160.763 74.691 160.763 c 78.297 160.763
 81.723 161.544 84.801 162.955 c 86.211 166.033 86.992 169.458 86.992 173.064
 c 86.992 186.521 76.086 197.435 62.621 197.435 c 59.012 197.435 55.59 196.658
 52.508 195.248 c 51.098 192.166 50.32 188.744 50.32 185.134 c h
50.32 185.134 m f
0.415686 0.807843 0.898039 rg
158.113 372.541 m 158.113 359.076 169.027 348.169 182.484 348.169 c 186.094
 348.169 189.516 348.951 192.598 350.361 c 194.004 353.439 194.785 356.865
 194.785 360.47 c 194.785 373.927 183.879 384.841 170.414 384.841 c 166.809
 384.841 163.383 384.064 160.305 382.654 c 158.895 379.572 158.113 376.15
 158.113 372.541 c h
158.113 372.541 m f
Q Q
showpage
%%Trailer
end restore
%%EOF
