%!PS-Adobe-3.0 EPSF-3.0
%%Creator: cairo 1.14.2 (http://cairographics.org)
%%CreationDate: Wed Jul 12 12:57:24 2017
%%Pages: 1
%%DocumentData: Clean7Bit
%%LanguageLevel: 2
%%BoundingBox: 0 -1 410 410
%%EndComments
%%BeginProlog
save
50 dict begin
/q { gsave } bind def
/Q { grestore } bind def
/cm { 6 array astore concat } bind def
/w { setlinewidth } bind def
/J { setlinecap } bind def
/j { setlinejoin } bind def
/M { setmiterlimit } bind def
/d { setdash } bind def
/m { moveto } bind def
/l { lineto } bind def
/c { curveto } bind def
/h { closepath } bind def
/re { exch dup neg 3 1 roll 5 3 roll moveto 0 rlineto
      0 exch rlineto 0 rlineto closepath } bind def
/S { stroke } bind def
/f { fill } bind def
/f* { eofill } bind def
/n { newpath } bind def
/W { clip } bind def
/W* { eoclip } bind def
/BT { } bind def
/ET { } bind def
/pdfmark where { pop globaldict /?pdfmark /exec load put }
    { globaldict begin /?pdfmark /pop load def /pdfmark
    /cleartomark load def end } ifelse
/BDC { mark 3 1 roll /BDC pdfmark } bind def
/EMC { mark /EMC pdfmark } bind def
/cairo_store_point { /cairo_point_y exch def /cairo_point_x exch def } def
/Tj { show currentpoint cairo_store_point } bind def
/TJ {
  {
    dup
    type /stringtype eq
    { show } { -0.001 mul 0 cairo_font_matrix dtransform rmoveto } ifelse
  } forall
  currentpoint cairo_store_point
} bind def
/cairo_selectfont { cairo_font_matrix aload pop pop pop 0 0 6 array astore
    cairo_font exch selectfont cairo_point_x cairo_point_y moveto } bind def
/Tf { pop /cairo_font exch def /cairo_font_matrix where
      { pop cairo_selectfont } if } bind def
/Td { matrix translate cairo_font_matrix matrix concatmatrix dup
      /cairo_font_matrix exch def dup 4 get exch 5 get cairo_store_point
      /cairo_font where { pop cairo_selectfont } if } bind def
/Tm { 2 copy 8 2 roll 6 array astore /cairo_font_matrix exch def
      cairo_store_point /cairo_font where { pop cairo_selectfont } if } bind def
/g { setgray } bind def
/rg { setrgbcolor } bind def
/d1 { setcachedevice } bind def
%%EndProlog
%%BeginSetup
%%EndSetup
%%Page: 1 1
%%BeginPageSetup
%%PageBoundingBox: 0 -1 410 410
%%EndPageSetup
q 0 -1 410 411 rectclip q
0.258824 0.341176 0.498039 rg
409.602 204.794 m 409.602 152.575 390.051 104.919 357.875 68.743 c 320.367
 26.567 265.684 0.001 204.805 0.001 c 161.625 0.001 121.566 13.368 88.531
 36.188 c 74.988 45.532 62.629 56.477 51.723 68.743 c 19.551 104.919 0 152.575
 0 204.794 c 0 257.016 19.551 304.669 51.723 340.848 c 51.758 340.883 l 
65.004 355.77 80.395 368.723 97.449 379.231 c 128.664 398.477 165.438 409.59
 204.805 409.59 c 244.164 409.59 280.938 398.477 312.152 379.231 c 321.043
 373.751 329.48 367.61 337.395 360.879 c 338.914 359.583 340.414 358.278
 341.891 356.934 c 347.512 351.872 352.848 346.497 357.879 340.848 c 390.051
 304.669 409.602 257.016 409.602 204.794 c h
409.602 204.794 m f
0.223529 0.6 0.454902 rg
357.875 363.231 m 357.875 289.622 l 357.875 298.461 350.727 305.614 341.887
 305.622 c 341.887 360.879 l 75.414 360.879 l 75.414 308.376 l 75.297 308.083
 l 61.504 313.395 51.723 326.77 51.723 342.43 c 51.723 352.59 55.844 361.794
 62.508 368.458 c 69.16 375.11 78.363 379.231 88.531 379.231 c 341.879 379.231
 l 350.719 379.231 357.875 372.071 357.875 363.231 c h
357.875 363.231 m f
0.333333 0.776471 0.631373 rg
357.875 264.2 m 357.875 68.743 l 320.367 26.567 265.684 0.001 204.805 0.001
 c 161.625 0.001 121.566 13.368 88.531 36.188 c 88.531 305.622 l 316.457
 305.622 l 316.465 282.739 335.004 264.2 357.875 264.2 c h
357.875 264.2 m f
0.941176 0.627451 0.215686 rg
357.875 289.622 m 357.875 264.2 l 335.004 264.2 316.465 282.739 316.457
 305.622 c 341.887 305.622 l 350.727 305.614 357.875 298.461 357.875 289.622
 c h
357.875 289.622 m f
0.913725 0.894118 0.847059 rg
316.457 305.622 m 88.531 305.622 l 83.867 305.622 79.402 306.493 75.297
 308.083 c 75.41 308.376 l 75.41 360.879 l 341.887 360.879 l 341.887 305.622
 l h
316.457 305.622 m f
0.254902 0.666667 0.517647 rg
88.531 305.622 m 88.531 36.188 l 74.988 45.532 62.629 56.477 51.723 68.743
 c 51.723 342.43 l 51.723 341.915 51.73 341.399 51.758 340.883 c 52.371 
325.899 61.957 313.215 75.297 308.083 c 79.402 306.493 83.867 305.622 88.531
 305.622 c h
88.531 305.622 m f
0.847059 0.823529 0.772549 rg
75.414 339.751 266.477 -4.16 re f
75.414 347.657 266.477 -4.16 re f
75.414 355.559 266.477 -4.164 re f
75.414 323.95 266.477 -4.16 re f
75.414 331.856 266.477 -4.164 re f
75.414 316.055 266.477 -4.164 re f
0.941176 0.627451 0.215686 rg
147.031 247.817 152.344 -59.512 re f
0.223529 0.6 0.454902 rg
299.375 256.704 m 147.031 256.704 l 142.129 256.704 138.152 252.727 138.152
 247.821 c 138.152 188.309 l 138.152 183.407 142.129 179.426 147.031 179.426
 c 299.375 179.426 l 304.281 179.426 308.258 183.407 308.258 188.309 c 308.258
 247.821 l 308.258 252.727 304.281 256.704 299.375 256.704 c h
299.375 188.309 m 147.031 188.309 l 147.031 247.821 l 299.375 247.821 l
 h
299.375 188.309 m f
0.117647 0.192157 0.376471 rg
162.949 213.176 120.512 -8.883 re f
162.949 231.829 120.512 -8.883 re f
Q Q
showpage
%%Trailer
end restore
%%EOF
