%!PS-Adobe-3.0 EPSF-3.0
%%Creator: cairo 1.14.2 (http://cairographics.org)
%%CreationDate: Wed Jul 12 12:57:24 2017
%%Pages: 1
%%DocumentData: Clean7Bit
%%LanguageLevel: 2
%%BoundingBox: 0 -1 410 410
%%EndComments
%%BeginProlog
save
50 dict begin
/q { gsave } bind def
/Q { grestore } bind def
/cm { 6 array astore concat } bind def
/w { setlinewidth } bind def
/J { setlinecap } bind def
/j { setlinejoin } bind def
/M { setmiterlimit } bind def
/d { setdash } bind def
/m { moveto } bind def
/l { lineto } bind def
/c { curveto } bind def
/h { closepath } bind def
/re { exch dup neg 3 1 roll 5 3 roll moveto 0 rlineto
      0 exch rlineto 0 rlineto closepath } bind def
/S { stroke } bind def
/f { fill } bind def
/f* { eofill } bind def
/n { newpath } bind def
/W { clip } bind def
/W* { eoclip } bind def
/BT { } bind def
/ET { } bind def
/pdfmark where { pop globaldict /?pdfmark /exec load put }
    { globaldict begin /?pdfmark /pop load def /pdfmark
    /cleartomark load def end } ifelse
/BDC { mark 3 1 roll /BDC pdfmark } bind def
/EMC { mark /EMC pdfmark } bind def
/cairo_store_point { /cairo_point_y exch def /cairo_point_x exch def } def
/Tj { show currentpoint cairo_store_point } bind def
/TJ {
  {
    dup
    type /stringtype eq
    { show } { -0.001 mul 0 cairo_font_matrix dtransform rmoveto } ifelse
  } forall
  currentpoint cairo_store_point
} bind def
/cairo_selectfont { cairo_font_matrix aload pop pop pop 0 0 6 array astore
    cairo_font exch selectfont cairo_point_x cairo_point_y moveto } bind def
/Tf { pop /cairo_font exch def /cairo_font_matrix where
      { pop cairo_selectfont } if } bind def
/Td { matrix translate cairo_font_matrix matrix concatmatrix dup
      /cairo_font_matrix exch def dup 4 get exch 5 get cairo_store_point
      /cairo_font where { pop cairo_selectfont } if } bind def
/Tm { 2 copy 8 2 roll 6 array astore /cairo_font_matrix exch def
      cairo_store_point /cairo_font where { pop cairo_selectfont } if } bind def
/g { setgray } bind def
/rg { setrgbcolor } bind def
/d1 { setcachedevice } bind def
%%EndProlog
%%BeginSetup
%%EndSetup
%%Page: 1 1
%%BeginPageSetup
%%PageBoundingBox: 0 -1 410 410
%%EndPageSetup
q 0 -1 410 411 rectclip q
0.466667 0.843137 0.929412 rg
409.602 204.803 m 409.602 116.186 353.312 40.709 274.531 12.178 c 252.77
 4.299 229.285 -0.002 204.805 -0.002 c 180.316 -0.002 156.84 4.299 135.066
 12.178 c 56.289 40.709 0 116.182 0 204.803 c 0 258.881 20.973 308.073 55.223
 344.686 c 60.48 350.319 66.059 355.647 71.93 360.647 c 107.699 391.17 154.094
 409.6 204.805 409.6 c 255.508 409.6 301.91 391.17 337.68 360.647 c 343.551
 355.639 349.129 350.307 354.387 344.678 c 388.637 308.065 409.602 258.881
 409.602 204.803 c h
409.602 204.803 m f
0.941176 0.627451 0.215686 rg
291.223 383.237 m 291.223 379.026 291.16 374.854 291.043 370.713 c 288.203
 268.37 250.672 187.362 204.805 187.362 c 158.934 187.362 121.406 268.37
 118.562 370.713 c 118.449 374.85 118.387 379.026 118.387 383.237 c 118.387
 383.237 291.223 383.237 291.223 383.237 c h
291.223 383.237 m f
0.878431 0.568627 0.196078 rg
154.469 383.241 m 118.383 383.241 l 118.383 275.057 157.074 187.358 204.801
 187.358 c 177.004 187.362 154.469 275.057 154.469 383.241 c h
154.469 383.241 m f
146.758 238.112 m 119.246 246.17 99.652 260.174 87.121 280.647 c 76.871
 297.401 71.434 318.604 70.574 345.28 c 92.398 345.28 l 95.785 332.674 107.316
 323.373 120.973 323.373 c 122.488 323.373 l 120.613 338.745 l 112.938 338.936
 106.746 345.245 106.746 352.963 c 106.746 360.647 l 55.086 360.647 l 55.086
 352.963 l 55.086 319.725 61.277 293.444 74.016 272.627 c 90.625 245.495
 118.602 227.694 157.211 219.698 c 157.219 219.698 l h
146.758 238.112 m f
0.941176 0.627451 0.215686 rg
262.848 238.112 m 290.355 246.17 309.953 260.174 322.484 280.647 c 332.73
 297.401 338.168 318.604 339.031 345.28 c 317.207 345.28 l 313.82 332.674
 302.289 323.373 288.629 323.373 c 287.117 323.373 l 288.992 338.745 l 296.664
 338.936 302.855 345.245 302.855 352.963 c 302.855 360.647 l 354.516 360.647
 l 354.516 352.963 l 354.516 319.725 348.324 293.444 335.59 272.627 c 318.98
 245.495 291.004 227.694 252.395 219.698 c 252.387 219.698 l h
262.848 238.112 m f
217.992 181.877 m 223.008 144.135 223.559 107.87 245.441 82.705 c 164.164
 82.705 l 186.047 107.87 186.594 144.135 191.609 181.877 c h
217.992 181.877 m f
0.878431 0.568627 0.196078 rg
191.609 181.877 m 199.613 181.877 l 197.641 144.135 197.43 107.87 188.82
 82.705 c 164.164 82.705 l 186.051 107.87 186.602 144.135 191.609 181.877
 c h
191.609 181.877 m f
0.941176 0.627451 0.215686 rg
220.355 173.389 m 189.25 173.389 l 184.562 173.389 180.762 177.19 180.762
 181.877 c 180.762 186.565 184.562 190.366 189.25 190.366 c 220.355 190.366
 l 225.043 190.366 228.844 186.565 228.844 181.877 c 228.844 177.19 225.043
 173.389 220.355 173.389 c h
220.355 173.389 m f
0.878431 0.568627 0.196078 rg
196.941 181.877 m 196.941 186.565 200.742 190.366 205.43 190.366 c 189.25
 190.366 l 184.562 190.366 180.762 186.565 180.762 181.877 c 180.762 177.19
 184.562 173.389 189.25 173.389 c 205.43 173.389 l 200.742 173.389 196.941
 177.19 196.941 181.877 c h
196.941 181.877 m f
0.941176 0.627451 0.215686 rg
156.77 82.705 96.062 -14.902 re f
0.878431 0.568627 0.196078 rg
156.77 82.705 25.531 -14.902 re f
0.913725 0.894118 0.847059 rg
274.531 68.69 m 274.531 12.178 l 252.77 4.299 229.285 -0.002 204.805 -0.002
 c 180.316 -0.002 156.84 4.299 135.066 12.178 c 135.066 68.69 l h
274.531 68.69 m f
0.941176 0.627451 0.215686 rg
175.926 46.561 57.746 -32.605 re f
0.976471 0.717647 0.403922 rg
233.672 46.561 m 233.672 13.955 l 199.883 13.955 l 210.863 46.561 l h
233.672 46.561 m f
0.878431 0.568627 0.196078 rg
173.262 49.229 m 173.262 11.291 l 236.336 11.291 l 236.336 49.229 l h
231.008 16.62 m 178.594 16.62 l 178.594 43.897 l 231.008 43.897 l h
231.008 16.62 m f
0.968627 0.741176 0.466667 rg
225.973 284.932 m 230.973 255.791 l 204.805 269.549 l 198.293 266.131 l
 178.629 255.791 l 183.629 284.932 l 162.453 305.577 l 191.711 309.823 l
 204.805 336.338 l 214.984 315.713 l 217.891 309.823 l 247.148 305.577 l
 h
225.973 284.932 m f
0.878431 0.568627 0.196078 rg
291.223 383.237 m 291.223 379.026 291.16 374.854 291.043 370.713 c 118.562
 370.713 l 118.449 374.854 118.387 379.026 118.387 383.237 c h
291.223 383.237 m f
0.941176 0.627451 0.215686 rg
116.203 395.139 177.203 -16.434 re f
0.878431 0.568627 0.196078 rg
116.203 395.139 30.867 -16.434 re f
0.988235 0.862745 0.733333 rg
225.973 284.932 m 230.973 255.791 l 204.805 269.549 l 198.293 266.131 l
 214.984 315.713 l 217.891 309.823 l 247.148 305.577 l h
225.973 284.932 m f
0.368627 0.760784 0.827451 rg
303.535 193.67 m 310.434 179.69 l 325.859 177.448 l 314.699 166.569 l 317.332
 151.205 l 303.535 158.455 l 289.738 151.205 l 292.371 166.569 l 281.211
 177.448 l 296.637 179.69 l h
303.535 193.67 m f
124.363 120.733 m 128.629 112.092 l 138.164 110.705 l 131.266 103.983 l
 132.891 94.487 l 124.363 98.967 l 115.836 94.487 l 117.465 103.983 l 110.566
 110.705 l 120.102 112.092 l h
124.363 120.733 m f
336.738 95.526 m 341 86.885 l 350.535 85.498 l 343.637 78.772 l 345.266
 69.28 l 336.738 73.76 l 328.207 69.28 l 329.836 78.772 l 322.938 85.498
 l 332.473 86.885 l h
336.738 95.526 m f
303.191 311.674 m 307.457 303.034 l 316.988 301.651 l 310.09 294.924 l 
311.719 285.428 l 303.191 289.913 l 294.664 285.428 l 296.293 294.924 l 
289.395 301.651 l 298.926 303.034 l h
303.191 311.674 m f
73.148 230.522 m 82.992 210.573 l 105.008 207.373 l 89.078 191.846 l 92.84
 169.92 l 73.148 180.272 l 53.457 169.92 l 57.219 191.846 l 41.289 207.373
 l 63.301 210.573 l h
73.148 230.522 m f
Q Q
showpage
%%Trailer
end restore
%%EOF
