%!PS-Adobe-3.0 EPSF-3.0
%%Creator: cairo 1.14.2 (http://cairographics.org)
%%CreationDate: Wed Jul 12 12:57:24 2017
%%Pages: 1
%%DocumentData: Clean7Bit
%%LanguageLevel: 2
%%BoundingBox: 0 -1 410 410
%%EndComments
%%BeginProlog
save
50 dict begin
/q { gsave } bind def
/Q { grestore } bind def
/cm { 6 array astore concat } bind def
/w { setlinewidth } bind def
/J { setlinecap } bind def
/j { setlinejoin } bind def
/M { setmiterlimit } bind def
/d { setdash } bind def
/m { moveto } bind def
/l { lineto } bind def
/c { curveto } bind def
/h { closepath } bind def
/re { exch dup neg 3 1 roll 5 3 roll moveto 0 rlineto
      0 exch rlineto 0 rlineto closepath } bind def
/S { stroke } bind def
/f { fill } bind def
/f* { eofill } bind def
/n { newpath } bind def
/W { clip } bind def
/W* { eoclip } bind def
/BT { } bind def
/ET { } bind def
/pdfmark where { pop globaldict /?pdfmark /exec load put }
    { globaldict begin /?pdfmark /pop load def /pdfmark
    /cleartomark load def end } ifelse
/BDC { mark 3 1 roll /BDC pdfmark } bind def
/EMC { mark /EMC pdfmark } bind def
/cairo_store_point { /cairo_point_y exch def /cairo_point_x exch def } def
/Tj { show currentpoint cairo_store_point } bind def
/TJ {
  {
    dup
    type /stringtype eq
    { show } { -0.001 mul 0 cairo_font_matrix dtransform rmoveto } ifelse
  } forall
  currentpoint cairo_store_point
} bind def
/cairo_selectfont { cairo_font_matrix aload pop pop pop 0 0 6 array astore
    cairo_font exch selectfont cairo_point_x cairo_point_y moveto } bind def
/Tf { pop /cairo_font exch def /cairo_font_matrix where
      { pop cairo_selectfont } if } bind def
/Td { matrix translate cairo_font_matrix matrix concatmatrix dup
      /cairo_font_matrix exch def dup 4 get exch 5 get cairo_store_point
      /cairo_font where { pop cairo_selectfont } if } bind def
/Tm { 2 copy 8 2 roll 6 array astore /cairo_font_matrix exch def
      cairo_store_point /cairo_font where { pop cairo_selectfont } if } bind def
/g { setgray } bind def
/rg { setrgbcolor } bind def
/d1 { setcachedevice } bind def
%%EndProlog
%%BeginSetup
%%EndSetup
%%Page: 1 1
%%BeginPageSetup
%%PageBoundingBox: 0 -1 410 410
%%EndPageSetup
q 0 -1 410 411 rectclip q
0.921569 0.188235 0.356863 rg
0 204.794 m 0 91.684 91.695 0.001 204.797 0.001 c 317.906 0.001 409.602
 91.684 409.602 204.794 c 409.602 317.907 317.906 409.59 204.797 409.59 
c 91.695 409.59 0 317.907 0 204.794 c h
0 204.794 m f
263.457 8.528 m 264.113 8.387 l 264.133 8.501 264.148 8.618 264.148 8.743
 c 263.918 8.661 263.688 8.598 263.457 8.528 c h
263.457 8.528 m f
0.941176 0.627451 0.215686 rg
87.727 247.329 m 87.727 220.426 96.734 195.637 111.891 175.797 c 135.48
 144.919 148.812 107.438 148.812 68.583 c 148.812 65.336 l 262.559 65.336
 l 262.559 68.219 l 262.559 106.715 274.918 144.395 298.637 174.711 c 315.141
 195.797 324.621 222.653 323.559 251.747 c 321.594 305.559 283.223 350.18
 232.738 362.137 c 224.305 364.141 215.531 365.227 206.535 365.29 c 141 
365.751 87.727 312.762 87.727 247.329 c h
87.727 247.329 m f
0.976471 0.701961 0.372549 rg
289.527 174.708 m 306.031 195.797 315.512 222.649 314.449 251.743 c 312.488
 305.559 274.117 350.18 223.629 362.137 c 216.371 363.86 208.859 364.903
 201.172 365.2 c 202.949 365.266 204.738 365.301 206.535 365.286 c 215.535
 365.227 224.305 364.141 232.738 362.137 c 283.227 350.18 321.594 305.559
 323.559 251.743 c 324.621 222.649 315.141 195.797 298.637 174.708 c 274.918
 144.395 262.559 106.715 262.559 68.219 c 262.559 65.336 l 253.449 65.336
 l 253.449 68.219 l 253.449 106.715 265.809 144.395 289.527 174.708 c h
289.527 174.708 m f
87.727 247.329 m 87.727 220.426 96.734 195.637 111.891 175.797 c 135.48
 144.919 148.812 107.438 148.812 68.583 c 148.812 65.336 l 177.121 65.336
 l 177.426 67.251 177.676 69.211 177.879 71.235 c 186.02 151.622 125.641
 164.758 129.855 256.598 c 134.066 348.438 232.738 362.137 232.738 362.137
 c 224.305 364.141 215.531 365.227 206.535 365.29 c 141 365.751 87.727 312.762
 87.727 247.329 c h
87.727 247.329 m f
0.196078 0.666667 0.807843 rg
264.449 71.231 m 264.449 14.231 l 264.449 12.376 264.352 10.544 264.148
 8.743 c 264.148 8.618 264.129 8.501 264.113 8.387 c 263.457 8.528 l 254.039
 5.711 244.348 3.563 234.418 2.133 c 227.781 1.165 221.043 0.524 214.219
 0.215 c 213.125 0.161 212.035 0.126 210.934 0.098 c 208.898 0.028 206.848
 0.001 204.797 0.001 c 203.277 0.001 201.758 0.02 200.246 0.055 c 192.715
 0.215 185.281 0.786 177.961 1.743 c 177.27 1.833 176.566 1.93 175.863 2.036
 c 166.531 3.352 157.391 5.305 148.496 7.844 c 148.09 7.954 147.691 8.067
 147.281 8.192 c 147.262 8.247 147.254 8.309 147.254 8.368 c 147.031 10.29
 146.918 12.251 146.918 14.231 c 146.918 71.231 l h
264.449 71.231 m f
0.152941 0.611765 0.717647 rg
175.863 2.036 m 166.531 3.348 157.391 5.305 148.496 7.844 c 148.473 7.942
 148.445 8.04 148.426 8.137 c 147.922 10.278 147.547 12.461 147.297 14.684
 c 147.051 16.778 146.926 18.903 146.918 21.059 c 146.918 71.231 l 172.57
 71.231 l 172.57 21.309 l 172.57 19.329 172.668 17.376 172.871 15.446 c 
173.086 13.235 173.434 11.067 173.902 8.934 c 174.391 6.645 175.031 4.395
 175.793 2.211 c 175.812 2.153 175.84 2.098 175.863 2.036 c h
175.863 2.036 m f
0.294118 0.776471 0.886275 rg
136.941 52.403 m 137.992 49.504 140.461 47.188 143.695 46.489 c 263.746
 20.52 l 264.41 20.376 265.066 20.309 265.719 20.309 c 269.586 20.309 273.105
 22.743 274.43 26.426 c 274.57 26.805 274.68 27.211 274.773 27.626 c 275.863
 32.637 272.676 37.575 267.672 38.661 c 147.625 64.629 l 146.957 64.774 
146.301 64.84 145.652 64.84 c 141.379 64.84 137.531 61.868 136.594 57.528
 c 136.207 55.758 136.359 53.989 136.941 52.403 c h
136.941 52.403 m f
0.152941 0.611765 0.717647 rg
136.941 52.403 m 137.992 49.504 140.461 47.188 143.695 46.489 c 263.746
 20.52 l 264.41 20.376 265.066 20.309 265.719 20.309 c 269.586 20.309 273.105
 22.743 274.43 26.426 c 273.375 29.325 270.906 31.645 267.672 32.344 c 147.625
 58.309 l 146.957 58.454 146.301 58.52 145.652 58.52 c 141.785 58.52 138.262
 56.086 136.941 52.403 c h
136.941 52.403 m f
0.294118 0.776471 0.886275 rg
272.293 11.387 m 269.602 10.446 266.895 9.559 264.148 8.743 c 264.148 8.618
 264.129 8.501 264.113 8.387 c 263.457 8.528 l 254.039 5.711 244.348 3.563
 234.418 2.133 c 172.871 15.45 l 146.918 21.063 l 143.703 21.754 l 140.461
 22.458 137.992 24.774 136.941 27.672 c 136.355 29.262 136.203 31.028 136.594
 32.797 c 137.527 37.137 141.383 40.106 145.656 40.106 c 146.074 40.106 
146.492 40.079 146.918 40.016 c 147.156 39.993 147.387 39.954 147.629 39.903
 c 172.57 34.501 l 264.449 14.629 l 267.676 13.93 l 269.496 13.54 271.078
 12.633 272.293 11.387 c h
272.293 11.387 m f
0.152941 0.611765 0.717647 rg
263.457 8.528 m 254.039 5.711 244.348 3.563 234.418 2.133 c 172.871 15.45
 l 146.918 21.063 l 143.703 21.754 l 140.461 22.458 137.992 24.774 136.941
 27.672 c 138.266 31.356 141.781 33.79 145.656 33.79 c 146.074 33.79 146.492
 33.766 146.918 33.704 c 147.156 33.669 147.387 33.629 147.629 33.579 c 
172.57 28.188 l h
263.457 8.528 m f
0.294118 0.776471 0.886275 rg
214.219 0.215 m 213.129 0.161 212.035 0.126 210.934 0.098 c 208.898 0.028
 206.848 0.001 204.797 0.001 c 203.277 0.001 201.758 0.02 200.246 0.055 
c 192.715 0.215 185.281 0.782 177.961 1.743 c 177.27 1.833 176.566 1.93 
175.867 2.036 c 166.531 3.352 157.391 5.305 148.5 7.844 c 148.09 7.95 147.691
 8.067 147.281 8.192 c 146.934 8.29 146.59 8.395 146.242 8.493 c 143.543
 9.301 140.859 10.165 138.203 11.079 c 139.926 13.407 142.691 14.836 145.656
 14.836 c 146.074 14.836 146.492 14.809 146.918 14.747 c 147.043 14.731 
147.176 14.711 147.301 14.684 c 147.406 14.669 147.523 14.649 147.629 14.622
 c 173.902 8.938 l h
214.219 0.215 m f
0.152941 0.611765 0.717647 rg
175.793 2.211 m 177.961 1.743 l 177.27 1.833 176.566 1.93 175.867 2.036
 c 166.531 3.348 157.391 5.305 148.5 7.844 c 148.09 7.95 147.691 8.067 147.281
 8.192 c 146.934 8.29 146.59 8.395 146.242 8.493 c 146.578 8.477 146.918
 8.438 147.254 8.368 c 147.379 8.36 147.504 8.333 147.629 8.305 c 148.426
 8.137 l h
175.793 2.211 m f
0.301961 0.372549 0.509804 rg
195.27 135.071 m 216.098 135.071 l 225.715 135.071 233.512 127.274 233.512
 117.657 c 233.512 71.235 l 177.855 71.235 l 177.855 117.657 l 177.855 127.278
 185.652 135.071 195.27 135.071 c h
195.27 135.071 m f
1 g
215.043 71.235 m 220.105 71.235 l 220.105 205.016 l 257.996 251.883 l 254.062
 255.063 l 215.043 206.805 l h
215.043 71.235 m f
196.324 71.235 m 191.262 71.235 l 191.262 205.016 l 153.371 251.883 l 157.305
 255.063 l 196.324 206.805 l h
196.324 71.235 m f
0.976471 0.701961 0.372549 rg
293.828 244.563 m 286.023 242.383 275.797 254.583 270.992 271.809 c 266.184
 289.036 268.613 304.766 276.418 306.946 c 284.227 309.126 294.449 296.926
 299.258 279.7 c 304.062 262.473 301.633 246.743 293.828 244.563 c h
293.828 244.563 m f
Q Q
showpage
%%Trailer
end restore
%%EOF
